1,819,16.00,162.00,78.00,172.00,1,-1,-1,-1
1,820,124.00,168.00,70.00,158.00,1,-1,-1,-1
2,819,16.00,162.00,78.00,172.00,1,-1,-1,-1
2,820,124.00,168.00,70.00,158.00,1,-1,-1,-1
3,819,16.00,162.00,78.00,172.00,1,-1,-1,-1
3,820,124.00,168.00,70.00,158.00,1,-1,-1,-1
4,819,19.60,163.53,78.44,173.53,1,-1,-1,-1
4,820,129.71,180.21,66.22,148.84,1,-1,-1,-1
5,819,20.86,164.02,78.36,174.02,1,-1,-1,-1
5,820,131.42,184.11,65.24,145.92,1,-1,-1,-1
6,819,21.34,164.15,78.09,174.15,1,-1,-1,-1
6,820,131.74,185.14,65.24,145.14,1,-1,-1,-1
7,819,28.86,166.97,79.93,178.37,1,-1,-1,-1
7,820,137.75,182.46,68.97,153.56,1,-1,-1,-1
8,819,31.51,167.96,80.56,179.85,1,-1,-1,-1
8,820,139.80,181.47,70.22,156.49,1,-1,-1,-1
9,819,32.40,168.28,80.74,180.35,1,-1,-1,-1
9,820,140.46,180.99,70.66,157.61,1,-1,-1,-1
10,819,34.50,169.10,81.23,181.46,1,-1,-1,-1
10,820,157.01,178.06,72.89,164.73,1,-1,-1,-1
11,820,163.37,176.94,73.11,167.34,1,-1,-1,-1
12,820,165.92,176.48,72.61,168.29,1,-1,-1,-1
13,819,65.11,164.81,89.17,200.16,1,-1,-1,-1
13,820,178.82,174.97,77.17,179.13,1,-1,-1,-1
14,819,68.80,164.30,89.74,202.31,1,-1,-1,-1
14,820,183.60,174.39,78.80,183.16,1,-1,-1,-1
15,819,70.16,164.12,89.71,203.04,1,-1,-1,-1
15,820,185.31,174.16,79.34,184.65,1,-1,-1,-1
16,819,79.59,153.59,92.44,211.06,1,-1,-1,-1
16,820,204.85,176.67,77.77,182.52,1,-1,-1,-1
17,819,83.28,149.61,93.00,214.04,1,-1,-1,-1
17,820,212.38,177.64,76.77,181.58,1,-1,-1,-1
18,819,84.73,148.09,92.78,215.09,1,-1,-1,-1
18,820,215.18,178.00,76.03,181.15,1,-1,-1,-1
19,819,88.98,146.72,94.01,217.94,1,-1,-1,-1
19,820,224.65,176.81,76.86,184.87,1,-1,-1,-1
20,820,228.25,176.35,76.75,186.22,1,-1,-1,-1
21,820,229.57,176.16,76.32,186.68,1,-1,-1,-1
22,820,234.97,176.25,76.97,188.27,1,-1,-1,-1
25,819,78.15,134.30,119.58,271.41,1,-1,-1,-1
26,819,76.05,133.51,123.23,275.08,1,-1,-1,-1
27,819,74.77,133.24,125.47,276.36,1,-1,-1,-1
28,819,71.24,126.75,132.25,292.12,1,-1,-1,-1
29,819,69.97,124.30,134.60,298.06,1,-1,-1,-1
30,819,69.51,123.39,135.28,300.20,1,-1,-1,-1
31,819,58.65,111.52,143.87,320.14,1,-1,-1,-1
31,820,244.94,118.25,117.74,281.00,1,-1,-1,-1
32,819,54.61,107.01,146.90,327.67,1,-1,-1,-1
32,820,244.04,115.32,121.87,285.58,1,-1,-1,-1
33,819,53.09,105.31,147.81,330.42,1,-1,-1,-1
33,820,243.10,114.29,124.28,287.14,1,-1,-1,-1
34,819,55.45,95.74,149.92,337.67,1,-1,-1,-1
34,820,243.57,106.38,137.25,316.78,1,-1,-1,-1
35,819,56.69,92.12,150.06,340.28,1,-1,-1,-1
35,820,243.71,103.37,142.27,328.09,1,-1,-1,-1
36,819,57.46,90.82,149.49,341.05,1,-1,-1,-1
36,820,243.65,102.29,144.26,332.42,1,-1,-1,-1
37,819,64.35,90.45,156.76,360.58,1,-1,-1,-1
37,820,255.51,99.46,150.22,349.10,1,-1,-1,-1
38,819,67.34,90.36,158.77,367.89,1,-1,-1,-1
38,820,260.41,98.44,151.82,355.43,1,-1,-1,-1
39,819,68.82,90.45,158.84,370.52,1,-1,-1,-1
39,820,262.55,98.16,151.78,357.65,1,-1,-1,-1
40,819,68.12,73.78,162.57,381.61,1,-1,-1,-1
40,820,267.29,91.77,159.04,371.03,1,-1,-1,-1
41,819,68.11,67.43,163.38,385.70,1,-1,-1,-1
41,820,268.65,89.37,162.58,376.02,1,-1,-1,-1
42,819,68.34,65.09,163.10,387.03,1,-1,-1,-1
42,820,268.73,88.56,164.55,377.68,1,-1,-1,-1
43,819,58.73,69.52,160.17,378.20,1,-1,-1,-1
43,820,274.91,80.62,162.99,370.28,1,-1,-1,-1
44,819,54.80,71.42,159.31,374.48,1,-1,-1,-1
44,820,276.81,77.66,163.04,367.05,1,-1,-1,-1
45,819,53.16,72.24,159.28,372.91,1,-1,-1,-1
45,820,277.05,76.66,163.70,365.60,1,-1,-1,-1
46,819,46.19,59.49,165.38,386.64,1,-1,-1,-1
46,820,279.82,73.37,165.81,370.30,1,-1,-1,-1
47,819,43.53,54.76,167.77,391.71,1,-1,-1,-1
48,819,42.51,53.05,168.74,393.50,1,-1,-1,-1
49,819,41.83,43.38,174.97,405.77,1,-1,-1,-1
49,820,290.28,46.44,167.49,364.80,1,-1,-1,-1
50,819,41.36,39.80,177.80,410.31,1,-1,-1,-1
50,820,289.93,43.27,170.50,363.76,1,-1,-1,-1
51,819,41.00,38.56,179.28,411.88,1,-1,-1,-1
51,820,288.93,42.18,173.31,363.44,1,-1,-1,-1
52,819,35.89,21.27,188.51,433.17,1,-1,-1,-1
52,820,288.13,31.37,190.84,404.16,1,-1,-1,-1
53,819,34.00,14.80,191.94,441.12,1,-1,-1,-1
53,820,288.37,27.40,196.19,419.09,1,-1,-1,-1
54,819,33.32,12.46,193.16,444.00,1,-1,-1,-1
54,820,288.79,26.02,197.39,424.87,1,-1,-1,-1
55,819,32.89,6.55,193.99,446.17,1,-1,-1,-1
55,820,299.43,10.19,204.98,441.05,1,-1,-1,-1
56,819,32.81,4.45,194.16,446.78,1,-1,-1,-1
56,820,303.47,4.21,207.87,447.10,1,-1,-1,-1
57,819,32.86,3.83,194.08,446.80,1,-1,-1,-1
57,820,304.95,2.07,208.90,449.18,1,-1,-1,-1
58,819,29.46,6.38,196.98,449.23,1,-1,-1,-1
58,820,334.94,11.81,220.10,461.35,1,-1,-1,-1
59,819,27.71,7.50,199.00,449.99,1,-1,-1,-1
59,820,344.91,15.69,227.23,465.82,1,-1,-1,-1
60,819,26.66,8.06,200.57,450.11,1,-1,-1,-1
60,820,347.32,17.36,232.44,467.27,1,-1,-1,-1
61,819,26.36,9.71,198.37,444.75,1,-1,-1,-1
61,820,343.34,9.03,238.49,476.65,1,-1,-1,-1
62,819,26.24,10.45,197.55,442.55,1,-1,-1,-1
62,820,341.28,5.92,241.43,480.04,1,-1,-1,-1
63,819,26.20,10.81,197.29,441.63,1,-1,-1,-1
63,820,339.96,4.84,243.08,481.08,1,-1,-1,-1
64,819,21.07,4.42,204.80,457.03,1,-1,-1,-1
64,820,339.92,1.93,252.78,502.10,1,-1,-1,-1
65,819,19.00,2.07,207.94,462.75,1,-1,-1,-1
65,820,340.07,0.90,255.88,509.92,1,-1,-1,-1
66,819,18.10,1.25,209.40,464.82,1,-1,-1,-1
66,820,340.21,0.61,256.51,512.69,1,-1,-1,-1
67,819,19.76,2.34,206.00,457.62,1,-1,-1,-1
67,820,338.11,-0.69,258.09,516.07,1,-1,-1,-1
68,819,20.49,2.84,204.54,454.70,1,-1,-1,-1
68,820,337.23,-1.10,258.51,517.11,1,-1,-1,-1
69,819,20.84,3.09,203.89,453.52,1,-1,-1,-1
69,820,336.83,-1.16,258.49,517.26,1,-1,-1,-1
70,819,5.54,4.57,218.67,487.35,1,-1,-1,-1
70,820,341.59,-1.11,257.57,515.77,1,-1,-1,-1
70,821,162.00,6.00,112.00,412.00,1,-1,-1,-1
71,819,0.02,5.12,223.88,499.83,1,-1,-1,-1
71,820,343.39,-1.01,257.02,514.99,1,-1,-1,-1
71,821,162.00,6.00,112.00,412.00,1,-1,-1,-1
72,819,-1.97,5.39,225.65,504.57,1,-1,-1,-1
72,820,344.04,-0.90,256.64,514.51,1,-1,-1,-1
72,821,162.00,6.00,112.00,412.00,1,-1,-1,-1
73,819,13.92,2.93,212.62,477.59,1,-1,-1,-1
73,820,344.84,1.83,252.53,511.54,1,-1,-1,-1
73,821,160.41,2.95,113.65,418.11,1,-1,-1,-1
74,819,20.53,2.01,206.92,466.68,1,-1,-1,-1
74,820,345.75,2.92,249.52,510.26,1,-1,-1,-1
74,821,159.90,1.97,114.18,420.06,1,-1,-1,-1
75,819,23.20,1.70,204.34,462.59,1,-1,-1,-1
75,820,346.66,3.37,247.09,509.66,1,-1,-1,-1
75,821,159.76,1.69,114.32,420.62,1,-1,-1,-1
76,819,24.65,4.27,202.47,459.71,1,-1,-1,-1
76,820,328.50,24.68,219.70,453.92,1,-1,-1,-1
76,821,159.31,0.82,114.79,422.35,1,-1,-1,-1
77,819,25.34,5.27,201.44,458.62,1,-1,-1,-1
77,820,321.38,33.06,208.76,431.96,1,-1,-1,-1
78,819,25.73,5.66,200.77,458.20,1,-1,-1,-1
78,820,319.03,35.89,204.89,424.52,1,-1,-1,-1
79,819,26.01,5.44,200.74,458.14,1,-1,-1,-1
79,820,320.59,43.60,198.96,411.22,1,-1,-1,-1
80,820,321.12,46.29,197.20,406.68,1,-1,-1,-1
81,820,321.24,47.13,196.94,405.33,1,-1,-1,-1
82,819,24.83,16.51,195.50,442.02,1,-1,-1,-1
82,820,323.75,32.47,200.20,415.89,1,-1,-1,-1
83,819,24.02,17.83,196.19,440.13,1,-1,-1,-1
83,820,325.22,27.05,200.43,419.92,1,-1,-1,-1
84,819,23.36,18.26,197.22,439.50,1,-1,-1,-1
84,820,326.25,24.99,199.69,421.60,1,-1,-1,-1
85,819,24.39,6.42,201.72,451.29,1,-1,-1,-1
85,820,331.35,36.16,200.67,417.04,1,-1,-1,-1
86,819,24.97,2.01,202.99,455.70,1,-1,-1,-1
86,820,332.47,40.38,202.74,415.43,1,-1,-1,-1
87,819,25.37,0.34,203.12,457.39,1,-1,-1,-1
87,820,332.11,41.91,205.06,414.94,1,-1,-1,-1
88,819,22.33,7.66,201.60,451.42,1,-1,-1,-1
88,820,329.99,31.80,215.21,436.11,1,-1,-1,-1
89,819,20.89,10.48,201.58,449.13,1,-1,-1,-1
89,820,329.28,28.05,218.79,443.95,1,-1,-1,-1
90,819,20.10,11.54,202.08,448.27,1,-1,-1,-1
90,820,329.07,26.59,220.02,446.98,1,-1,-1,-1
91,819,24.59,10.61,204.63,449.29,1,-1,-1,-1
91,820,326.22,29.97,219.42,445.48,1,-1,-1,-1
92,819,25.74,10.25,206.68,449.68,1,-1,-1,-1
92,820,325.10,31.28,219.24,444.86,1,-1,-1,-1
93,819,25.67,10.11,208.42,449.84,1,-1,-1,-1
93,820,324.64,31.78,219.22,444.59,1,-1,-1,-1
94,819,13.90,4.77,227.25,486.92,1,-1,-1,-1
94,820,325.02,45.14,212.84,427.32,1,-1,-1,-1
95,819,9.08,2.80,235.14,500.58,1,-1,-1,-1
95,820,324.65,50.24,211.43,420.69,1,-1,-1,-1
96,819,6.79,2.04,238.99,505.84,1,-1,-1,-1
96,820,324.01,52.06,211.94,418.30,1,-1,-1,-1
97,819,15.70,0.47,227.38,481.71,1,-1,-1,-1
97,820,318.21,50.00,207.31,406.82,1,-1,-1,-1
98,819,19.29,-0.10,222.60,471.99,1,-1,-1,-1
98,820,315.72,49.13,206.23,402.61,1,-1,-1,-1
99,819,20.67,-0.29,220.70,468.33,1,-1,-1,-1
99,820,314.55,48.76,206.45,401.17,1,-1,-1,-1
100,819,91.29,10.28,197.77,435.11,1,-1,-1,-1
100,820,316.19,49.92,205.17,398.08,1,-1,-1,-1
101,819,119.94,14.36,185.61,422.39,1,-1,-1,-1
101,820,316.75,50.31,204.91,397.05,1,-1,-1,-1
102,819,131.55,15.79,177.97,417.98,1,-1,-1,-1
102,820,316.90,50.42,205.02,396.78,1,-1,-1,-1
103,819,138.12,24.35,169.83,411.16,1,-1,-1,-1
103,820,321.88,53.08,201.93,391.46,1,-1,-1,-1
104,819,141.50,27.46,164.17,408.83,1,-1,-1,-1
104,820,323.84,54.05,200.66,389.57,1,-1,-1,-1
105,819,143.65,28.52,159.66,408.16,1,-1,-1,-1
105,820,324.64,54.36,200.08,388.97,1,-1,-1,-1
106,819,145.21,11.43,159.97,424.14,1,-1,-1,-1
106,820,332.12,27.83,230.74,452.72,1,-1,-1,-1
107,819,147.29,5.12,156.76,430.10,1,-1,-1,-1
107,820,335.49,18.35,240.33,475.49,1,-1,-1,-1
108,819,149.30,2.72,152.65,432.44,1,-1,-1,-1
108,820,337.36,14.52,243.12,484.70,1,-1,-1,-1
109,819,154.10,7.12,145.26,424.13,1,-1,-1,-1
109,820,324.31,20.82,234.30,468.82,1,-1,-1,-1
110,819,156.85,8.84,140.19,420.98,1,-1,-1,-1
110,820,319.28,23.47,230.21,462.16,1,-1,-1,-1
111,819,158.78,9.51,136.20,419.85,1,-1,-1,-1
111,820,317.59,24.54,228.20,459.49,1,-1,-1,-1
112,819,162.59,9.76,132.25,418.16,1,-1,-1,-1
112,820,319.38,25.00,223.86,450.46,1,-1,-1,-1
113,819,164.77,9.87,129.00,417.58,1,-1,-1,-1
113,820,320.05,25.24,222.21,446.88,1,-1,-1,-1
114,819,166.28,9.91,126.17,417.41,1,-1,-1,-1
114,820,320.28,25.37,221.63,445.47,1,-1,-1,-1
115,819,168.23,4.63,124.80,417.40,1,-1,-1,-1
115,820,320.09,24.41,222.20,446.61,1,-1,-1,-1
116,819,169.22,2.66,123.57,417.44,1,-1,-1,-1
117,819,169.83,1.94,122.47,417.49,1,-1,-1,-1
118,819,169.28,8.32,119.46,414.90,1,-1,-1,-1
118,820,321.79,43.18,207.90,411.08,1,-1,-1,-1
118,822,36.00,10.00,176.00,458.00,1,-1,-1,-1
119,819,169.59,10.76,117.17,413.96,1,-1,-1,-1
119,820,320.82,45.50,208.53,406.73,1,-1,-1,-1
119,822,36.00,10.00,176.00,458.00,1,-1,-1,-1
120,819,170.18,11.67,115.25,413.64,1,-1,-1,-1
120,820,319.76,46.24,210.23,405.33,1,-1,-1,-1
120,822,36.00,10.00,176.00,458.00,1,-1,-1,-1
121,819,175.37,4.05,116.43,421.51,1,-1,-1,-1
121,820,319.19,39.78,217.94,423.65,1,-1,-1,-1
121,822,36.00,10.00,176.00,458.00,1,-1,-1,-1
122,819,177.54,1.20,116.32,424.48,1,-1,-1,-1
122,820,319.46,37.39,219.83,430.42,1,-1,-1,-1
123,819,178.56,0.13,115.79,425.61,1,-1,-1,-1
123,820,319.96,36.45,219.75,433.03,1,-1,-1,-1
124,819,180.03,-0.70,115.91,426.06,1,-1,-1,-1
124,820,333.38,25.57,232.76,460.33,1,-1,-1,-1
125,820,338.62,21.51,237.14,470.49,1,-1,-1,-1
126,820,340.82,19.96,238.39,474.34,1,-1,-1,-1
127,820,326.13,31.15,228.08,452.22,1,-1,-1,-1
128,820,320.12,35.60,224.31,443.35,1,-1,-1,-1
129,820,317.71,37.25,223.25,440.02,1,-1,-1,-1
130,820,316.29,39.18,222.62,436.11,1,-1,-1,-1
131,820,315.43,39.89,223.07,434.63,1,-1,-1,-1
132,820,314.82,40.14,223.88,434.09,1,-1,-1,-1
133,820,311.92,45.52,218.95,420.64,1,-1,-1,-1
134,820,310.35,47.53,218.10,415.57,1,-1,-1,-1
135,820,309.33,48.23,218.76,413.78,1,-1,-1,-1
136,819,68.53,19.37,135.96,443.74,1,-1,-1,-1
136,820,309.19,60.45,207.97,391.86,1,-1,-1,-1
136,822,132.81,27.93,149.72,402.22,1,-1,-1,-1
137,819,59.30,20.13,147.19,444.30,1,-1,-1,-1
137,820,308.98,65.00,204.34,383.70,1,-1,-1,-1
137,822,136.45,28.27,145.63,401.16,1,-1,-1,-1
138,819,53.84,20.39,155.64,444.50,1,-1,-1,-1
138,820,308.73,66.55,203.50,380.94,1,-1,-1,-1
138,822,138.62,28.41,142.55,400.74,1,-1,-1,-1
139,819,118.05,23.10,142.82,422.10,1,-1,-1,-1
139,820,307.91,67.01,203.44,380.12,1,-1,-1,-1
139,822,76.89,17.64,158.30,434.39,1,-1,-1,-1
140,819,143.98,24.08,135.94,413.44,1,-1,-1,-1
140,820,307.52,67.09,203.71,379.99,1,-1,-1,-1
140,822,53.47,13.72,165.98,446.63,1,-1,-1,-1
141,819,154.21,24.39,131.68,410.35,1,-1,-1,-1
141,820,307.30,67.03,204.08,380.10,1,-1,-1,-1
141,822,43.68,12.21,170.48,451.35,1,-1,-1,-1
142,819,163.54,23.13,128.03,407.97,1,-1,-1,-1
142,820,323.87,40.26,233.69,438.96,1,-1,-1,-1
142,822,38.59,15.61,170.06,447.78,1,-1,-1,-1
143,819,167.50,22.62,125.32,407.18,1,-1,-1,-1
143,820,330.43,30.70,243.00,459.99,1,-1,-1,-1
143,822,36.72,16.96,170.28,446.25,1,-1,-1,-1
144,819,169.37,22.41,123.13,406.98,1,-1,-1,-1
144,820,333.56,26.83,245.75,468.48,1,-1,-1,-1
144,822,36.05,17.50,170.72,445.57,1,-1,-1,-1
145,819,172.51,20.97,121.08,406.99,1,-1,-1,-1
145,820,319.61,24.10,238.31,457.44,1,-1,-1,-1
145,822,34.14,11.12,174.62,457.11,1,-1,-1,-1
146,819,174.03,20.42,119.29,407.07,1,-1,-1,-1
146,820,314.43,23.15,234.41,452.81,1,-1,-1,-1
146,822,33.70,8.73,175.79,461.37,1,-1,-1,-1
147,819,174.90,20.20,117.73,407.17,1,-1,-1,-1
147,820,312.84,22.88,232.09,450.90,1,-1,-1,-1
147,822,33.85,7.86,175.97,462.89,1,-1,-1,-1
148,819,174.33,24.09,116.01,405.93,1,-1,-1,-1
148,820,329.67,7.10,252.75,490.77,1,-1,-1,-1
148,822,38.79,14.13,170.50,446.28,1,-1,-1,-1
149,819,174.33,25.55,114.69,405.53,1,-1,-1,-1
149,820,335.86,1.28,260.46,505.49,1,-1,-1,-1
149,822,40.70,16.60,168.74,439.74,1,-1,-1,-1
150,819,174.54,26.07,113.58,405.42,1,-1,-1,-1
150,820,338.25,-0.90,263.48,511.11,1,-1,-1,-1
150,822,41.31,17.52,168.46,437.29,1,-1,-1,-1
151,819,172.24,15.64,113.77,409.41,1,-1,-1,-1
151,820,338.10,-1.61,267.83,513.02,1,-1,-1,-1
151,822,42.81,16.54,168.65,435.05,1,-1,-1,-1
152,819,171.55,11.71,113.36,410.93,1,-1,-1,-1
152,820,337.10,-1.75,271.12,513.48,1,-1,-1,-1
152,822,43.18,16.17,169.28,434.22,1,-1,-1,-1
153,819,171.45,10.25,112.78,411.53,1,-1,-1,-1
153,820,335.85,-1.68,273.84,513.41,1,-1,-1,-1
153,822,43.12,16.03,170.01,433.92,1,-1,-1,-1
154,819,168.80,9.74,112.41,407.81,1,-1,-1,-1
154,820,335.67,3.68,268.82,507.93,1,-1,-1,-1
154,822,40.87,9.35,176.20,448.41,1,-1,-1,-1
155,819,167.59,9.59,112.60,406.41,1,-1,-1,-1
155,820,336.07,5.85,265.70,505.60,1,-1,-1,-1
155,822,39.91,6.87,178.78,453.81,1,-1,-1,-1
156,819,166.95,9.56,112.99,405.91,1,-1,-1,-1
156,820,336.66,6.74,263.45,504.55,1,-1,-1,-1
156,822,39.48,5.95,180.00,455.84,1,-1,-1,-1
157,819,167.39,8.78,112.80,405.24,1,-1,-1,-1
157,820,334.05,7.13,258.90,500.07,1,-1,-1,-1
157,822,37.42,1.70,183.00,461.80,1,-1,-1,-1
158,820,333.59,7.33,255.96,498.23,1,-1,-1,-1
158,822,36.50,0.12,184.46,464.00,1,-1,-1,-1
159,820,333.92,7.45,253.76,497.45,1,-1,-1,-1
159,822,36.04,-0.43,185.29,464.76,1,-1,-1,-1
160,819,161.91,6.05,115.49,419.88,1,-1,-1,-1
160,820,307.60,2.25,245.02,489.15,1,-1,-1,-1
160,822,35.64,4.67,182.15,455.76,1,-1,-1,-1
161,819,161.76,5.75,114.80,421.62,1,-1,-1,-1
161,820,298.77,0.31,239.35,485.93,1,-1,-1,-1
161,822,35.43,6.67,181.14,452.24,1,-1,-1,-1
162,819,162.01,5.65,113.96,422.21,1,-1,-1,-1
162,820,296.66,-0.36,235.08,484.71,1,-1,-1,-1
162,822,35.27,7.44,180.96,450.89,1,-1,-1,-1
163,819,166.26,1.70,114.56,427.67,1,-1,-1,-1
163,820,296.71,-0.56,232.10,485.57,1,-1,-1,-1
163,822,30.00,5.09,184.75,458.32,1,-1,-1,-1
164,819,168.09,0.23,114.34,429.69,1,-1,-1,-1
164,820,297.77,-0.59,229.18,485.89,1,-1,-1,-1
164,822,27.83,4.22,186.61,461.08,1,-1,-1,-1
165,819,168.98,-0.30,113.85,430.41,1,-1,-1,-1
165,820,299.12,-0.56,226.45,486.01,1,-1,-1,-1
165,822,26.86,3.91,187.69,462.10,1,-1,-1,-1
166,819,170.99,-0.45,112.91,430.63,1,-1,-1,-1
166,820,297.77,-0.50,222.78,480.76,1,-1,-1,-1
166,822,25.67,3.43,188.17,463.29,1,-1,-1,-1
167,819,172.00,-0.47,112.02,430.66,1,-1,-1,-1
167,820,297.70,-0.44,220.76,478.77,1,-1,-1,-1
168,819,172.60,-0.45,111.22,430.62,1,-1,-1,-1
168,820,298.06,-0.39,219.43,478.04,1,-1,-1,-1
169,819,171.15,-0.41,111.58,431.88,1,-1,-1,-1
169,820,297.20,-0.35,219.80,481.77,1,-1,-1,-1
170,819,170.58,-0.36,111.73,432.32,1,-1,-1,-1
170,820,297.32,-0.31,219.23,483.19,1,-1,-1,-1
171,819,170.35,-0.32,111.79,432.45,1,-1,-1,-1
171,820,297.77,-0.27,218.37,483.73,1,-1,-1,-1
172,819,167.56,1.03,111.91,436.41,1,-1,-1,-1
172,820,300.01,-0.24,218.03,483.94,1,-1,-1,-1
173,819,166.75,1.56,111.47,437.88,1,-1,-1,-1
173,820,301.03,-0.21,217.67,484.01,1,-1,-1,-1
174,819,166.66,1.77,110.87,438.39,1,-1,-1,-1
174,820,301.57,-0.19,217.33,484.03,1,-1,-1,-1
175,819,171.17,8.45,108.16,427.99,1,-1,-1,-1
175,820,308.71,-0.16,215.30,480.08,1,-1,-1,-1
176,819,172.92,11.00,107.08,423.98,1,-1,-1,-1
176,820,311.52,-0.14,214.40,478.58,1,-1,-1,-1
177,819,173.59,11.93,106.64,422.49,1,-1,-1,-1
177,820,312.63,-0.13,213.95,478.03,1,-1,-1,-1
178,819,180.12,18.88,108.48,417.98,1,-1,-1,-1
178,820,306.22,-0.11,214.19,479.17,1,-1,-1,-1
179,819,181.79,21.46,110.72,416.31,1,-1,-1,-1
179,820,303.87,-0.10,214.14,479.61,1,-1,-1,-1
180,819,181.65,22.36,112.99,415.72,1,-1,-1,-1
180,820,303.07,-0.09,214.00,479.79,1,-1,-1,-1
181,819,177.68,14.68,116.27,422.18,1,-1,-1,-1
181,820,302.85,-0.08,215.15,483.83,1,-1,-1,-1
182,819,175.74,11.76,118.34,424.63,1,-1,-1,-1
182,820,302.97,-0.07,215.25,485.36,1,-1,-1,-1
183,819,174.60,10.64,119.86,425.56,1,-1,-1,-1
183,820,303.19,-0.06,214.97,485.92,1,-1,-1,-1
184,819,169.79,3.61,119.90,431.19,1,-1,-1,-1
184,820,307.08,-0.05,212.58,480.85,1,-1,-1,-1
185,819,168.39,0.97,119.08,433.30,1,-1,-1,-1
185,820,308.61,-0.05,211.59,478.90,1,-1,-1,-1
186,819,168.23,-0.01,118.02,434.08,1,-1,-1,-1
186,820,309.22,-0.04,211.16,478.18,1,-1,-1,-1
187,819,168.70,2.29,116.56,434.34,1,-1,-1,-1
187,820,325.89,-0.04,220.47,499.11,1,-1,-1,-1
188,819,169.30,3.20,115.19,434.40,1,-1,-1,-1
188,820,332.06,-0.03,223.97,506.88,1,-1,-1,-1
189,819,169.91,3.57,113.93,434.39,1,-1,-1,-1
189,820,334.35,-0.03,225.32,509.82,1,-1,-1,-1
190,819,169.73,5.04,112.98,434.36,1,-1,-1,-1
190,820,323.67,11.76,212.06,479.41,1,-1,-1,-1
191,819,169.92,5.61,112.11,434.33,1,-1,-1,-1
191,820,319.33,16.35,206.92,467.43,1,-1,-1,-1
192,819,170.23,5.83,111.33,434.29,1,-1,-1,-1
192,820,317.69,17.97,205.15,463.12,1,-1,-1,-1
193,819,170.57,4.60,110.62,434.26,1,-1,-1,-1
193,820,317.09,17.17,204.48,460.28,1,-1,-1,-1
194,819,170.89,4.14,109.98,434.23,1,-1,-1,-1
194,820,316.70,16.82,204.58,459.31,1,-1,-1,-1
195,819,171.19,3.97,109.40,434.20,1,-1,-1,-1
195,820,316.41,16.64,204.95,459.04,1,-1,-1,-1
196,819,170.89,10.52,108.69,428.89,1,-1,-1,-1
196,820,312.80,5.89,209.45,469.66,1,-1,-1,-1
197,819,170.63,13.01,108.75,426.87,1,-1,-1,-1
197,820,311.52,1.87,211.01,473.66,1,-1,-1,-1
198,819,170.38,13.92,109.08,426.13,1,-1,-1,-1
198,820,311.11,0.36,211.50,475.20,1,-1,-1,-1
199,819,167.55,4.95,110.74,432.49,1,-1,-1,-1
199,820,311.02,6.41,210.27,471.83,1,-1,-1,-1
200,819,166.48,1.58,111.38,434.89,1,-1,-1,-1
200,820,310.93,8.74,209.94,470.55,1,-1,-1,-1
201,819,166.09,0.31,111.63,435.79,1,-1,-1,-1
201,820,310.85,9.62,209.94,470.07,1,-1,-1,-1
202,819,165.50,2.49,110.00,428.20,1,-1,-1,-1
202,820,307.62,3.33,215.06,480.49,1,-1,-1,-1
202,823,38.00,0.00,178.00,464.00,1,-1,-1,-1
203,819,165.22,3.36,109.54,425.29,1,-1,-1,-1
203,820,306.29,0.97,217.23,484.39,1,-1,-1,-1
203,823,38.00,0.00,178.00,464.00,1,-1,-1,-1
204,819,165.05,3.69,109.53,424.22,1,-1,-1,-1
204,820,305.70,0.09,218.27,485.85,1,-1,-1,-1
204,823,38.00,0.00,178.00,464.00,1,-1,-1,-1
205,819,163.10,9.13,105.39,407.94,1,-1,-1,-1
205,820,302.77,-0.22,217.52,482.41,1,-1,-1,-1
205,823,46.59,3.05,171.50,447.21,1,-1,-1,-1
206,819,162.37,11.20,103.86,401.80,1,-1,-1,-1
206,820,301.47,-0.30,217.63,481.06,1,-1,-1,-1
206,823,49.36,4.03,169.37,441.84,1,-1,-1,-1
207,819,162.10,11.94,103.35,399.65,1,-1,-1,-1
207,820,300.83,-0.31,218.04,480.53,1,-1,-1,-1
207,823,50.14,4.29,168.74,440.39,1,-1,-1,-1
208,819,161.56,12.58,102.62,396.86,1,-1,-1,-1
208,820,302.39,16.88,210.68,460.49,1,-1,-1,-1
208,823,47.17,5.75,166.35,434.50,1,-1,-1,-1
209,820,302.59,23.46,208.72,452.83,1,-1,-1,-1
209,823,46.05,6.22,165.51,432.66,1,-1,-1,-1
210,820,302.28,25.82,208.86,450.10,1,-1,-1,-1
210,823,45.65,6.34,165.20,432.22,1,-1,-1,-1
211,820,302.09,27.84,207.67,447.56,1,-1,-1,-1
211,823,46.27,7.10,163.78,428.49,1,-1,-1,-1
214,819,169.64,48.36,97.58,359.08,1,-1,-1,-1
214,820,295.62,16.14,211.32,456.06,1,-1,-1,-1
215,819,168.45,50.49,100.79,357.00,1,-1,-1,-1
215,820,295.00,14.76,211.54,457.09,1,-1,-1,-1
216,819,167.14,51.21,103.67,356.27,1,-1,-1,-1
216,820,294.86,14.28,211.49,457.45,1,-1,-1,-1
217,819,176.08,43.32,105.99,360.18,1,-1,-1,-1
217,820,291.68,4.85,213.81,465.54,1,-1,-1,-1
218,819,179.07,40.30,107.45,361.75,1,-1,-1,-1
218,820,290.88,1.32,213.96,468.59,1,-1,-1,-1
219,819,179.88,39.11,108.52,362.46,1,-1,-1,-1
219,820,290.93,0.01,213.38,469.73,1,-1,-1,-1
220,819,184.63,66.54,102.55,338.89,1,-1,-1,-1
220,820,289.90,-0.44,211.38,472.78,1,-1,-1,-1
221,819,186.08,76.95,100.79,330.03,1,-1,-1,-1
221,820,290.42,-0.56,208.86,473.90,1,-1,-1,-1
222,819,186.29,80.52,100.68,327.03,1,-1,-1,-1
222,820,291.44,-0.56,206.35,474.30,1,-1,-1,-1
223,819,188.34,85.04,99.21,322.26,1,-1,-1,-1
223,820,303.31,17.92,194.35,453.33,1,-1,-1,-1
224,820,308.61,25.05,188.36,445.25,1,-1,-1,-1
225,820,311.19,27.62,184.88,442.35,1,-1,-1,-1
226,820,308.11,43.17,174.31,414.68,1,-1,-1,-1
227,820,306.67,48.94,170.85,404.36,1,-1,-1,-1
228,820,305.92,50.87,170.15,400.87,1,-1,-1,-1
229,819,54.86,31.62,143.03,437.53,1,-1,-1,-1
229,820,314.92,78.41,158.18,374.19,1,-1,-1,-1
230,819,43.47,28.41,152.01,444.57,1,-1,-1,-1
230,820,318.42,88.45,153.56,364.60,1,-1,-1,-1
231,819,37.96,27.18,158.30,447.10,1,-1,-1,-1
231,820,319.76,91.74,151.75,361.52,1,-1,-1,-1
232,819,33.33,29.35,159.94,437.58,1,-1,-1,-1
232,820,324.66,103.52,145.01,348.51,1,-1,-1,-1
232,824,250.00,140.00,86.00,194.00,1,-1,-1,-1
233,819,30.85,30.31,162.64,433.54,1,-1,-1,-1
233,820,326.71,107.50,142.05,344.14,1,-1,-1,-1
233,824,250.00,140.00,86.00,194.00,1,-1,-1,-1
234,819,29.23,30.74,165.54,431.80,1,-1,-1,-1
234,820,327.69,108.66,140.50,342.88,1,-1,-1,-1
234,824,250.00,140.00,86.00,194.00,1,-1,-1,-1
235,819,30.01,28.36,169.56,432.26,1,-1,-1,-1
235,820,344.04,110.18,139.02,338.66,1,-1,-1,-1
235,824,250.00,140.00,86.00,194.00,1,-1,-1,-1
236,819,29.64,27.51,172.92,432.28,1,-1,-1,-1
236,820,349.90,110.48,138.73,337.41,1,-1,-1,-1
237,819,28.92,27.25,175.79,432.13,1,-1,-1,-1
237,820,351.84,110.39,138.85,337.21,1,-1,-1,-1
238,819,34.09,25.90,182.12,437.17,1,-1,-1,-1
238,820,367.09,119.56,136.44,331.99,1,-1,-1,-1
239,819,35.12,25.44,186.68,438.97,1,-1,-1,-1
239,820,372.66,122.77,135.50,330.28,1,-1,-1,-1
240,819,34.71,25.32,190.31,439.52,1,-1,-1,-1
240,820,374.58,123.78,135.11,329.85,1,-1,-1,-1
241,819,42.95,22.71,192.15,442.23,1,-1,-1,-1
241,820,411.53,118.63,133.03,327.19,1,-1,-1,-1
241,824,299.52,138.04,79.21,180.26,1,-1,-1,-1
242,819,46.01,21.76,193.14,443.14,1,-1,-1,-1
242,820,425.32,116.55,131.81,326.38,1,-1,-1,-1
242,824,302.10,137.95,78.29,179.63,1,-1,-1,-1
243,819,47.09,21.45,193.77,443.38,1,-1,-1,-1
243,820,430.34,115.67,130.94,326.23,1,-1,-1,-1
243,824,303.19,137.92,77.60,179.41,1,-1,-1,-1
244,819,46.17,20.20,194.91,445.96,1,-1,-1,-1
244,820,435.08,113.92,132.26,334.30,1,-1,-1,-1
244,824,307.89,137.73,77.03,178.09,1,-1,-1,-1
245,820,437.12,113.21,131.72,337.38,1,-1,-1,-1
246,820,438.05,112.88,130.61,338.63,1,-1,-1,-1
247,819,90.70,24.86,189.00,438.12,1,-1,-1,-1
247,820,433.38,69.14,145.00,376.12,1,-1,-1,-1
248,819,97.11,25.50,186.42,437.01,1,-1,-1,-1
248,820,431.70,53.13,150.22,389.84,1,-1,-1,-1
249,819,99.79,25.71,184.48,436.64,1,-1,-1,-1
249,820,430.79,46.81,152.24,395.26,1,-1,-1,-1
250,819,106.33,17.87,185.65,443.09,1,-1,-1,-1
250,820,437.04,35.47,152.31,401.10,1,-1,-1,-1
251,819,109.06,14.93,185.29,445.49,1,-1,-1,-1
251,820,439.90,31.25,151.14,403.22,1,-1,-1,-1
252,819,110.30,13.86,184.45,446.34,1,-1,-1,-1
252,820,441.37,29.83,149.59,403.88,1,-1,-1,-1
253,819,129.39,58.31,172.97,416.30,1,-1,-1,-1
253,820,445.01,24.75,150.99,407.71,1,-1,-1,-1
254,819,136.35,75.56,168.92,404.61,1,-1,-1,-1
255,819,138.47,81.61,167.90,400.48,1,-1,-1,-1
256,819,157.66,68.87,170.65,404.46,1,-1,-1,-1
257,819,164.26,64.01,172.28,406.03,1,-1,-1,-1
258,819,166.21,62.07,173.45,406.71,1,-1,-1,-1
259,819,166.57,62.59,168.83,400.40,1,-1,-1,-1
259,824,355.55,143.92,71.29,167.91,1,-1,-1,-1
259,825,22.00,138.00,94.00,170.00,1,-1,-1,-1
259,826,396.00,140.00,66.00,200.00,1,-1,-1,-1
260,819,166.92,62.71,166.13,398.09,1,-1,-1,-1
260,824,356.93,144.08,70.29,167.73,1,-1,-1,-1
260,825,22.00,138.00,94.00,170.00,1,-1,-1,-1
260,826,396.00,140.00,66.00,200.00,1,-1,-1,-1
261,819,167.31,62.70,164.26,397.31,1,-1,-1,-1
261,824,357.56,144.13,69.58,167.67,1,-1,-1,-1
261,825,22.00,138.00,94.00,170.00,1,-1,-1,-1
261,826,396.00,140.00,66.00,200.00,1,-1,-1,-1
262,819,149.64,78.60,157.64,379.81,1,-1,-1,-1
262,820,437.18,14.57,157.18,440.08,1,-1,-1,-1
262,824,360.36,144.41,69.31,167.03,1,-1,-1,-1
262,825,22.00,138.00,94.00,170.00,1,-1,-1,-1
262,826,360.86,132.37,70.64,212.21,1,-1,-1,-1
263,819,142.58,84.55,155.48,373.31,1,-1,-1,-1
263,820,438.36,14.72,153.23,441.18,1,-1,-1,-1
263,826,349.31,129.92,72.68,216.13,1,-1,-1,-1
264,819,139.83,86.60,155.05,371.09,1,-1,-1,-1
264,820,439.75,14.74,149.95,441.58,1,-1,-1,-1
264,826,345.61,129.20,73.87,217.29,1,-1,-1,-1
265,819,140.10,89.72,153.43,367.21,1,-1,-1,-1
265,820,431.17,4.32,158.96,473.15,1,-1,-1,-1
265,826,305.66,113.90,79.56,235.42,1,-1,-1,-1
266,820,428.40,0.46,161.45,484.88,1,-1,-1,-1
266,826,291.67,108.45,81.24,241.87,1,-1,-1,-1
267,820,427.66,-0.94,161.68,489.28,1,-1,-1,-1
267,826,287.13,106.54,81.48,244.08,1,-1,-1,-1
268,820,425.51,-1.36,157.65,476.45,1,-1,-1,-1
268,826,273.19,102.19,83.38,249.78,1,-1,-1,-1
269,820,424.68,-1.39,156.08,471.13,1,-1,-1,-1
270,820,424.35,-1.30,155.53,468.98,1,-1,-1,-1
271,820,419.61,-1.18,155.36,462.76,1,-1,-1,-1
272,820,417.38,-1.05,156.19,460.28,1,-1,-1,-1
273,820,416.17,-0.93,157.31,459.28,1,-1,-1,-1
274,819,55.31,14.61,186.58,451.00,1,-1,-1,-1
274,820,408.17,-0.82,159.67,458.85,1,-1,-1,-1
274,826,264.42,66.66,59.15,177.48,1,-1,-1,-1
275,819,52.30,11.28,186.66,454.73,1,-1,-1,-1
275,820,404.56,-0.72,161.84,458.64,1,-1,-1,-1
275,824,266.38,67.22,67.16,169.83,1,-1,-1,-1
275,826,256.53,61.55,58.18,174.56,1,-1,-1,-1
276,819,51.67,10.14,186.04,456.00,1,-1,-1,-1
276,820,402.68,-0.63,163.80,458.52,1,-1,-1,-1
276,824,264.40,64.88,65.05,169.96,1,-1,-1,-1
277,819,53.17,13.74,183.96,456.32,1,-1,-1,-1
277,820,404.94,-0.56,165.36,457.12,1,-1,-1,-1
277,824,264.66,99.76,65.12,166.04,1,-1,-1,-1
278,819,54.43,15.27,182.11,456.29,1,-1,-1,-1
278,820,405.32,-0.49,167.00,456.56,1,-1,-1,-1
278,824,264.71,113.15,65.71,164.56,1,-1,-1,-1
279,819,55.51,15.97,180.51,456.13,1,-1,-1,-1
279,820,405.03,-0.43,168.58,456.33,1,-1,-1,-1
279,824,264.66,118.12,66.40,164.02,1,-1,-1,-1
280,819,51.33,13.26,181.88,459.58,1,-1,-1,-1
280,820,390.41,-0.38,186.35,491.94,1,-1,-1,-1
280,824,261.27,119.79,66.20,163.52,1,-1,-1,-1
280,827,158.00,140.00,74.00,182.00,1,-1,-1,-1
280,828,222.00,126.00,66.00,204.00,1,-1,-1,-1
281,820,383.68,-0.35,195.60,505.06,1,-1,-1,-1
281,827,158.00,140.00,74.00,182.00,1,-1,-1,-1
281,828,222.00,126.00,66.00,204.00,1,-1,-1,-1
282,820,379.98,-0.32,201.43,510.09,1,-1,-1,-1
282,827,158.00,140.00,74.00,182.00,1,-1,-1,-1
282,828,222.00,126.00,66.00,204.00,1,-1,-1,-1
283,820,366.89,-0.28,211.51,524.84,1,-1,-1,-1
283,827,158.00,140.00,74.00,182.00,1,-1,-1,-1
283,828,222.00,126.00,66.00,204.00,1,-1,-1,-1
284,820,360.80,-0.25,217.60,530.34,1,-1,-1,-1
285,820,357.54,-0.23,221.89,532.24,1,-1,-1,-1
286,820,385.54,-0.20,200.38,489.74,1,-1,-1,-1
287,820,397.60,-0.17,190.09,472.65,1,-1,-1,-1
288,820,402.80,-0.14,184.66,466.49,1,-1,-1,-1
289,819,-6.93,32.29,164.65,424.59,1,-1,-1,-1
289,820,413.92,30.66,164.18,430.82,1,-1,-1,-1
289,829,212.00,188.00,64.00,226.00,1,-1,-1,-1
290,819,-7.90,33.61,161.32,422.41,1,-1,-1,-1
290,820,419.52,42.31,153.51,417.45,1,-1,-1,-1
290,829,212.00,188.00,64.00,226.00,1,-1,-1,-1
291,819,-7.81,33.99,159.17,421.74,1,-1,-1,-1
291,820,422.91,46.27,146.87,412.96,1,-1,-1,-1
291,829,212.00,188.00,64.00,226.00,1,-1,-1,-1
292,819,21.98,44.83,155.43,410.84,1,-1,-1,-1
292,820,428.87,32.62,143.07,412.95,1,-1,-1,-1
292,829,212.00,188.00,64.00,226.00,1,-1,-1,-1
293,819,33.33,48.88,154.21,406.80,1,-1,-1,-1
293,820,432.00,27.49,139.72,413.18,1,-1,-1,-1
294,819,37.43,50.29,153.93,405.41,1,-1,-1,-1
294,820,433.99,25.52,136.71,413.49,1,-1,-1,-1
295,819,44.33,62.79,149.71,387.58,1,-1,-1,-1
295,820,440.64,28.76,131.70,401.75,1,-1,-1,-1
295,828,244.49,80.27,112.48,341.18,1,-1,-1,-1
296,819,46.26,67.38,149.31,381.03,1,-1,-1,-1
296,820,443.33,29.94,129.32,397.56,1,-1,-1,-1
296,828,244.40,78.75,115.71,345.76,1,-1,-1,-1
297,819,46.33,68.91,150.29,378.83,1,-1,-1,-1
297,820,444.50,30.33,127.97,396.22,1,-1,-1,-1
297,828,243.90,78.33,117.55,347.02,1,-1,-1,-1
298,819,58.04,80.10,150.05,371.47,1,-1,-1,-1
298,820,455.82,26.41,128.34,405.29,1,-1,-1,-1
298,828,235.09,44.17,139.05,406.55,1,-1,-1,-1
299,819,61.60,84.10,151.36,368.94,1,-1,-1,-1
299,820,460.63,24.95,127.11,408.75,1,-1,-1,-1
299,828,231.42,31.22,147.99,429.18,1,-1,-1,-1
300,819,62.16,85.40,153.11,368.20,1,-1,-1,-1
300,820,462.94,24.38,125.44,410.17,1,-1,-1,-1
300,828,229.51,25.90,152.20,438.32,1,-1,-1,-1
301,819,65.72,89.22,151.46,364.22,1,-1,-1,-1
301,820,465.85,24.46,124.89,408.43,1,-1,-1,-1
301,828,172.30,11.37,174.98,484.24,1,-1,-1,-1
301,830,450.00,178.00,54.00,150.00,1,-1,-1,-1
302,828,148.11,5.73,187.64,502.10,1,-1,-1,-1
302,830,450.00,178.00,54.00,150.00,1,-1,-1,-1
303,828,136.63,3.63,195.74,508.93,1,-1,-1,-1
303,830,450.00,178.00,54.00,150.00,1,-1,-1,-1
304,828,140.05,112.97,150.13,364.51,1,-1,-1,-1
304,830,459.88,174.95,54.07,150.00,1,-1,-1,-1
305,828,141.84,162.21,130.11,298.35,1,-1,-1,-1
305,830,463.02,173.97,54.16,150.00,1,-1,-1,-1
306,828,140.86,177.15,127.27,278.05,1,-1,-1,-1
306,830,463.86,173.70,54.26,150.00,1,-1,-1,-1
307,828,138.79,185.62,124.29,271.53,1,-1,-1,-1
307,830,466.66,172.83,54.26,150.00,1,-1,-1,-1
313,819,-17.85,49.24,149.12,385.01,1,-1,-1,-1
313,828,119.17,100.01,158.54,348.59,1,-1,-1,-1
314,819,-16.88,47.83,141.54,385.81,1,-1,-1,-1
314,828,118.34,95.49,159.60,352.71,1,-1,-1,-1
315,819,-14.87,47.35,135.71,386.10,1,-1,-1,-1
315,828,118.35,93.91,159.57,354.12,1,-1,-1,-1
316,819,-19.29,45.76,135.87,386.57,1,-1,-1,-1
316,820,467.78,63.55,115.43,376.07,1,-1,-1,-1
316,828,120.04,97.36,162.74,364.78,1,-1,-1,-1
317,820,467.39,64.53,115.67,375.39,1,-1,-1,-1
317,828,121.15,98.80,163.11,368.76,1,-1,-1,-1
318,820,467.17,64.87,115.92,375.15,1,-1,-1,-1
318,828,121.99,99.53,162.51,370.12,1,-1,-1,-1
319,820,470.26,30.20,123.02,409.86,1,-1,-1,-1
319,828,140.33,93.46,161.29,366.57,1,-1,-1,-1
319,831,344.00,168.00,72.00,172.00,1,-1,-1,-1
319,832,410.00,174.00,52.00,160.00,1,-1,-1,-1
320,820,472.26,17.54,123.86,422.53,1,-1,-1,-1
320,828,147.42,91.25,160.89,365.01,1,-1,-1,-1
320,831,344.00,168.00,72.00,172.00,1,-1,-1,-1
320,832,410.00,174.00,52.00,160.00,1,-1,-1,-1
321,820,473.69,12.62,122.85,427.45,1,-1,-1,-1
321,828,150.04,90.54,160.82,364.27,1,-1,-1,-1
321,831,344.00,168.00,72.00,172.00,1,-1,-1,-1
321,832,410.00,174.00,52.00,160.00,1,-1,-1,-1
322,820,474.22,8.71,123.98,431.46,1,-1,-1,-1
322,828,151.00,87.34,162.20,367.40,1,-1,-1,-1
322,831,344.00,168.00,72.00,172.00,1,-1,-1,-1
322,832,410.00,174.00,52.00,160.00,1,-1,-1,-1
322,833,42.00,138.00,62.00,166.00,1,-1,-1,-1
322,834,454.00,138.00,64.00,186.00,1,-1,-1,-1
323,832,450.17,142.35,59.59,182.86,1,-1,-1,-1
323,833,42.00,138.00,62.00,166.00,1,-1,-1,-1
324,832,457.23,136.72,61.10,186.93,1,-1,-1,-1
324,833,42.00,138.00,62.00,166.00,1,-1,-1,-1
325,828,218.22,70.95,170.86,384.87,1,-1,-1,-1
325,832,467.22,128.86,62.95,192.60,1,-1,-1,-1
325,833,42.00,138.00,62.00,166.00,1,-1,-1,-1
325,835,538.00,148.00,68.00,166.00,1,-1,-1,-1
326,828,226.17,69.07,172.55,386.89,1,-1,-1,-1
326,835,538.00,148.00,68.00,166.00,1,-1,-1,-1
327,828,228.71,68.43,173.53,387.57,1,-1,-1,-1
327,832,535.82,142.86,57.18,171.60,1,-1,-1,-1
328,828,233.18,64.38,175.55,395.57,1,-1,-1,-1
328,831,432.29,116.96,89.74,219.11,1,-1,-1,-1
328,832,546.85,135.30,62.43,186.88,1,-1,-1,-1
328,836,82.00,102.00,86.00,226.00,1,-1,-1,-1
329,828,235.07,62.94,175.49,398.50,1,-1,-1,-1
329,831,438.00,114.17,88.96,221.69,1,-1,-1,-1
329,832,550.90,132.88,64.10,191.41,1,-1,-1,-1
329,836,82.00,102.00,86.00,226.00,1,-1,-1,-1
330,828,235.89,62.52,174.73,399.48,1,-1,-1,-1
330,831,440.31,113.32,87.58,222.47,1,-1,-1,-1
330,832,551.73,132.14,64.79,193.03,1,-1,-1,-1
330,833,81.74,102.87,84.00,224.55,1,-1,-1,-1
331,828,246.90,63.79,181.35,410.18,1,-1,-1,-1
331,831,441.02,117.09,87.88,225.17,1,-1,-1,-1
331,832,550.02,125.48,70.46,211.87,1,-1,-1,-1
331,833,87.03,98.20,86.91,232.33,1,-1,-1,-1
332,828,250.42,64.35,184.83,414.14,1,-1,-1,-1
332,831,441.21,118.71,87.53,226.05,1,-1,-1,-1
332,832,549.49,123.01,72.17,218.90,1,-1,-1,-1
333,828,251.12,64.66,186.98,415.51,1,-1,-1,-1
333,831,441.16,119.51,86.96,226.22,1,-1,-1,-1
333,832,548.93,122.21,72.44,221.51,1,-1,-1,-1
334,828,252.44,63.56,179.97,397.58,1,-1,-1,-1
334,831,447.82,116.15,88.45,230.10,1,-1,-1,-1
334,832,557.56,118.52,74.09,226.57,1,-1,-1,-1
335,828,252.41,63.24,177.65,390.42,1,-1,-1,-1
336,828,252.00,63.18,177.25,387.72,1,-1,-1,-1
337,828,249.65,55.25,181.16,399.98,1,-1,-1,-1
338,828,249.15,52.35,181.68,404.51,1,-1,-1,-1
339,828,249.23,51.33,181.04,406.18,1,-1,-1,-1
340,828,245.30,36.57,187.16,419.88,1,-1,-1,-1
340,831,443.34,112.76,79.21,212.97,1,-1,-1,-1
341,828,243.76,31.07,189.45,424.99,1,-1,-1,-1
341,831,442.79,113.10,76.37,211.02,1,-1,-1,-1
342,828,243.09,29.08,190.28,426.84,1,-1,-1,-1
342,831,443.33,113.11,74.45,210.50,1,-1,-1,-1
343,828,255.21,41.54,185.32,418.26,1,-1,-1,-1
343,831,460.22,86.47,93.57,266.36,1,-1,-1,-1
344,828,260.10,46.49,182.78,414.82,1,-1,-1,-1
344,831,466.46,77.05,99.88,286.00,1,-1,-1,-1
345,828,262.12,48.41,181.27,413.46,1,-1,-1,-1
345,831,469.08,73.19,102.23,294.18,1,-1,-1,-1
346,828,296.79,30.68,186.67,430.07,1,-1,-1,-1
346,831,473.22,68.12,105.17,302.65,1,-1,-1,-1
346,833,34.99,140.64,59.98,161.60,1,-1,-1,-1
347,828,310.17,24.09,187.62,436.22,1,-1,-1,-1
347,833,31.49,143.75,57.73,156.42,1,-1,-1,-1
348,828,315.58,21.65,187.03,438.50,1,-1,-1,-1
348,833,30.85,144.37,57.11,155.39,1,-1,-1,-1
349,820,88.14,144.54,51.20,156.33,1,-1,-1,-1
349,828,328.48,6.43,197.34,466.74,1,-1,-1,-1
349,833,29.10,145.75,56.26,153.09,1,-1,-1,-1
350,820,83.32,146.23,53.87,153.53,1,-1,-1,-1
350,828,333.72,0.77,200.19,477.28,1,-1,-1,-1
351,820,80.23,147.01,55.63,152.02,1,-1,-1,-1
351,828,335.93,-1.30,200.38,481.23,1,-1,-1,-1
352,820,72.43,150.10,53.43,146.01,1,-1,-1,-1
352,828,340.19,1.96,193.03,469.55,1,-1,-1,-1
353,828,342.17,3.43,188.83,464.73,1,-1,-1,-1
354,828,343.29,4.10,186.03,462.76,1,-1,-1,-1
355,820,135.16,144.45,56.19,151.29,1,-1,-1,-1
355,828,348.82,4.46,183.54,459.27,1,-1,-1,-1
355,837,162.00,148.00,66.00,150.00,1,-1,-1,-1
356,820,139.37,144.21,56.78,151.30,1,-1,-1,-1
356,828,351.01,4.70,181.98,457.84,1,-1,-1,-1
356,837,162.00,148.00,66.00,150.00,1,-1,-1,-1
357,820,140.41,144.12,57.25,151.37,1,-1,-1,-1
357,828,351.91,4.87,180.85,457.22,1,-1,-1,-1
357,833,164.09,148.13,57.16,149.77,1,-1,-1,-1
358,820,147.41,144.23,56.83,150.29,1,-1,-1,-1
358,828,382.93,1.05,174.17,449.00,1,-1,-1,-1
358,833,176.12,148.72,56.81,148.85,1,-1,-1,-1
359,828,395.39,-0.32,169.85,445.81,1,-1,-1,-1
360,828,400.59,-0.76,166.62,444.61,1,-1,-1,-1
361,820,136.50,167.51,57.69,151.52,1,-1,-1,-1
361,828,404.55,1.80,167.46,452.12,1,-1,-1,-1
361,833,177.76,166.13,56.63,151.37,1,-1,-1,-1
362,820,135.07,170.05,58.06,151.67,1,-1,-1,-1
362,828,406.35,2.81,166.70,454.93,1,-1,-1,-1
362,833,178.04,168.07,55.93,151.67,1,-1,-1,-1
363,820,134.49,170.90,58.32,151.72,1,-1,-1,-1
363,828,407.26,3.25,165.45,455.97,1,-1,-1,-1
363,833,178.25,168.73,55.37,151.78,1,-1,-1,-1
364,820,137.04,173.33,58.15,151.28,1,-1,-1,-1
364,828,396.08,8.73,167.78,458.96,1,-1,-1,-1
364,833,180.13,175.51,54.98,149.18,1,-1,-1,-1
365,828,391.34,10.82,169.31,460.06,1,-1,-1,-1
365,833,180.43,177.99,55.07,148.22,1,-1,-1,-1
366,828,389.12,11.63,170.46,460.43,1,-1,-1,-1
366,833,180.21,178.83,55.31,147.88,1,-1,-1,-1
367,828,382.87,6.65,186.77,496.11,1,-1,-1,-1
367,833,182.08,165.77,55.07,143.79,1,-1,-1,-1
368,828,379.63,4.81,194.61,509.31,1,-1,-1,-1
368,833,182.26,160.73,55.57,142.27,1,-1,-1,-1
369,828,377.52,4.10,199.17,514.35,1,-1,-1,-1
369,833,181.89,158.87,56.30,141.75,1,-1,-1,-1
370,828,381.03,10.33,186.91,483.63,1,-1,-1,-1
370,833,185.69,158.55,55.91,140.79,1,-1,-1,-1
371,828,382.44,12.82,181.78,471.21,1,-1,-1,-1
372,828,383.00,13.72,179.72,466.60,1,-1,-1,-1
373,828,394.88,4.74,179.48,471.53,1,-1,-1,-1
373,831,31.04,106.03,107.28,274.89,1,-1,-1,-1
374,828,399.83,1.38,178.23,473.36,1,-1,-1,-1
374,831,19.63,108.05,112.91,272.08,1,-1,-1,-1
375,828,402.13,0.14,176.72,474.03,1,-1,-1,-1
375,831,13.93,108.65,117.00,271.36,1,-1,-1,-1
376,828,404.41,-0.86,176.99,474.75,1,-1,-1,-1
376,831,-0.38,110.53,116.13,269.34,1,-1,-1,-1
385,831,0.02,92.52,129.78,309.14,1,-1,-1,-1
386,831,1.15,91.81,128.12,310.70,1,-1,-1,-1
387,831,2.08,91.58,126.68,311.20,1,-1,-1,-1
388,831,-5.84,86.31,129.85,326.94,1,-1,-1,-1
388,833,267.92,152.01,59.89,153.79,1,-1,-1,-1
389,831,-8.07,84.34,129.62,332.83,1,-1,-1,-1
389,833,269.96,151.87,59.25,154.13,1,-1,-1,-1
390,831,-8.27,83.62,128.39,335.00,1,-1,-1,-1
390,833,270.70,151.84,58.75,154.24,1,-1,-1,-1
391,831,-11.59,82.26,129.85,338.82,1,-1,-1,-1
391,833,274.59,151.52,58.95,154.77,1,-1,-1,-1
400,833,225.66,163.47,56.87,148.40,1,-1,-1,-1
401,833,222.83,164.05,56.97,148.04,1,-1,-1,-1
402,833,221.87,164.25,57.09,147.93,1,-1,-1,-1
403,833,216.01,164.30,56.31,143.90,1,-1,-1,-1
404,833,213.74,164.29,56.32,142.39,1,-1,-1,-1
405,833,212.87,164.26,56.60,141.87,1,-1,-1,-1
406,833,210.79,164.70,56.29,141.10,1,-1,-1,-1
415,833,216.78,154.40,56.97,145.68,1,-1,-1,-1
416,833,217.55,153.93,56.23,145.92,1,-1,-1,-1
417,833,217.99,153.77,55.63,146.01,1,-1,-1,-1
418,833,217.79,153.22,55.67,146.10,1,-1,-1,-1
421,838,482.00,38.00,102.00,356.00,1,-1,-1,-1
422,838,482.00,38.00,102.00,356.00,1,-1,-1,-1
423,838,482.00,38.00,102.00,356.00,1,-1,-1,-1
424,838,472.81,53.27,102.07,352.95,1,-1,-1,-1
425,838,469.47,58.15,102.88,351.97,1,-1,-1,-1
426,838,468.09,59.51,104.01,351.70,1,-1,-1,-1
427,838,448.59,59.73,104.83,353.06,1,-1,-1,-1
428,838,441.65,59.63,105.43,353.58,1,-1,-1,-1
429,838,439.24,59.43,105.94,353.78,1,-1,-1,-1
430,838,429.51,48.41,116.22,386.34,1,-1,-1,-1
430,839,384.00,58.00,114.00,342.00,1,-1,-1,-1
431,838,425.86,44.42,120.30,398.09,1,-1,-1,-1
431,839,384.00,58.00,114.00,342.00,1,-1,-1,-1
432,838,399.64,53.23,110.73,363.45,1,-1,-1,-1
432,839,412.93,45.53,129.42,388.77,1,-1,-1,-1
433,838,391.72,54.14,111.00,364.34,1,-1,-1,-1
433,839,407.03,11.64,150.46,447.89,1,-1,-1,-1
434,839,403.70,-0.90,159.30,469.30,1,-1,-1,-1
435,839,401.26,-4.95,163.31,475.67,1,-1,-1,-1
436,839,346.48,-0.42,167.79,484.44,1,-1,-1,-1
437,839,324.80,1.83,170.10,486.74,1,-1,-1,-1
438,839,316.16,3.15,171.58,486.57,1,-1,-1,-1
439,839,245.39,-1.25,183.81,507.97,1,-1,-1,-1
440,839,217.23,-2.75,191.21,515.66,1,-1,-1,-1
441,839,205.42,-3.05,196.50,517.91,1,-1,-1,-1
442,838,267.68,60.07,104.17,337.08,1,-1,-1,-1
442,839,111.82,3.59,209.79,534.99,1,-1,-1,-1
443,838,262.67,60.23,104.93,335.83,1,-1,-1,-1
443,839,74.33,6.29,218.68,541.13,1,-1,-1,-1
444,838,260.55,60.30,105.71,335.41,1,-1,-1,-1
444,839,58.77,7.52,225.48,542.90,1,-1,-1,-1
445,833,468.46,74.27,116.70,307.34,1,-1,-1,-1
445,838,254.71,54.95,100.83,319.26,1,-1,-1,-1
445,839,34.84,4.67,230.93,556.05,1,-1,-1,-1
446,833,473.59,72.74,117.69,310.55,1,-1,-1,-1
446,838,253.04,52.89,99.10,313.25,1,-1,-1,-1
447,833,474.97,72.36,117.86,311.38,1,-1,-1,-1
447,838,252.74,52.16,98.61,311.22,1,-1,-1,-1
448,833,472.24,79.88,116.07,305.17,1,-1,-1,-1
448,838,246.64,58.65,100.29,310.62,1,-1,-1,-1
449,833,470.72,82.97,115.47,302.48,1,-1,-1,-1
449,838,244.21,61.05,101.88,310.53,1,-1,-1,-1
450,833,469.80,84.23,115.33,301.29,1,-1,-1,-1
450,838,243.17,61.92,103.33,310.62,1,-1,-1,-1
451,833,468.16,82.19,116.01,301.98,1,-1,-1,-1
451,838,243.68,60.88,105.25,318.76,1,-1,-1,-1
451,840,0.00,42.00,144.00,420.00,1,-1,-1,-1
452,833,467.21,81.46,116.41,302.11,1,-1,-1,-1
452,838,244.24,60.48,105.56,321.84,1,-1,-1,-1
452,840,0.00,42.00,144.00,420.00,1,-1,-1,-1
453,833,466.53,81.24,116.66,302.02,1,-1,-1,-1
453,838,244.83,60.30,105.34,323.05,1,-1,-1,-1
453,840,0.00,42.00,144.00,420.00,1,-1,-1,-1
454,833,469.20,85.12,116.95,305.76,1,-1,-1,-1
454,838,247.07,62.86,102.87,318.25,1,-1,-1,-1
454,840,3.62,14.52,150.49,438.32,1,-1,-1,-1
455,833,470.33,86.65,116.46,307.09,1,-1,-1,-1
455,838,248.32,63.81,101.48,316.45,1,-1,-1,-1
455,840,4.69,5.71,152.76,444.19,1,-1,-1,-1
456,833,470.82,87.28,115.74,307.47,1,-1,-1,-1
456,838,249.10,64.15,100.56,315.82,1,-1,-1,-1
456,840,4.90,3.15,153.63,445.90,1,-1,-1,-1
457,833,472.02,87.54,114.36,306.19,1,-1,-1,-1
457,838,261.60,77.51,101.21,315.61,1,-1,-1,-1
457,840,16.78,24.86,153.63,439.27,1,-1,-1,-1
458,833,472.53,87.67,113.36,305.59,1,-1,-1,-1
458,838,266.18,82.50,101.85,315.58,1,-1,-1,-1
458,840,20.30,33.17,155.03,436.59,1,-1,-1,-1
459,833,472.79,87.73,112.55,305.28,1,-1,-1,-1
459,838,267.75,84.29,102.43,315.59,1,-1,-1,-1
459,840,20.69,36.28,156.99,435.49,1,-1,-1,-1
460,833,475.83,87.34,113.24,307.15,1,-1,-1,-1
460,838,274.64,86.20,103.32,318.28,1,-1,-1,-1
460,840,42.43,32.03,157.44,426.89,1,-1,-1,-1
461,838,277.21,86.84,103.66,319.31,1,-1,-1,-1
461,840,49.30,30.46,159.65,423.61,1,-1,-1,-1
462,838,278.14,86.99,103.81,319.71,1,-1,-1,-1
462,840,50.57,29.90,162.48,422.41,1,-1,-1,-1
463,833,466.56,96.59,110.53,299.77,1,-1,-1,-1
463,838,281.51,75.09,108.31,330.43,1,-1,-1,-1
463,840,56.83,21.68,170.19,431.37,1,-1,-1,-1
464,833,465.23,97.74,110.17,298.74,1,-1,-1,-1
464,838,282.45,70.59,110.57,334.44,1,-1,-1,-1
464,840,57.70,18.67,175.56,434.69,1,-1,-1,-1
465,833,464.80,98.13,110.06,298.41,1,-1,-1,-1
465,838,282.51,68.85,111.92,335.94,1,-1,-1,-1
465,840,56.64,17.60,179.85,435.92,1,-1,-1,-1
466,833,463.89,96.92,110.12,303.57,1,-1,-1,-1
466,838,279.85,69.49,111.13,337.77,1,-1,-1,-1
466,840,54.55,13.30,183.03,440.31,1,-1,-1,-1
467,833,463.98,96.45,109.21,305.49,1,-1,-1,-1
467,838,279.15,69.75,110.08,338.42,1,-1,-1,-1
467,840,53.20,11.74,184.98,441.93,1,-1,-1,-1
468,833,464.40,96.26,108.05,306.18,1,-1,-1,-1
468,838,279.19,69.86,109.00,338.61,1,-1,-1,-1
468,840,52.16,11.23,186.39,442.48,1,-1,-1,-1
469,833,461.16,90.90,105.13,299.82,1,-1,-1,-1
469,838,263.57,51.49,113.49,353.10,1,-1,-1,-1
469,840,42.10,12.43,194.05,461.11,1,-1,-1,-1
470,833,460.07,88.85,103.67,297.35,1,-1,-1,-1
470,838,257.77,44.62,115.06,358.50,1,-1,-1,-1
470,840,38.32,12.92,196.80,468.03,1,-1,-1,-1
471,833,459.82,88.10,102.82,296.42,1,-1,-1,-1
471,838,255.59,42.02,115.56,360.49,1,-1,-1,-1
471,840,36.81,13.18,197.73,470.59,1,-1,-1,-1
472,833,464.91,78.56,105.41,311.99,1,-1,-1,-1
472,838,258.49,29.37,120.13,376.82,1,-1,-1,-1
472,840,43.28,12.02,194.29,457.04,1,-1,-1,-1
473,833,467.59,75.04,104.79,317.75,1,-1,-1,-1
473,838,259.81,24.64,121.47,382.93,1,-1,-1,-1
473,840,45.16,11.62,194.02,451.65,1,-1,-1,-1
474,833,469.28,73.74,103.20,319.93,1,-1,-1,-1
474,838,260.54,22.93,121.62,385.16,1,-1,-1,-1
474,840,45.26,11.52,194.97,449.58,1,-1,-1,-1
475,833,459.68,66.76,103.43,324.61,1,-1,-1,-1
475,838,259.83,19.80,124.99,402.78,1,-1,-1,-1
475,840,105.34,22.11,182.33,430.23,1,-1,-1,-1
476,833,456.35,64.17,102.82,326.33,1,-1,-1,-1
476,838,260.20,18.69,125.02,409.37,1,-1,-1,-1
476,840,129.14,26.18,175.41,422.84,1,-1,-1,-1
477,833,455.39,63.26,101.96,326.90,1,-1,-1,-1
477,838,260.91,18.39,123.91,411.75,1,-1,-1,-1
477,840,138.54,27.66,170.90,420.20,1,-1,-1,-1
478,833,459.99,68.24,99.62,323.10,1,-1,-1,-1
478,838,264.60,15.80,120.53,407.27,1,-1,-1,-1
478,840,147.90,28.51,169.97,417.93,1,-1,-1,-1
478,841,348.00,50.00,112.00,350.00,1,-1,-1,-1
479,833,462.09,70.23,98.11,321.56,1,-1,-1,-1
479,838,266.58,14.92,118.14,405.32,1,-1,-1,-1
479,841,348.00,50.00,112.00,350.00,1,-1,-1,-1
480,833,463.17,71.04,96.98,320.93,1,-1,-1,-1
480,838,267.83,14.69,116.23,404.42,1,-1,-1,-1
480,841,348.00,50.00,112.00,350.00,1,-1,-1,-1
481,833,464.22,71.38,96.59,321.96,1,-1,-1,-1
481,838,265.12,16.02,116.61,410.51,1,-1,-1,-1
481,841,351.59,50.00,110.92,346.95,1,-1,-1,-1
482,833,464.81,71.54,96.06,322.32,1,-1,-1,-1
482,838,264.47,16.59,115.99,412.71,1,-1,-1,-1
482,841,352.78,50.00,110.49,345.97,1,-1,-1,-1
483,833,465.21,71.62,95.52,322.42,1,-1,-1,-1
483,838,264.56,16.89,115.07,413.42,1,-1,-1,-1
483,841,353.16,50.00,110.27,345.70,1,-1,-1,-1
484,833,463.44,83.55,95.19,322.42,1,-1,-1,-1
484,838,264.96,32.82,110.07,392.57,1,-1,-1,-1
484,840,139.21,47.29,166.25,415.42,1,-1,-1,-1
484,841,354.16,50.00,110.00,344.84,1,-1,-1,-1
485,833,462.86,88.08,94.89,322.39,1,-1,-1,-1
485,838,264.96,39.06,108.48,384.34,1,-1,-1,-1
485,840,139.07,48.41,164.08,415.41,1,-1,-1,-1
486,833,462.73,89.76,94.61,322.35,1,-1,-1,-1
486,838,264.78,41.33,108.27,381.31,1,-1,-1,-1
486,840,139.55,48.78,162.31,415.40,1,-1,-1,-1
487,833,457.88,85.07,94.87,323.64,1,-1,-1,-1
487,838,264.46,42.42,108.07,380.63,1,-1,-1,-1
487,840,138.36,38.26,161.55,423.38,1,-1,-1,-1
487,841,361.64,68.36,106.18,332.84,1,-1,-1,-1
488,833,456.09,83.25,94.91,324.10,1,-1,-1,-1
488,840,138.78,34.28,159.38,426.40,1,-1,-1,-1
488,841,362.38,70.23,105.80,331.63,1,-1,-1,-1
489,833,455.47,82.54,94.87,324.25,1,-1,-1,-1
489,840,139.65,32.75,156.96,427.55,1,-1,-1,-1
489,841,362.62,70.83,105.69,331.24,1,-1,-1,-1
490,833,454.65,90.18,94.77,320.32,1,-1,-1,-1
490,840,141.18,32.50,157.10,427.93,1,-1,-1,-1
490,841,363.93,72.94,105.12,329.48,1,-1,-1,-1
491,833,454.10,93.06,95.27,318.81,1,-1,-1,-1
492,833,453.68,94.10,95.95,318.24,1,-1,-1,-1
493,833,398.89,81.20,98.25,322.01,1,-1,-1,-1
493,838,173.93,32.88,117.31,402.57,1,-1,-1,-1
493,840,52.36,10.76,184.32,474.08,1,-1,-1,-1
494,833,378.10,76.34,99.74,323.42,1,-1,-1,-1
494,838,167.00,32.20,120.14,404.02,1,-1,-1,-1
494,840,38.09,8.19,194.98,479.55,1,-1,-1,-1
495,833,370.19,74.50,100.86,323.94,1,-1,-1,-1
495,838,164.07,31.96,122.26,404.52,1,-1,-1,-1
495,840,30.93,7.28,202.93,481.48,1,-1,-1,-1
496,833,413.27,84.40,102.07,328.08,1,-1,-1,-1
496,838,157.14,31.67,122.69,405.92,1,-1,-1,-1
496,840,22.00,20.03,208.36,483.36,1,-1,-1,-1
497,833,429.78,88.15,102.49,329.63,1,-1,-1,-1
497,840,17.71,24.99,212.59,483.92,1,-1,-1,-1
498,833,436.17,89.57,102.60,330.18,1,-1,-1,-1
498,840,15.35,26.91,216.08,483.99,1,-1,-1,-1
499,833,396.02,90.09,99.61,319.83,1,-1,-1,-1
499,840,26.09,11.92,222.05,489.11,1,-1,-1,-1
500,833,380.60,90.25,98.58,315.83,1,-1,-1,-1
500,840,29.42,6.24,226.13,490.95,1,-1,-1,-1
501,833,375.01,90.29,98.31,314.36,1,-1,-1,-1
501,840,30.02,4.11,229.27,491.51,1,-1,-1,-1
502,833,420.95,92.94,99.57,317.83,1,-1,-1,-1
502,840,27.48,2.19,230.73,494.65,1,-1,-1,-1
503,833,438.18,93.91,100.15,319.15,1,-1,-1,-1
504,833,444.63,94.24,100.46,319.66,1,-1,-1,-1
505,833,442.24,83.77,102.10,323.83,1,-1,-1,-1
505,840,45.01,18.90,236.83,498.73,1,-1,-1,-1
506,833,441.16,79.81,102.90,325.39,1,-1,-1,-1
506,840,45.81,21.06,240.48,499.07,1,-1,-1,-1
507,833,440.58,78.32,103.35,325.97,1,-1,-1,-1
507,840,45.19,21.79,243.50,499.18,1,-1,-1,-1
508,833,442.66,73.84,102.71,326.17,1,-1,-1,-1
508,840,45.43,22.16,244.57,501.36,1,-1,-1,-1
509,833,443.57,72.18,102.09,326.23,1,-1,-1,-1
510,833,444.02,71.60,101.52,326.23,1,-1,-1,-1
511,833,443.99,70.11,102.90,335.45,1,-1,-1,-1
512,833,444.35,69.59,102.59,338.89,1,-1,-1,-1
513,833,444.80,69.44,101.74,340.16,1,-1,-1,-1
514,833,461.76,77.30,97.91,328.78,1,-1,-1,-1
514,840,182.51,1.43,246.39,495.20,1,-1,-1,-1
515,833,468.33,80.38,96.21,324.33,1,-1,-1,-1
515,840,190.07,-0.02,249.79,494.55,1,-1,-1,-1
516,833,470.77,81.52,95.38,322.68,1,-1,-1,-1
516,840,191.78,-0.50,252.66,494.35,1,-1,-1,-1
517,833,473.69,81.82,95.24,322.21,1,-1,-1,-1
517,840,253.24,5.99,273.00,519.42,1,-1,-1,-1
518,840,273.97,8.42,284.28,528.71,1,-1,-1,-1
519,840,279.86,9.40,291.62,532.20,1,-1,-1,-1
520,838,176.52,51.83,126.74,380.36,1,-1,-1,-1
520,840,309.99,3.23,288.32,521.62,1,-1,-1,-1
521,838,174.27,52.19,133.47,379.79,1,-1,-1,-1
521,840,320.23,0.86,288.12,517.37,1,-1,-1,-1
522,838,172.38,52.33,137.97,379.58,1,-1,-1,-1
522,840,322.90,0.00,289.06,515.69,1,-1,-1,-1
523,838,178.43,52.34,143.61,382.26,1,-1,-1,-1
523,840,349.61,-0.29,284.31,511.04,1,-1,-1,-1
524,838,179.72,52.31,147.53,383.29,1,-1,-1,-1
524,840,359.59,-0.37,281.41,509.23,1,-1,-1,-1
525,838,179.37,52.28,150.45,383.69,1,-1,-1,-1
525,840,363.19,-0.37,279.34,508.54,1,-1,-1,-1
526,838,182.93,49.57,153.33,386.53,1,-1,-1,-1
526,840,366.93,-0.34,262.00,493.70,1,-1,-1,-1
527,838,183.76,48.54,155.22,387.59,1,-1,-1,-1
527,840,369.91,-0.30,250.90,488.06,1,-1,-1,-1
528,838,183.64,48.15,156.62,387.98,1,-1,-1,-1
528,840,372.67,-0.26,242.62,486.04,1,-1,-1,-1
529,838,200.48,30.76,164.30,417.30,1,-1,-1,-1
529,840,383.50,-0.23,231.14,481.37,1,-1,-1,-1
530,838,207.78,24.36,164.87,428.09,1,-1,-1,-1
530,840,389.53,-0.20,222.14,479.70,1,-1,-1,-1
531,838,211.42,21.92,163.23,432.21,1,-1,-1,-1
531,840,393.57,-0.18,214.53,479.16,1,-1,-1,-1
532,838,217.21,10.65,163.88,445.35,1,-1,-1,-1
532,840,397.19,-0.16,204.22,473.73,1,-1,-1,-1
532,842,186.00,46.00,134.00,376.00,1,-1,-1,-1
533,838,220.44,6.42,161.82,450.24,1,-1,-1,-1
533,840,400.28,-0.14,196.31,471.78,1,-1,-1,-1
533,842,186.00,46.00,134.00,376.00,1,-1,-1,-1
534,838,222.53,4.91,159.01,451.94,1,-1,-1,-1
534,840,403.05,-0.12,189.68,471.14,1,-1,-1,-1
534,842,186.00,46.00,134.00,376.00,1,-1,-1,-1
535,833,370.49,68.17,101.66,353.65,1,-1,-1,-1
535,838,196.47,39.67,150.02,417.19,1,-1,-1,-1
535,840,420.63,25.15,168.36,435.10,1,-1,-1,-1
535,842,186.00,46.00,134.00,376.00,1,-1,-1,-1
536,833,368.79,67.83,100.03,354.41,1,-1,-1,-1
536,838,185.32,53.54,147.78,403.21,1,-1,-1,-1
536,840,428.58,34.82,157.12,421.47,1,-1,-1,-1
537,833,368.59,67.72,98.78,354.66,1,-1,-1,-1
537,838,180.59,58.51,148.39,398.15,1,-1,-1,-1
537,840,432.76,38.13,150.08,416.88,1,-1,-1,-1
538,833,372.20,71.65,95.23,344.18,1,-1,-1,-1
538,838,182.45,49.55,148.17,397.67,1,-1,-1,-1
538,840,436.95,44.60,137.82,395.19,1,-1,-1,-1
539,833,373.93,73.18,93.60,340.09,1,-1,-1,-1
539,838,183.18,46.16,148.10,397.53,1,-1,-1,-1
539,840,439.30,46.79,131.22,387.56,1,-1,-1,-1
540,833,374.80,73.75,92.79,338.58,1,-1,-1,-1
540,838,183.49,44.86,148.07,397.52,1,-1,-1,-1
540,840,441.03,47.43,126.86,385.16,1,-1,-1,-1
541,833,372.16,73.88,92.65,338.08,1,-1,-1,-1
541,838,200.21,24.43,154.75,425.45,1,-1,-1,-1
541,840,448.47,55.65,115.53,361.59,1,-1,-1,-1
541,843,124.00,146.00,58.00,148.00,1,-1,-1,-1
542,838,207.44,16.92,155.05,435.73,1,-1,-1,-1
542,840,451.89,58.49,109.74,353.33,1,-1,-1,-1
542,843,124.00,146.00,58.00,148.00,1,-1,-1,-1
543,838,211.13,14.05,153.32,439.68,1,-1,-1,-1
543,840,453.80,59.35,106.11,350.78,1,-1,-1,-1
543,843,124.00,146.00,58.00,148.00,1,-1,-1,-1
544,838,227.28,23.49,151.73,437.15,1,-1,-1,-1
544,840,456.97,69.03,102.43,339.34,1,-1,-1,-1
544,843,124.00,146.00,58.00,148.00,1,-1,-1,-1
545,838,233.59,27.23,150.71,436.05,1,-1,-1,-1
545,840,458.03,72.40,101.11,335.59,1,-1,-1,-1
546,838,236.03,28.71,149.95,435.52,1,-1,-1,-1
546,840,458.36,73.45,100.62,334.58,1,-1,-1,-1
547,838,256.51,29.30,151.06,435.24,1,-1,-1,-1
547,840,460.84,60.16,106.42,357.48,1,-1,-1,-1
547,843,114.89,140.28,64.78,165.16,1,-1,-1,-1
548,838,263.81,29.56,152.09,435.05,1,-1,-1,-1
548,840,462.02,55.35,107.88,365.78,1,-1,-1,-1
548,843,114.04,139.77,65.45,166.70,1,-1,-1,-1
549,838,266.10,29.67,153.02,434.91,1,-1,-1,-1
549,840,462.64,53.42,107.95,369.15,1,-1,-1,-1
549,843,113.76,139.61,65.69,167.17,1,-1,-1,-1
550,838,275.93,20.51,153.46,430.85,1,-1,-1,-1
550,840,466.59,53.97,107.00,369.20,1,-1,-1,-1
550,843,101.30,130.28,69.31,173.88,1,-1,-1,-1
551,838,278.95,17.06,154.57,429.25,1,-1,-1,-1
551,840,468.27,54.16,106.14,369.28,1,-1,-1,-1
551,843,96.38,126.82,71.23,176.32,1,-1,-1,-1
552,838,279.43,15.81,155.86,428.62,1,-1,-1,-1
552,840,469.06,54.21,105.36,369.36,1,-1,-1,-1
552,843,94.31,125.56,72.47,177.14,1,-1,-1,-1
553,838,278.15,12.76,158.84,436.29,1,-1,-1,-1
553,840,475.51,51.57,103.19,368.11,1,-1,-1,-1
553,843,78.89,114.67,80.10,195.68,1,-1,-1,-1
554,838,277.46,11.66,160.06,439.15,1,-1,-1,-1
554,840,478.34,50.57,101.44,367.68,1,-1,-1,-1
554,843,73.14,110.62,82.97,202.58,1,-1,-1,-1
555,838,276.98,11.31,160.60,440.20,1,-1,-1,-1
555,840,479.76,50.18,99.92,367.56,1,-1,-1,-1
555,843,70.98,109.11,84.07,205.19,1,-1,-1,-1
556,838,273.39,15.19,162.04,441.85,1,-1,-1,-1
556,840,479.60,56.65,96.60,358.29,1,-1,-1,-1
556,843,49.92,134.38,78.82,193.16,1,-1,-1,-1
556,844,170.00,134.00,72.00,194.00,1,-1,-1,-1
557,838,271.68,16.72,163.00,442.43,1,-1,-1,-1
557,840,479.65,59.11,94.95,354.82,1,-1,-1,-1
557,843,41.86,144.64,76.47,188.08,1,-1,-1,-1
557,844,170.00,134.00,72.00,194.00,1,-1,-1,-1
558,833,178.62,133.44,57.97,195.31,1,-1,-1,-1
558,838,270.73,17.33,163.75,442.60,1,-1,-1,-1
558,840,479.80,59.99,93.98,353.61,1,-1,-1,-1
558,843,39.15,148.44,75.41,186.11,1,-1,-1,-1
559,833,168.33,136.60,55.72,187.72,1,-1,-1,-1
559,838,272.70,16.79,164.20,443.79,1,-1,-1,-1
559,840,474.88,46.98,96.84,367.86,1,-1,-1,-1
559,843,20.57,132.64,85.38,211.75,1,-1,-1,-1
560,840,473.29,42.17,97.38,373.16,1,-1,-1,-1
560,843,13.90,126.92,88.75,221.07,1,-1,-1,-1
561,840,472.89,40.34,97.14,375.20,1,-1,-1,-1
561,843,11.60,124.59,89.84,224.71,1,-1,-1,-1
562,838,258.94,7.07,167.13,451.46,1,-1,-1,-1
562,840,467.35,35.75,99.90,383.85,1,-1,-1,-1
562,843,4.97,123.21,91.74,229.46,1,-1,-1,-1
563,838,257.17,5.93,167.53,452.33,1,-1,-1,-1
563,840,465.12,34.05,101.21,387.09,1,-1,-1,-1
564,838,256.54,5.54,167.71,452.62,1,-1,-1,-1
564,840,464.15,33.46,101.95,388.28,1,-1,-1,-1
565,838,251.94,4.12,172.53,464.54,1,-1,-1,-1
565,840,461.08,28.05,108.97,413.59,1,-1,-1,-1
565,845,76.00,52.00,114.00,344.00,1,-1,-1,-1
566,838,250.11,3.62,174.54,468.97,1,-1,-1,-1
566,840,459.83,26.05,111.81,423.01,1,-1,-1,-1
566,845,76.00,52.00,114.00,344.00,1,-1,-1,-1
567,838,249.34,3.48,175.46,470.58,1,-1,-1,-1
567,840,459.28,25.34,113.07,426.58,1,-1,-1,-1
567,845,76.00,52.00,114.00,344.00,1,-1,-1,-1
568,838,243.34,0.84,176.75,467.16,1,-1,-1,-1
568,840,465.33,34.23,103.65,390.12,1,-1,-1,-1
568,845,76.00,52.00,114.00,344.00,1,-1,-1,-1
569,838,240.43,-0.12,178.49,465.75,1,-1,-1,-1
569,840,467.73,37.88,99.94,375.36,1,-1,-1,-1
570,838,238.79,-0.44,180.28,465.14,1,-1,-1,-1
570,840,468.54,39.21,98.72,370.06,1,-1,-1,-1
571,838,235.09,-0.52,185.86,470.13,1,-1,-1,-1
571,840,460.59,19.61,105.40,396.29,1,-1,-1,-1
572,838,232.78,-0.51,189.87,471.96,1,-1,-1,-1
572,840,457.80,12.52,107.63,405.80,1,-1,-1,-1
573,838,231.09,-0.47,193.07,472.59,1,-1,-1,-1
573,840,456.82,9.85,108.34,409.46,1,-1,-1,-1
574,838,226.70,-0.43,195.28,474.08,1,-1,-1,-1
574,840,451.25,2.39,115.11,427.77,1,-1,-1,-1
575,838,224.65,-0.38,196.92,474.59,1,-1,-1,-1
575,840,448.64,-0.36,118.72,434.63,1,-1,-1,-1
576,838,223.56,-0.34,198.27,474.72,1,-1,-1,-1
576,840,447.20,-1.30,121.01,437.14,1,-1,-1,-1
577,838,227.46,-0.30,200.75,477.34,1,-1,-1,-1
577,840,451.00,-1.53,121.09,432.72,1,-1,-1,-1
578,838,228.62,-0.26,202.40,478.29,1,-1,-1,-1
578,840,452.18,-1.50,121.73,430.84,1,-1,-1,-1
579,838,228.75,-0.23,203.66,478.59,1,-1,-1,-1
579,840,452.36,-1.38,122.55,430.00,1,-1,-1,-1
580,838,233.56,-0.21,203.84,479.97,1,-1,-1,-1
580,840,462.44,38.21,106.77,373.02,1,-1,-1,-1
581,838,235.49,-0.18,203.68,480.44,1,-1,-1,-1
581,840,466.37,54.05,100.66,350.28,1,-1,-1,-1
582,838,236.31,-0.16,203.41,480.57,1,-1,-1,-1
582,840,467.57,59.35,98.83,342.69,1,-1,-1,-1
583,838,290.32,5.13,221.12,512.22,1,-1,-1,-1
583,840,468.75,63.39,97.03,336.44,1,-1,-1,-1
584,838,309.11,7.10,230.18,523.95,1,-1,-1,-1
585,838,315.21,7.86,235.77,528.40,1,-1,-1,-1
586,838,324.73,4.23,232.04,507.79,1,-1,-1,-1
587,838,326.69,2.79,233.11,499.50,1,-1,-1,-1
588,838,325.87,2.26,236.00,496.34,1,-1,-1,-1
589,838,308.12,6.03,250.20,525.57,1,-1,-1,-1
590,838,301.37,7.42,255.62,536.33,1,-1,-1,-1
591,838,298.46,7.95,257.81,540.39,1,-1,-1,-1
592,838,250.18,2.92,240.37,501.31,1,-1,-1,-1
593,838,230.79,0.92,233.93,485.67,1,-1,-1,-1
594,838,223.61,0.20,232.16,480.03,1,-1,-1,-1
595,838,207.49,-0.05,228.06,475.35,1,-1,-1,-1
595,846,44.00,140.00,58.00,192.00,1,-1,-1,-1
596,838,202.17,-0.13,225.62,473.69,1,-1,-1,-1
596,846,44.00,140.00,58.00,192.00,1,-1,-1,-1
597,838,200.87,-0.15,223.87,473.16,1,-1,-1,-1
597,840,48.23,139.86,55.98,192.41,1,-1,-1,-1
598,838,195.28,-0.14,220.63,470.38,1,-1,-1,-1
598,840,23.01,145.10,53.17,182.74,1,-1,-1,-1
599,838,193.92,-0.13,218.43,469.43,1,-1,-1,-1
600,838,194.09,-0.11,216.72,469.15,1,-1,-1,-1
601,838,195.86,-0.10,211.78,459.82,1,-1,-1,-1
602,838,196.90,-0.09,209.63,456.39,1,-1,-1,-1
603,838,197.58,-0.08,208.58,455.22,1,-1,-1,-1
604,838,199.83,-0.07,211.16,461.54,1,-1,-1,-1
605,838,200.85,-0.06,211.97,463.97,1,-1,-1,-1
606,838,201.41,-0.05,212.15,464.95,1,-1,-1,-1
607,838,203.19,-0.05,213.22,470.65,1,-1,-1,-1
608,838,204.33,-0.04,212.81,472.81,1,-1,-1,-1
609,838,205.19,-0.04,211.91,473.64,1,-1,-1,-1
610,838,214.44,-0.03,209.65,468.67,1,-1,-1,-1
611,838,218.00,-0.03,208.77,466.78,1,-1,-1,-1
612,838,219.34,-0.02,208.42,466.09,1,-1,-1,-1
613,838,224.37,-0.02,209.81,469.82,1,-1,-1,-1
613,847,82.00,106.00,66.00,234.00,1,-1,-1,-1
614,838,226.31,-0.02,210.18,471.23,1,-1,-1,-1
614,847,82.00,106.00,66.00,234.00,1,-1,-1,-1
615,838,227.08,-0.02,210.19,471.77,1,-1,-1,-1
615,847,82.00,106.00,66.00,234.00,1,-1,-1,-1
616,838,228.11,-0.04,210.26,471.92,1,-1,-1,-1
616,847,82.00,106.00,66.00,234.00,1,-1,-1,-1
619,838,300.44,5.29,216.33,480.89,1,-1,-1,-1
619,848,176.00,106.00,58.00,246.00,1,-1,-1,-1
620,838,308.24,5.93,218.55,481.95,1,-1,-1,-1
620,847,167.82,106.00,68.44,245.61,1,-1,-1,-1
621,838,310.44,6.15,220.21,482.31,1,-1,-1,-1
621,847,174.17,106.00,67.86,246.41,1,-1,-1,-1
622,838,306.88,2.26,213.25,473.19,1,-1,-1,-1
622,847,178.96,115.42,67.48,248.01,1,-1,-1,-1
623,838,305.87,0.76,209.26,469.68,1,-1,-1,-1
623,847,180.55,118.90,66.84,248.55,1,-1,-1,-1
624,838,305.89,0.20,206.56,468.38,1,-1,-1,-1
624,847,180.92,120.15,66.14,248.68,1,-1,-1,-1
625,838,303.91,-0.00,206.52,467.92,1,-1,-1,-1
625,847,177.14,131.18,64.96,242.03,1,-1,-1,-1
626,838,302.95,-0.07,206.61,467.77,1,-1,-1,-1
626,847,175.12,135.29,64.81,239.45,1,-1,-1,-1
627,838,302.42,-0.09,206.73,467.73,1,-1,-1,-1
627,847,173.97,136.70,65.05,238.48,1,-1,-1,-1
628,838,321.76,1.24,221.73,499.51,1,-1,-1,-1
628,847,179.14,139.37,65.01,238.37,1,-1,-1,-1
628,849,4.00,12.00,130.00,454.00,1,-1,-1,-1
629,838,328.59,1.73,227.82,511.24,1,-1,-1,-1
629,849,4.00,12.00,130.00,454.00,1,-1,-1,-1
630,838,330.86,1.92,230.61,515.74,1,-1,-1,-1
630,849,4.00,12.00,130.00,454.00,1,-1,-1,-1
631,838,348.25,0.69,233.40,512.11,1,-1,-1,-1
631,849,17.31,2.84,141.54,489.11,1,-1,-1,-1
632,838,353.64,0.21,236.63,510.54,1,-1,-1,-1
632,849,20.92,-0.10,146.58,500.39,1,-1,-1,-1
633,838,354.43,0.04,239.86,509.83,1,-1,-1,-1
633,849,21.26,-0.98,149.55,503.75,1,-1,-1,-1
634,838,371.97,-0.03,221.87,476.58,1,-1,-1,-1
634,849,43.71,11.23,141.03,465.89,1,-1,-1,-1
634,850,304.00,124.00,74.00,230.00,1,-1,-1,-1
635,838,378.93,-0.04,213.76,463.59,1,-1,-1,-1
635,849,50.99,16.00,139.21,450.93,1,-1,-1,-1
635,850,304.00,124.00,74.00,230.00,1,-1,-1,-1
636,838,381.74,-0.05,209.79,458.96,1,-1,-1,-1
636,849,52.34,17.64,140.30,445.72,1,-1,-1,-1
636,850,304.00,124.00,74.00,230.00,1,-1,-1,-1
637,838,386.62,-0.04,208.22,461.38,1,-1,-1,-1
637,849,74.05,11.34,146.99,460.38,1,-1,-1,-1
637,850,304.57,122.47,74.39,231.53,1,-1,-1,-1
638,838,388.93,-0.04,206.25,462.37,1,-1,-1,-1
638,849,80.98,9.05,150.72,465.69,1,-1,-1,-1
638,850,304.79,121.98,74.43,232.02,1,-1,-1,-1
639,838,390.21,-0.04,204.27,462.83,1,-1,-1,-1
639,849,82.59,8.19,153.32,467.67,1,-1,-1,-1
639,850,304.90,121.85,74.35,232.15,1,-1,-1,-1
640,838,392.13,-0.03,201.58,460.42,1,-1,-1,-1
640,849,80.42,2.57,155.05,463.03,1,-1,-1,-1
640,850,304.72,126.02,71.94,225.18,1,-1,-1,-1
641,838,393.09,-0.03,199.75,459.58,1,-1,-1,-1
641,849,78.32,0.47,157.50,461.22,1,-1,-1,-1
641,850,304.71,127.54,70.94,222.66,1,-1,-1,-1
642,838,393.68,-0.02,198.32,459.33,1,-1,-1,-1
642,849,76.41,-0.27,160.11,460.52,1,-1,-1,-1
642,850,304.76,128.06,70.48,221.81,1,-1,-1,-1
643,838,392.72,-0.02,197.22,460.62,1,-1,-1,-1
643,849,68.48,4.82,161.75,453.60,1,-1,-1,-1
643,850,304.78,128.69,70.10,220.61,1,-1,-1,-1
644,838,392.68,-0.02,195.94,461.15,1,-1,-1,-1
644,849,64.17,6.79,164.53,450.99,1,-1,-1,-1
645,838,392.96,-0.02,194.69,461.40,1,-1,-1,-1
645,849,61.40,7.54,167.60,450.04,1,-1,-1,-1
646,838,391.43,-0.01,194.66,461.52,1,-1,-1,-1
646,849,55.98,2.50,169.32,460.36,1,-1,-1,-1
646,850,275.61,131.86,65.33,205.24,1,-1,-1,-1
647,838,390.81,-0.01,194.61,461.60,1,-1,-1,-1
647,849,54.47,0.64,168.79,464.22,1,-1,-1,-1
647,850,272.41,132.18,64.92,203.63,1,-1,-1,-1
648,838,390.53,-0.01,194.57,461.66,1,-1,-1,-1
648,849,54.35,-0.05,167.52,465.67,1,-1,-1,-1
648,850,271.35,132.29,64.85,203.10,1,-1,-1,-1
649,838,388.82,-0.01,196.34,468.31,1,-1,-1,-1
649,849,54.66,7.63,166.24,458.28,1,-1,-1,-1
649,850,267.58,143.07,63.77,200.30,1,-1,-1,-1
650,838,388.42,-0.01,196.46,470.83,1,-1,-1,-1
650,849,54.37,10.58,166.45,455.43,1,-1,-1,-1
650,850,266.37,147.03,63.31,199.36,1,-1,-1,-1
651,838,388.48,-0.01,196.00,471.77,1,-1,-1,-1
651,849,53.90,11.68,167.20,454.37,1,-1,-1,-1
651,850,266.08,148.41,63.09,199.10,1,-1,-1,-1
652,838,386.44,-0.01,195.95,472.11,1,-1,-1,-1
652,849,51.83,4.12,168.54,456.64,1,-1,-1,-1
652,850,260.99,143.48,63.85,203.10,1,-1,-1,-1
653,838,385.70,-0.01,195.81,472.22,1,-1,-1,-1
653,849,50.88,1.27,169.33,457.50,1,-1,-1,-1
653,850,259.33,141.59,63.88,204.63,1,-1,-1,-1
654,838,385.46,-0.01,195.66,472.24,1,-1,-1,-1
654,849,50.38,0.21,169.87,457.83,1,-1,-1,-1
654,850,258.93,140.83,63.66,205.26,1,-1,-1,-1
655,838,382.01,-0.00,198.33,477.51,1,-1,-1,-1
655,849,49.50,1.16,171.44,457.95,1,-1,-1,-1
655,850,258.33,137.87,66.04,214.79,1,-1,-1,-1
656,838,380.58,-0.00,199.60,479.47,1,-1,-1,-1
656,849,48.76,1.54,172.83,458.00,1,-1,-1,-1
656,850,258.33,136.75,66.60,218.35,1,-1,-1,-1
657,838,379.93,-0.00,200.29,480.18,1,-1,-1,-1
657,849,48.10,1.70,174.08,458.02,1,-1,-1,-1
657,850,258.56,136.30,66.53,219.71,1,-1,-1,-1
658,838,380.35,-0.00,200.56,480.41,1,-1,-1,-1
658,849,51.92,9.71,170.36,444.80,1,-1,-1,-1
658,850,265.96,134.82,62.51,205.79,1,-1,-1,-1
659,838,380.47,-0.00,200.74,480.46,1,-1,-1,-1
659,849,53.03,12.77,169.61,439.78,1,-1,-1,-1
659,850,268.91,134.24,61.03,200.32,1,-1,-1,-1
660,838,380.49,-0.00,200.88,480.45,1,-1,-1,-1
660,849,53.11,13.87,169.96,437.99,1,-1,-1,-1
660,850,269.96,134.03,60.60,198.37,1,-1,-1,-1
661,838,380.61,-0.00,199.39,476.45,1,-1,-1,-1
661,849,71.78,20.91,163.39,424.08,1,-1,-1,-1
661,850,269.95,140.65,61.27,199.04,1,-1,-1,-1
662,838,380.62,-0.00,198.90,474.91,1,-1,-1,-1
662,849,79.07,23.51,160.36,418.93,1,-1,-1,-1
662,850,269.84,143.09,61.78,199.33,1,-1,-1,-1
663,838,380.58,-0.00,198.80,474.32,1,-1,-1,-1
663,849,81.91,24.40,158.74,417.17,1,-1,-1,-1
663,850,269.69,143.99,62.20,199.48,1,-1,-1,-1
664,838,384.93,-0.00,197.98,472.78,1,-1,-1,-1
664,849,80.50,17.99,161.51,430.01,1,-1,-1,-1
664,850,268.12,148.27,58.79,188.95,1,-1,-1,-1
664,851,26.00,128.00,70.00,210.00,1,-1,-1,-1
665,838,386.62,-0.00,197.59,472.20,1,-1,-1,-1
665,849,80.50,15.59,161.38,434.81,1,-1,-1,-1
665,850,267.56,149.85,57.43,184.98,1,-1,-1,-1
665,851,26.00,128.00,70.00,210.00,1,-1,-1,-1
666,838,387.28,-0.00,197.36,471.99,1,-1,-1,-1
666,849,80.91,14.65,160.32,436.70,1,-1,-1,-1
666,850,267.41,150.37,56.90,183.63,1,-1,-1,-1
666,851,26.00,128.00,70.00,210.00,1,-1,-1,-1
667,838,395.11,-0.00,195.30,471.92,1,-1,-1,-1
667,849,85.22,7.68,159.37,437.44,1,-1,-1,-1
667,850,270.28,143.80,57.63,183.21,1,-1,-1,-1
667,851,26.00,128.00,70.00,210.00,1,-1,-1,-1
668,838,398.58,-0.00,193.45,471.90,1,-1,-1,-1
668,849,87.10,5.04,158.38,437.73,1,-1,-1,-1
668,850,271.12,141.34,58.37,183.13,1,-1,-1,-1
669,838,400.32,-0.00,191.79,471.90,1,-1,-1,-1
669,849,88.03,4.07,157.43,437.85,1,-1,-1,-1
669,850,271.22,140.42,59.08,183.17,1,-1,-1,-1
670,838,404.21,-0.00,188.57,471.91,1,-1,-1,-1
670,849,87.18,10.34,154.04,426.02,1,-1,-1,-1
670,850,270.50,134.75,59.53,185.91,1,-1,-1,-1
671,838,406.47,-0.00,185.66,471.92,1,-1,-1,-1
671,849,86.56,12.76,153.19,421.53,1,-1,-1,-1
671,850,270.34,132.65,59.47,186.97,1,-1,-1,-1
672,838,408.04,-0.00,183.02,471.93,1,-1,-1,-1
672,849,86.07,13.65,153.31,419.92,1,-1,-1,-1
672,850,270.39,131.89,59.25,187.41,1,-1,-1,-1
673,838,420.29,14.54,170.51,446.82,1,-1,-1,-1
673,849,84.97,23.29,148.46,414.07,1,-1,-1,-1
673,850,269.32,143.55,57.36,182.31,1,-1,-1,-1
673,852,2.00,50.00,104.00,352.00,1,-1,-1,-1
674,838,425.58,20.10,164.38,437.22,1,-1,-1,-1
674,849,85.22,26.88,145.25,411.95,1,-1,-1,-1
674,850,268.99,148.01,56.51,180.41,1,-1,-1,-1
674,851,-3.57,51.14,115.34,349.92,1,-1,-1,-1
675,838,428.06,22.06,160.91,433.86,1,-1,-1,-1
675,849,85.93,28.17,142.79,411.25,1,-1,-1,-1
675,850,268.94,149.64,56.07,179.74,1,-1,-1,-1
675,851,-4.57,47.04,116.61,357.39,1,-1,-1,-1
676,838,421.72,7.96,165.97,450.17,1,-1,-1,-1
676,849,87.09,24.60,144.07,419.05,1,-1,-1,-1
676,850,269.22,147.55,57.99,184.87,1,-1,-1,-1
676,851,-7.63,39.14,121.30,371.77,1,-1,-1,-1
677,838,419.63,2.76,167.29,456.21,1,-1,-1,-1
677,849,87.90,23.22,143.78,422.01,1,-1,-1,-1
677,850,269.25,146.75,58.88,186.79,1,-1,-1,-1
678,838,419.02,0.77,167.33,458.58,1,-1,-1,-1
678,849,88.54,22.66,142.99,423.16,1,-1,-1,-1
678,850,269.18,146.42,59.37,187.54,1,-1,-1,-1
679,838,420.23,27.72,153.85,422.57,1,-1,-1,-1
679,849,97.39,29.02,139.97,418.34,1,-1,-1,-1
679,850,267.55,150.23,58.83,183.88,1,-1,-1,-1
680,838,420.74,38.21,148.47,408.62,1,-1,-1,-1
680,849,101.09,31.41,138.10,416.53,1,-1,-1,-1
680,850,266.78,151.66,58.93,182.48,1,-1,-1,-1
681,838,420.97,41.85,146.46,403.82,1,-1,-1,-1
681,849,102.76,32.25,136.75,415.88,1,-1,-1,-1
681,850,266.35,152.16,59.27,181.98,1,-1,-1,-1
682,838,420.75,24.17,153.13,427.88,1,-1,-1,-1
682,849,96.28,19.27,142.41,431.56,1,-1,-1,-1
682,850,270.23,151.00,59.29,180.49,1,-1,-1,-1
683,838,421.26,17.76,154.35,436.61,1,-1,-1,-1
683,849,93.71,14.42,144.79,437.41,1,-1,-1,-1
683,850,271.56,150.53,59.58,179.95,1,-1,-1,-1
684,838,421.95,15.25,153.83,440.05,1,-1,-1,-1
684,849,92.57,12.56,145.94,439.62,1,-1,-1,-1
684,850,271.92,150.33,59.94,179.77,1,-1,-1,-1
685,838,429.62,11.66,151.96,441.38,1,-1,-1,-1
685,849,102.13,17.13,140.79,423.36,1,-1,-1,-1
685,850,271.55,147.59,61.06,182.38,1,-1,-1,-1
686,838,433.14,10.32,150.01,441.88,1,-1,-1,-1
686,849,105.74,18.93,138.90,417.02,1,-1,-1,-1
686,850,271.33,146.55,61.62,183.37,1,-1,-1,-1
687,838,435.00,9.84,148.16,442.06,1,-1,-1,-1
687,849,106.98,19.61,138.33,414.69,1,-1,-1,-1
687,850,271.17,146.16,61.95,183.76,1,-1,-1,-1
688,838,438.41,3.09,148.55,452.67,1,-1,-1,-1
688,849,98.97,7.90,140.34,424.50,1,-1,-1,-1
688,850,269.54,139.41,61.24,182.59,1,-1,-1,-1
689,838,440.53,0.58,146.97,456.63,1,-1,-1,-1
689,849,96.31,3.56,140.39,428.16,1,-1,-1,-1
689,850,269.00,136.87,60.80,182.15,1,-1,-1,-1
690,838,442.06,-0.33,144.82,458.10,1,-1,-1,-1
690,849,95.59,1.96,139.81,429.55,1,-1,-1,-1
690,850,268.87,135.94,60.49,181.99,1,-1,-1,-1
691,838,440.81,-0.61,143.61,455.97,1,-1,-1,-1
691,849,99.18,15.91,135.83,424.79,1,-1,-1,-1
691,850,266.80,143.57,56.48,168.70,1,-1,-1,-1
692,838,440.44,-0.67,142.85,455.10,1,-1,-1,-1
692,849,101.18,21.28,133.05,422.96,1,-1,-1,-1
692,850,265.91,146.57,55.14,163.61,1,-1,-1,-1
693,838,440.40,-0.64,142.30,454.72,1,-1,-1,-1
693,849,102.50,23.29,130.86,422.27,1,-1,-1,-1
693,850,265.51,147.64,54.87,161.86,1,-1,-1,-1
694,838,438.71,-0.58,138.80,445.31,1,-1,-1,-1
694,849,110.35,24.02,128.56,408.78,1,-1,-1,-1
694,850,265.21,148.03,54.19,159.85,1,-1,-1,-1
695,838,438.18,-0.51,137.17,441.70,1,-1,-1,-1
695,849,112.85,24.26,128.63,403.68,1,-1,-1,-1
696,838,438.11,-0.45,136.31,440.36,1,-1,-1,-1
696,849,113.28,24.32,129.57,401.87,1,-1,-1,-1
697,838,437.97,-0.40,134.89,435.91,1,-1,-1,-1
697,849,119.73,24.31,134.59,415.93,1,-1,-1,-1
698,838,437.92,-0.35,134.35,434.26,1,-1,-1,-1
698,849,121.93,24.30,136.74,421.16,1,-1,-1,-1
699,838,437.91,-0.31,134.14,433.69,1,-1,-1,-1
699,849,122.58,24.27,137.81,423.18,1,-1,-1,-1
700,838,438.00,-0.27,136.55,441.49,1,-1,-1,-1
700,849,142.55,33.45,134.13,414.71,1,-1,-1,-1
700,853,92.00,174.00,58.00,188.00,1,-1,-1,-1
701,838,438.03,-0.24,137.45,444.42,1,-1,-1,-1
701,849,150.31,36.94,132.26,411.46,1,-1,-1,-1
701,853,92.00,174.00,58.00,188.00,1,-1,-1,-1
702,838,438.04,-0.21,137.80,445.54,1,-1,-1,-1
702,849,153.28,38.18,131.13,410.26,1,-1,-1,-1
702,853,92.00,174.00,58.00,188.00,1,-1,-1,-1
703,838,432.92,-0.19,142.90,460.47,1,-1,-1,-1
703,849,143.64,35.94,133.35,411.16,1,-1,-1,-1
703,853,92.00,174.00,58.00,188.00,1,-1,-1,-1
704,838,430.87,-0.17,145.08,466.04,1,-1,-1,-1
704,849,139.37,35.04,135.21,411.53,1,-1,-1,-1
705,838,429.98,-0.15,146.13,468.12,1,-1,-1,-1
705,849,137.21,34.66,136.85,411.69,1,-1,-1,-1
706,838,419.46,-0.13,151.19,472.76,1,-1,-1,-1
706,849,141.20,42.42,130.35,394.57,1,-1,-1,-1
707,838,414.52,-0.12,155.00,474.45,1,-1,-1,-1
707,849,142.84,45.33,127.48,388.07,1,-1,-1,-1
708,838,411.83,-0.11,158.15,474.99,1,-1,-1,-1
708,849,143.57,46.34,126.08,385.78,1,-1,-1,-1
709,838,397.77,-0.09,177.64,498.75,1,-1,-1,-1
709,849,140.37,33.29,131.07,398.40,1,-1,-1,-1
710,838,389.27,-0.09,191.46,507.60,1,-1,-1,-1
710,849,138.91,28.46,133.42,403.10,1,-1,-1,-1
711,838,383.24,-0.08,202.41,510.89,1,-1,-1,-1
711,849,138.10,26.61,134.75,404.93,1,-1,-1,-1
712,838,372.04,-0.07,214.07,515.88,1,-1,-1,-1
712,849,138.77,25.82,134.74,404.93,1,-1,-1,-1
713,838,365.27,-0.06,223.59,517.63,1,-1,-1,-1
714,838,360.49,-0.05,231.77,518.12,1,-1,-1,-1
715,838,371.01,-0.05,248.31,527.31,1,-1,-1,-1
715,849,147.31,39.86,130.26,384.64,1,-1,-1,-1
716,838,371.73,-0.04,261.22,530.67,1,-1,-1,-1
716,849,147.48,41.59,131.34,382.22,1,-1,-1,-1
717,838,369.07,-0.04,272.03,531.78,1,-1,-1,-1
717,849,147.04,42.15,132.70,381.42,1,-1,-1,-1
718,838,355.36,-0.03,268.73,516.32,1,-1,-1,-1
718,849,143.28,56.97,132.35,379.86,1,-1,-1,-1
719,838,348.94,-0.03,269.65,510.18,1,-1,-1,-1
719,849,141.77,62.47,132.34,379.35,1,-1,-1,-1
720,838,345.51,-0.03,272.12,507.82,1,-1,-1,-1
720,849,141.14,64.43,132.44,379.23,1,-1,-1,-1
721,838,354.09,-0.02,256.04,488.35,1,-1,-1,-1
721,849,141.71,57.09,129.55,376.59,1,-1,-1,-1
722,838,358.82,-0.02,247.11,480.92,1,-1,-1,-1
722,849,142.40,54.22,127.49,375.66,1,-1,-1,-1
723,838,361.90,-0.02,241.22,478.26,1,-1,-1,-1
723,849,143.10,53.10,125.84,375.37,1,-1,-1,-1
724,838,366.06,-0.01,237.06,478.69,1,-1,-1,-1
724,849,143.01,48.66,125.95,383.29,1,-1,-1,-1
725,838,368.78,-0.01,233.23,478.93,1,-1,-1,-1
725,849,143.65,46.98,124.63,386.27,1,-1,-1,-1
726,838,370.84,-0.01,229.73,479.09,1,-1,-1,-1
726,849,144.50,46.33,122.94,387.42,1,-1,-1,-1
727,838,374.37,-0.01,226.90,480.54,1,-1,-1,-1
727,849,152.49,52.68,120.14,383.90,1,-1,-1,-1
728,838,376.63,-0.01,224.00,481.14,1,-1,-1,-1
728,849,155.95,55.09,118.21,382.56,1,-1,-1,-1
729,838,378.31,-0.01,221.24,481.40,1,-1,-1,-1
729,849,157.62,55.97,116.70,382.07,1,-1,-1,-1
730,838,372.10,-0.01,217.99,474.92,1,-1,-1,-1
730,849,157.90,53.62,115.44,375.28,1,-1,-1,-1
731,838,369.81,-0.01,216.64,472.50,1,-1,-1,-1
731,849,157.76,52.70,115.39,372.73,1,-1,-1,-1
732,838,369.03,-0.01,216.03,471.66,1,-1,-1,-1
732,849,157.48,52.34,115.76,371.83,1,-1,-1,-1
733,838,368.37,-0.01,215.38,470.21,1,-1,-1,-1
733,849,151.32,57.51,118.68,374.19,1,-1,-1,-1
734,849,148.41,59.43,120.96,375.12,1,-1,-1,-1
735,849,146.78,60.12,122.87,375.50,1,-1,-1,-1
736,838,381.53,-0.00,207.84,458.87,1,-1,-1,-1
736,849,141.31,65.64,116.14,354.50,1,-1,-1,-1
737,838,383.95,-0.00,205.28,457.62,1,-1,-1,-1
737,849,139.19,67.69,113.64,346.49,1,-1,-1,-1
738,838,385.27,-0.00,203.39,457.20,1,-1,-1,-1
738,849,138.42,68.39,112.84,343.71,1,-1,-1,-1
739,838,383.62,-0.00,204.30,462.42,1,-1,-1,-1
739,849,137.52,69.78,111.75,340.40,1,-1,-1,-1
740,838,383.34,-0.00,203.94,464.43,1,-1,-1,-1
741,838,383.53,-0.00,203.20,465.23,1,-1,-1,-1
742,838,383.69,-0.00,204.05,469.52,1,-1,-1,-1
742,854,70.00,112.00,70.00,224.00,1,-1,-1,-1
743,838,384.02,-0.00,203.85,471.16,1,-1,-1,-1
743,854,70.00,112.00,70.00,224.00,1,-1,-1,-1
744,838,384.37,-0.00,203.30,471.77,1,-1,-1,-1
744,849,72.33,109.90,75.00,229.94,1,-1,-1,-1
745,838,377.31,-0.00,205.60,477.28,1,-1,-1,-1
745,849,65.85,114.32,71.12,218.06,1,-1,-1,-1
746,838,374.67,-0.00,206.42,479.34,1,-1,-1,-1
747,838,373.72,-0.00,206.68,480.09,1,-1,-1,-1
748,838,379.55,-0.00,204.98,477.71,1,-1,-1,-1
749,838,381.96,-0.00,203.98,476.77,1,-1,-1,-1
750,838,383.04,-0.00,203.28,476.40,1,-1,-1,-1
751,838,388.21,-0.00,198.76,469.64,1,-1,-1,-1
751,849,110.09,114.41,66.93,211.00,1,-1,-1,-1
752,838,390.58,-0.00,196.21,467.07,1,-1,-1,-1
752,849,112.28,114.76,65.14,209.75,1,-1,-1,-1
753,838,391.83,-0.00,194.50,466.13,1,-1,-1,-1
753,849,113.29,114.77,64.02,209.64,1,-1,-1,-1
754,838,400.55,-0.00,187.91,456.52,1,-1,-1,-1
754,849,100.40,95.97,80.69,259.32,1,-1,-1,-1
755,838,404.46,-0.00,184.13,452.93,1,-1,-1,-1
755,849,95.52,89.47,87.34,276.49,1,-1,-1,-1
756,838,406.47,-0.00,181.53,451.66,1,-1,-1,-1
756,849,93.12,86.73,90.76,283.75,1,-1,-1,-1
757,838,407.97,-0.00,180.79,449.81,1,-1,-1,-1
757,849,89.73,76.76,96.98,303.13,1,-1,-1,-1
758,849,88.41,72.92,99.38,310.57,1,-1,-1,-1
759,849,87.91,71.46,100.29,313.37,1,-1,-1,-1
760,838,420.96,-0.00,172.72,447.59,1,-1,-1,-1
760,849,87.15,69.14,101.89,318.37,1,-1,-1,-1
760,855,6.00,28.00,126.00,374.00,1,-1,-1,-1
761,838,425.02,-0.00,166.57,447.40,1,-1,-1,-1
761,849,27.62,37.46,116.44,361.67,1,-1,-1,-1
762,838,427.96,-0.00,161.36,447.33,1,-1,-1,-1
762,849,13.39,29.74,120.52,372.45,1,-1,-1,-1
763,838,429.65,-0.00,160.91,446.09,1,-1,-1,-1
763,849,7.19,24.79,123.21,380.79,1,-1,-1,-1
766,838,433.95,-0.00,146.00,411.85,1,-1,-1,-1
767,838,435.22,-0.00,142.53,407.90,1,-1,-1,-1
768,838,436.17,-0.00,140.36,406.62,1,-1,-1,-1
769,838,437.34,-0.00,139.04,402.81,1,-1,-1,-1
775,838,436.71,17.16,138.96,406.69,1,-1,-1,-1
776,838,437.11,18.21,138.03,407.10,1,-1,-1,-1
777,838,437.48,18.56,137.23,407.26,1,-1,-1,-1
778,838,427.18,6.74,143.25,427.19,1,-1,-1,-1
779,838,423.53,2.33,145.15,434.60,1,-1,-1,-1
780,838,422.28,0.62,145.60,437.45,1,-1,-1,-1
781,838,419.23,-0.02,149.68,446.32,1,-1,-1,-1
781,849,118.28,124.27,62.78,192.70,1,-1,-1,-1
782,838,417.83,-0.24,151.76,449.63,1,-1,-1,-1
782,849,122.62,128.07,60.82,185.83,1,-1,-1,-1
783,838,417.10,-0.30,153.01,450.80,1,-1,-1,-1
783,849,123.64,129.05,60.40,184.00,1,-1,-1,-1
784,838,406.67,6.25,156.82,456.39,1,-1,-1,-1
784,849,127.35,132.36,58.34,177.72,1,-1,-1,-1
785,838,402.27,8.75,159.21,458.43,1,-1,-1,-1
786,838,400.23,9.71,160.95,459.10,1,-1,-1,-1
787,838,411.15,6.12,155.40,448.76,1,-1,-1,-1
787,849,75.85,109.43,76.68,234.70,1,-1,-1,-1
787,856,344.00,6.00,136.00,438.00,1,-1,-1,-1
788,838,415.90,4.73,152.28,444.69,1,-1,-1,-1
788,849,71.53,107.62,77.95,239.40,1,-1,-1,-1
788,856,344.00,6.00,136.00,438.00,1,-1,-1,-1
789,838,418.14,4.20,150.23,443.12,1,-1,-1,-1
789,849,70.29,107.02,78.21,240.88,1,-1,-1,-1
789,856,344.00,6.00,136.00,438.00,1,-1,-1,-1
790,838,416.54,4.01,150.39,447.81,1,-1,-1,-1
790,849,38.96,101.70,75.59,226.88,1,-1,-1,-1
790,856,349.54,7.53,140.19,448.69,1,-1,-1,-1
790,857,126.00,112.00,74.00,232.00,1,-1,-1,-1
791,838,416.32,3.95,149.69,449.55,1,-1,-1,-1
791,849,26.62,99.73,75.15,220.97,1,-1,-1,-1
791,856,350.93,8.02,142.29,452.11,1,-1,-1,-1
791,857,126.00,112.00,74.00,232.00,1,-1,-1,-1
792,838,416.59,3.93,148.75,450.18,1,-1,-1,-1
792,849,22.03,99.10,75.62,218.65,1,-1,-1,-1
792,856,350.91,8.16,143.74,453.09,1,-1,-1,-1
792,857,126.00,112.00,74.00,232.00,1,-1,-1,-1
793,838,420.40,5.25,147.58,450.38,1,-1,-1,-1
793,849,13.48,96.86,76.44,221.01,1,-1,-1,-1
793,856,346.92,24.88,139.42,435.16,1,-1,-1,-1
793,857,126.00,112.00,74.00,232.00,1,-1,-1,-1
793,858,58.00,86.00,116.00,346.00,1,-1,-1,-1
794,838,422.18,5.75,146.48,450.42,1,-1,-1,-1
794,856,344.94,30.92,138.67,428.47,1,-1,-1,-1
794,858,58.00,86.00,116.00,346.00,1,-1,-1,-1
795,838,423.15,5.94,145.47,450.40,1,-1,-1,-1
795,856,343.76,32.90,139.31,426.16,1,-1,-1,-1
795,857,65.33,87.86,108.07,337.85,1,-1,-1,-1
796,838,427.92,16.57,138.90,439.81,1,-1,-1,-1
796,856,343.79,36.17,134.56,411.77,1,-1,-1,-1
796,857,52.42,82.71,115.28,360.41,1,-1,-1,-1
796,859,280.00,46.00,112.00,370.00,1,-1,-1,-1
797,838,430.52,20.60,134.81,435.75,1,-1,-1,-1
797,856,343.80,37.18,132.81,406.59,1,-1,-1,-1
797,859,280.00,46.00,112.00,370.00,1,-1,-1,-1
798,838,432.20,22.05,131.82,434.27,1,-1,-1,-1
798,856,343.81,37.40,132.21,404.89,1,-1,-1,-1
798,859,280.00,46.00,112.00,370.00,1,-1,-1,-1
799,838,427.31,13.24,133.75,441.72,1,-1,-1,-1
799,856,350.98,44.12,127.15,386.86,1,-1,-1,-1
799,859,281.46,47.53,110.61,365.42,1,-1,-1,-1
800,838,425.56,9.91,134.30,444.53,1,-1,-1,-1
800,856,353.41,46.45,125.79,380.37,1,-1,-1,-1
800,859,281.93,48.01,110.16,363.96,1,-1,-1,-1
801,838,424.98,8.63,134.35,445.59,1,-1,-1,-1
801,856,354.01,47.17,125.81,378.26,1,-1,-1,-1
801,859,282.06,48.15,110.02,363.55,1,-1,-1,-1
802,838,425.41,12.11,129.12,431.47,1,-1,-1,-1
802,849,38.96,153.20,49.82,137.82,1,-1,-1,-1
802,856,356.03,35.15,127.60,385.82,1,-1,-1,-1
802,859,276.57,42.55,114.01,377.54,1,-1,-1,-1
803,838,425.84,13.44,126.64,426.07,1,-1,-1,-1
803,849,41.22,156.07,49.89,133.80,1,-1,-1,-1
803,856,356.93,30.68,127.89,388.74,1,-1,-1,-1
803,859,274.71,40.57,115.25,382.48,1,-1,-1,-1
804,838,426.23,13.93,125.28,424.13,1,-1,-1,-1
804,849,41.06,156.89,50.59,132.58,1,-1,-1,-1
804,856,357.40,28.97,127.67,389.98,1,-1,-1,-1
804,859,274.14,39.87,115.53,384.25,1,-1,-1,-1
805,838,432.27,18.09,121.02,410.16,1,-1,-1,-1
805,849,44.04,164.14,50.55,129.54,1,-1,-1,-1
805,856,349.18,32.31,131.02,401.18,1,-1,-1,-1
805,859,273.19,38.94,116.19,386.45,1,-1,-1,-1
806,838,434.59,19.63,119.37,404.99,1,-1,-1,-1
806,849,44.85,166.51,51.13,128.71,1,-1,-1,-1
806,856,346.18,33.55,132.10,405.41,1,-1,-1,-1
807,838,435.46,20.17,118.73,403.21,1,-1,-1,-1
807,849,44.89,167.18,51.84,128.60,1,-1,-1,-1
807,856,345.12,34.01,132.37,407.06,1,-1,-1,-1
808,838,442.44,32.37,118.51,401.34,1,-1,-1,-1
808,849,47.10,159.01,54.59,134.21,1,-1,-1,-1
808,856,336.70,39.44,132.71,405.05,1,-1,-1,-1
809,838,444.92,36.86,118.65,400.78,1,-1,-1,-1
809,849,47.74,156.03,55.86,136.27,1,-1,-1,-1
809,856,333.27,41.47,133.36,404.29,1,-1,-1,-1
810,838,445.70,38.45,118.89,400.68,1,-1,-1,-1
810,849,47.83,154.86,56.57,137.11,1,-1,-1,-1
810,856,331.79,42.20,134.08,404.01,1,-1,-1,-1
811,838,446.72,26.97,122.76,420.70,1,-1,-1,-1
811,849,70.94,162.40,54.63,134.80,1,-1,-1,-1
811,856,343.14,29.22,135.75,411.85,1,-1,-1,-1
812,838,447.66,22.70,123.02,428.12,1,-1,-1,-1
812,849,79.84,165.22,53.44,133.96,1,-1,-1,-1
812,856,347.69,24.33,135.86,414.79,1,-1,-1,-1
813,838,448.47,21.01,122.10,430.99,1,-1,-1,-1
813,849,83.20,166.21,52.57,133.69,1,-1,-1,-1
813,856,349.65,22.48,135.44,415.88,1,-1,-1,-1
814,838,438.69,19.04,122.16,432.06,1,-1,-1,-1
814,849,80.85,157.19,55.16,141.62,1,-1,-1,-1
814,856,365.81,21.81,133.36,414.95,1,-1,-1,-1
814,859,300.85,128.95,63.86,210.08,1,-1,-1,-1
815,838,434.99,18.29,122.05,432.42,1,-1,-1,-1
815,849,80.07,153.86,55.82,144.54,1,-1,-1,-1
815,856,372.39,21.60,131.62,414.56,1,-1,-1,-1
815,859,301.81,132.44,62.29,203.17,1,-1,-1,-1
816,838,433.64,18.01,121.87,432.51,1,-1,-1,-1
816,849,79.75,152.56,55.82,145.67,1,-1,-1,-1
816,856,375.22,21.55,130.10,414.39,1,-1,-1,-1
816,859,301.98,133.66,61.99,200.79,1,-1,-1,-1
817,838,433.34,10.02,125.38,446.99,1,-1,-1,-1
817,849,81.05,149.45,56.69,150.02,1,-1,-1,-1
817,856,369.80,21.57,130.43,415.63,1,-1,-1,-1
817,859,309.18,139.58,60.64,193.29,1,-1,-1,-1
817,860,184.00,164.00,48.00,138.00,1,-1,-1,-1
817,861,40.00,140.00,60.00,160.00,1,-1,-1,-1
818,838,433.39,7.03,126.37,452.39,1,-1,-1,-1
818,849,81.69,148.28,56.58,151.64,1,-1,-1,-1
818,856,367.69,21.61,130.52,416.07,1,-1,-1,-1
818,859,311.31,141.28,60.84,191.34,1,-1,-1,-1
818,860,184.00,164.00,48.00,138.00,1,-1,-1,-1
818,861,40.00,140.00,60.00,160.00,1,-1,-1,-1
819,838,433.57,5.92,126.46,454.38,1,-1,-1,-1
819,849,82.04,147.85,56.15,152.24,1,-1,-1,-1
819,856,366.84,21.65,130.52,416.22,1,-1,-1,-1
819,859,311.68,141.64,61.44,191.06,1,-1,-1,-1
819,860,184.00,164.00,48.00,138.00,1,-1,-1,-1
819,861,40.00,140.00,60.00,160.00,1,-1,-1,-1
820,838,435.83,8.16,124.75,453.74,1,-1,-1,-1
820,849,81.31,147.72,56.24,153.73,1,-1,-1,-1
820,856,367.81,21.08,130.68,416.74,1,-1,-1,-1
820,859,314.12,145.22,59.49,185.01,1,-1,-1,-1
820,860,184.00,164.00,48.00,138.00,1,-1,-1,-1
820,861,31.35,133.89,66.62,178.32,1,-1,-1,-1
821,838,437.11,9.06,123.27,453.39,1,-1,-1,-1
821,849,81.09,147.69,56.01,154.27,1,-1,-1,-1
821,861,28.68,131.93,68.51,184.21,1,-1,-1,-1
822,838,437.96,9.43,121.96,453.17,1,-1,-1,-1
822,849,81.06,147.70,55.70,154.43,1,-1,-1,-1
822,861,27.99,131.33,68.84,186.02,1,-1,-1,-1
823,838,437.36,3.02,121.99,449.07,1,-1,-1,-1
823,849,82.25,147.20,56.02,155.34,1,-1,-1,-1
823,860,134.86,152.56,56.68,162.78,1,-1,-1,-1
823,861,29.28,140.75,66.06,179.54,1,-1,-1,-1
824,838,436.85,0.61,122.57,447.44,1,-1,-1,-1
824,860,130.31,151.51,57.54,165.06,1,-1,-1,-1
824,861,30.05,144.40,64.65,176.78,1,-1,-1,-1
825,838,436.39,-0.25,123.32,446.78,1,-1,-1,-1
825,860,128.92,151.19,57.84,165.75,1,-1,-1,-1
825,861,30.53,145.72,63.84,175.64,1,-1,-1,-1
826,838,439.01,6.08,123.30,439.90,1,-1,-1,-1
826,849,83.16,137.17,68.80,193.17,1,-1,-1,-1
826,860,120.10,141.92,63.27,181.66,1,-1,-1,-1
826,861,29.81,142.12,60.04,167.03,1,-1,-1,-1
827,838,439.52,8.53,124.25,437.26,1,-1,-1,-1
827,849,83.61,135.96,69.67,197.73,1,-1,-1,-1
827,860,116.90,138.48,65.21,187.56,1,-1,-1,-1
827,861,29.80,140.72,58.20,163.69,1,-1,-1,-1
828,838,439.25,9.46,125.50,436.28,1,-1,-1,-1
828,849,83.93,135.53,69.62,199.40,1,-1,-1,-1
828,860,115.99,137.21,65.84,189.71,1,-1,-1,-1
828,861,30.03,140.22,57.16,162.48,1,-1,-1,-1
829,838,439.69,9.46,125.34,435.81,1,-1,-1,-1
829,849,84.73,134.32,70.99,203.34,1,-1,-1,-1
829,860,109.59,134.66,67.55,194.62,1,-1,-1,-1
829,861,29.08,140.10,57.04,162.14,1,-1,-1,-1
829,862,176.00,164.00,48.00,140.00,1,-1,-1,-1
830,862,176.00,164.00,48.00,140.00,1,-1,-1,-1
831,862,176.00,164.00,48.00,140.00,1,-1,-1,-1
832,856,11.19,84.54,103.56,333.86,1,-1,-1,-1
832,862,176.00,164.00,48.00,140.00,1,-1,-1,-1
832,863,134.00,144.00,56.00,174.00,1,-1,-1,-1
833,856,0.36,86.58,101.93,331.21,1,-1,-1,-1
833,862,137.55,146.41,58.08,169.90,1,-1,-1,-1
834,856,-3.44,87.32,101.03,330.25,1,-1,-1,-1
834,862,130.69,143.24,59.74,175.29,1,-1,-1,-1
835,856,-21.99,90.55,99.73,326.00,1,-1,-1,-1
835,862,104.44,143.60,64.71,187.57,1,-1,-1,-1
835,864,180.00,170.00,50.00,156.00,1,-1,-1,-1
836,862,94.42,143.86,67.07,192.05,1,-1,-1,-1
836,864,180.00,170.00,50.00,156.00,1,-1,-1,-1
837,862,90.75,144.15,68.38,193.43,1,-1,-1,-1
837,864,180.00,170.00,50.00,156.00,1,-1,-1,-1
