1,893,272.00,184.00,76.00,192.00,1,-1,-1,-1
1,894,168.00,196.00,68.00,156.00,1,-1,-1,-1
2,893,272.00,184.00,76.00,192.00,1,-1,-1,-1
2,894,168.00,196.00,68.00,156.00,1,-1,-1,-1
3,893,272.00,184.00,76.00,192.00,1,-1,-1,-1
3,894,168.00,196.00,68.00,156.00,1,-1,-1,-1
4,893,260.46,180.95,79.23,201.16,1,-1,-1,-1
4,894,166.71,188.37,70.58,163.63,1,-1,-1,-1
4,895,68.00,166.00,134.00,270.00,1,-1,-1,-1
5,893,256.93,179.97,79.92,204.10,1,-1,-1,-1
5,894,166.63,185.92,70.75,166.08,1,-1,-1,-1
5,895,68.00,166.00,134.00,270.00,1,-1,-1,-1
6,893,256.10,179.68,79.74,204.95,1,-1,-1,-1
6,894,166.97,185.20,70.07,166.80,1,-1,-1,-1
6,895,68.00,166.00,134.00,270.00,1,-1,-1,-1
7,893,249.48,181.02,76.04,196.80,1,-1,-1,-1
7,894,166.51,183.01,70.99,168.99,1,-1,-1,-1
7,895,86.81,166.00,133.01,266.95,1,-1,-1,-1
7,896,218.00,186.00,76.00,190.00,1,-1,-1,-1
8,893,247.43,181.56,74.29,193.65,1,-1,-1,-1
8,894,206.67,185.01,78.06,186.41,1,-1,-1,-1
8,895,92.61,166.00,133.13,265.97,1,-1,-1,-1
9,893,247.04,181.77,73.33,192.51,1,-1,-1,-1
9,894,215.15,185.15,79.45,190.35,1,-1,-1,-1
9,895,93.97,166.00,133.67,265.70,1,-1,-1,-1
10,893,243.81,181.56,73.25,192.32,1,-1,-1,-1
10,894,221.47,183.85,81.34,194.87,1,-1,-1,-1
10,895,99.35,166.00,133.23,264.84,1,-1,-1,-1
10,897,484.00,162.00,74.00,266.00,1,-1,-1,-1
11,897,484.00,162.00,74.00,266.00,1,-1,-1,-1
12,897,484.00,162.00,74.00,266.00,1,-1,-1,-1
13,897,484.00,162.00,74.00,266.00,1,-1,-1,-1
13,898,150.00,154.00,152.00,272.00,1,-1,-1,-1
14,898,150.00,154.00,152.00,272.00,1,-1,-1,-1
15,898,150.00,154.00,152.00,272.00,1,-1,-1,-1
16,898,164.68,161.63,148.59,267.42,1,-1,-1,-1
17,898,169.73,164.07,146.79,265.96,1,-1,-1,-1
18,898,171.53,164.75,145.48,265.55,1,-1,-1,-1
19,898,175.53,166.89,144.78,264.26,1,-1,-1,-1
22,893,156.46,176.05,80.49,211.66,1,-1,-1,-1
23,893,153.86,175.88,80.64,212.29,1,-1,-1,-1
24,893,153.02,175.83,80.65,212.50,1,-1,-1,-1
25,893,130.98,170.57,81.26,213.85,1,-1,-1,-1
25,894,220.33,185.54,78.18,191.55,1,-1,-1,-1
25,899,306.00,172.00,66.00,204.00,1,-1,-1,-1
25,900,2.00,172.00,48.00,238.00,1,-1,-1,-1
26,893,122.78,168.59,81.53,214.33,1,-1,-1,-1
26,894,219.57,185.86,76.50,190.50,1,-1,-1,-1
26,899,306.00,172.00,66.00,204.00,1,-1,-1,-1
26,900,2.00,172.00,48.00,238.00,1,-1,-1,-1
27,893,119.91,167.87,81.65,214.47,1,-1,-1,-1
27,894,219.78,185.93,75.48,190.29,1,-1,-1,-1
27,899,306.00,172.00,66.00,204.00,1,-1,-1,-1
27,900,2.00,172.00,48.00,238.00,1,-1,-1,-1
28,893,110.13,176.84,79.88,207.91,1,-1,-1,-1
28,894,226.50,187.31,72.56,183.43,1,-1,-1,-1
28,899,306.00,172.00,66.00,204.00,1,-1,-1,-1
28,900,7.60,175.05,42.90,210.52,1,-1,-1,-1
29,893,106.56,180.31,79.51,205.35,1,-1,-1,-1
29,894,229.03,187.83,71.38,180.85,1,-1,-1,-1
29,900,9.22,176.02,41.60,201.78,1,-1,-1,-1
30,893,105.34,181.60,79.68,204.40,1,-1,-1,-1
30,894,229.91,188.01,70.90,179.95,1,-1,-1,-1
30,900,9.42,176.27,41.69,199.61,1,-1,-1,-1
31,893,84.60,174.09,83.61,218.66,1,-1,-1,-1
31,894,240.45,189.42,70.47,178.31,1,-1,-1,-1
31,900,30.13,183.54,43.76,205.07,1,-1,-1,-1
32,893,77.52,171.33,84.15,223.90,1,-1,-1,-1
32,894,244.21,189.93,70.43,177.75,1,-1,-1,-1
32,900,36.67,185.94,45.16,207.12,1,-1,-1,-1
33,893,75.44,170.25,83.60,225.90,1,-1,-1,-1
33,894,245.44,190.11,70.53,177.58,1,-1,-1,-1
33,900,38.43,186.70,46.34,208.07,1,-1,-1,-1
34,893,68.14,169.60,84.28,227.74,1,-1,-1,-1
34,894,254.12,182.12,73.97,185.59,1,-1,-1,-1
34,898,316.95,172.20,144.84,267.83,1,-1,-1,-1
34,900,43.98,188.74,45.76,205.48,1,-1,-1,-1
35,894,257.18,179.18,75.39,188.56,1,-1,-1,-1
35,898,320.87,172.25,143.51,267.96,1,-1,-1,-1
36,894,258.15,178.08,76.05,189.69,1,-1,-1,-1
36,898,322.45,172.27,142.46,268.00,1,-1,-1,-1
37,894,268.23,182.96,75.03,184.83,1,-1,-1,-1
37,898,344.76,168.29,141.62,275.94,1,-1,-1,-1
38,894,271.70,184.88,75.08,182.95,1,-1,-1,-1
38,898,354.07,166.79,138.96,278.91,1,-1,-1,-1
39,894,272.64,185.60,75.52,182.25,1,-1,-1,-1
39,898,358.26,166.21,136.01,280.02,1,-1,-1,-1
40,894,286.50,192.51,73.60,176.69,1,-1,-1,-1
40,898,366.24,166.00,136.56,281.16,1,-1,-1,-1
40,899,409.14,162.06,68.47,205.99,1,-1,-1,-1
40,900,80.95,165.48,55.27,241.84,1,-1,-1,-1
41,894,291.45,195.11,73.08,174.60,1,-1,-1,-1
41,899,411.10,161.80,69.97,206.04,1,-1,-1,-1
41,900,82.60,164.09,56.96,244.01,1,-1,-1,-1
42,894,293.00,196.04,73.08,173.86,1,-1,-1,-1
42,899,411.44,161.71,71.19,206.06,1,-1,-1,-1
42,900,82.73,163.59,58.16,244.78,1,-1,-1,-1
43,894,300.74,189.68,75.75,178.97,1,-1,-1,-1
43,899,427.95,161.70,76.84,224.62,1,-1,-1,-1
43,900,87.91,162.41,58.65,246.85,1,-1,-1,-1
44,894,303.34,187.30,77.03,180.87,1,-1,-1,-1
44,899,434.17,161.70,78.50,231.44,1,-1,-1,-1
45,894,304.00,186.39,77.78,181.61,1,-1,-1,-1
45,899,436.48,161.73,78.81,234.06,1,-1,-1,-1
46,893,-7.42,179.55,80.53,226.58,1,-1,-1,-1
46,894,309.04,190.01,78.67,181.89,1,-1,-1,-1
46,899,443.22,161.30,79.73,236.79,1,-1,-1,-1
47,893,-7.96,180.00,78.05,226.28,1,-1,-1,-1
47,894,310.58,191.38,79.42,182.00,1,-1,-1,-1
48,893,-7.79,180.15,76.24,226.21,1,-1,-1,-1
48,894,310.82,191.90,80.06,182.03,1,-1,-1,-1
49,893,-13.33,180.56,76.34,226.49,1,-1,-1,-1
49,894,316.53,198.68,77.98,175.44,1,-1,-1,-1
50,894,318.32,201.25,77.59,172.92,1,-1,-1,-1
51,894,318.65,202.15,77.83,172.02,1,-1,-1,-1
52,894,330.96,197.11,77.26,169.06,1,-1,-1,-1
52,900,173.52,188.49,59.88,239.08,1,-1,-1,-1
53,894,335.22,195.18,77.46,167.98,1,-1,-1,-1
53,900,175.85,189.94,61.96,238.39,1,-1,-1,-1
54,894,336.44,194.45,77.92,167.63,1,-1,-1,-1
54,900,176.27,190.42,63.64,238.19,1,-1,-1,-1
55,894,346.84,192.84,80.53,174.20,1,-1,-1,-1
55,899,526.83,165.66,76.89,223.57,1,-1,-1,-1
55,900,193.58,181.24,66.69,246.09,1,-1,-1,-1
56,894,350.70,192.24,81.25,176.64,1,-1,-1,-1
56,899,529.24,165.94,77.69,222.47,1,-1,-1,-1
56,900,199.61,177.79,68.26,249.03,1,-1,-1,-1
57,894,352.09,192.02,81.32,177.59,1,-1,-1,-1
57,899,529.99,166.03,78.50,222.16,1,-1,-1,-1
57,900,201.42,176.47,69.21,250.11,1,-1,-1,-1
58,894,357.60,186.68,85.48,188.47,1,-1,-1,-1
58,899,537.01,166.17,78.50,222.15,1,-1,-1,-1
58,900,208.66,175.94,69.56,251.38,1,-1,-1,-1
59,894,359.82,184.69,86.57,192.52,1,-1,-1,-1
60,894,360.71,183.94,86.57,194.06,1,-1,-1,-1
61,894,372.91,190.19,82.02,184.18,1,-1,-1,-1
61,899,535.47,185.70,76.72,218.44,1,-1,-1,-1
62,894,377.49,192.68,80.14,180.23,1,-1,-1,-1
62,899,535.15,187.95,76.21,218.01,1,-1,-1,-1
63,894,379.05,193.60,79.38,178.76,1,-1,-1,-1
63,899,535.14,188.69,75.87,217.87,1,-1,-1,-1
64,894,389.67,192.61,78.60,175.56,1,-1,-1,-1
64,899,542.43,196.87,66.21,185.93,1,-1,-1,-1
64,900,294.40,185.23,66.30,229.81,1,-1,-1,-1
65,894,393.31,192.22,78.65,174.36,1,-1,-1,-1
65,899,544.69,199.88,62.90,173.45,1,-1,-1,-1
65,900,298.33,185.92,67.89,228.20,1,-1,-1,-1
66,894,394.32,192.08,78.98,173.94,1,-1,-1,-1
66,899,545.04,200.78,62.40,169.48,1,-1,-1,-1
66,900,299.31,186.14,69.36,227.69,1,-1,-1,-1
67,894,400.89,193.36,80.99,176.46,1,-1,-1,-1
67,899,548.54,203.25,60.56,164.47,1,-1,-1,-1
67,900,311.27,182.19,72.81,242.26,1,-1,-1,-1
68,894,402.95,193.83,82.22,177.41,1,-1,-1,-1
68,900,315.75,180.73,73.57,247.60,1,-1,-1,-1
69,894,403.34,194.01,83.11,177.78,1,-1,-1,-1
69,900,317.27,180.17,73.46,249.65,1,-1,-1,-1
70,894,407.43,194.19,83.10,177.78,1,-1,-1,-1
70,900,325.26,179.89,73.89,251.12,1,-1,-1,-1
