1,901,548.00,98.00,60.00,180.00,1,-1,-1,-1
1,902,180.00,88.00,70.00,254.00,1,-1,-1,-1
1,903,342.00,88.00,86.00,258.00,1,-1,-1,-1
1,904,446.00,98.00,82.00,240.00,1,-1,-1,-1
1,905,98.00,78.00,62.00,244.00,1,-1,-1,-1
2,893,339.21,88.51,86.64,257.88,1,-1,-1,-1
2,901,548.00,98.00,60.00,180.00,1,-1,-1,-1
2,902,180.00,88.00,70.00,254.00,1,-1,-1,-1
2,904,446.00,98.00,82.00,240.00,1,-1,-1,-1
2,905,98.00,78.00,62.00,244.00,1,-1,-1,-1
3,893,345.95,86.87,86.66,258.40,1,-1,-1,-1
3,901,548.00,98.00,60.00,180.00,1,-1,-1,-1
3,902,180.00,88.00,70.00,254.00,1,-1,-1,-1
3,904,446.00,98.00,82.00,240.00,1,-1,-1,-1
3,905,98.00,78.00,62.00,244.00,1,-1,-1,-1
4,893,352.72,87.65,85.37,253.31,1,-1,-1,-1
4,901,548.32,96.47,59.37,178.47,1,-1,-1,-1
4,902,185.17,92.58,64.24,231.10,1,-1,-1,-1
4,904,450.03,98.00,81.58,238.47,1,-1,-1,-1
4,905,88.28,84.11,63.11,245.53,1,-1,-1,-1
5,893,354.56,88.13,84.99,251.30,1,-1,-1,-1
5,901,548.47,95.99,59.06,177.99,1,-1,-1,-1
5,902,186.60,94.04,62.83,223.80,1,-1,-1,-1
5,904,451.27,98.00,81.53,237.98,1,-1,-1,-1
5,905,84.86,86.06,64.09,246.02,1,-1,-1,-1
6,893,354.66,88.43,84.95,250.53,1,-1,-1,-1
6,901,548.57,95.85,58.85,177.85,1,-1,-1,-1
6,902,186.71,94.41,62.99,221.94,1,-1,-1,-1
6,904,451.57,98.00,81.61,237.85,1,-1,-1,-1
6,905,83.55,86.61,65.06,246.15,1,-1,-1,-1
7,893,362.35,93.97,83.32,244.91,1,-1,-1,-1
7,901,549.72,94.42,60.77,182.04,1,-1,-1,-1
7,902,204.28,95.91,68.11,238.88,1,-1,-1,-1
7,904,455.39,93.79,78.30,228.01,1,-1,-1,-1
7,905,77.61,107.68,59.89,222.40,1,-1,-1,-1
8,893,364.69,96.17,82.81,242.79,1,-1,-1,-1
8,901,549.94,93.94,61.82,183.53,1,-1,-1,-1
8,902,210.05,96.39,70.10,244.67,1,-1,-1,-1
8,904,456.66,92.28,77.17,224.51,1,-1,-1,-1
8,905,75.35,115.21,58.64,213.71,1,-1,-1,-1
9,893,365.11,97.04,82.73,242.02,1,-1,-1,-1
9,901,549.83,93.78,62.55,184.06,1,-1,-1,-1
9,902,211.86,96.51,71.08,246.92,1,-1,-1,-1
9,904,457.01,91.80,76.85,223.39,1,-1,-1,-1
9,905,74.36,117.49,58.99,211.01,1,-1,-1,-1
10,893,373.55,96.21,82.48,241.30,1,-1,-1,-1
10,901,546.00,93.75,62.27,184.23,1,-1,-1,-1
10,902,220.55,99.18,67.04,228.97,1,-1,-1,-1
10,904,471.94,94.40,75.80,223.09,1,-1,-1,-1
10,905,54.97,106.92,59.94,215.84,1,-1,-1,-1
11,901,544.67,93.77,61.96,184.26,1,-1,-1,-1
11,902,223.22,100.13,66.08,222.10,1,-1,-1,-1
11,904,477.58,95.38,74.87,223.08,1,-1,-1,-1
11,905,48.35,103.05,60.07,217.68,1,-1,-1,-1
12,901,544.27,93.79,61.65,184.25,1,-1,-1,-1
12,902,223.66,100.42,66.39,219.77,1,-1,-1,-1
12,904,479.78,95.75,74.00,223.15,1,-1,-1,-1
12,905,46.26,101.51,59.92,218.49,1,-1,-1,-1
13,893,385.16,83.28,79.34,234.56,1,-1,-1,-1
13,901,543.32,97.81,59.17,176.24,1,-1,-1,-1
13,902,231.95,104.55,64.83,212.25,1,-1,-1,-1
13,904,484.27,98.58,72.78,217.87,1,-1,-1,-1
13,905,35.50,96.84,60.16,220.23,1,-1,-1,-1
14,893,386.42,81.82,78.41,233.81,1,-1,-1,-1
14,901,542.93,99.35,58.34,173.17,1,-1,-1,-1
14,902,234.57,106.01,64.69,209.63,1,-1,-1,-1
14,904,485.62,99.64,72.64,215.98,1,-1,-1,-1
14,905,31.78,95.08,60.13,220.94,1,-1,-1,-1
15,893,387.02,81.33,77.78,233.56,1,-1,-1,-1
15,901,542.75,99.91,58.15,172.08,1,-1,-1,-1
15,902,235.13,106.48,65.06,208.82,1,-1,-1,-1
15,904,485.85,100.01,72.90,215.36,1,-1,-1,-1
15,905,30.69,94.40,60.01,221.27,1,-1,-1,-1
16,893,387.16,83.88,82.63,249.47,1,-1,-1,-1
16,901,538.76,100.10,60.61,181.10,1,-1,-1,-1
16,902,248.21,105.25,63.41,201.90,1,-1,-1,-1
16,904,490.08,100.14,73.84,216.54,1,-1,-1,-1
16,905,25.62,94.42,59.75,220.30,1,-1,-1,-1
17,893,387.25,84.83,84.18,255.32,1,-1,-1,-1
17,901,537.49,100.16,61.16,184.41,1,-1,-1,-1
17,902,252.70,104.72,63.12,199.50,1,-1,-1,-1
17,904,491.38,100.17,74.51,217.04,1,-1,-1,-1
18,893,387.16,85.26,84.59,257.58,1,-1,-1,-1
18,901,537.19,100.17,61.07,185.68,1,-1,-1,-1
18,902,253.99,104.49,63.31,198.76,1,-1,-1,-1
18,904,491.61,100.16,75.06,217.29,1,-1,-1,-1
19,893,390.92,85.46,84.63,257.08,1,-1,-1,-1
19,901,532.40,100.16,63.88,192.71,1,-1,-1,-1
19,902,259.08,96.30,69.93,218.81,1,-1,-1,-1
19,904,497.13,98.82,74.81,217.42,1,-1,-1,-1
19,905,5.29,115.44,56.93,205.46,1,-1,-1,-1
19,906,176.00,100.00,52.00,152.00,1,-1,-1,-1
20,893,392.15,85.57,84.73,256.83,1,-1,-1,-1
20,901,530.48,100.15,65.21,195.34,1,-1,-1,-1
20,902,260.82,93.37,72.45,225.99,1,-1,-1,-1
20,904,499.18,98.31,74.56,217.51,1,-1,-1,-1
20,905,2.77,117.87,57.50,203.80,1,-1,-1,-1
20,906,176.00,100.00,52.00,152.00,1,-1,-1,-1
21,893,392.43,85.64,84.84,256.69,1,-1,-1,-1
21,901,529.67,100.13,65.96,196.30,1,-1,-1,-1
21,902,261.22,92.23,73.58,228.85,1,-1,-1,-1
21,904,499.91,98.11,74.33,217.58,1,-1,-1,-1
21,905,1.64,118.65,58.24,203.25,1,-1,-1,-1
21,906,176.00,100.00,52.00,152.00,1,-1,-1,-1
22,893,400.98,87.00,82.18,247.38,1,-1,-1,-1
22,901,529.85,97.50,66.64,199.23,1,-1,-1,-1
22,902,267.08,93.12,73.96,227.32,1,-1,-1,-1
22,904,500.55,100.69,71.99,211.00,1,-1,-1,-1
22,905,-2.93,120.63,57.70,201.34,1,-1,-1,-1
22,906,176.80,100.00,51.93,152.00,1,-1,-1,-1
23,893,403.98,87.55,81.35,243.77,1,-1,-1,-1
23,901,530.04,96.49,66.73,200.30,1,-1,-1,-1
23,902,268.94,93.49,74.55,226.69,1,-1,-1,-1
23,904,500.69,101.66,71.06,208.55,1,-1,-1,-1
23,906,177.09,100.00,51.84,152.00,1,-1,-1,-1
24,893,404.86,87.77,81.23,242.44,1,-1,-1,-1
24,901,530.23,96.11,66.60,200.65,1,-1,-1,-1
24,902,269.27,93.65,75.18,226.43,1,-1,-1,-1
24,904,500.68,102.01,70.69,207.70,1,-1,-1,-1
24,906,177.20,100.00,51.74,152.00,1,-1,-1,-1
25,893,423.43,90.52,75.00,226.01,1,-1,-1,-1
25,901,531.71,97.28,66.40,199.41,1,-1,-1,-1
25,902,278.07,100.32,70.94,211.82,1,-1,-1,-1
25,904,500.25,100.79,68.60,203.43,1,-1,-1,-1
25,906,174.67,95.80,52.63,154.80,1,-1,-1,-1
26,893,430.44,91.57,72.31,219.79,1,-1,-1,-1
26,901,532.26,97.73,66.42,198.88,1,-1,-1,-1
26,902,281.08,102.91,69.59,206.17,1,-1,-1,-1
26,904,500.17,100.32,67.51,201.90,1,-1,-1,-1
26,906,173.79,94.31,52.90,155.79,1,-1,-1,-1
27,893,432.92,91.95,71.05,217.66,1,-1,-1,-1
27,901,532.44,97.91,66.52,198.64,1,-1,-1,-1
27,902,281.87,103.83,69.40,204.17,1,-1,-1,-1
27,904,500.24,100.14,66.82,201.40,1,-1,-1,-1
27,906,173.50,93.80,52.95,156.13,1,-1,-1,-1
28,893,432.07,86.68,73.75,225.08,1,-1,-1,-1
28,901,535.67,100.61,65.53,191.92,1,-1,-1,-1
28,902,288.93,101.47,71.62,212.89,1,-1,-1,-1
28,904,501.38,100.21,66.30,199.84,1,-1,-1,-1
28,906,171.27,90.96,54.55,161.62,1,-1,-1,-1
29,893,431.56,84.76,74.91,227.84,1,-1,-1,-1
29,901,536.61,101.64,65.76,189.32,1,-1,-1,-1
29,902,291.63,100.59,72.01,216.10,1,-1,-1,-1
29,906,170.54,89.93,54.97,163.62,1,-1,-1,-1
30,893,431.13,84.05,75.50,228.95,1,-1,-1,-1
30,901,536.66,102.01,66.44,188.35,1,-1,-1,-1
30,902,292.68,100.25,71.80,217.35,1,-1,-1,-1
30,906,170.37,89.59,54.96,164.34,1,-1,-1,-1
31,893,434.54,83.80,77.56,232.05,1,-1,-1,-1
31,901,537.54,104.79,67.62,188.01,1,-1,-1,-1
31,902,300.96,104.06,68.81,205.97,1,-1,-1,-1
31,906,169.85,90.83,54.58,163.23,1,-1,-1,-1
32,893,435.43,83.73,78.89,233.24,1,-1,-1,-1
32,901,537.51,105.82,68.75,187.89,1,-1,-1,-1
32,902,303.75,105.53,68.03,201.58,1,-1,-1,-1
32,906,169.69,91.35,54.40,162.75,1,-1,-1,-1
33,893,435.40,83.73,79.89,233.70,1,-1,-1,-1
33,901,537.18,106.17,69.80,187.86,1,-1,-1,-1
33,902,304.44,106.04,68.13,200.03,1,-1,-1,-1
33,906,169.65,91.57,54.32,162.54,1,-1,-1,-1
34,893,445.99,89.03,78.62,227.28,1,-1,-1,-1
34,901,541.58,108.93,67.75,182.55,1,-1,-1,-1
34,902,310.12,106.21,69.08,199.51,1,-1,-1,-1
34,906,169.13,91.04,54.56,163.25,1,-1,-1,-1
35,893,449.66,91.06,78.59,224.84,1,-1,-1,-1
35,901,543.25,109.95,66.93,180.56,1,-1,-1,-1
35,902,311.78,106.25,70.05,199.38,1,-1,-1,-1
36,893,450.67,91.81,79.02,223.97,1,-1,-1,-1
36,901,543.85,110.29,66.60,179.86,1,-1,-1,-1
36,902,311.98,106.24,70.97,199.38,1,-1,-1,-1
37,893,455.68,94.73,78.95,218.36,1,-1,-1,-1
37,901,544.90,106.38,68.77,186.30,1,-1,-1,-1
37,902,319.91,108.88,68.63,190.12,1,-1,-1,-1
38,893,456.92,95.81,79.92,216.30,1,-1,-1,-1
38,901,545.33,104.92,69.45,188.70,1,-1,-1,-1
38,902,322.49,109.86,68.23,186.67,1,-1,-1,-1
39,893,456.78,96.18,81.20,215.59,1,-1,-1,-1
39,901,545.51,104.35,69.61,189.62,1,-1,-1,-1
39,902,323.05,110.19,68.56,185.50,1,-1,-1,-1
40,893,458.71,100.29,80.13,212.72,1,-1,-1,-1
40,901,544.56,102.81,70.34,196.55,1,-1,-1,-1
40,902,337.78,104.91,70.26,190.52,1,-1,-1,-1
41,893,459.30,101.80,79.76,211.71,1,-1,-1,-1
41,901,544.68,102.23,69.60,199.14,1,-1,-1,-1
41,902,343.11,102.97,70.81,192.41,1,-1,-1,-1
42,893,459.39,102.31,79.66,211.39,1,-1,-1,-1
42,901,545.15,102.01,68.42,200.10,1,-1,-1,-1
42,902,344.98,102.23,70.96,193.17,1,-1,-1,-1
43,893,459.90,101.13,75.83,200.68,1,-1,-1,-1
43,901,546.48,107.17,65.62,193.88,1,-1,-1,-1
43,902,348.93,96.67,70.77,193.50,1,-1,-1,-1
44,893,459.90,100.62,74.52,196.71,1,-1,-1,-1
44,901,547.15,109.17,64.19,191.43,1,-1,-1,-1
44,902,350.32,94.60,70.54,193.64,1,-1,-1,-1
45,893,459.77,100.41,74.17,195.37,1,-1,-1,-1
45,901,547.54,109.90,63.33,190.51,1,-1,-1,-1
45,902,350.75,93.85,70.31,193.72,1,-1,-1,-1
46,893,470.59,98.97,77.74,203.04,1,-1,-1,-1
46,901,547.88,110.45,63.32,190.48,1,-1,-1,-1
46,902,356.48,96.25,70.70,195.09,1,-1,-1,-1
47,893,474.31,98.43,79.43,205.88,1,-1,-1,-1
47,902,358.53,97.19,70.80,195.61,1,-1,-1,-1
48,893,475.44,98.22,80.42,207.02,1,-1,-1,-1
48,902,359.18,97.57,70.78,195.82,1,-1,-1,-1
49,893,478.03,99.45,81.53,208.80,1,-1,-1,-1
49,901,541.83,106.69,65.83,198.91,1,-1,-1,-1
49,902,379.56,99.05,68.52,190.62,1,-1,-1,-1
50,893,478.79,99.90,82.18,209.49,1,-1,-1,-1
50,901,541.21,106.23,65.91,199.90,1,-1,-1,-1
50,902,387.23,99.63,67.47,188.65,1,-1,-1,-1
51,893,478.87,100.07,82.63,209.76,1,-1,-1,-1
51,901,541.07,106.07,65.81,200.24,1,-1,-1,-1
51,902,389.98,99.85,66.91,187.95,1,-1,-1,-1
52,893,487.98,100.12,78.97,201.96,1,-1,-1,-1
52,901,535.39,100.76,66.52,200.34,1,-1,-1,-1
52,902,394.76,95.94,70.74,198.35,1,-1,-1,-1
52,904,449.41,100.01,59.71,185.92,1,-1,-1,-1
53,893,491.47,100.12,77.29,198.99,1,-1,-1,-1
53,901,533.08,98.74,67.11,200.36,1,-1,-1,-1
53,902,396.40,94.51,72.23,202.19,1,-1,-1,-1
53,904,449.08,100.00,58.46,185.78,1,-1,-1,-1
54,893,492.78,100.12,76.42,197.93,1,-1,-1,-1
54,901,532.10,98.00,67.62,200.33,1,-1,-1,-1
54,902,396.79,93.97,72.86,203.67,1,-1,-1,-1
54,904,449.21,100.00,57.63,185.75,1,-1,-1,-1
55,893,495.64,100.31,75.97,196.76,1,-1,-1,-1
55,901,528.23,96.43,68.27,200.30,1,-1,-1,-1
55,902,402.71,89.86,74.28,202.89,1,-1,-1,-1
55,904,447.29,99.99,57.49,185.28,1,-1,-1,-1
56,901,526.64,95.87,68.85,200.27,1,-1,-1,-1
56,902,404.36,88.31,75.69,202.56,1,-1,-1,-1
57,901,525.94,95.68,69.36,200.24,1,-1,-1,-1
57,902,404.42,87.76,77.02,202.41,1,-1,-1,-1
58,901,529.37,94.32,68.85,197.57,1,-1,-1,-1
58,902,408.37,92.86,75.93,195.74,1,-1,-1,-1
59,901,530.61,93.84,68.85,196.55,1,-1,-1,-1
59,902,409.32,94.85,76.23,193.17,1,-1,-1,-1
60,901,531.01,93.69,69.04,196.16,1,-1,-1,-1
60,902,409.18,95.60,77.02,192.23,1,-1,-1,-1
61,901,536.22,97.63,68.29,190.72,1,-1,-1,-1
61,902,406.91,95.87,78.85,194.56,1,-1,-1,-1
62,901,537.91,99.16,68.60,188.67,1,-1,-1,-1
62,902,405.71,95.98,80.02,195.44,1,-1,-1,-1
63,901,538.25,99.73,69.26,187.94,1,-1,-1,-1
63,902,404.94,96.01,80.90,195.78,1,-1,-1,-1
64,901,542.77,102.60,67.35,181.04,1,-1,-1,-1
64,902,406.50,99.99,76.02,182.70,1,-1,-1,-1
65,901,544.29,103.68,66.95,178.48,1,-1,-1,-1
65,902,406.85,101.51,74.38,177.67,1,-1,-1,-1
66,901,544.65,104.06,67.13,177.61,1,-1,-1,-1
66,902,406.78,102.04,74.06,175.93,1,-1,-1,-1
67,893,401.99,92.18,68.39,182.01,1,-1,-1,-1
67,901,549.17,110.87,67.72,178.69,1,-1,-1,-1
67,902,429.72,100.87,70.93,172.67,1,-1,-1,-1
68,893,399.52,91.91,66.89,181.64,1,-1,-1,-1
68,901,550.75,113.37,68.06,179.14,1,-1,-1,-1
68,902,438.58,100.41,68.89,171.55,1,-1,-1,-1
69,893,398.97,91.82,65.81,181.50,1,-1,-1,-1
69,901,551.23,114.26,68.30,179.36,1,-1,-1,-1
69,902,442.09,100.23,67.33,171.22,1,-1,-1,-1
70,893,393.35,93.14,63.28,177.50,1,-1,-1,-1
70,901,551.06,102.58,71.66,191.43,1,-1,-1,-1
70,902,448.23,101.49,68.78,176.52,1,-1,-1,-1
71,893,391.69,93.65,61.90,176.04,1,-1,-1,-1
71,901,551.33,98.27,72.18,195.88,1,-1,-1,-1
71,902,450.54,101.94,68.98,178.51,1,-1,-1,-1
72,893,391.46,93.85,61.02,175.56,1,-1,-1,-1
72,901,551.69,96.59,71.77,197.61,1,-1,-1,-1
72,902,451.40,102.10,68.76,179.31,1,-1,-1,-1
73,893,379.49,95.26,60.77,176.77,1,-1,-1,-1
73,901,551.30,92.04,71.27,199.54,1,-1,-1,-1
73,902,454.36,100.83,67.02,178.31,1,-1,-1,-1
73,907,170.00,92.00,56.00,164.00,1,-1,-1,-1
74,893,375.37,95.79,60.36,177.26,1,-1,-1,-1
74,901,551.43,90.33,70.43,200.24,1,-1,-1,-1
74,902,455.69,100.33,65.66,177.95,1,-1,-1,-1
74,907,170.00,92.00,56.00,164.00,1,-1,-1,-1
75,893,374.16,95.98,59.94,177.48,1,-1,-1,-1
75,901,551.74,89.71,69.52,200.47,1,-1,-1,-1
75,902,456.37,100.14,64.50,177.83,1,-1,-1,-1
75,907,170.00,92.00,56.00,164.00,1,-1,-1,-1
76,893,371.50,97.37,60.60,177.60,1,-1,-1,-1
76,901,551.59,97.39,65.72,193.95,1,-1,-1,-1
76,902,460.70,100.07,66.28,183.10,1,-1,-1,-1
76,907,172.88,93.53,56.35,165.53,1,-1,-1,-1
77,893,370.52,97.89,61.17,177.66,1,-1,-1,-1
77,901,551.89,100.39,63.47,191.40,1,-1,-1,-1
77,902,462.27,100.04,66.86,185.07,1,-1,-1,-1
77,907,173.88,94.02,56.31,166.02,1,-1,-1,-1
78,893,370.18,98.07,61.67,177.71,1,-1,-1,-1
78,901,552.35,101.51,61.92,190.45,1,-1,-1,-1
78,902,462.78,100.03,67.02,185.82,1,-1,-1,-1
78,907,174.24,94.15,56.13,166.15,1,-1,-1,-1
79,893,367.07,103.43,60.17,171.13,1,-1,-1,-1
79,901,550.53,108.55,57.34,178.16,1,-1,-1,-1
79,902,463.69,105.28,65.41,182.15,1,-1,-1,-1
79,907,176.12,95.57,55.27,163.38,1,-1,-1,-1
80,893,365.87,105.44,60.00,168.65,1,-1,-1,-1
80,901,549.96,111.22,55.32,173.48,1,-1,-1,-1
80,902,463.99,107.28,64.65,180.72,1,-1,-1,-1
80,907,176.72,96.06,55.00,162.37,1,-1,-1,-1
81,893,365.38,106.15,60.31,167.79,1,-1,-1,-1
81,901,549.89,112.14,54.34,171.86,1,-1,-1,-1
81,902,464.08,108.00,64.23,180.19,1,-1,-1,-1
81,907,176.87,96.21,54.96,162.01,1,-1,-1,-1
82,893,362.72,103.70,58.94,162.18,1,-1,-1,-1
82,901,546.76,111.09,54.86,175.38,1,-1,-1,-1
82,902,477.87,104.28,64.20,182.65,1,-1,-1,-1
82,907,177.68,100.31,53.36,156.47,1,-1,-1,-1
83,893,361.70,102.74,58.77,160.14,1,-1,-1,-1
83,901,545.78,110.67,54.74,176.72,1,-1,-1,-1
83,902,483.21,102.86,63.70,183.57,1,-1,-1,-1
83,907,177.85,101.80,52.93,154.43,1,-1,-1,-1
84,893,361.27,102.37,59.03,159.46,1,-1,-1,-1
84,901,545.58,110.47,54.43,177.27,1,-1,-1,-1
84,902,485.33,102.31,63.08,183.92,1,-1,-1,-1
84,907,177.80,102.29,52.95,153.74,1,-1,-1,-1
85,893,356.72,100.88,58.75,155.26,1,-1,-1,-1
85,901,540.12,106.39,54.51,174.86,1,-1,-1,-1
85,902,492.03,102.10,63.97,182.73,1,-1,-1,-1
85,907,178.05,103.78,52.39,152.19,1,-1,-1,-1
86,893,354.80,100.31,59.32,153.77,1,-1,-1,-1
86,901,537.88,104.83,54.97,173.98,1,-1,-1,-1
86,902,494.10,102.02,64.98,182.27,1,-1,-1,-1
86,907,178.12,104.28,52.18,151.67,1,-1,-1,-1
87,893,353.89,100.10,60.15,153.30,1,-1,-1,-1
87,901,536.90,104.24,55.55,173.69,1,-1,-1,-1
87,902,494.43,102.00,65.97,182.09,1,-1,-1,-1
87,907,178.13,104.43,52.11,151.52,1,-1,-1,-1
88,893,353.59,101.36,59.24,151.86,1,-1,-1,-1
88,901,535.76,104.09,55.28,172.85,1,-1,-1,-1
88,902,501.12,100.66,68.81,182.02,1,-1,-1,-1
88,907,179.08,103.10,52.83,152.85,1,-1,-1,-1
89,893,353.66,101.83,58.74,151.39,1,-1,-1,-1
89,902,502.76,100.16,71.39,182.00,1,-1,-1,-1
89,907,179.35,102.58,53.26,153.37,1,-1,-1,-1
90,893,353.83,102.00,58.42,151.29,1,-1,-1,-1
90,902,502.55,99.98,73.73,181.99,1,-1,-1,-1
90,907,179.35,102.36,53.56,153.60,1,-1,-1,-1
91,893,352.42,103.39,60.06,155.30,1,-1,-1,-1
91,902,517.78,101.24,71.47,175.38,1,-1,-1,-1
91,907,179.84,102.77,53.40,153.13,1,-1,-1,-1
92,893,351.91,103.90,60.74,156.83,1,-1,-1,-1
92,902,523.30,101.74,70.82,172.87,1,-1,-1,-1
93,893,351.75,104.08,61.05,157.43,1,-1,-1,-1
93,902,525.05,101.92,70.79,171.97,1,-1,-1,-1
94,893,349.96,101.49,62.09,160.32,1,-1,-1,-1
94,902,528.19,101.98,70.80,169.01,1,-1,-1,-1
94,907,181.03,102.22,53.88,153.75,1,-1,-1,-1
94,908,322.00,106.00,62.00,156.00,1,-1,-1,-1
95,893,349.35,100.51,62.45,161.42,1,-1,-1,-1
95,902,528.84,102.01,71.46,167.94,1,-1,-1,-1
95,907,181.06,102.14,54.14,153.83,1,-1,-1,-1
95,908,322.00,106.00,62.00,156.00,1,-1,-1,-1
96,893,349.18,100.14,62.55,161.84,1,-1,-1,-1
96,902,528.63,102.01,72.31,167.59,1,-1,-1,-1
96,907,181.00,102.12,54.34,153.87,1,-1,-1,-1
96,908,322.00,106.00,62.00,156.00,1,-1,-1,-1
97,893,352.63,102.64,60.91,159.36,1,-1,-1,-1
97,902,526.04,102.02,73.37,167.51,1,-1,-1,-1
97,907,180.92,102.10,54.52,153.88,1,-1,-1,-1
97,908,318.30,106.00,61.78,156.00,1,-1,-1,-1
98,893,354.16,103.59,59.94,158.41,1,-1,-1,-1
98,902,524.65,102.01,74.36,167.51,1,-1,-1,-1
98,907,180.83,102.09,54.67,153.90,1,-1,-1,-1
98,908,317.20,106.00,61.52,156.00,1,-1,-1,-1
99,893,354.92,103.94,59.25,158.06,1,-1,-1,-1
99,902,523.75,102.01,75.28,167.55,1,-1,-1,-1
99,907,180.75,102.08,54.81,153.91,1,-1,-1,-1
99,908,317.01,106.00,61.23,156.00,1,-1,-1,-1
100,893,357.36,108.03,56.04,152.64,1,-1,-1,-1
100,901,504.60,111.83,53.40,158.08,1,-1,-1,-1
100,902,526.62,100.68,75.67,168.93,1,-1,-1,-1
100,907,181.43,99.42,54.73,152.60,1,-1,-1,-1
100,908,314.79,104.60,59.94,154.60,1,-1,-1,-1
101,893,358.60,109.57,54.23,150.60,1,-1,-1,-1
101,901,502.74,112.09,55.32,157.69,1,-1,-1,-1
101,902,527.68,100.19,75.71,169.47,1,-1,-1,-1
101,907,181.58,98.42,54.91,152.11,1,-1,-1,-1
101,908,314.30,104.10,59.00,154.10,1,-1,-1,-1
102,893,359.34,110.11,53.01,149.88,1,-1,-1,-1
102,901,501.67,112.17,56.82,157.55,1,-1,-1,-1
102,902,528.05,100.00,75.62,169.69,1,-1,-1,-1
102,907,181.53,98.05,55.15,151.94,1,-1,-1,-1
102,908,314.42,103.93,58.18,153.93,1,-1,-1,-1
103,893,358.68,107.62,53.11,153.65,1,-1,-1,-1
103,901,498.17,116.20,54.39,149.52,1,-1,-1,-1
103,902,534.22,105.23,71.31,161.85,1,-1,-1,-1
103,907,180.66,97.92,55.61,151.88,1,-1,-1,-1
103,908,311.64,97.10,60.93,163.38,1,-1,-1,-1
104,893,358.78,106.68,52.47,155.07,1,-1,-1,-1
104,901,496.86,117.69,53.67,146.54,1,-1,-1,-1
104,902,536.67,107.24,69.27,158.88,1,-1,-1,-1
104,907,180.20,97.88,56.03,151.87,1,-1,-1,-1
104,908,310.92,94.64,61.39,166.80,1,-1,-1,-1
105,893,359.12,106.30,51.63,155.62,1,-1,-1,-1
105,901,496.38,118.20,53.61,145.54,1,-1,-1,-1
105,902,537.67,107.95,68.17,157.84,1,-1,-1,-1
105,907,179.90,97.88,56.41,151.88,1,-1,-1,-1
105,908,310.95,93.74,61.08,168.08,1,-1,-1,-1
106,893,361.03,107.47,49.08,149.24,1,-1,-1,-1
106,901,491.93,118.35,54.22,145.25,1,-1,-1,-1
106,902,542.70,109.52,64.98,153.50,1,-1,-1,-1
106,907,179.48,97.89,57.18,153.21,1,-1,-1,-1
106,908,307.75,96.09,59.56,164.56,1,-1,-1,-1
107,893,361.88,107.91,47.90,146.81,1,-1,-1,-1
107,901,490.18,118.37,54.82,145.21,1,-1,-1,-1
107,902,544.81,110.08,63.15,151.94,1,-1,-1,-1
107,907,179.24,97.90,57.61,153.72,1,-1,-1,-1
107,908,306.66,97.05,58.82,163.14,1,-1,-1,-1
108,893,362.29,108.06,47.27,145.95,1,-1,-1,-1
108,901,489.46,118.35,55.36,145.26,1,-1,-1,-1
108,902,545.81,110.26,61.88,151.43,1,-1,-1,-1
108,907,179.09,97.91,57.90,153.91,1,-1,-1,-1
108,908,306.36,97.45,58.41,162.58,1,-1,-1,-1
109,893,361.40,104.11,47.79,149.67,1,-1,-1,-1
109,901,491.46,118.31,55.21,142.67,1,-1,-1,-1
109,902,546.00,108.96,60.30,151.31,1,-1,-1,-1
109,907,178.62,99.24,57.51,152.67,1,-1,-1,-1
109,908,305.38,96.29,58.78,165.00,1,-1,-1,-1
110,893,361.25,102.64,47.62,151.06,1,-1,-1,-1
110,901,492.08,118.27,55.59,141.75,1,-1,-1,-1
110,902,546.40,108.46,58.92,151.32,1,-1,-1,-1
110,907,178.42,99.75,57.40,152.19,1,-1,-1,-1
110,908,305.19,95.88,58.64,165.89,1,-1,-1,-1
111,893,361.36,102.09,47.23,151.61,1,-1,-1,-1
111,901,492.16,118.24,56.12,141.47,1,-1,-1,-1
111,902,546.85,108.25,57.69,151.37,1,-1,-1,-1
111,907,178.32,99.94,57.40,152.02,1,-1,-1,-1
111,908,305.29,95.75,58.33,166.20,1,-1,-1,-1
112,893,361.27,101.70,47.19,151.49,1,-1,-1,-1
112,901,490.45,115.54,58.56,144.08,1,-1,-1,-1
112,902,546.78,110.83,56.28,148.78,1,-1,-1,-1
112,907,179.17,100.01,58.29,154.61,1,-1,-1,-1
112,908,305.53,97.04,56.59,162.34,1,-1,-1,-1
113,901,489.46,114.53,60.23,145.09,1,-1,-1,-1
113,902,546.81,111.78,55.55,147.85,1,-1,-1,-1
113,907,179.51,100.03,58.58,155.58,1,-1,-1,-1
113,908,305.77,97.56,55.72,160.84,1,-1,-1,-1
114,901,488.80,114.15,61.52,145.50,1,-1,-1,-1
114,902,546.88,112.11,55.10,147.55,1,-1,-1,-1
114,907,179.65,100.03,58.65,155.94,1,-1,-1,-1
114,908,305.99,97.77,55.20,160.27,1,-1,-1,-1
115,893,404.00,112.46,43.34,137.73,1,-1,-1,-1
115,901,491.95,112.69,60.56,144.35,1,-1,-1,-1
115,902,546.44,114.88,54.48,144.82,1,-1,-1,-1
115,907,179.94,101.35,58.21,154.75,1,-1,-1,-1
115,908,305.81,99.18,54.26,158.73,1,-1,-1,-1
115,909,456.00,114.00,50.00,146.00,1,-1,-1,-1
116,893,408.96,113.77,43.19,136.10,1,-1,-1,-1
116,901,493.29,112.14,59.95,143.94,1,-1,-1,-1
116,902,546.14,115.89,54.48,143.85,1,-1,-1,-1
116,907,180.04,101.85,58.04,154.29,1,-1,-1,-1
116,908,305.88,99.72,53.69,158.16,1,-1,-1,-1
116,909,456.00,114.00,50.00,146.00,1,-1,-1,-1
117,893,410.45,114.18,43.34,135.57,1,-1,-1,-1
117,901,493.92,111.95,59.51,143.80,1,-1,-1,-1
117,902,545.90,116.24,54.69,143.54,1,-1,-1,-1
117,907,180.07,102.03,57.98,154.11,1,-1,-1,-1
117,908,306.04,99.92,53.28,157.96,1,-1,-1,-1
117,909,456.00,114.00,50.00,146.00,1,-1,-1,-1
118,893,412.15,114.31,43.50,136.77,1,-1,-1,-1
118,901,495.49,113.21,58.02,141.12,1,-1,-1,-1
118,902,546.42,117.00,54.26,142.41,1,-1,-1,-1
118,907,179.86,99.44,58.39,155.37,1,-1,-1,-1
118,908,305.47,99.98,53.19,157.68,1,-1,-1,-1
118,909,454.32,115.53,48.78,142.95,1,-1,-1,-1
119,893,412.71,114.33,43.45,137.26,1,-1,-1,-1
119,901,496.18,113.70,57.27,140.13,1,-1,-1,-1
119,907,179.80,98.46,58.51,155.84,1,-1,-1,-1
119,909,453.85,116.01,48.25,141.97,1,-1,-1,-1
120,893,412.82,114.31,43.35,137.48,1,-1,-1,-1
120,901,496.52,113.88,56.82,139.79,1,-1,-1,-1
120,907,179.79,98.10,58.52,156.01,1,-1,-1,-1
120,909,453.81,116.15,47.93,141.70,1,-1,-1,-1
121,893,414.12,114.28,43.23,137.59,1,-1,-1,-1
121,901,498.61,113.95,54.07,134.37,1,-1,-1,-1
121,907,180.50,94.01,58.39,158.71,1,-1,-1,-1
121,909,453.31,116.58,47.64,140.85,1,-1,-1,-1
122,893,414.54,114.25,43.11,137.66,1,-1,-1,-1
122,901,499.53,113.98,52.77,132.37,1,-1,-1,-1
122,907,181.08,92.48,57.73,159.71,1,-1,-1,-1
123,893,414.63,114.22,43.01,137.71,1,-1,-1,-1
123,901,499.98,113.99,52.05,131.68,1,-1,-1,-1
123,907,181.57,91.92,56.93,160.08,1,-1,-1,-1
124,893,414.41,115.52,43.30,137.75,1,-1,-1,-1
124,901,498.69,109.98,54.69,139.51,1,-1,-1,-1
124,907,184.43,89.10,56.52,161.51,1,-1,-1,-1
124,908,277.92,84.87,60.44,182.51,1,-1,-1,-1
125,893,414.18,115.99,43.57,137.78,1,-1,-1,-1
125,901,498.35,108.52,55.39,142.38,1,-1,-1,-1
125,907,185.75,88.06,55.88,162.04,1,-1,-1,-1
125,908,276.56,83.88,60.07,184.15,1,-1,-1,-1
126,893,413.95,116.15,43.81,137.81,1,-1,-1,-1
126,901,498.32,107.97,55.45,143.50,1,-1,-1,-1
126,907,186.46,87.70,55.19,162.22,1,-1,-1,-1
126,908,276.32,83.53,59.51,184.72,1,-1,-1,-1
127,893,412.26,117.52,45.67,141.80,1,-1,-1,-1
127,901,499.21,110.41,54.97,141.30,1,-1,-1,-1
127,907,187.11,87.60,54.14,160.95,1,-1,-1,-1
127,908,277.42,82.14,58.35,183.58,1,-1,-1,-1
128,893,411.43,118.02,46.69,143.30,1,-1,-1,-1
128,901,499.45,111.37,54.98,140.44,1,-1,-1,-1
128,907,187.50,87.59,53.42,160.44,1,-1,-1,-1
128,908,278.12,81.65,57.53,183.07,1,-1,-1,-1
129,893,410.92,118.19,47.37,143.87,1,-1,-1,-1
129,901,499.45,111.74,55.16,140.12,1,-1,-1,-1
129,907,187.78,87.62,52.85,160.24,1,-1,-1,-1
129,908,278.61,81.50,56.88,182.82,1,-1,-1,-1
130,893,409.06,119.55,46.95,141.44,1,-1,-1,-1
130,901,496.15,113.21,55.20,140.01,1,-1,-1,-1
130,907,187.80,88.98,51.44,156.19,1,-1,-1,-1
130,908,279.73,82.80,56.21,181.37,1,-1,-1,-1
131,893,408.22,120.04,46.98,140.50,1,-1,-1,-1
131,901,494.88,113.76,55.26,139.97,1,-1,-1,-1
131,907,187.82,89.52,50.86,154.64,1,-1,-1,-1
131,908,280.27,83.33,55.83,180.77,1,-1,-1,-1
132,893,407.79,120.21,47.17,140.15,1,-1,-1,-1
132,901,494.39,113.97,55.33,139.95,1,-1,-1,-1
132,907,187.84,89.74,50.61,154.08,1,-1,-1,-1
132,908,280.57,83.56,55.59,180.51,1,-1,-1,-1
133,893,403.19,116.28,46.82,140.02,1,-1,-1,-1
133,901,494.05,114.11,55.29,139.87,1,-1,-1,-1
133,907,187.65,92.49,49.55,151.23,1,-1,-1,-1
133,908,282.14,90.26,53.98,172.48,1,-1,-1,-1
133,909,460.39,106.17,50.86,149.79,1,-1,-1,-1
134,893,401.53,114.78,46.54,139.97,1,-1,-1,-1
134,907,187.61,93.53,49.10,150.18,1,-1,-1,-1
134,908,282.59,92.85,53.75,169.37,1,-1,-1,-1
134,909,460.54,105.85,51.11,150.08,1,-1,-1,-1
135,893,400.99,114.22,46.29,139.96,1,-1,-1,-1
135,907,187.61,93.91,48.88,149.81,1,-1,-1,-1
135,908,282.59,93.79,54.06,168.24,1,-1,-1,-1
135,909,460.56,105.74,51.26,150.17,1,-1,-1,-1
136,893,399.35,112.69,46.44,141.28,1,-1,-1,-1
136,907,185.17,92.72,49.69,152.37,1,-1,-1,-1
136,908,280.89,95.45,53.60,165.18,1,-1,-1,-1
136,909,460.87,101.79,51.98,151.51,1,-1,-1,-1
137,893,398.83,112.12,46.35,141.78,1,-1,-1,-1
137,907,184.27,92.27,49.98,153.34,1,-1,-1,-1
137,908,280.15,96.05,53.71,164.07,1,-1,-1,-1
137,909,460.92,100.31,52.37,152.00,1,-1,-1,-1
138,893,398.72,111.92,46.18,141.97,1,-1,-1,-1
138,907,183.94,92.09,50.09,153.72,1,-1,-1,-1
138,908,279.77,96.24,54.01,163.70,1,-1,-1,-1
138,909,460.87,99.78,52.61,152.17,1,-1,-1,-1
139,893,397.65,107.90,48.21,148.63,1,-1,-1,-1
139,907,183.83,94.67,50.12,153.87,1,-1,-1,-1
139,908,277.25,93.62,54.92,164.93,1,-1,-1,-1
139,909,460.42,98.30,53.54,154.85,1,-1,-1,-1
140,893,397.30,106.41,48.89,151.11,1,-1,-1,-1
140,907,183.81,95.64,50.12,153.93,1,-1,-1,-1
140,908,276.20,92.63,55.54,165.42,1,-1,-1,-1
140,909,460.24,97.77,53.89,155.84,1,-1,-1,-1
141,893,397.22,105.86,49.08,152.04,1,-1,-1,-1
141,907,183.81,96.00,50.12,153.95,1,-1,-1,-1
141,908,275.71,92.24,56.02,165.63,1,-1,-1,-1
141,909,460.16,97.60,54.02,156.19,1,-1,-1,-1
142,893,396.31,105.68,49.65,152.36,1,-1,-1,-1
142,907,181.77,92.15,51.59,159.25,1,-1,-1,-1
142,908,271.84,86.80,58.34,172.35,1,-1,-1,-1
142,909,459.57,97.57,53.86,156.30,1,-1,-1,-1
143,893,395.85,105.64,50.11,152.45,1,-1,-1,-1
143,907,181.08,90.71,51.99,161.23,1,-1,-1,-1
143,908,270.40,84.77,59.23,174.86,1,-1,-1,-1
143,909,459.39,97.59,53.68,156.32,1,-1,-1,-1
144,893,395.59,105.65,50.49,152.44,1,-1,-1,-1
144,907,180.89,90.16,52.02,161.97,1,-1,-1,-1
144,908,269.88,84.01,59.59,175.81,1,-1,-1,-1
144,909,459.36,97.63,53.52,156.30,1,-1,-1,-1
145,893,397.10,108.31,48.75,148.47,1,-1,-1,-1
145,901,376.03,119.92,54.46,138.02,1,-1,-1,-1
145,907,178.99,92.58,50.47,156.98,1,-1,-1,-1
145,908,268.60,86.38,58.02,172.22,1,-1,-1,-1
145,909,460.35,102.94,51.46,149.69,1,-1,-1,-1
146,893,397.81,109.35,47.86,146.92,1,-1,-1,-1
146,901,372.20,120.10,54.37,137.96,1,-1,-1,-1
146,907,178.27,93.52,49.89,155.03,1,-1,-1,-1
146,908,268.25,87.31,57.23,170.81,1,-1,-1,-1
146,909,460.67,105.00,50.76,147.13,1,-1,-1,-1
147,893,398.18,109.74,47.33,146.33,1,-1,-1,-1
147,901,370.89,120.16,54.31,137.94,1,-1,-1,-1
147,907,178.01,93.87,49.70,154.31,1,-1,-1,-1
147,908,268.23,87.68,56.77,170.28,1,-1,-1,-1
147,909,460.74,105.76,50.60,146.20,1,-1,-1,-1
148,893,402.39,112.55,45.64,143.46,1,-1,-1,-1
148,901,366.38,120.17,52.21,136.61,1,-1,-1,-1
148,907,177.93,96.65,49.65,154.04,1,-1,-1,-1
148,908,269.10,95.76,53.60,162.14,1,-1,-1,-1
148,909,457.85,103.36,51.04,149.88,1,-1,-1,-1
149,893,404.18,113.61,44.61,142.37,1,-1,-1,-1
149,901,365.30,120.16,50.75,136.12,1,-1,-1,-1
149,907,177.91,97.69,49.65,153.95,1,-1,-1,-1
149,908,269.60,98.85,52.17,159.04,1,-1,-1,-1
149,909,457.00,102.46,50.76,151.25,1,-1,-1,-1
150,893,405.01,113.99,43.87,141.99,1,-1,-1,-1
150,901,365.43,120.14,49.63,135.94,1,-1,-1,-1
150,907,177.91,98.06,49.68,153.92,1,-1,-1,-1
150,908,269.91,99.95,51.44,157.95,1,-1,-1,-1
150,909,456.88,102.12,50.26,151.77,1,-1,-1,-1
151,893,407.92,114.12,42.37,139.20,1,-1,-1,-1
151,901,364.27,118.80,48.09,134.56,1,-1,-1,-1
151,907,181.50,99.51,49.16,151.27,1,-1,-1,-1
151,908,268.22,100.32,50.82,156.26,1,-1,-1,-1
151,909,456.46,102.00,49.53,150.65,1,-1,-1,-1
152,893,409.15,114.15,41.48,138.17,1,-1,-1,-1
152,901,364.30,118.28,47.03,134.05,1,-1,-1,-1
152,907,182.78,100.03,49.15,150.27,1,-1,-1,-1
152,908,267.64,100.41,50.56,155.68,1,-1,-1,-1
152,909,456.41,101.96,49.07,150.22,1,-1,-1,-1
153,893,409.74,114.15,40.85,137.81,1,-1,-1,-1
153,901,364.71,118.09,46.21,133.88,1,-1,-1,-1
153,907,183.17,100.21,49.31,149.92,1,-1,-1,-1
153,908,267.47,100.41,50.44,155.51,1,-1,-1,-1
153,909,456.49,101.95,48.73,150.06,1,-1,-1,-1
154,893,410.47,114.14,40.88,139.04,1,-1,-1,-1
154,901,363.32,118.02,45.32,133.83,1,-1,-1,-1
154,907,179.83,98.92,49.71,151.14,1,-1,-1,-1
154,908,267.63,104.38,48.69,151.49,1,-1,-1,-1
154,909,454.89,104.59,47.91,147.35,1,-1,-1,-1
154,910,322.00,116.00,42.00,134.00,1,-1,-1,-1
155,893,410.80,114.13,40.72,139.52,1,-1,-1,-1
155,901,363.16,117.99,44.55,133.83,1,-1,-1,-1
155,907,178.57,98.42,49.87,151.61,1,-1,-1,-1
155,908,267.83,105.83,47.82,150.03,1,-1,-1,-1
155,909,454.29,105.60,47.63,146.33,1,-1,-1,-1
155,910,322.00,116.00,42.00,134.00,1,-1,-1,-1
156,893,410.99,114.11,40.51,139.72,1,-1,-1,-1
156,901,363.43,117.98,43.88,133.84,1,-1,-1,-1
156,907,178.10,98.22,49.93,151.80,1,-1,-1,-1
156,908,268.03,106.32,47.30,149.55,1,-1,-1,-1
156,909,454.07,105.96,47.56,145.97,1,-1,-1,-1
156,910,322.00,116.00,42.00,134.00,1,-1,-1,-1
157,893,411.75,112.77,41.65,143.78,1,-1,-1,-1
157,901,363.06,117.98,43.48,133.85,1,-1,-1,-1
157,907,181.71,99.46,50.34,151.88,1,-1,-1,-1
157,908,267.60,107.40,46.89,148.26,1,-1,-1,-1
157,909,452.49,104.76,49.24,149.83,1,-1,-1,-1
157,910,323.07,116.00,42.91,137.05,1,-1,-1,-1
157,911,82.00,86.00,60.00,196.00,1,-1,-1,-1
158,893,412.02,112.27,42.06,145.30,1,-1,-1,-1
158,901,363.14,117.98,43.14,133.87,1,-1,-1,-1
158,907,182.98,99.92,50.69,151.91,1,-1,-1,-1
158,909,451.80,104.31,50.10,151.28,1,-1,-1,-1
158,910,323.43,116.00,43.16,138.03,1,-1,-1,-1
158,911,82.00,86.00,60.00,196.00,1,-1,-1,-1
159,893,412.12,112.08,42.20,145.88,1,-1,-1,-1
159,901,363.35,117.99,42.83,133.88,1,-1,-1,-1
159,907,183.36,100.08,51.01,151.93,1,-1,-1,-1
159,909,451.46,104.13,50.63,151.83,1,-1,-1,-1
159,910,323.56,116.00,43.19,138.31,1,-1,-1,-1
159,911,82.00,86.00,60.00,196.00,1,-1,-1,-1
160,893,412.59,112.02,42.31,146.24,1,-1,-1,-1
160,901,362.66,119.31,43.11,135.22,1,-1,-1,-1
160,907,183.68,100.38,50.98,151.83,1,-1,-1,-1
160,909,451.25,105.37,51.02,150.71,1,-1,-1,-1
160,910,323.61,117.39,43.14,138.36,1,-1,-1,-1
160,911,87.41,95.16,56.82,185.31,1,-1,-1,-1
161,901,362.51,119.81,43.13,135.73,1,-1,-1,-1
161,909,451.00,105.84,51.56,150.28,1,-1,-1,-1
161,910,323.63,117.89,43.07,138.34,1,-1,-1,-1
161,911,89.10,98.08,55.87,181.90,1,-1,-1,-1
162,901,362.56,119.99,43.08,135.92,1,-1,-1,-1
162,909,450.73,106.01,52.13,150.11,1,-1,-1,-1
162,910,323.65,118.06,42.99,138.30,1,-1,-1,-1
162,911,89.51,98.86,55.70,181.00,1,-1,-1,-1
163,893,416.40,115.51,42.57,142.63,1,-1,-1,-1
163,901,361.74,118.73,43.54,137.31,1,-1,-1,-1
163,909,447.47,108.72,52.08,147.40,1,-1,-1,-1
163,910,324.46,118.11,42.68,136.91,1,-1,-1,-1
163,911,91.02,101.40,54.79,178.03,1,-1,-1,-1
164,893,416.37,115.93,43.53,142.17,1,-1,-1,-1
164,901,361.48,118.26,43.73,137.83,1,-1,-1,-1
164,909,446.03,109.73,52.52,146.38,1,-1,-1,-1
164,910,324.72,118.12,42.64,136.37,1,-1,-1,-1
165,893,416.07,116.08,44.43,142.02,1,-1,-1,-1
165,901,361.43,118.07,43.81,138.02,1,-1,-1,-1
165,909,445.30,110.09,53.12,146.01,1,-1,-1,-1
165,910,324.76,118.11,42.69,136.16,1,-1,-1,-1
166,893,415.36,114.79,44.58,141.97,1,-1,-1,-1
166,901,362.21,118.01,43.66,138.09,1,-1,-1,-1
166,907,179.88,96.34,54.68,163.30,1,-1,-1,-1
166,909,445.60,108.87,53.57,147.21,1,-1,-1,-1
166,910,323.21,115.43,43.15,137.42,1,-1,-1,-1
166,911,118.36,85.80,61.05,195.93,1,-1,-1,-1
167,893,415.03,114.30,44.72,141.95,1,-1,-1,-1
167,901,362.60,117.98,43.50,138.10,1,-1,-1,-1
167,907,179.67,96.05,54.81,164.06,1,-1,-1,-1
167,909,445.73,108.40,53.75,147.67,1,-1,-1,-1
167,910,322.61,114.42,43.35,137.88,1,-1,-1,-1
167,911,120.76,84.38,62.28,197.55,1,-1,-1,-1
168,893,414.85,114.11,44.85,141.95,1,-1,-1,-1
168,901,362.82,117.98,43.36,138.10,1,-1,-1,-1
168,907,179.62,95.95,54.80,164.32,1,-1,-1,-1
168,909,445.80,108.21,53.83,147.85,1,-1,-1,-1
168,910,322.37,114.05,43.45,138.05,1,-1,-1,-1
168,911,121.30,83.87,63.12,198.13,1,-1,-1,-1
169,893,413.82,112.72,46.79,147.25,1,-1,-1,-1
169,901,365.05,117.98,43.04,138.09,1,-1,-1,-1
169,907,179.45,98.54,53.79,161.77,1,-1,-1,-1
169,909,445.27,110.78,53.68,147.92,1,-1,-1,-1
169,910,320.37,113.92,43.33,136.77,1,-1,-1,-1
169,911,124.33,85.03,62.72,197.00,1,-1,-1,-1
170,893,413.36,112.20,47.65,149.22,1,-1,-1,-1
170,901,366.00,117.98,42.75,138.08,1,-1,-1,-1
170,907,179.43,99.54,53.31,160.76,1,-1,-1,-1
170,909,445.13,111.74,53.52,147.95,1,-1,-1,-1
170,910,319.54,113.88,43.44,136.28,1,-1,-1,-1
170,911,125.32,85.50,62.54,196.54,1,-1,-1,-1
171,893,413.11,112.00,48.09,149.96,1,-1,-1,-1
171,901,366.45,117.98,42.48,138.07,1,-1,-1,-1
171,907,179.46,99.91,53.07,160.37,1,-1,-1,-1
171,909,445.14,112.08,53.38,147.97,1,-1,-1,-1
171,910,319.17,113.88,43.62,136.10,1,-1,-1,-1
171,911,125.56,85.70,62.44,196.34,1,-1,-1,-1
172,893,414.65,109.31,48.92,151.53,1,-1,-1,-1
172,901,366.22,117.95,42.52,138.19,1,-1,-1,-1
172,907,178.74,101.36,53.13,160.21,1,-1,-1,-1
172,909,444.78,112.57,53.37,147.92,1,-1,-1,-1
172,910,319.78,108.58,46.19,142.66,1,-1,-1,-1
172,911,127.98,85.78,62.76,194.93,1,-1,-1,-1
173,893,415.14,108.30,49.39,152.11,1,-1,-1,-1
173,907,178.44,101.90,53.20,160.14,1,-1,-1,-1
173,910,319.88,106.62,47.41,145.09,1,-1,-1,-1
173,911,128.56,85.83,63.28,194.38,1,-1,-1,-1
174,893,415.25,107.93,49.71,152.30,1,-1,-1,-1
174,907,178.32,102.09,53.28,160.10,1,-1,-1,-1
174,910,319.81,105.90,48.10,146.00,1,-1,-1,-1
174,911,128.47,85.86,63.85,194.16,1,-1,-1,-1
175,893,415.03,110.43,49.00,151.03,1,-1,-1,-1
175,901,363.77,116.21,42.89,141.60,1,-1,-1,-1
175,907,178.27,99.51,53.32,161.41,1,-1,-1,-1
175,910,319.31,106.96,48.01,148.94,1,-1,-1,-1
175,911,131.75,83.23,63.84,192.76,1,-1,-1,-1
176,893,415.00,111.41,48.58,150.51,1,-1,-1,-1
176,901,363.73,116.01,42.43,142.00,1,-1,-1,-1
176,907,178.36,98.52,53.12,161.89,1,-1,-1,-1
176,910,319.41,107.40,47.40,150.02,1,-1,-1,-1
176,911,132.76,82.25,64.08,192.22,1,-1,-1,-1
177,893,415.05,111.78,48.28,150.30,1,-1,-1,-1
177,901,363.87,115.94,41.98,142.14,1,-1,-1,-1
177,907,178.50,98.15,52.86,162.06,1,-1,-1,-1
177,910,319.71,107.59,46.63,150.40,1,-1,-1,-1
177,911,132.92,81.90,64.39,192.03,1,-1,-1,-1
178,893,414.39,111.92,49.51,154.17,1,-1,-1,-1
178,901,364.77,117.24,41.45,140.86,1,-1,-1,-1
178,907,172.81,96.69,56.33,171.35,1,-1,-1,-1
178,910,321.88,110.30,44.85,145.26,1,-1,-1,-1
178,911,135.22,81.38,64.34,191.88,1,-1,-1,-1
179,893,414.14,111.98,49.96,155.61,1,-1,-1,-1
179,901,365.16,117.73,41.18,140.36,1,-1,-1,-1
179,907,170.58,96.15,57.87,174.80,1,-1,-1,-1
179,910,322.78,111.38,44.04,143.23,1,-1,-1,-1
