1,2020,456.83,194.06,57.10,135.60,1,-1,-1,-1
1,2030,386.00,176.72,61.64,135.93,1,-1,-1,-1
1,2043,250.83,207.53,30.77,94.04,1,-1,-1,-1
1,2044,200.07,201.44,36.01,102.07,1,-1,-1,-1
1,2045,-18.40,34.00,148.63,442.55,1,-1,-1,-1
1,2049,534.00,216.00,54.00,96.00,1,-1,-1,-1
22,2050,900.00,165.00,57.00,85.00,1,-1,-1,-1
23,2050,900.00,165.00,57.00,85.00,1,-1,-1,-1
24,2050,900.00,165.00,57.00,85.00,1,-1,-1,-1
25,2050,900.00,165.00,57.00,85.00,1,-1,-1,-1
25,2051,985.00,170.00,59.00,107.00,1,-1,-1,-1
25,2052,943.00,170.00,46.00,81.00,1,-1,-1,-1
26,2051,985.00,170.00,59.00,107.00,1,-1,-1,-1
26,2052,943.00,170.00,46.00,81.00,1,-1,-1,-1
27,2051,985.00,170.00,59.00,107.00,1,-1,-1,-1
27,2052,943.00,170.00,46.00,81.00,1,-1,-1,-1
28,2051,985.00,170.00,59.00,107.00,1,-1,-1,-1
28,2052,943.00,170.00,46.00,81.00,1,-1,-1,-1
28,2053,1046.00,162.00,69.00,132.00,1,-1,-1,-1
29,2053,1046.00,162.00,69.00,132.00,1,-1,-1,-1
30,2053,1046.00,162.00,69.00,132.00,1,-1,-1,-1
31,2053,1046.00,162.00,69.00,132.00,1,-1,-1,-1
40,2054,1043.00,181.00,42.00,68.00,1,-1,-1,-1
40,2055,239.00,158.00,39.00,68.00,1,-1,-1,-1
40,2056,956.00,177.00,27.00,52.00,1,-1,-1,-1
41,2054,1043.00,181.00,42.00,68.00,1,-1,-1,-1
41,2055,239.00,158.00,39.00,68.00,1,-1,-1,-1
41,2056,956.00,177.00,27.00,52.00,1,-1,-1,-1
42,2054,1043.00,181.00,42.00,68.00,1,-1,-1,-1
42,2055,239.00,158.00,39.00,68.00,1,-1,-1,-1
42,2056,956.00,177.00,27.00,52.00,1,-1,-1,-1
43,2054,1043.00,181.00,42.00,68.00,1,-1,-1,-1
43,2055,239.00,158.00,39.00,68.00,1,-1,-1,-1
43,2056,956.00,177.00,27.00,52.00,1,-1,-1,-1
43,2057,197.00,172.00,29.00,58.00,1,-1,-1,-1
44,2057,197.00,172.00,29.00,58.00,1,-1,-1,-1
45,2057,197.00,172.00,29.00,58.00,1,-1,-1,-1
46,2057,197.00,172.00,29.00,58.00,1,-1,-1,-1
46,2058,243.00,178.00,50.00,92.00,1,-1,-1,-1
47,2055,241.63,177.34,52.11,91.21,1,-1,-1,-1
48,2055,241.93,178.85,52.95,93.02,1,-1,-1,-1
49,2055,242.30,181.63,54.84,96.35,1,-1,-1,-1
49,2059,162.00,176.00,52.00,105.00,1,-1,-1,-1
49,2060,37.00,164.00,45.00,89.00,1,-1,-1,-1
50,2059,162.00,176.00,52.00,105.00,1,-1,-1,-1
50,2060,37.00,164.00,45.00,89.00,1,-1,-1,-1
51,2059,162.00,176.00,52.00,105.00,1,-1,-1,-1
51,2060,37.00,164.00,45.00,89.00,1,-1,-1,-1
52,2059,162.00,176.00,52.00,105.00,1,-1,-1,-1
52,2060,37.00,164.00,45.00,89.00,1,-1,-1,-1
61,2059,242.47,188.87,39.60,78.26,1,-1,-1,-1
61,2061,764.00,169.00,35.00,60.00,1,-1,-1,-1
62,2059,244.30,189.22,39.95,77.54,1,-1,-1,-1
62,2061,764.00,169.00,35.00,60.00,1,-1,-1,-1
63,2059,244.97,189.38,40.41,77.22,1,-1,-1,-1
63,2061,764.00,169.00,35.00,60.00,1,-1,-1,-1
64,2059,250.59,190.27,39.44,75.37,1,-1,-1,-1
64,2060,27.26,181.89,45.60,85.02,1,-1,-1,-1
64,2061,764.00,169.00,35.00,60.00,1,-1,-1,-1
64,2062,355.00,178.00,35.00,47.00,1,-1,-1,-1
64,2063,898.00,179.00,38.00,73.00,1,-1,-1,-1
65,2060,26.00,182.34,47.65,84.92,1,-1,-1,-1
65,2062,355.00,178.00,35.00,47.00,1,-1,-1,-1
65,2063,898.00,179.00,38.00,73.00,1,-1,-1,-1
66,2060,25.05,182.50,49.36,84.89,1,-1,-1,-1
66,2062,355.00,178.00,35.00,47.00,1,-1,-1,-1
66,2063,898.00,179.00,38.00,73.00,1,-1,-1,-1
67,2060,24.56,183.57,49.22,84.65,1,-1,-1,-1
67,2062,357.10,179.53,33.84,45.47,1,-1,-1,-1
67,2063,910.04,166.79,45.21,86.74,1,-1,-1,-1
67,2064,809.00,162.00,52.00,86.00,1,-1,-1,-1
68,2062,357.79,180.01,33.46,44.99,1,-1,-1,-1
68,2063,913.90,162.85,47.59,91.17,1,-1,-1,-1
68,2064,809.00,162.00,52.00,86.00,1,-1,-1,-1
69,2062,357.98,180.15,33.34,44.85,1,-1,-1,-1
69,2063,915.11,161.58,48.41,92.59,1,-1,-1,-1
69,2064,809.00,162.00,52.00,86.00,1,-1,-1,-1
70,2062,358.56,180.57,33.02,44.43,1,-1,-1,-1
70,2063,913.70,170.71,42.50,81.49,1,-1,-1,-1
70,2064,809.00,162.00,52.00,86.00,1,-1,-1,-1
70,2065,1040.00,217.00,70.00,94.00,1,-1,-1,-1
70,2066,1159.00,162.00,49.00,96.00,1,-1,-1,-1
71,2063,912.81,174.69,39.89,76.69,1,-1,-1,-1
71,2065,1040.00,217.00,70.00,94.00,1,-1,-1,-1
71,2066,1159.00,162.00,49.00,96.00,1,-1,-1,-1
72,2063,912.43,176.09,38.90,74.99,1,-1,-1,-1
72,2065,1040.00,217.00,70.00,94.00,1,-1,-1,-1
72,2066,1159.00,162.00,49.00,96.00,1,-1,-1,-1
73,2055,228.89,184.93,39.77,65.63,1,-1,-1,-1
73,2063,914.18,175.75,39.02,75.22,1,-1,-1,-1
73,2065,1040.00,217.00,70.00,94.00,1,-1,-1,-1
73,2066,1159.00,162.00,49.00,96.00,1,-1,-1,-1
73,2067,936.00,171.00,54.00,109.00,1,-1,-1,-1
74,2055,227.85,184.08,40.26,64.00,1,-1,-1,-1
74,2067,936.00,171.00,54.00,109.00,1,-1,-1,-1
75,2055,227.24,183.98,41.02,63.62,1,-1,-1,-1
75,2067,936.00,171.00,54.00,109.00,1,-1,-1,-1
76,2055,226.89,183.85,40.24,62.41,1,-1,-1,-1
76,2067,936.00,171.00,54.00,109.00,1,-1,-1,-1
76,2068,195.00,174.00,47.00,78.00,1,-1,-1,-1
76,2069,826.00,174.00,40.00,77.00,1,-1,-1,-1
76,2070,1025.00,158.00,77.00,147.00,1,-1,-1,-1
77,2068,195.00,174.00,47.00,78.00,1,-1,-1,-1
77,2069,826.00,174.00,40.00,77.00,1,-1,-1,-1
77,2070,1025.00,158.00,77.00,147.00,1,-1,-1,-1
78,2055,196.12,174.73,48.86,76.63,1,-1,-1,-1
78,2069,826.00,174.00,40.00,77.00,1,-1,-1,-1
78,2070,1025.00,158.00,77.00,147.00,1,-1,-1,-1
79,2055,200.75,172.28,58.99,93.28,1,-1,-1,-1
79,2060,102.59,181.26,53.79,89.86,1,-1,-1,-1
79,2069,826.00,174.00,40.00,77.00,1,-1,-1,-1
79,2070,1025.00,158.00,77.00,147.00,1,-1,-1,-1
79,2071,915.00,192.00,50.00,64.00,1,-1,-1,-1
80,2055,202.63,171.33,62.65,99.69,1,-1,-1,-1
80,2060,104.67,181.12,54.97,90.05,1,-1,-1,-1
80,2071,915.00,192.00,50.00,64.00,1,-1,-1,-1
81,2055,203.84,171.04,63.92,102.23,1,-1,-1,-1
81,2060,105.16,181.07,55.80,90.11,1,-1,-1,-1
81,2071,915.00,192.00,50.00,64.00,1,-1,-1,-1
82,2055,200.23,169.30,66.67,106.62,1,-1,-1,-1
82,2060,109.51,181.13,55.95,90.36,1,-1,-1,-1
82,2071,915.00,192.00,50.00,64.00,1,-1,-1,-1
82,2072,145.00,179.00,55.00,101.00,1,-1,-1,-1
82,2073,81.00,180.00,47.00,100.00,1,-1,-1,-1
82,2074,34.00,183.00,51.00,93.00,1,-1,-1,-1
83,2072,145.00,179.00,55.00,101.00,1,-1,-1,-1
83,2073,81.00,180.00,47.00,100.00,1,-1,-1,-1
83,2074,34.00,183.00,51.00,93.00,1,-1,-1,-1
84,2072,145.00,179.00,55.00,101.00,1,-1,-1,-1
84,2073,81.00,180.00,47.00,100.00,1,-1,-1,-1
84,2074,34.00,183.00,51.00,93.00,1,-1,-1,-1
85,2072,145.00,179.00,55.00,101.00,1,-1,-1,-1
85,2073,81.00,180.00,47.00,100.00,1,-1,-1,-1
85,2074,13.50,181.47,66.06,121.24,1,-1,-1,-1
85,2075,374.00,180.00,29.00,48.00,1,-1,-1,-1
86,2074,7.07,180.98,70.51,130.39,1,-1,-1,-1
86,2075,374.00,180.00,29.00,48.00,1,-1,-1,-1
87,2074,5.09,180.81,71.59,133.51,1,-1,-1,-1
87,2075,374.00,180.00,29.00,48.00,1,-1,-1,-1
88,2059,359.68,174.03,41.66,75.97,1,-1,-1,-1
88,2073,91.89,168.56,42.38,88.56,1,-1,-1,-1
88,2074,-1.14,180.35,76.18,142.08,1,-1,-1,-1
88,2075,374.00,180.00,29.00,48.00,1,-1,-1,-1
88,2076,248.00,179.00,33.00,52.00,1,-1,-1,-1
89,2059,361.15,173.72,42.81,75.98,1,-1,-1,-1
89,2073,92.42,167.64,42.69,87.64,1,-1,-1,-1
89,2076,248.00,179.00,33.00,52.00,1,-1,-1,-1
90,2059,361.11,173.67,43.58,75.99,1,-1,-1,-1
90,2073,92.34,167.35,43.28,87.35,1,-1,-1,-1
90,2076,248.00,179.00,33.00,52.00,1,-1,-1,-1
91,2059,365.27,173.08,43.58,75.98,1,-1,-1,-1
91,2065,1041.37,203.04,64.26,89.01,1,-1,-1,-1
91,2073,93.90,165.79,42.51,85.79,1,-1,-1,-1
91,2076,248.00,179.00,33.00,52.00,1,-1,-1,-1
91,2077,214.00,181.00,45.00,66.00,1,-1,-1,-1
91,2078,311.00,171.00,50.00,83.00,1,-1,-1,-1
91,2079,16.00,177.00,49.00,95.00,1,-1,-1,-1
92,2065,1042.11,202.80,62.73,88.93,1,-1,-1,-1
92,2077,214.00,181.00,45.00,66.00,1,-1,-1,-1
92,2078,311.00,171.00,50.00,83.00,1,-1,-1,-1
92,2079,16.00,177.00,49.00,95.00,1,-1,-1,-1
93,2065,1042.68,202.71,61.58,88.90,1,-1,-1,-1
93,2077,214.00,181.00,45.00,66.00,1,-1,-1,-1
93,2078,311.00,171.00,50.00,83.00,1,-1,-1,-1
93,2079,16.00,177.00,49.00,95.00,1,-1,-1,-1
94,2055,203.47,175.76,66.35,107.36,1,-1,-1,-1
94,2065,1056.77,201.37,62.83,92.24,1,-1,-1,-1
94,2077,214.00,181.00,45.00,66.00,1,-1,-1,-1
94,2078,311.00,171.00,50.00,83.00,1,-1,-1,-1
94,2079,16.00,177.00,49.00,95.00,1,-1,-1,-1
94,2080,1162.00,192.00,54.00,119.00,1,-1,-1,-1
95,2055,205.14,176.69,64.89,105.84,1,-1,-1,-1
95,2065,1062.23,200.89,62.79,93.48,1,-1,-1,-1
95,2080,1162.00,192.00,54.00,119.00,1,-1,-1,-1
96,2055,205.56,176.88,64.38,105.61,1,-1,-1,-1
96,2065,1064.45,200.73,62.37,93.95,1,-1,-1,-1
96,2080,1162.00,192.00,54.00,119.00,1,-1,-1,-1
97,2055,204.99,176.86,64.94,106.54,1,-1,-1,-1
97,2065,1066.58,200.13,62.63,94.33,1,-1,-1,-1
97,2079,12.98,173.19,64.57,125.50,1,-1,-1,-1
97,2080,1162.00,192.00,54.00,119.00,1,-1,-1,-1
97,2081,944.00,173.00,28.00,55.00,1,-1,-1,-1
97,2082,1052.00,175.00,37.00,74.00,1,-1,-1,-1
97,2083,135.00,179.00,69.00,109.00,1,-1,-1,-1
98,2072,139.15,179.00,60.73,108.96,1,-1,-1,-1
98,2079,12.77,172.82,65.92,128.43,1,-1,-1,-1
98,2081,944.00,173.00,28.00,55.00,1,-1,-1,-1
98,2082,1052.00,175.00,37.00,74.00,1,-1,-1,-1
99,2072,138.47,179.00,61.94,109.16,1,-1,-1,-1
99,2074,8.04,173.11,70.07,132.13,1,-1,-1,-1
99,2079,12.25,172.18,68.53,133.53,1,-1,-1,-1
99,2081,944.00,173.00,28.00,55.00,1,-1,-1,-1
99,2082,1052.00,175.00,37.00,74.00,1,-1,-1,-1
100,2072,138.14,179.00,62.23,109.66,1,-1,-1,-1
100,2074,6.55,172.51,71.22,134.30,1,-1,-1,-1
100,2081,935.53,173.00,28.15,55.00,1,-1,-1,-1
100,2082,1052.00,175.00,37.00,74.00,1,-1,-1,-1
101,2081,932.76,173.00,28.32,55.00,1,-1,-1,-1
102,2081,931.91,173.00,28.52,55.00,1,-1,-1,-1
103,2081,929.53,173.00,28.52,55.00,1,-1,-1,-1
106,2077,211.76,169.07,38.54,58.05,1,-1,-1,-1
106,2084,1175.00,171.00,47.00,102.00,1,-1,-1,-1
107,2077,212.11,168.79,37.59,57.86,1,-1,-1,-1
107,2084,1175.00,171.00,47.00,102.00,1,-1,-1,-1
108,2077,212.43,168.68,36.85,57.79,1,-1,-1,-1
108,2084,1175.00,171.00,47.00,102.00,1,-1,-1,-1
109,2077,212.26,167.98,36.56,57.32,1,-1,-1,-1
109,2084,1175.00,171.00,47.00,102.00,1,-1,-1,-1
112,2074,98.06,145.33,48.84,91.16,1,-1,-1,-1
113,2074,100.34,144.75,48.45,89.82,1,-1,-1,-1
114,2074,101.24,144.44,48.43,89.34,1,-1,-1,-1
115,2074,105.57,143.01,47.44,87.52,1,-1,-1,-1
115,2085,18.00,152.00,57.00,105.00,1,-1,-1,-1
116,2085,18.00,152.00,57.00,105.00,1,-1,-1,-1
117,2085,18.00,152.00,57.00,105.00,1,-1,-1,-1
118,2085,18.00,152.00,57.00,105.00,1,-1,-1,-1
118,2086,908.00,203.00,232.00,166.00,1,-1,-1,-1
119,2086,908.00,203.00,232.00,166.00,1,-1,-1,-1
120,2086,908.00,203.00,232.00,166.00,1,-1,-1,-1
121,2086,908.00,203.00,232.00,166.00,1,-1,-1,-1
124,2055,336.17,180.98,53.41,92.18,1,-1,-1,-1
124,2087,769.00,202.00,129.00,85.00,1,-1,-1,-1
124,2088,1099.00,179.00,38.00,67.00,1,-1,-1,-1
125,2055,338.57,181.03,51.74,91.91,1,-1,-1,-1
125,2087,769.00,202.00,129.00,85.00,1,-1,-1,-1
125,2088,1099.00,179.00,38.00,67.00,1,-1,-1,-1
126,2055,339.79,181.05,50.73,91.80,1,-1,-1,-1
126,2087,769.00,202.00,129.00,85.00,1,-1,-1,-1
126,2088,1099.00,179.00,38.00,67.00,1,-1,-1,-1
127,2055,343.77,181.18,50.45,91.31,1,-1,-1,-1
127,2087,783.87,206.58,161.84,106.37,1,-1,-1,-1
127,2088,1099.00,179.00,38.00,67.00,1,-1,-1,-1
128,2087,788.48,208.06,172.85,113.28,1,-1,-1,-1
129,2087,789.81,208.55,176.93,115.58,1,-1,-1,-1
130,2087,841.54,225.18,193.20,123.99,1,-1,-1,-1
131,2087,860.04,231.52,201.58,127.04,1,-1,-1,-1
132,2087,865.84,233.90,206.66,127.95,1,-1,-1,-1
133,2087,877.94,237.72,215.75,133.58,1,-1,-1,-1
142,2074,79.64,155.97,53.85,104.97,1,-1,-1,-1
143,2074,79.98,156.20,52.35,105.27,1,-1,-1,-1
144,2074,80.40,156.25,51.33,105.34,1,-1,-1,-1
145,2074,79.50,156.68,51.62,105.92,1,-1,-1,-1
148,2089,776.00,231.00,175.00,97.00,1,-1,-1,-1
149,2089,776.00,231.00,175.00,97.00,1,-1,-1,-1
150,2089,776.00,231.00,175.00,97.00,1,-1,-1,-1
151,2089,808.04,250.08,194.88,107.69,1,-1,-1,-1
151,2090,1072.00,205.00,63.00,86.00,1,-1,-1,-1
152,2089,818.06,256.22,201.83,111.12,1,-1,-1,-1
152,2090,1072.00,205.00,63.00,86.00,1,-1,-1,-1
153,2089,820.83,258.09,204.55,112.17,1,-1,-1,-1
153,2090,1072.00,205.00,63.00,86.00,1,-1,-1,-1
154,2089,879.73,263.21,208.21,111.68,1,-1,-1,-1
154,2090,1072.00,205.00,63.00,86.00,1,-1,-1,-1
155,2089,899.72,264.84,212.26,111.35,1,-1,-1,-1
156,2089,904.86,265.20,216.51,111.11,1,-1,-1,-1
157,2089,922.09,269.43,219.86,112.83,1,-1,-1,-1
157,2091,816.00,216.00,186.00,127.00,1,-1,-1,-1
158,2091,816.00,216.00,186.00,127.00,1,-1,-1,-1
159,2091,816.00,216.00,186.00,127.00,1,-1,-1,-1
160,2091,816.00,216.00,186.00,127.00,1,-1,-1,-1
163,2092,890.00,185.00,50.00,88.00,1,-1,-1,-1
164,2092,890.00,185.00,50.00,88.00,1,-1,-1,-1
165,2092,890.00,185.00,50.00,88.00,1,-1,-1,-1
166,2092,890.00,185.00,50.00,88.00,1,-1,-1,-1
166,2093,955.00,181.00,64.00,97.00,1,-1,-1,-1
167,2093,955.00,181.00,64.00,97.00,1,-1,-1,-1
168,2093,955.00,181.00,64.00,97.00,1,-1,-1,-1
169,2093,955.00,181.00,64.00,97.00,1,-1,-1,-1
217,2094,815.00,220.00,168.00,107.00,1,-1,-1,-1
217,2095,922.00,160.00,43.00,71.00,1,-1,-1,-1
218,2094,815.00,220.00,168.00,107.00,1,-1,-1,-1
218,2095,922.00,160.00,43.00,71.00,1,-1,-1,-1
219,2094,815.00,220.00,168.00,107.00,1,-1,-1,-1
219,2095,922.00,160.00,43.00,71.00,1,-1,-1,-1
220,2094,815.00,220.00,168.00,107.00,1,-1,-1,-1
220,2095,922.00,160.00,43.00,71.00,1,-1,-1,-1
220,2096,754.00,168.00,39.00,84.00,1,-1,-1,-1
221,2096,754.00,168.00,39.00,84.00,1,-1,-1,-1
222,2096,754.00,168.00,39.00,84.00,1,-1,-1,-1
223,2096,754.00,168.00,39.00,84.00,1,-1,-1,-1
229,2096,795.42,193.52,50.37,107.55,1,-1,-1,-1
230,2096,797.50,194.92,51.38,108.85,1,-1,-1,-1
231,2096,798.01,195.34,51.94,109.24,1,-1,-1,-1
232,2096,802.28,197.97,53.09,111.66,1,-1,-1,-1
235,2097,1004.00,153.00,151.00,219.00,1,-1,-1,-1
236,2097,1004.00,153.00,151.00,219.00,1,-1,-1,-1
237,2097,1004.00,153.00,151.00,219.00,1,-1,-1,-1
238,2097,1004.00,153.00,151.00,219.00,1,-1,-1,-1
238,2098,1079.00,201.00,150.00,160.00,1,-1,-1,-1
239,2098,1079.00,201.00,150.00,160.00,1,-1,-1,-1
240,2098,1079.00,201.00,150.00,160.00,1,-1,-1,-1
241,2098,1079.00,201.00,150.00,160.00,1,-1,-1,-1
244,2099,335.00,163.00,38.00,66.00,1,-1,-1,-1
244,2100,1168.00,162.00,55.00,119.00,1,-1,-1,-1
244,2101,512.00,166.00,33.00,68.00,1,-1,-1,-1
245,2097,1153.62,161.87,80.37,120.46,1,-1,-1,-1
245,2099,335.00,163.00,38.00,66.00,1,-1,-1,-1
245,2101,512.00,166.00,33.00,68.00,1,-1,-1,-1
246,2097,1158.74,162.11,76.25,117.82,1,-1,-1,-1
246,2099,335.00,163.00,38.00,66.00,1,-1,-1,-1
246,2101,512.00,166.00,33.00,68.00,1,-1,-1,-1
247,2097,1172.35,162.93,70.32,108.65,1,-1,-1,-1
247,2099,335.00,163.00,38.00,66.00,1,-1,-1,-1
247,2101,512.00,166.00,33.00,68.00,1,-1,-1,-1
247,2102,441.00,164.00,43.00,89.00,1,-1,-1,-1
248,2102,441.00,164.00,43.00,89.00,1,-1,-1,-1
249,2102,441.00,164.00,43.00,89.00,1,-1,-1,-1
250,2102,435.13,168.58,40.24,82.89,1,-1,-1,-1
251,2102,433.18,170.04,39.50,80.95,1,-1,-1,-1
252,2102,432.59,170.42,39.49,80.44,1,-1,-1,-1
253,2102,420.61,176.91,41.13,83.92,1,-1,-1,-1
253,2103,356.00,177.00,52.00,98.00,1,-1,-1,-1
254,2102,416.59,179.09,41.66,85.16,1,-1,-1,-1
254,2103,356.00,177.00,52.00,98.00,1,-1,-1,-1
255,2102,415.30,179.78,41.82,85.65,1,-1,-1,-1
255,2103,356.00,177.00,52.00,98.00,1,-1,-1,-1
256,2102,403.87,180.61,43.25,89.21,1,-1,-1,-1
256,2103,347.48,175.47,52.25,99.53,1,-1,-1,-1
256,2104,294.00,170.00,56.00,108.00,1,-1,-1,-1
257,2102,399.87,180.85,43.57,90.52,1,-1,-1,-1
257,2103,344.99,174.98,51.85,100.02,1,-1,-1,-1
257,2104,294.00,170.00,56.00,108.00,1,-1,-1,-1
258,2102,398.63,180.86,43.50,91.01,1,-1,-1,-1
258,2103,344.55,174.85,51.20,100.15,1,-1,-1,-1
258,2104,294.00,170.00,56.00,108.00,1,-1,-1,-1
259,2101,407.04,179.92,43.11,89.87,1,-1,-1,-1
259,2102,389.04,187.40,46.87,99.10,1,-1,-1,-1
259,2103,327.92,185.28,52.82,104.36,1,-1,-1,-1
259,2104,294.00,170.00,56.00,108.00,1,-1,-1,-1
259,2105,202.00,179.00,70.00,154.00,1,-1,-1,-1
260,2101,404.06,180.34,43.02,90.53,1,-1,-1,-1
260,2102,385.69,189.81,47.80,102.09,1,-1,-1,-1
260,2103,322.27,189.00,53.02,105.84,1,-1,-1,-1
260,2105,202.00,179.00,70.00,154.00,1,-1,-1,-1
261,2101,403.28,180.46,42.77,90.73,1,-1,-1,-1
261,2102,384.69,190.68,47.88,103.23,1,-1,-1,-1
261,2103,320.57,190.33,52.71,106.35,1,-1,-1,-1
261,2105,202.00,179.00,70.00,154.00,1,-1,-1,-1
262,2101,396.61,181.35,43.43,92.12,1,-1,-1,-1
262,2102,380.35,192.67,48.58,104.73,1,-1,-1,-1
262,2103,315.70,192.22,53.26,107.46,1,-1,-1,-1
262,2105,202.00,179.00,70.00,154.00,1,-1,-1,-1
262,2106,356.00,177.00,47.00,101.00,1,-1,-1,-1
263,2102,360.77,181.16,47.44,102.23,1,-1,-1,-1
264,2102,355.71,178.59,47.24,101.77,1,-1,-1,-1
265,2102,346.48,179.00,48.36,102.91,1,-1,-1,-1
265,2107,866.00,169.00,52.00,112.00,1,-1,-1,-1
266,2102,343.02,179.14,49.08,103.31,1,-1,-1,-1
266,2107,866.00,169.00,52.00,112.00,1,-1,-1,-1
267,2102,341.79,179.18,49.63,103.43,1,-1,-1,-1
267,2107,866.00,169.00,52.00,112.00,1,-1,-1,-1
268,2102,336.55,179.51,50.03,104.27,1,-1,-1,-1
268,2107,866.00,169.00,52.00,112.00,1,-1,-1,-1
268,2108,971.00,154.00,74.00,152.00,1,-1,-1,-1
268,2109,259.00,179.00,76.00,138.00,1,-1,-1,-1
269,2108,971.00,154.00,74.00,152.00,1,-1,-1,-1
269,2109,259.00,179.00,76.00,138.00,1,-1,-1,-1
270,2108,971.00,154.00,74.00,152.00,1,-1,-1,-1
270,2109,259.00,179.00,76.00,138.00,1,-1,-1,-1
271,2108,971.00,154.00,74.00,152.00,1,-1,-1,-1
271,2109,259.00,179.00,76.00,138.00,1,-1,-1,-1
271,2110,1121.00,135.00,102.00,227.00,1,-1,-1,-1
272,2110,1121.00,135.00,102.00,227.00,1,-1,-1,-1
273,2110,1121.00,135.00,102.00,227.00,1,-1,-1,-1
274,2103,344.22,180.75,45.07,91.64,1,-1,-1,-1
274,2110,1121.00,135.00,102.00,227.00,1,-1,-1,-1
275,2103,345.95,180.11,44.48,90.98,1,-1,-1,-1
276,2103,346.49,179.94,44.17,90.76,1,-1,-1,-1
277,2103,343.97,182.60,41.99,83.24,1,-1,-1,-1
278,2103,342.67,183.63,41.77,80.46,1,-1,-1,-1
279,2103,341.94,183.97,42.29,79.58,1,-1,-1,-1
280,2103,331.75,181.34,42.43,77.27,1,-1,-1,-1
280,2105,351.69,180.00,36.87,74.23,1,-1,-1,-1
281,2103,327.74,180.37,43.18,76.53,1,-1,-1,-1
281,2105,351.90,180.01,38.77,73.53,1,-1,-1,-1
282,2103,326.07,180.03,44.08,76.33,1,-1,-1,-1
282,2105,352.14,180.01,40.18,72.96,1,-1,-1,-1
283,2103,325.83,181.95,48.57,85.13,1,-1,-1,-1
283,2105,357.53,180.05,38.66,70.19,1,-1,-1,-1
284,2103,325.92,182.63,49.81,88.25,1,-1,-1,-1
285,2103,326.17,182.91,50.03,89.50,1,-1,-1,-1
286,2103,325.05,183.02,50.27,89.91,1,-1,-1,-1
286,2105,362.98,177.16,52.21,97.16,1,-1,-1,-1
287,2105,364.56,176.88,52.40,99.43,1,-1,-1,-1
288,2105,365.13,176.80,51.98,100.20,1,-1,-1,-1
289,2105,368.15,176.40,53.36,102.86,1,-1,-1,-1
313,2111,8.00,138.00,173.00,230.00,1,-1,-1,-1
314,2111,8.00,138.00,173.00,230.00,1,-1,-1,-1
315,2111,8.00,138.00,173.00,230.00,1,-1,-1,-1
316,2111,8.00,138.00,173.00,230.00,1,-1,-1,-1
337,2112,951.00,186.00,34.00,63.00,1,-1,-1,-1
338,2112,951.00,186.00,34.00,63.00,1,-1,-1,-1
339,2112,951.00,186.00,34.00,63.00,1,-1,-1,-1
340,2112,951.07,168.45,46.08,85.90,1,-1,-1,-1
