1,787,199.00,199.00,50.00,157.00,1,-1,-1,-1
1,788,389.00,173.00,151.00,242.00,1,-1,-1,-1
1,789,59.00,155.00,91.00,285.00,1,-1,-1,-1
1,790,261.00,197.00,121.00,199.00,1,-1,-1,-1
1,791,150.00,195.00,53.00,162.00,1,-1,-1,-1
2,787,199.00,199.00,50.00,157.00,1,-1,-1,-1
2,788,389.00,173.00,151.00,242.00,1,-1,-1,-1
2,789,59.00,155.00,91.00,285.00,1,-1,-1,-1
2,790,261.00,197.00,121.00,199.00,1,-1,-1,-1
2,791,150.00,195.00,53.00,162.00,1,-1,-1,-1
3,787,200.78,199.00,48.78,153.10,1,-1,-1,-1
3,788,392.72,172.22,151.35,242.78,1,-1,-1,-1
3,789,74.40,160.46,89.04,277.20,1,-1,-1,-1
3,790,258.71,197.00,113.88,188.09,1,-1,-1,-1
3,791,157.85,195.00,52.88,162.00,1,-1,-1,-1
4,787,201.33,199.00,48.41,151.88,1,-1,-1,-1
4,788,393.95,171.98,151.34,243.02,1,-1,-1,-1
4,789,78.97,162.16,88.92,274.77,1,-1,-1,-1
4,790,258.22,197.00,111.23,184.69,1,-1,-1,-1
4,791,160.37,195.00,52.74,162.00,1,-1,-1,-1
5,787,202.01,199.00,47.94,150.41,1,-1,-1,-1
5,788,405.69,174.13,151.30,243.82,1,-1,-1,-1
5,789,90.00,162.57,91.34,274.94,1,-1,-1,-1
5,790,242.36,192.48,108.25,183.16,1,-1,-1,-1
5,791,163.32,195.00,52.74,162.00,1,-1,-1,-1
6,788,409.76,174.86,150.86,244.07,1,-1,-1,-1
6,789,92.41,162.60,94.03,275.13,1,-1,-1,-1
6,790,238.14,191.04,105.79,182.86,1,-1,-1,-1
7,788,423.05,173.00,147.52,243.44,1,-1,-1,-1
7,789,99.69,161.14,98.22,277.40,1,-1,-1,-1
7,790,230.34,189.20,103.46,182.90,1,-1,-1,-1
8,788,428.60,172.31,144.33,243.20,1,-1,-1,-1
8,789,100.80,160.57,102.06,278.26,1,-1,-1,-1
8,790,228.67,188.62,101.11,183.04,1,-1,-1,-1
9,788,433.92,172.21,144.40,243.32,1,-1,-1,-1
9,789,111.82,163.06,104.09,277.93,1,-1,-1,-1
9,790,223.64,186.41,103.56,192.10,1,-1,-1,-1
10,789,114.92,163.95,106.16,277.83,1,-1,-1,-1
10,790,222.82,185.66,102.78,195.38,1,-1,-1,-1
11,788,457.82,163.35,146.01,256.92,1,-1,-1,-1
11,789,124.52,166.94,105.55,273.10,1,-1,-1,-1
11,790,213.17,186.76,99.75,191.98,1,-1,-1,-1
12,788,464.06,162.05,141.07,258.91,1,-1,-1,-1
12,789,127.42,168.01,106.02,271.36,1,-1,-1,-1
12,790,210.11,187.25,97.88,190.66,1,-1,-1,-1
13,788,483.97,165.58,136.78,252.97,1,-1,-1,-1
13,789,144.45,162.99,107.30,276.80,1,-1,-1,-1
13,790,232.59,194.83,89.86,180.14,1,-1,-1,-1
14,788,491.51,166.97,134.55,250.63,1,-1,-1,-1
14,789,150.75,161.11,107.29,278.84,1,-1,-1,-1
14,790,242.09,197.73,85.47,176.18,1,-1,-1,-1
15,788,501.10,168.18,134.86,250.40,1,-1,-1,-1
15,789,170.88,153.76,108.89,282.93,1,-1,-1,-1
15,790,241.08,198.28,84.62,174.43,1,-1,-1,-1
16,788,504.28,168.64,135.20,250.29,1,-1,-1,-1
16,789,178.17,151.00,109.51,284.47,1,-1,-1,-1
17,788,506.04,169.49,135.57,250.89,1,-1,-1,-1
17,789,184.00,158.56,108.16,282.39,1,-1,-1,-1
18,788,506.42,169.81,135.72,251.11,1,-1,-1,-1
18,789,185.98,161.47,107.34,281.58,1,-1,-1,-1
19,787,295.94,200.99,47.32,146.92,1,-1,-1,-1
19,788,511.09,166.63,136.77,256.46,1,-1,-1,-1
19,789,203.11,163.89,109.36,278.61,1,-1,-1,-1
19,791,162.16,192.02,53.23,159.02,1,-1,-1,-1
20,787,297.98,201.04,47.68,146.84,1,-1,-1,-1
20,788,513.17,165.44,136.14,258.46,1,-1,-1,-1
20,789,208.40,164.79,111.80,277.49,1,-1,-1,-1
20,791,161.52,191.95,54.32,158.95,1,-1,-1,-1
21,787,303.59,201.16,47.56,146.47,1,-1,-1,-1
21,788,522.64,159.74,134.49,264.44,1,-1,-1,-1
21,789,218.34,160.47,119.32,283.05,1,-1,-1,-1
21,790,143.98,185.74,93.85,199.35,1,-1,-1,-1
21,791,161.84,191.78,54.26,158.78,1,-1,-1,-1
22,788,527.37,157.60,131.22,266.67,1,-1,-1,-1
22,789,220.32,158.84,125.06,285.12,1,-1,-1,-1
22,790,139.14,184.96,92.24,200.91,1,-1,-1,-1
23,788,532.56,156.46,132.04,268.33,1,-1,-1,-1
23,789,227.02,164.14,126.45,281.29,1,-1,-1,-1
23,790,132.47,184.69,88.21,196.26,1,-1,-1,-1
24,789,228.40,166.17,128.56,279.81,1,-1,-1,-1
24,790,130.70,184.62,85.79,194.40,1,-1,-1,-1
25,789,238.67,164.27,130.39,283.88,1,-1,-1,-1
25,790,117.38,187.26,90.37,199.60,1,-1,-1,-1
25,791,221.36,188.26,61.06,174.51,1,-1,-1,-1
25,792,285.00,157.00,71.00,205.00,1,-1,-1,-1
26,789,242.27,163.54,131.06,285.41,1,-1,-1,-1
26,790,112.02,188.26,93.23,201.53,1,-1,-1,-1
26,791,226.36,187.94,62.66,175.97,1,-1,-1,-1
26,792,285.00,157.00,71.00,205.00,1,-1,-1,-1
27,789,264.44,162.59,128.57,288.61,1,-1,-1,-1
27,790,101.06,189.31,96.43,201.58,1,-1,-1,-1
27,791,231.05,189.14,64.47,175.82,1,-1,-1,-1
27,792,256.70,172.59,87.84,253.33,1,-1,-1,-1
28,789,273.61,162.23,125.50,289.80,1,-1,-1,-1
28,790,96.40,189.72,99.20,201.55,1,-1,-1,-1
28,791,232.23,189.61,65.95,175.71,1,-1,-1,-1
28,792,247.46,177.65,93.41,269.03,1,-1,-1,-1
29,789,285.18,156.17,126.53,301.40,1,-1,-1,-1
29,790,89.29,188.57,101.67,202.82,1,-1,-1,-1
29,791,245.83,210.14,60.74,156.60,1,-1,-1,-1
29,792,236.52,183.69,99.90,287.73,1,-1,-1,-1
30,789,290.43,153.89,124.68,305.73,1,-1,-1,-1
30,790,86.40,188.14,103.53,203.27,1,-1,-1,-1
30,791,250.38,218.21,59.37,149.00,1,-1,-1,-1
31,789,302.18,154.99,122.66,304.08,1,-1,-1,-1
31,790,79.07,185.35,107.39,209.97,1,-1,-1,-1
31,791,256.45,221.64,58.42,143.66,1,-1,-1,-1
31,793,3.00,176.00,78.00,224.00,1,-1,-1,-1
32,789,306.71,155.44,121.14,303.35,1,-1,-1,-1
32,790,76.37,184.31,109.07,212.47,1,-1,-1,-1
32,791,258.08,222.76,58.67,141.83,1,-1,-1,-1
32,793,3.00,176.00,78.00,224.00,1,-1,-1,-1
33,789,322.13,154.98,122.74,298.40,1,-1,-1,-1
33,790,41.50,174.14,119.88,232.94,1,-1,-1,-1
33,791,259.11,210.18,64.92,154.13,1,-1,-1,-1
34,789,326.73,154.83,125.15,296.45,1,-1,-1,-1
34,790,28.38,170.34,124.11,240.60,1,-1,-1,-1
34,791,259.11,205.70,67.81,158.51,1,-1,-1,-1
35,789,334.39,154.79,128.73,295.03,1,-1,-1,-1
35,790,13.15,172.70,124.68,237.15,1,-1,-1,-1
35,791,265.42,211.10,66.96,151.10,1,-1,-1,-1
36,789,335.83,154.79,132.27,294.48,1,-1,-1,-1
36,790,6.99,173.72,125.96,235.58,1,-1,-1,-1
36,791,267.06,213.22,67.68,148.17,1,-1,-1,-1
37,789,344.22,159.43,132.45,292.27,1,-1,-1,-1
37,790,9.93,176.12,126.30,234.22,1,-1,-1,-1
37,791,275.70,207.28,71.62,156.49,1,-1,-1,-1
38,789,346.74,161.20,133.13,291.43,1,-1,-1,-1
38,790,11.13,177.08,126.92,233.60,1,-1,-1,-1
38,791,278.72,205.13,73.14,159.51,1,-1,-1,-1
39,789,361.30,162.52,130.71,291.11,1,-1,-1,-1
39,790,15.69,174.19,126.06,236.55,1,-1,-1,-1
39,791,286.74,195.79,78.54,171.13,1,-1,-1,-1
40,789,367.08,163.00,128.60,291.00,1,-1,-1,-1
40,790,18.31,173.12,124.38,237.60,1,-1,-1,-1
40,791,289.66,192.28,80.63,175.51,1,-1,-1,-1
41,789,382.80,158.53,129.19,298.90,1,-1,-1,-1
41,790,7.92,173.39,119.48,229.42,1,-1,-1,-1
41,791,295.58,200.60,77.26,168.15,1,-1,-1,-1
42,789,389.24,156.85,127.82,301.85,1,-1,-1,-1
42,790,4.34,173.54,117.23,226.15,1,-1,-1,-1
42,791,297.62,203.99,75.87,165.11,1,-1,-1,-1
43,789,399.05,156.20,125.69,304.27,1,-1,-1,-1
43,790,-0.68,175.62,114.24,222.25,1,-1,-1,-1
43,791,302.63,194.68,80.40,176.52,1,-1,-1,-1
44,789,403.31,155.97,123.20,305.15,1,-1,-1,-1
44,790,-2.08,176.42,112.61,220.76,1,-1,-1,-1
44,791,304.64,191.28,81.64,180.69,1,-1,-1,-1
45,789,417.11,154.58,124.84,307.41,1,-1,-1,-1
45,790,-6.33,177.40,106.59,211.57,1,-1,-1,-1
45,791,309.92,194.50,78.52,175.15,1,-1,-1,-1
45,794,101.00,177.00,94.00,235.00,1,-1,-1,-1
46,789,421.87,154.06,125.83,308.23,1,-1,-1,-1
46,790,-7.33,177.78,103.67,208.10,1,-1,-1,-1
46,791,311.91,195.85,76.95,172.86,1,-1,-1,-1
46,794,101.00,177.00,94.00,235.00,1,-1,-1,-1
47,789,435.27,153.22,127.37,302.58,1,-1,-1,-1
47,790,-22.68,175.90,101.38,215.62,1,-1,-1,-1
47,791,316.37,198.36,75.84,170.63,1,-1,-1,-1
47,794,115.64,176.22,95.12,235.00,1,-1,-1,-1
48,789,439.04,152.92,129.90,300.37,1,-1,-1,-1
48,790,-26.44,175.22,97.15,218.38,1,-1,-1,-1
48,791,317.92,199.33,75.34,169.76,1,-1,-1,-1
48,794,119.70,175.98,96.53,235.00,1,-1,-1,-1
49,789,452.95,150.84,134.99,301.51,1,-1,-1,-1
49,790,-29.50,174.97,92.07,220.77,1,-1,-1,-1
49,791,320.26,198.39,76.61,171.39,1,-1,-1,-1
49,794,129.94,176.65,99.04,237.95,1,-1,-1,-1
50,789,456.64,150.07,139.34,301.93,1,-1,-1,-1
50,790,-28.78,174.89,86.88,221.67,1,-1,-1,-1
50,791,320.86,198.04,77.36,171.99,1,-1,-1,-1
50,794,132.59,176.89,100.89,238.93,1,-1,-1,-1
51,789,468.72,149.15,142.01,302.74,1,-1,-1,-1
51,790,-34.75,174.62,87.01,222.02,1,-1,-1,-1
51,791,325.55,199.23,76.33,167.58,1,-1,-1,-1
51,794,138.45,177.68,102.12,239.94,1,-1,-1,-1
51,795,459.00,208.00,47.00,142.00,1,-1,-1,-1
52,789,472.34,148.82,144.23,303.04,1,-1,-1,-1
52,791,326.94,199.70,76.40,165.87,1,-1,-1,-1
52,794,140.00,177.95,103.08,240.26,1,-1,-1,-1
52,795,459.00,208.00,47.00,142.00,1,-1,-1,-1
53,789,487.74,152.02,143.35,305.77,1,-1,-1,-1
53,791,339.01,201.88,76.32,164.57,1,-1,-1,-1
53,794,145.57,178.15,103.42,241.05,1,-1,-1,-1
53,795,469.73,211.12,45.82,138.10,1,-1,-1,-1
54,789,493.82,153.25,141.83,306.79,1,-1,-1,-1
54,791,343.24,202.69,76.57,164.10,1,-1,-1,-1
54,795,473.03,212.09,45.54,136.89,1,-1,-1,-1
55,789,499.63,157.02,137.46,306.50,1,-1,-1,-1
55,791,353.35,204.32,75.22,160.61,1,-1,-1,-1
55,795,477.81,213.81,46.43,138.09,1,-1,-1,-1
56,789,502.60,158.45,133.57,306.36,1,-1,-1,-1
56,791,356.88,204.91,74.85,159.31,1,-1,-1,-1
56,795,479.00,214.32,47.11,138.54,1,-1,-1,-1
57,789,519.64,145.78,133.29,315.52,1,-1,-1,-1
57,791,359.00,205.79,75.39,160.19,1,-1,-1,-1
57,794,202.70,186.39,96.58,226.45,1,-1,-1,-1
57,795,489.00,214.44,48.82,138.03,1,-1,-1,-1
58,789,526.98,141.02,130.83,318.94,1,-1,-1,-1
58,791,359.59,206.10,75.67,160.54,1,-1,-1,-1
58,794,207.59,187.11,95.51,225.11,1,-1,-1,-1
58,795,491.75,214.42,50.70,137.87,1,-1,-1,-1
59,789,530.66,145.12,126.84,315.62,1,-1,-1,-1
59,791,361.30,208.18,74.42,157.38,1,-1,-1,-1
59,794,219.19,184.64,102.30,232.11,1,-1,-1,-1
59,795,497.59,213.01,52.86,141.25,1,-1,-1,-1
60,789,532.39,146.75,123.93,314.27,1,-1,-1,-1
60,791,361.70,208.95,74.08,156.20,1,-1,-1,-1
60,794,222.13,183.73,106.87,234.65,1,-1,-1,-1
60,795,499.25,212.47,54.24,142.49,1,-1,-1,-1
61,789,533.89,141.46,122.57,316.36,1,-1,-1,-1
61,791,373.14,201.87,78.43,168.47,1,-1,-1,-1
61,794,228.78,188.65,110.65,234.96,1,-1,-1,-1
61,795,506.61,211.59,55.52,143.61,1,-1,-1,-1
62,789,534.80,139.48,120.88,317.12,1,-1,-1,-1
62,791,377.71,199.30,79.15,172.93,1,-1,-1,-1
62,794,230.00,190.51,113.96,235.07,1,-1,-1,-1
62,795,508.93,211.24,56.51,144.02,1,-1,-1,-1
63,789,537.87,147.99,115.64,310.13,1,-1,-1,-1
63,791,380.68,195.69,79.93,174.66,1,-1,-1,-1
63,794,242.68,189.84,117.91,240.40,1,-1,-1,-1
63,795,513.72,211.32,56.68,144.46,1,-1,-1,-1
64,789,539.44,151.29,112.33,307.42,1,-1,-1,-1
64,791,381.67,194.31,80.21,175.29,1,-1,-1,-1
64,794,246.81,189.57,120.12,242.38,1,-1,-1,-1
65,789,543.98,151.56,112.25,307.22,1,-1,-1,-1
65,791,388.70,197.74,78.45,170.25,1,-1,-1,-1
65,794,258.38,187.46,119.34,245.74,1,-1,-1,-1
65,795,531.53,208.53,58.69,150.14,1,-1,-1,-1
66,791,391.08,199.10,78.02,168.26,1,-1,-1,-1
66,794,263.14,186.64,117.74,246.98,1,-1,-1,-1
66,795,534.45,208.09,58.83,151.03,1,-1,-1,-1
67,791,400.08,196.96,81.22,173.47,1,-1,-1,-1
67,794,281.68,177.77,115.82,252.66,1,-1,-1,-1
67,795,546.73,206.63,61.29,150.01,1,-1,-1,-1
68,791,403.10,196.18,82.84,175.39,1,-1,-1,-1
68,794,289.70,174.42,112.58,254.77,1,-1,-1,-1
68,795,550.43,206.08,63.67,149.60,1,-1,-1,-1
69,791,416.89,205.72,76.80,161.70,1,-1,-1,-1
69,794,307.10,177.07,111.42,256.82,1,-1,-1,-1
69,795,552.98,206.55,67.73,152.71,1,-1,-1,-1
70,791,421.89,209.49,74.59,156.27,1,-1,-1,-1
70,794,313.98,178.12,109.87,257.55,1,-1,-1,-1
70,795,553.02,206.74,70.72,153.86,1,-1,-1,-1
71,791,434.10,210.14,75.57,159.08,1,-1,-1,-1
71,794,326.14,179.86,110.45,253.17,1,-1,-1,-1
71,795,560.36,214.69,66.59,143.12,1,-1,-1,-1
