1,2474,808.17,128.46,78.24,171.77,1,-1,-1,-1
1,2475,392.00,154.00,108.00,190.00,1,-1,-1,-1
2,2475,392.00,154.00,108.00,190.00,1,-1,-1,-1
3,2475,392.00,154.00,108.00,190.00,1,-1,-1,-1
4,2475,392.00,154.00,108.00,190.00,1,-1,-1,-1
4,2476,462.00,138.00,54.00,212.00,1,-1,-1,-1
4,2477,512.00,130.00,64.00,212.00,1,-1,-1,-1
5,2476,462.00,138.00,54.00,212.00,1,-1,-1,-1
5,2477,512.00,130.00,64.00,212.00,1,-1,-1,-1
6,2476,462.00,138.00,54.00,212.00,1,-1,-1,-1
6,2477,512.00,130.00,64.00,212.00,1,-1,-1,-1
7,2476,478.75,144.11,54.08,210.47,1,-1,-1,-1
7,2477,512.00,130.00,64.00,212.00,1,-1,-1,-1
8,2476,483.92,146.06,54.50,209.98,1,-1,-1,-1
9,2476,485.13,146.60,55.06,209.85,1,-1,-1,-1
10,2476,513.21,142.48,56.92,215.44,1,-1,-1,-1
10,2477,550.63,141.44,64.90,212.00,1,-1,-1,-1
11,2476,522.82,140.97,57.86,217.43,1,-1,-1,-1
11,2477,553.51,142.41,65.81,212.00,1,-1,-1,-1
12,2476,525.80,140.38,58.46,218.13,1,-1,-1,-1
12,2477,554.09,142.72,66.70,212.00,1,-1,-1,-1
13,2476,534.34,140.48,58.71,219.05,1,-1,-1,-1
13,2477,586.84,145.46,67.79,206.59,1,-1,-1,-1
14,2477,597.91,146.40,69.78,204.58,1,-1,-1,-1
15,2477,600.79,146.67,72.05,203.88,1,-1,-1,-1
16,2476,648.92,143.66,59.19,213.04,1,-1,-1,-1
16,2477,603.32,152.08,74.56,207.69,1,-1,-1,-1
17,2476,660.89,144.02,60.86,212.30,1,-1,-1,-1
17,2477,603.61,154.02,76.16,209.12,1,-1,-1,-1
18,2476,664.34,144.14,62.46,212.07,1,-1,-1,-1
18,2477,603.08,154.67,77.37,209.68,1,-1,-1,-1
19,2476,680.36,144.51,62.43,211.94,1,-1,-1,-1
19,2477,631.64,156.17,75.41,199.28,1,-1,-1,-1
19,2478,1144.00,144.00,76.00,226.00,1,-1,-1,-1
20,2477,641.68,156.63,75.60,195.31,1,-1,-1,-1
20,2478,1144.00,144.00,76.00,226.00,1,-1,-1,-1
21,2477,644.53,156.74,76.60,193.92,1,-1,-1,-1
21,2478,1144.00,144.00,76.00,226.00,1,-1,-1,-1
22,2476,705.88,153.08,67.21,211.95,1,-1,-1,-1
22,2477,653.29,158.18,76.00,192.39,1,-1,-1,-1
22,2478,1144.00,144.00,76.00,226.00,1,-1,-1,-1
22,2479,524.00,134.00,42.00,74.00,1,-1,-1,-1
22,2480,1044.00,158.00,94.00,208.00,1,-1,-1,-1
23,2476,706.51,154.06,71.23,211.96,1,-1,-1,-1
23,2478,1066.08,156.31,71.81,210.17,1,-1,-1,-1
23,2479,524.00,134.00,42.00,74.00,1,-1,-1,-1
24,2476,705.67,154.39,74.66,211.96,1,-1,-1,-1
24,2478,1052.44,158.38,72.12,207.51,1,-1,-1,-1
24,2479,524.00,134.00,42.00,74.00,1,-1,-1,-1
25,2475,392.66,169.97,94.71,166.05,1,-1,-1,-1
25,2476,732.35,139.91,79.36,225.21,1,-1,-1,-1
25,2478,1033.67,161.38,70.78,203.66,1,-1,-1,-1
25,2479,523.59,132.47,42.82,75.53,1,-1,-1,-1
25,2481,786.00,126.00,68.00,246.00,1,-1,-1,-1
25,2482,956.00,156.00,70.00,222.00,1,-1,-1,-1
25,2483,308.00,146.00,86.00,196.00,1,-1,-1,-1
26,2475,392.55,170.19,94.75,165.72,1,-1,-1,-1
26,2476,742.03,134.54,81.11,230.10,1,-1,-1,-1
26,2478,962.83,157.36,75.42,218.39,1,-1,-1,-1
26,2479,523.47,131.98,43.05,76.02,1,-1,-1,-1
26,2481,786.00,126.00,68.00,246.00,1,-1,-1,-1
26,2483,308.00,146.00,86.00,196.00,1,-1,-1,-1
27,2475,392.47,170.27,94.85,165.59,1,-1,-1,-1
27,2476,745.26,132.47,81.79,231.96,1,-1,-1,-1
27,2477,768.82,128.37,91.94,242.31,1,-1,-1,-1
27,2478,947.22,156.97,75.74,220.71,1,-1,-1,-1
27,2479,523.46,131.85,43.08,76.15,1,-1,-1,-1
27,2483,308.00,146.00,86.00,196.00,1,-1,-1,-1
28,2475,392.51,170.86,94.34,164.71,1,-1,-1,-1
28,2476,757.09,131.16,82.42,233.77,1,-1,-1,-1
28,2477,780.19,139.97,88.81,227.18,1,-1,-1,-1
28,2478,891.00,160.82,71.19,204.04,1,-1,-1,-1
28,2479,523.34,131.41,43.32,76.59,1,-1,-1,-1
28,2483,343.98,147.53,87.32,200.58,1,-1,-1,-1
28,2484,460.00,154.00,60.00,178.00,1,-1,-1,-1
29,2477,783.30,144.98,88.34,220.56,1,-1,-1,-1
29,2478,871.29,162.17,70.08,197.73,1,-1,-1,-1
29,2483,355.80,148.02,87.15,202.05,1,-1,-1,-1
29,2484,460.00,154.00,60.00,178.00,1,-1,-1,-1
30,2477,783.51,146.86,89.10,218.03,1,-1,-1,-1
30,2478,865.18,162.58,70.36,195.61,1,-1,-1,-1
30,2483,359.51,148.16,86.43,202.47,1,-1,-1,-1
30,2484,460.00,154.00,60.00,178.00,1,-1,-1,-1
31,2476,866.69,131.41,85.49,238.15,1,-1,-1,-1
31,2477,811.71,150.21,90.22,215.73,1,-1,-1,-1
31,2478,839.70,164.09,69.34,192.77,1,-1,-1,-1
31,2483,369.67,148.59,86.99,203.77,1,-1,-1,-1
31,2484,460.00,154.00,60.00,178.00,1,-1,-1,-1
32,2476,879.16,131.52,86.91,238.59,1,-1,-1,-1
32,2477,821.36,151.47,91.61,214.82,1,-1,-1,-1
33,2476,883.10,131.55,88.04,238.74,1,-1,-1,-1
33,2477,824.03,151.94,93.00,214.46,1,-1,-1,-1
34,2476,910.68,140.79,92.89,224.30,1,-1,-1,-1
34,2477,836.90,152.30,93.19,214.89,1,-1,-1,-1
34,2478,737.62,169.87,67.89,189.46,1,-1,-1,-1
34,2483,418.75,155.46,81.57,195.21,1,-1,-1,-1
34,2484,532.99,150.19,68.43,202.78,1,-1,-1,-1
35,2476,918.14,144.40,99.11,218.63,1,-1,-1,-1
35,2478,727.20,170.46,67.56,189.14,1,-1,-1,-1
35,2483,424.35,156.17,79.52,194.26,1,-1,-1,-1
35,2484,539.57,149.84,69.27,205.03,1,-1,-1,-1
36,2476,918.11,145.70,105.60,216.59,1,-1,-1,-1
36,2478,723.95,170.65,67.33,189.05,1,-1,-1,-1
36,2483,426.72,156.41,77.87,193.96,1,-1,-1,-1
36,2484,541.53,149.74,69.58,205.71,1,-1,-1,-1
37,2476,934.03,146.44,105.12,215.61,1,-1,-1,-1
37,2478,688.79,174.68,66.25,179.74,1,-1,-1,-1
37,2483,458.87,155.11,79.68,204.61,1,-1,-1,-1
37,2484,552.22,149.18,70.81,209.34,1,-1,-1,-1
38,2478,676.36,176.11,66.93,176.33,1,-1,-1,-1
38,2483,471.16,154.62,78.89,208.50,1,-1,-1,-1
39,2478,672.26,176.57,68.21,175.21,1,-1,-1,-1
39,2483,475.99,154.40,77.31,209.97,1,-1,-1,-1
40,2478,651.67,178.07,67.21,172.63,1,-1,-1,-1
40,2483,487.62,154.85,77.83,211.39,1,-1,-1,-1
40,2484,601.80,128.56,82.56,235.88,1,-1,-1,-1
40,2485,1044.00,132.00,150.00,232.00,1,-1,-1,-1
41,2476,1054.74,133.41,117.24,230.36,1,-1,-1,-1
41,2484,606.48,126.04,86.16,239.04,1,-1,-1,-1
42,2476,1063.33,132.21,121.96,231.72,1,-1,-1,-1
42,2484,607.36,125.16,88.78,240.12,1,-1,-1,-1
43,2476,1083.82,131.39,122.41,232.58,1,-1,-1,-1
43,2483,545.87,129.60,90.44,240.62,1,-1,-1,-1
43,2484,633.32,114.52,96.05,263.72,1,-1,-1,-1
44,2483,552.02,126.54,93.36,244.13,1,-1,-1,-1
44,2484,643.46,110.53,97.93,272.57,1,-1,-1,-1
45,2483,553.64,125.44,95.22,245.37,1,-1,-1,-1
45,2484,647.40,109.03,97.91,275.91,1,-1,-1,-1
46,2475,485.03,166.10,88.74,169.87,1,-1,-1,-1
46,2483,565.89,123.40,96.58,248.87,1,-1,-1,-1
46,2484,678.08,113.70,97.63,270.56,1,-1,-1,-1
47,2475,489.54,165.97,83.60,170.02,1,-1,-1,-1
47,2484,689.27,115.68,98.21,268.15,1,-1,-1,-1
48,2475,491.90,165.92,80.09,170.07,1,-1,-1,-1
48,2484,692.72,116.51,99.11,267.05,1,-1,-1,-1
49,2475,495.81,165.75,80.17,170.25,1,-1,-1,-1
49,2484,704.81,114.83,100.62,271.11,1,-1,-1,-1
52,2483,716.53,141.73,86.80,225.32,1,-1,-1,-1
52,2484,808.00,143.13,87.09,233.30,1,-1,-1,-1
53,2483,725.80,143.45,85.39,222.94,1,-1,-1,-1
53,2484,819.82,147.03,85.49,227.87,1,-1,-1,-1
54,2483,729.30,143.95,84.74,222.28,1,-1,-1,-1
54,2484,823.67,148.19,85.26,226.30,1,-1,-1,-1
55,2483,762.30,133.42,92.22,238.09,1,-1,-1,-1
55,2484,864.14,131.05,96.18,250.00,1,-1,-1,-1
56,2483,773.78,129.56,95.71,243.88,1,-1,-1,-1
56,2484,878.06,124.90,101.25,258.51,1,-1,-1,-1
57,2483,777.18,128.09,97.63,246.07,1,-1,-1,-1
57,2484,882.25,122.47,104.13,261.82,1,-1,-1,-1
58,2483,792.78,126.75,98.55,248.38,1,-1,-1,-1
58,2484,930.07,122.90,105.14,243.42,1,-1,-1,-1
59,2484,945.93,123.18,109.07,235.97,1,-1,-1,-1
60,2484,949.17,123.32,114.11,233.25,1,-1,-1,-1
61,2484,968.07,122.25,113.89,232.80,1,-1,-1,-1
61,2486,604.00,124.00,42.00,108.00,1,-1,-1,-1
62,2486,604.00,124.00,42.00,108.00,1,-1,-1,-1
63,2486,604.00,124.00,42.00,108.00,1,-1,-1,-1
64,2486,618.27,139.27,39.41,100.37,1,-1,-1,-1
65,2486,622.67,144.14,38.88,97.93,1,-1,-1,-1
66,2486,623.64,145.40,39.10,97.30,1,-1,-1,-1
67,2486,628.13,147.03,39.04,95.77,1,-1,-1,-1
68,2486,629.29,147.39,39.43,95.35,1,-1,-1,-1
69,2486,629.34,147.36,39.97,95.28,1,-1,-1,-1
70,2486,638.18,143.11,45.53,110.40,1,-1,-1,-1
71,2486,641.60,141.66,46.89,115.66,1,-1,-1,-1
72,2486,643.01,140.99,46.96,117.75,1,-1,-1,-1
73,2486,655.88,141.97,45.37,113.31,1,-1,-1,-1
74,2486,660.69,142.30,44.80,111.47,1,-1,-1,-1
75,2486,662.28,142.39,44.67,110.75,1,-1,-1,-1
76,2486,671.86,139.75,47.48,118.40,1,-1,-1,-1
77,2486,675.43,138.76,48.34,121.21,1,-1,-1,-1
78,2486,676.70,138.36,48.52,122.26,1,-1,-1,-1
79,2486,684.96,136.89,52.20,133.02,1,-1,-1,-1
80,2486,688.20,136.33,53.22,137.06,1,-1,-1,-1
81,2486,689.46,136.11,53.30,138.58,1,-1,-1,-1
82,2486,708.48,148.91,50.66,131.35,1,-1,-1,-1
83,2486,715.74,153.98,49.64,128.35,1,-1,-1,-1
84,2486,718.21,155.82,49.31,127.18,1,-1,-1,-1
85,2486,736.71,153.82,50.62,131.99,1,-1,-1,-1
86,2486,743.63,153.04,50.79,133.76,1,-1,-1,-1
87,2486,746.18,152.69,50.57,134.39,1,-1,-1,-1
88,2486,752.50,153.50,51.06,135.69,1,-1,-1,-1
91,2486,792.37,145.47,60.27,159.23,1,-1,-1,-1
91,2487,576.00,134.00,46.00,120.00,1,-1,-1,-1
91,2488,622.00,142.00,46.00,102.00,1,-1,-1,-1
91,2489,696.00,150.00,38.00,90.00,1,-1,-1,-1
92,2486,797.05,144.47,61.67,162.11,1,-1,-1,-1
92,2487,576.00,134.00,46.00,120.00,1,-1,-1,-1
92,2488,622.00,142.00,46.00,102.00,1,-1,-1,-1
92,2489,696.00,150.00,38.00,90.00,1,-1,-1,-1
93,2486,798.56,144.09,62.32,163.13,1,-1,-1,-1
93,2487,576.00,134.00,46.00,120.00,1,-1,-1,-1
93,2488,622.00,142.00,46.00,102.00,1,-1,-1,-1
93,2489,696.00,150.00,38.00,90.00,1,-1,-1,-1
94,2486,814.68,138.80,65.74,173.74,1,-1,-1,-1
94,2487,576.00,134.00,46.00,120.00,1,-1,-1,-1
94,2488,617.56,138.95,48.77,108.11,1,-1,-1,-1
94,2489,705.69,146.95,39.99,94.58,1,-1,-1,-1
95,2486,820.89,136.78,66.70,177.74,1,-1,-1,-1
95,2488,616.13,137.97,49.67,110.07,1,-1,-1,-1
95,2489,708.78,145.97,40.67,96.05,1,-1,-1,-1
96,2486,823.19,136.00,66.75,179.21,1,-1,-1,-1
96,2488,615.70,137.68,49.95,110.64,1,-1,-1,-1
96,2489,709.65,145.68,40.93,96.48,1,-1,-1,-1
97,2486,852.99,147.31,70.12,183.51,1,-1,-1,-1
97,2487,605.69,126.37,49.54,129.53,1,-1,-1,-1
97,2488,635.80,140.39,49.66,110.74,1,-1,-1,-1
97,2489,715.23,144.25,43.95,103.47,1,-1,-1,-1
98,2486,863.85,151.70,72.30,185.08,1,-1,-1,-1
98,2487,608.37,125.70,49.74,130.37,1,-1,-1,-1
98,2488,643.30,141.42,49.30,110.70,1,-1,-1,-1
98,2489,717.15,143.75,45.06,105.94,1,-1,-1,-1
99,2486,867.35,153.42,73.91,185.56,1,-1,-1,-1
99,2487,609.23,125.49,49.72,130.63,1,-1,-1,-1
99,2488,646.06,141.80,48.91,110.62,1,-1,-1,-1
99,2489,717.71,143.61,45.49,106.79,1,-1,-1,-1
100,2486,895.09,148.87,78.08,199.89,1,-1,-1,-1
100,2487,611.30,122.79,52.48,138.69,1,-1,-1,-1
100,2488,646.10,140.61,50.42,114.57,1,-1,-1,-1
100,2489,727.60,140.95,48.45,116.26,1,-1,-1,-1
101,2486,905.90,147.15,78.77,205.27,1,-1,-1,-1
101,2487,612.08,121.82,53.30,141.63,1,-1,-1,-1
101,2488,646.10,140.16,50.82,116.00,1,-1,-1,-1
101,2489,731.61,139.97,48.83,119.76,1,-1,-1,-1
102,2486,910.17,146.44,78.26,207.27,1,-1,-1,-1
102,2487,612.29,121.49,53.41,142.69,1,-1,-1,-1
102,2488,646.05,140.00,50.80,116.49,1,-1,-1,-1
102,2489,733.37,139.62,48.31,121.04,1,-1,-1,-1
103,2486,945.07,156.46,77.69,205.31,1,-1,-1,-1
103,2487,611.63,118.80,57.23,156.08,1,-1,-1,-1
103,2488,647.20,142.58,52.18,121.89,1,-1,-1,-1
103,2489,744.51,144.71,46.27,117.52,1,-1,-1,-1
104,2486,958.25,160.38,77.49,204.38,1,-1,-1,-1
104,2487,611.72,117.81,57.91,161.08,1,-1,-1,-1
104,2488,647.88,143.55,52.10,123.89,1,-1,-1,-1
104,2489,748.88,146.76,45.07,115.98,1,-1,-1,-1
105,2486,962.82,161.85,77.44,203.90,1,-1,-1,-1
105,2487,611.95,117.46,57.50,162.96,1,-1,-1,-1
105,2488,648.32,143.93,51.51,124.59,1,-1,-1,-1
105,2489,750.55,147.54,44.26,115.32,1,-1,-1,-1
106,2486,974.54,163.06,78.48,206.64,1,-1,-1,-1
106,2487,612.99,123.83,56.49,162.26,1,-1,-1,-1
106,2488,660.02,146.68,54.18,131.32,1,-1,-1,-1
106,2489,765.57,151.79,42.49,111.05,1,-1,-1,-1
106,2490,1008.00,144.00,118.00,216.00,1,-1,-1,-1
107,2486,1014.92,148.70,85.18,214.47,1,-1,-1,-1
107,2487,613.51,126.36,55.64,161.85,1,-1,-1,-1
107,2488,664.45,147.71,55.10,133.84,1,-1,-1,-1
107,2489,771.16,153.42,41.71,109.34,1,-1,-1,-1
108,2486,1024.31,145.50,89.33,216.58,1,-1,-1,-1
108,2487,613.82,127.36,54.91,161.59,1,-1,-1,-1
108,2488,666.12,148.10,55.36,134.74,1,-1,-1,-1
108,2489,773.08,154.01,41.35,108.67,1,-1,-1,-1
109,2486,1038.60,144.91,90.62,219.70,1,-1,-1,-1
109,2487,621.33,126.44,54.04,158.77,1,-1,-1,-1
109,2488,668.82,148.65,56.23,136.86,1,-1,-1,-1
109,2489,778.44,146.23,46.16,123.01,1,-1,-1,-1
109,2491,1104.00,152.00,80.00,228.00,1,-1,-1,-1
110,2486,1087.42,150.20,92.02,226.79,1,-1,-1,-1
110,2487,624.12,126.09,53.72,157.59,1,-1,-1,-1
110,2489,780.62,143.42,47.50,128.21,1,-1,-1,-1
111,2486,1100.85,151.38,91.49,228.78,1,-1,-1,-1
111,2487,625.07,125.96,53.62,157.07,1,-1,-1,-1
111,2489,781.44,142.28,47.68,130.24,1,-1,-1,-1
112,2486,1117.90,151.47,92.83,232.13,1,-1,-1,-1
112,2487,625.31,135.15,53.62,158.14,1,-1,-1,-1
112,2488,694.01,160.47,50.16,123.03,1,-1,-1,-1
112,2489,796.51,145.72,46.20,127.08,1,-1,-1,-1
113,2487,625.43,138.62,53.40,158.49,1,-1,-1,-1
113,2488,697.16,161.97,48.99,120.96,1,-1,-1,-1
113,2489,802.32,147.11,45.41,125.71,1,-1,-1,-1
114,2487,625.49,139.91,53.13,158.58,1,-1,-1,-1
114,2488,698.31,162.46,48.46,120.36,1,-1,-1,-1
114,2489,804.42,147.65,44.94,125.13,1,-1,-1,-1
115,2487,627.03,141.06,53.49,159.66,1,-1,-1,-1
115,2488,701.97,163.78,48.48,120.39,1,-1,-1,-1
115,2489,819.12,141.29,49.38,141.92,1,-1,-1,-1
116,2489,825.05,138.96,50.02,148.09,1,-1,-1,-1
117,2489,827.61,138.03,49.45,150.49,1,-1,-1,-1
118,2487,644.96,138.77,56.24,165.63,1,-1,-1,-1
118,2489,833.06,137.15,50.49,153.69,1,-1,-1,-1
119,2487,646.80,138.45,57.11,166.31,1,-1,-1,-1
120,2487,647.27,138.33,57.74,166.54,1,-1,-1,-1
121,2487,649.81,138.78,58.15,167.70,1,-1,-1,-1
121,2488,734.04,162.50,63.98,163.65,1,-1,-1,-1
121,2489,872.78,144.40,44.38,138.07,1,-1,-1,-1
122,2488,736.83,162.40,63.58,166.52,1,-1,-1,-1
122,2489,877.89,145.52,42.74,135.50,1,-1,-1,-1
123,2488,738.06,162.32,62.74,167.53,1,-1,-1,-1
123,2489,879.86,145.85,41.81,134.76,1,-1,-1,-1
124,2487,682.87,150.56,62.77,182.45,1,-1,-1,-1
124,2488,750.25,158.44,65.49,174.19,1,-1,-1,-1
124,2489,886.26,145.91,42.01,135.39,1,-1,-1,-1
125,2487,687.01,151.99,62.97,184.21,1,-1,-1,-1
125,2488,754.81,156.93,66.64,176.69,1,-1,-1,-1
126,2487,688.54,152.49,62.84,184.82,1,-1,-1,-1
126,2488,756.41,156.33,67.15,177.55,1,-1,-1,-1
127,2487,700.56,155.24,66.95,198.02,1,-1,-1,-1
127,2488,771.34,158.67,71.83,195.78,1,-1,-1,-1
128,2487,705.11,156.25,68.30,202.95,1,-1,-1,-1
128,2488,777.59,159.55,72.36,202.66,1,-1,-1,-1
129,2487,706.80,156.60,68.63,204.79,1,-1,-1,-1
129,2488,780.41,159.91,71.53,205.29,1,-1,-1,-1
130,2487,717.18,142.46,73.45,226.07,1,-1,-1,-1
130,2488,797.38,161.32,73.56,213.82,1,-1,-1,-1
131,2487,721.74,137.12,73.94,234.09,1,-1,-1,-1
131,2488,804.10,161.87,73.81,217.03,1,-1,-1,-1
132,2487,723.90,134.94,73.02,237.16,1,-1,-1,-1
132,2488,806.76,162.07,73.43,218.11,1,-1,-1,-1
133,2487,747.86,143.06,69.55,225.37,1,-1,-1,-1
133,2488,828.16,160.85,74.57,220.94,1,-1,-1,-1
134,2487,757.10,146.33,68.15,220.40,1,-1,-1,-1
134,2488,836.22,160.37,75.07,221.89,1,-1,-1,-1
135,2487,760.31,147.55,67.66,218.43,1,-1,-1,-1
135,2488,839.05,160.17,75.29,222.10,1,-1,-1,-1
136,2487,779.16,137.47,71.19,224.17,1,-1,-1,-1
136,2488,870.28,157.49,76.92,225.93,1,-1,-1,-1
136,2489,1055.43,155.81,60.97,185.12,1,-1,-1,-1
137,2487,785.60,133.68,73.44,226.27,1,-1,-1,-1
137,2488,881.95,156.47,77.68,227.28,1,-1,-1,-1
137,2489,1059.99,156.17,64.06,186.91,1,-1,-1,-1
138,2487,787.37,132.24,75.10,226.98,1,-1,-1,-1
138,2488,886.05,156.07,78.08,227.67,1,-1,-1,-1
138,2489,1060.88,156.29,66.14,187.49,1,-1,-1,-1
139,2487,804.63,131.72,79.92,240.25,1,-1,-1,-1
139,2488,921.59,165.06,74.77,206.81,1,-1,-1,-1
139,2489,1098.50,162.74,64.83,176.03,1,-1,-1,-1
140,2487,810.87,131.55,81.96,245.19,1,-1,-1,-1
140,2488,934.13,168.63,75.04,198.35,1,-1,-1,-1
140,2489,1112.25,165.26,65.24,171.32,1,-1,-1,-1
141,2487,812.89,131.52,82.93,247.00,1,-1,-1,-1
141,2488,937.35,169.88,76.85,195.32,1,-1,-1,-1
141,2489,1116.45,166.16,66.29,169.53,1,-1,-1,-1
142,2487,843.14,132.84,80.87,238.48,1,-1,-1,-1
142,2488,948.52,170.89,76.61,194.70,1,-1,-1,-1
142,2489,1141.53,154.56,74.23,192.60,1,-1,-1,-1
142,2492,992.00,154.00,94.00,226.00,1,-1,-1,-1
143,2487,854.35,133.40,80.39,234.97,1,-1,-1,-1
143,2488,986.97,157.76,86.80,219.31,1,-1,-1,-1
143,2489,1151.06,150.37,76.50,200.97,1,-1,-1,-1
144,2487,858.02,133.63,80.56,233.59,1,-1,-1,-1
144,2488,996.54,155.09,89.31,224.48,1,-1,-1,-1
144,2489,1154.54,148.65,76.92,204.27,1,-1,-1,-1
145,2487,901.10,125.81,86.31,244.89,1,-1,-1,-1
145,2488,1010.46,154.23,90.37,227.13,1,-1,-1,-1
145,2489,1167.07,147.97,78.32,207.99,1,-1,-1,-1
145,2493,1074.00,176.00,120.00,178.00,1,-1,-1,-1
