1,279,1680.00,392.00,130.00,352.00,1,-1,-1,-1
2,279,1680.00,392.00,130.00,352.00,1,-1,-1,-1
3,279,1682.51,390.44,131.22,355.12,1,-1,-1,-1
4,279,1683.26,389.95,131.68,356.10,1,-1,-1,-1
5,279,1684.22,389.36,132.11,357.28,1,-1,-1,-1
13,279,1681.59,395.80,135.19,366.01,1,-1,-1,-1
14,279,1681.53,396.07,135.18,366.34,1,-1,-1,-1
15,279,1681.13,392.17,135.94,369.12,1,-1,-1,-1
16,279,1681.05,390.71,136.07,370.12,1,-1,-1,-1
17,279,1681.79,390.16,137.22,371.77,1,-1,-1,-1
18,279,1681.94,389.96,137.91,372.35,1,-1,-1,-1
19,279,1676.23,391.22,137.79,372.52,1,-1,-1,-1
20,279,1674.11,391.70,137.64,372.54,1,-1,-1,-1
21,279,1673.84,394.53,135.23,367.22,1,-1,-1,-1
22,279,1673.89,395.60,134.08,365.17,1,-1,-1,-1
23,279,1667.45,394.67,132.02,361.74,1,-1,-1,-1
24,279,1665.26,394.30,130.83,360.45,1,-1,-1,-1
25,279,1662.20,384.86,134.99,375.92,1,-1,-1,-1
26,279,1661.51,381.37,135.72,381.65,1,-1,-1,-1
27,279,1659.68,374.82,139.24,394.27,1,-1,-1,-1
28,279,1659.30,372.37,140.03,399.03,1,-1,-1,-1
29,279,1657.79,368.88,139.25,400.75,1,-1,-1,-1
29,280,56.00,502.00,236.00,408.00,1,-1,-1,-1
30,279,1657.63,367.61,138.20,401.30,1,-1,-1,-1
30,280,56.00,502.00,236.00,408.00,1,-1,-1,-1
31,279,1659.14,380.30,132.12,380.43,1,-1,-1,-1
31,280,77.63,506.68,231.72,400.20,1,-1,-1,-1
32,279,1659.55,385.32,130.25,372.21,1,-1,-1,-1
32,280,84.29,508.14,230.59,397.77,1,-1,-1,-1
33,279,1660.14,373.79,134.11,383.90,1,-1,-1,-1
33,280,101.38,511.46,226.07,391.24,1,-1,-1,-1
34,279,1660.44,369.59,135.39,388.17,1,-1,-1,-1
34,280,106.84,512.46,224.12,389.25,1,-1,-1,-1
35,279,1661.46,360.14,142.02,408.18,1,-1,-1,-1
35,280,183.09,528.25,210.91,364.73,1,-1,-1,-1
36,279,1661.96,356.62,144.30,415.68,1,-1,-1,-1
36,280,209.18,533.71,206.93,356.28,1,-1,-1,-1
37,279,1660.17,346.24,147.88,428.87,1,-1,-1,-1
37,280,232.83,538.58,202.35,348.39,1,-1,-1,-1
38,279,1659.76,342.33,148.67,433.83,1,-1,-1,-1
39,279,1655.94,335.75,151.10,444.67,1,-1,-1,-1
39,280,215.95,533.85,208.58,353.35,1,-1,-1,-1
40,279,1654.83,333.32,151.30,448.69,1,-1,-1,-1
40,280,213.39,533.44,211.89,353.66,1,-1,-1,-1
41,279,1657.72,341.61,148.66,440.95,1,-1,-1,-1
41,280,226.13,535.83,209.34,349.41,1,-1,-1,-1
42,279,1658.89,344.99,147.54,437.72,1,-1,-1,-1
43,279,1650.33,339.77,150.66,449.52,1,-1,-1,-1
43,280,247.42,529.74,218.25,360.81,1,-1,-1,-1
44,279,1647.36,337.86,151.34,453.86,1,-1,-1,-1
44,280,250.13,528.93,221.01,362.34,1,-1,-1,-1
45,279,1644.78,331.98,153.22,457.99,1,-1,-1,-1
45,280,238.36,492.75,228.44,384.17,1,-1,-1,-1
46,279,1643.72,329.81,154.16,459.42,1,-1,-1,-1
46,280,235.53,479.47,227.89,392.20,1,-1,-1,-1
47,279,1642.31,315.98,159.21,474.22,1,-1,-1,-1
47,280,242.54,475.16,228.93,393.99,1,-1,-1,-1
48,279,1641.80,310.82,161.13,479.71,1,-1,-1,-1
49,279,1635.11,314.16,161.89,477.75,1,-1,-1,-1
49,280,355.61,482.82,211.80,367.82,1,-1,-1,-1
50,279,1632.23,315.61,162.85,476.78,1,-1,-1,-1
50,280,374.67,484.21,207.67,363.45,1,-1,-1,-1
51,279,1625.83,317.58,160.76,472.32,1,-1,-1,-1
51,280,391.04,481.86,206.91,362.11,1,-1,-1,-1
52,279,1623.62,318.44,159.62,470.47,1,-1,-1,-1
53,279,1620.75,326.75,159.47,467.03,1,-1,-1,-1
54,279,1619.49,329.97,159.91,465.63,1,-1,-1,-1
55,279,1617.73,329.88,161.48,463.72,1,-1,-1,-1
56,279,1616.57,329.86,163.22,462.95,1,-1,-1,-1
57,279,1614.42,317.97,170.10,479.80,1,-1,-1,-1
57,280,496.49,494.56,204.14,346.41,1,-1,-1,-1
58,279,1613.40,313.54,173.17,486.07,1,-1,-1,-1
58,280,499.65,495.54,208.41,345.53,1,-1,-1,-1
59,279,1616.47,304.04,178.00,501.45,1,-1,-1,-1
59,280,510.55,463.75,219.81,370.64,1,-1,-1,-1
60,279,1617.87,300.49,179.44,507.22,1,-1,-1,-1
60,280,515.30,452.29,222.04,379.71,1,-1,-1,-1
61,279,1615.82,300.51,180.01,509.29,1,-1,-1,-1
61,280,529.25,447.81,223.26,381.78,1,-1,-1,-1
62,279,1615.12,300.63,180.08,509.91,1,-1,-1,-1
63,279,1610.22,299.45,181.53,512.62,1,-1,-1,-1
64,279,1608.27,299.08,182.29,513.51,1,-1,-1,-1
65,279,1609.83,291.15,184.59,521.58,1,-1,-1,-1
65,280,603.31,362.98,271.08,480.56,1,-1,-1,-1
66,279,1610.62,288.21,185.11,524.53,1,-1,-1,-1
66,280,613.83,354.80,268.53,490.16,1,-1,-1,-1
67,279,1608.79,291.10,188.31,533.36,1,-1,-1,-1
67,280,625.74,336.61,268.62,494.91,1,-1,-1,-1
68,279,1608.11,292.29,189.52,536.60,1,-1,-1,-1
68,280,630.48,329.80,267.37,496.45,1,-1,-1,-1
69,279,1607.78,286.28,194.08,548.14,1,-1,-1,-1
69,280,647.65,328.81,263.43,496.72,1,-1,-1,-1
70,279,1607.55,284.05,196.02,552.39,1,-1,-1,-1
70,280,654.78,328.78,259.83,496.52,1,-1,-1,-1
71,279,1609.33,289.80,194.35,543.40,1,-1,-1,-1
71,280,667.71,320.04,263.67,503.86,1,-1,-1,-1
71,281,1514.00,382.00,154.00,426.00,1,-1,-1,-1
72,279,1609.67,292.11,194.40,539.71,1,-1,-1,-1
72,281,1514.00,382.00,154.00,426.00,1,-1,-1,-1
73,279,1611.04,291.71,198.53,548.75,1,-1,-1,-1
73,280,724.54,313.70,243.80,473.35,1,-1,-1,-1
73,281,1508.02,378.88,156.60,433.80,1,-1,-1,-1
74,279,1611.32,291.59,200.51,552.06,1,-1,-1,-1
74,280,735.02,312.94,237.76,467.87,1,-1,-1,-1
74,281,1506.25,377.90,157.21,436.25,1,-1,-1,-1
75,279,1610.66,279.77,206.72,568.93,1,-1,-1,-1
75,280,745.37,331.28,228.84,454.12,1,-1,-1,-1
75,281,1500.95,371.79,158.28,439.79,1,-1,-1,-1
76,279,1610.39,275.33,209.07,575.22,1,-1,-1,-1
76,280,749.06,338.39,224.58,448.91,1,-1,-1,-1
76,281,1499.35,369.79,158.43,440.84,1,-1,-1,-1
77,279,1609.90,271.07,209.40,578.77,1,-1,-1,-1
77,280,758.59,339.83,224.31,450.96,1,-1,-1,-1
77,281,1495.15,362.24,161.82,452.20,1,-1,-1,-1
78,279,1609.96,269.53,208.95,579.94,1,-1,-1,-1
78,280,762.02,340.46,223.55,451.73,1,-1,-1,-1
78,281,1493.99,359.63,162.52,456.17,1,-1,-1,-1
79,279,1628.95,297.85,197.01,542.22,1,-1,-1,-1
79,280,781.62,338.14,225.44,450.68,1,-1,-1,-1
79,281,1482.78,335.91,173.79,492.48,1,-1,-1,-1
80,279,1635.96,309.00,193.04,527.28,1,-1,-1,-1
80,280,787.94,337.35,227.36,450.28,1,-1,-1,-1
80,281,1479.28,327.26,176.76,505.72,1,-1,-1,-1
81,279,1642.00,311.66,193.86,527.25,1,-1,-1,-1
81,280,804.54,358.34,215.92,418.30,1,-1,-1,-1
81,281,1472.43,338.50,174.78,497.48,1,-1,-1,-1
82,279,1643.91,312.57,194.62,527.29,1,-1,-1,-1
82,280,809.06,366.52,213.66,406.04,1,-1,-1,-1
82,281,1469.72,343.25,174.32,493.75,1,-1,-1,-1
83,279,1637.70,306.19,203.22,549.95,1,-1,-1,-1
83,280,824.87,372.11,209.42,395.02,1,-1,-1,-1
83,281,1467.12,335.96,174.91,498.66,1,-1,-1,-1
84,279,1635.26,303.78,206.55,558.37,1,-1,-1,-1
84,280,829.71,374.07,208.79,391.22,1,-1,-1,-1
84,281,1466.60,333.34,174.41,500.30,1,-1,-1,-1
85,279,1637.78,305.43,203.37,545.84,1,-1,-1,-1
85,280,863.09,326.12,226.83,433.23,1,-1,-1,-1
85,281,1472.52,343.01,168.81,480.97,1,-1,-1,-1
86,279,1638.32,306.04,202.82,540.89,1,-1,-1,-1
86,280,876.32,309.06,230.57,448.17,1,-1,-1,-1
86,281,1474.71,346.94,167.14,473.22,1,-1,-1,-1
87,279,1638.58,295.63,209.01,556.26,1,-1,-1,-1
87,280,887.91,315.42,224.55,442.42,1,-1,-1,-1
87,281,1467.74,355.13,163.53,462.26,1,-1,-1,-1
88,279,1638.52,291.75,211.54,561.95,1,-1,-1,-1
88,280,892.51,318.22,220.60,440.04,1,-1,-1,-1
88,281,1465.16,358.26,162.30,458.10,1,-1,-1,-1
89,279,1640.37,288.98,219.13,586.36,1,-1,-1,-1
89,280,909.04,341.86,201.69,407.44,1,-1,-1,-1
89,281,1454.82,374.12,167.46,468.58,1,-1,-1,-1
90,279,1641.47,287.95,221.08,595.52,1,-1,-1,-1
90,280,915.20,351.20,193.20,394.81,1,-1,-1,-1
90,281,1450.67,379.97,170.19,472.46,1,-1,-1,-1
91,279,1644.38,284.99,219.32,592.40,1,-1,-1,-1
91,280,941.02,339.68,200.26,412.02,1,-1,-1,-1
91,281,1447.24,382.36,170.64,473.71,1,-1,-1,-1
92,279,1645.61,283.90,218.25,590.98,1,-1,-1,-1
92,280,950.46,335.57,202.03,418.22,1,-1,-1,-1
93,279,1637.90,273.02,222.23,603.42,1,-1,-1,-1
93,280,963.91,355.10,193.81,398.25,1,-1,-1,-1
93,281,1402.57,381.11,159.11,440.57,1,-1,-1,-1
94,279,1635.13,268.96,223.35,608.00,1,-1,-1,-1
94,280,967.97,362.75,191.33,390.54,1,-1,-1,-1
94,281,1395.37,380.86,157.53,435.25,1,-1,-1,-1
95,279,1631.08,275.33,225.74,618.74,1,-1,-1,-1
95,280,979.96,385.64,180.64,364.99,1,-1,-1,-1
95,281,1386.48,352.49,171.44,472.60,1,-1,-1,-1
96,279,1629.96,277.83,225.75,622.68,1,-1,-1,-1
96,280,983.28,394.07,177.62,355.65,1,-1,-1,-1
96,281,1383.22,342.41,176.61,485.87,1,-1,-1,-1
97,279,1624.89,278.86,220.63,605.70,1,-1,-1,-1
97,280,1028.74,388.74,177.14,352.55,1,-1,-1,-1
97,281,1376.30,339.47,177.83,489.23,1,-1,-1,-1
98,279,1622.70,279.31,219.08,598.90,1,-1,-1,-1
98,280,1044.39,386.65,177.65,351.65,1,-1,-1,-1
99,279,1616.54,274.21,218.63,598.92,1,-1,-1,-1
99,280,1042.46,381.72,182.63,365.00,1,-1,-1,-1
100,279,1614.40,272.33,218.20,598.86,1,-1,-1,-1
100,280,1041.87,379.86,183.51,369.98,1,-1,-1,-1
101,279,1612.64,271.02,218.73,600.30,1,-1,-1,-1
101,280,1052.66,373.79,183.22,377.29,1,-1,-1,-1
101,281,1363.55,326.16,183.66,511.11,1,-1,-1,-1
102,280,1057.39,371.46,181.03,380.10,1,-1,-1,-1
102,281,1363.58,325.07,182.60,513.02,1,-1,-1,-1
103,279,1603.43,264.69,222.70,620.75,1,-1,-1,-1
103,280,1070.32,379.77,176.81,373.30,1,-1,-1,-1
103,281,1351.34,311.55,192.29,545.22,1,-1,-1,-1
104,279,1603.20,263.68,220.85,623.98,1,-1,-1,-1
104,280,1075.03,382.93,174.71,370.73,1,-1,-1,-1
104,281,1347.32,306.58,194.95,557.10,1,-1,-1,-1
105,279,1600.80,262.06,221.98,627.18,1,-1,-1,-1
105,280,1084.95,384.21,174.11,369.46,1,-1,-1,-1
105,281,1341.87,307.35,198.95,574.43,1,-1,-1,-1
105,282,1212.00,304.00,166.00,440.00,1,-1,-1,-1
106,281,1340.46,307.77,199.38,580.93,1,-1,-1,-1
106,282,1212.00,304.00,166.00,440.00,1,-1,-1,-1
107,280,1096.73,379.33,175.04,372.92,1,-1,-1,-1
107,281,1343.97,324.91,189.20,552.09,1,-1,-1,-1
107,282,1214.82,307.12,165.04,436.88,1,-1,-1,-1
108,280,1098.90,378.59,174.69,373.44,1,-1,-1,-1
108,281,1345.73,331.84,184.91,540.28,1,-1,-1,-1
108,282,1215.60,308.10,164.94,435.90,1,-1,-1,-1
109,280,1107.21,378.98,174.43,372.90,1,-1,-1,-1
109,281,1351.22,330.46,177.90,521.17,1,-1,-1,-1
109,282,1208.35,311.29,165.01,434.19,1,-1,-1,-1
110,281,1353.58,329.97,174.99,513.86,1,-1,-1,-1
110,282,1205.61,312.29,165.60,433.68,1,-1,-1,-1
111,281,1351.09,329.41,174.86,513.49,1,-1,-1,-1
111,282,1202.43,311.15,178.84,465.86,1,-1,-1,-1
112,282,1201.00,310.73,184.16,477.11,1,-1,-1,-1
113,282,1195.76,299.85,204.97,531.80,1,-1,-1,-1
114,282,1193.94,295.81,212.46,552.04,1,-1,-1,-1
115,282,1194.15,285.19,230.29,599.50,1,-1,-1,-1
116,282,1194.41,281.09,236.84,617.69,1,-1,-1,-1
117,282,1192.74,278.68,243.63,635.39,1,-1,-1,-1
119,282,1201.92,301.71,241.94,629.35,1,-1,-1,-1
120,282,1203.42,305.95,241.83,627.59,1,-1,-1,-1
121,279,1484.38,192.61,211.83,577.42,1,-1,-1,-1
121,282,1199.34,328.34,237.88,615.26,1,-1,-1,-1
122,279,1479.43,191.10,216.18,575.77,1,-1,-1,-1
122,282,1197.61,336.85,236.59,610.07,1,-1,-1,-1
123,279,1469.97,187.80,220.78,573.86,1,-1,-1,-1
123,282,1180.07,311.05,247.41,640.62,1,-1,-1,-1
124,279,1465.71,186.74,224.56,573.24,1,-1,-1,-1
124,282,1173.83,301.35,250.81,651.89,1,-1,-1,-1
125,279,1458.88,179.78,230.32,582.53,1,-1,-1,-1
125,282,1169.48,296.23,252.06,655.86,1,-1,-1,-1
126,279,1456.07,177.32,233.42,586.03,1,-1,-1,-1
126,282,1167.99,294.28,252.23,656.96,1,-1,-1,-1
127,279,1450.95,173.69,233.45,586.10,1,-1,-1,-1
127,282,1165.13,313.17,246.51,641.32,1,-1,-1,-1
128,282,1164.10,320.53,244.28,634.85,1,-1,-1,-1
129,279,1389.78,191.57,283.56,723.78,1,-1,-1,-1
129,282,1161.31,321.84,246.37,640.29,1,-1,-1,-1
130,279,1381.89,194.02,287.75,744.55,1,-1,-1,-1
131,279,1376.02,193.78,291.66,758.71,1,-1,-1,-1
132,279,1374.43,193.71,292.27,763.76,1,-1,-1,-1
133,279,1369.16,191.13,297.19,775.49,1,-1,-1,-1
133,282,1127.78,280.74,276.78,698.29,1,-1,-1,-1
134,279,1367.32,190.14,299.13,779.59,1,-1,-1,-1
134,282,1121.66,276.64,285.64,703.64,1,-1,-1,-1
135,279,1363.10,174.26,300.89,785.84,1,-1,-1,-1
135,282,1117.12,273.90,292.24,708.08,1,-1,-1,-1
136,279,1361.93,168.15,301.07,787.80,1,-1,-1,-1
136,282,1114.39,272.95,296.93,709.50,1,-1,-1,-1
137,279,1347.76,152.86,308.19,806.30,1,-1,-1,-1
137,282,1104.84,266.16,305.49,718.90,1,-1,-1,-1
137,283,2.00,462.00,178.00,414.00,1,-1,-1,-1
138,279,1342.54,147.09,310.81,813.04,1,-1,-1,-1
138,282,1100.17,263.66,310.95,722.24,1,-1,-1,-1
138,283,2.00,462.00,178.00,414.00,1,-1,-1,-1
139,279,1334.84,143.69,311.94,820.38,1,-1,-1,-1
139,282,1091.78,248.45,319.89,737.62,1,-1,-1,-1
139,283,-7.28,430.82,202.79,473.25,1,-1,-1,-1
140,279,1332.58,142.53,311.36,822.79,1,-1,-1,-1
140,282,1088.11,242.75,324.41,743.25,1,-1,-1,-1
140,283,-9.90,420.82,210.03,492.25,1,-1,-1,-1
141,279,1325.14,138.89,315.31,833.22,1,-1,-1,-1
141,282,1087.72,217.24,329.53,759.47,1,-1,-1,-1
141,283,-11.89,399.82,217.37,512.89,1,-1,-1,-1
142,282,1088.21,207.64,330.37,765.42,1,-1,-1,-1
142,283,-11.88,392.71,218.46,519.34,1,-1,-1,-1
143,282,1056.90,200.26,346.92,797.36,1,-1,-1,-1
143,283,-14.74,379.92,226.52,538.49,1,-1,-1,-1
144,282,1044.34,197.62,354.63,809.31,1,-1,-1,-1
145,282,1060.58,185.21,360.96,820.04,1,-1,-1,-1
146,282,1066.67,180.64,364.10,823.81,1,-1,-1,-1
147,282,1056.87,183.04,363.74,817.05,1,-1,-1,-1
147,284,404.00,428.00,162.00,320.00,1,-1,-1,-1
148,282,1052.56,184.25,364.76,814.04,1,-1,-1,-1
148,284,404.00,428.00,162.00,320.00,1,-1,-1,-1
149,282,1068.33,169.17,373.80,834.90,1,-1,-1,-1
149,283,82.76,349.02,228.57,556.31,1,-1,-1,-1
150,282,1074.46,163.63,376.94,842.56,1,-1,-1,-1
150,283,92.31,348.73,223.20,554.71,1,-1,-1,-1
151,282,1088.62,161.73,383.26,854.32,1,-1,-1,-1
151,283,95.78,342.95,219.68,554.67,1,-1,-1,-1
151,285,408.00,420.00,152.00,336.00,1,-1,-1,-1
152,282,1093.80,161.21,386.11,858.52,1,-1,-1,-1
152,283,97.74,341.06,216.48,554.38,1,-1,-1,-1
152,285,408.00,420.00,152.00,336.00,1,-1,-1,-1
153,279,884.88,263.42,289.34,755.52,1,-1,-1,-1
153,282,1086.44,159.92,382.20,855.88,1,-1,-1,-1
153,283,103.54,334.11,219.31,561.60,1,-1,-1,-1
154,279,869.31,268.53,290.00,750.88,1,-1,-1,-1
154,282,1084.28,159.64,379.14,854.54,1,-1,-1,-1
155,279,844.05,277.06,292.40,748.19,1,-1,-1,-1
155,282,1097.74,153.13,380.82,866.90,1,-1,-1,-1
156,279,835.19,279.90,294.74,747.30,1,-1,-1,-1
156,282,1103.85,150.81,379.32,871.36,1,-1,-1,-1
157,279,824.33,284.70,297.00,744.38,1,-1,-1,-1
157,282,1108.35,139.62,386.04,889.84,1,-1,-1,-1
157,283,212.09,286.06,228.63,599.12,1,-1,-1,-1
158,279,820.57,286.21,299.41,743.39,1,-1,-1,-1
158,282,1110.37,135.50,387.78,896.64,1,-1,-1,-1
158,283,224.31,281.84,225.47,602.29,1,-1,-1,-1
159,279,814.10,270.45,301.56,751.15,1,-1,-1,-1
159,282,1123.83,127.58,386.35,901.56,1,-1,-1,-1
159,283,249.95,311.88,214.30,578.45,1,-1,-1,-1
159,286,402.00,386.00,144.00,422.00,1,-1,-1,-1
160,279,812.63,264.41,301.91,754.10,1,-1,-1,-1
160,282,1129.85,124.73,383.81,903.16,1,-1,-1,-1
160,283,259.62,323.79,208.91,568.95,1,-1,-1,-1
160,286,402.00,386.00,144.00,422.00,1,-1,-1,-1
161,279,800.09,267.35,310.19,767.20,1,-1,-1,-1
161,282,1117.07,114.66,389.08,924.46,1,-1,-1,-1
161,283,263.63,354.92,197.04,536.06,1,-1,-1,-1
161,286,392.41,371.97,155.39,454.74,1,-1,-1,-1
162,279,795.16,268.39,314.83,772.11,1,-1,-1,-1
162,282,1113.19,111.00,388.93,932.32,1,-1,-1,-1
162,283,264.33,366.86,192.57,523.44,1,-1,-1,-1
162,286,389.25,367.51,159.22,465.14,1,-1,-1,-1
163,279,773.88,256.84,324.94,788.43,1,-1,-1,-1
163,282,1099.10,95.44,390.32,940.24,1,-1,-1,-1
163,283,275.52,369.29,191.63,520.89,1,-1,-1,-1
163,286,387.51,350.56,174.99,509.49,1,-1,-1,-1
164,279,765.41,252.44,330.52,794.53,1,-1,-1,-1
164,282,1094.20,89.67,389.72,942.98,1,-1,-1,-1
164,286,386.74,344.76,180.88,524.69,1,-1,-1,-1
165,279,757.96,244.18,329.02,790.17,1,-1,-1,-1
165,282,1077.40,90.32,393.11,945.02,1,-1,-1,-1
165,286,387.85,336.30,189.68,548.13,1,-1,-1,-1
166,279,755.61,241.04,328.55,788.36,1,-1,-1,-1
166,282,1070.38,90.80,395.62,945.51,1,-1,-1,-1
166,286,388.12,333.38,193.27,556.31,1,-1,-1,-1
167,279,743.71,239.69,329.50,790.63,1,-1,-1,-1
167,282,1044.00,92.51,404.72,948.06,1,-1,-1,-1
167,286,396.44,341.81,188.61,537.51,1,-1,-1,-1
168,282,1032.00,93.33,412.30,948.79,1,-1,-1,-1
168,286,399.26,345.54,187.45,529.05,1,-1,-1,-1
169,282,1006.24,66.20,425.01,965.93,1,-1,-1,-1
169,286,404.08,357.80,189.97,532.01,1,-1,-1,-1
170,282,995.28,56.07,432.58,972.23,1,-1,-1,-1
170,286,405.44,362.52,191.64,532.74,1,-1,-1,-1
171,279,567.01,150.31,360.79,858.21,1,-1,-1,-1
171,282,981.49,57.67,438.07,974.39,1,-1,-1,-1
171,286,406.49,361.30,194.82,541.57,1,-1,-1,-1
172,279,549.57,141.83,366.03,864.56,1,-1,-1,-1
172,282,975.34,58.53,442.44,974.96,1,-1,-1,-1
173,279,533.02,148.04,358.94,839.30,1,-1,-1,-1
173,282,948.41,43.30,442.52,974.94,1,-1,-1,-1
174,279,526.89,150.82,357.69,829.28,1,-1,-1,-1
174,282,938.45,37.71,442.50,974.73,1,-1,-1,-1
175,279,500.75,153.43,366.67,847.88,1,-1,-1,-1
175,282,931.36,46.35,437.92,961.29,1,-1,-1,-1
176,279,491.30,154.56,370.48,854.73,1,-1,-1,-1
176,282,928.69,49.90,436.88,956.00,1,-1,-1,-1
177,279,471.38,181.42,366.76,834.91,1,-1,-1,-1
177,282,920.10,46.27,437.65,957.68,1,-1,-1,-1
178,279,463.49,191.97,367.55,827.05,1,-1,-1,-1
179,279,424.80,178.71,375.71,828.03,1,-1,-1,-1
179,282,841.69,66.88,430.68,953.41,1,-1,-1,-1
180,279,408.97,173.76,382.73,828.36,1,-1,-1,-1
180,282,831.11,70.13,426.04,952.73,1,-1,-1,-1
181,279,393.73,169.31,394.83,841.66,1,-1,-1,-1
181,282,813.06,57.96,426.94,961.79,1,-1,-1,-1
182,279,387.03,167.70,402.51,846.62,1,-1,-1,-1
182,282,807.61,53.46,425.65,965.13,1,-1,-1,-1
183,279,311.01,163.23,401.18,833.95,1,-1,-1,-1
183,282,800.98,45.23,428.82,984.79,1,-1,-1,-1
184,279,281.55,161.61,402.99,829.00,1,-1,-1,-1
184,282,800.38,42.19,427.10,992.13,1,-1,-1,-1
185,279,251.37,155.80,410.51,850.97,1,-1,-1,-1
185,282,785.38,54.25,429.42,1003.98,1,-1,-1,-1
186,279,241.63,153.69,411.58,859.13,1,-1,-1,-1
186,282,780.85,58.93,428.80,1008.33,1,-1,-1,-1
187,279,209.98,149.06,410.63,862.15,1,-1,-1,-1
187,282,754.43,37.14,434.22,1033.43,1,-1,-1,-1
188,279,199.42,147.39,408.96,863.17,1,-1,-1,-1
188,282,746.21,28.92,433.40,1042.77,1,-1,-1,-1
189,279,157.27,132.39,412.64,871.34,1,-1,-1,-1
189,282,717.05,10.18,436.40,1060.47,1,-1,-1,-1
190,279,142.17,126.82,413.88,874.32,1,-1,-1,-1
190,282,707.53,3.14,435.13,1066.98,1,-1,-1,-1
191,279,116.36,124.84,416.84,871.37,1,-1,-1,-1
191,282,692.12,9.77,431.74,1058.71,1,-1,-1,-1
192,279,106.35,124.26,420.17,870.12,1,-1,-1,-1
192,282,686.83,12.52,430.29,1055.20,1,-1,-1,-1
193,279,32.84,101.77,434.65,897.23,1,-1,-1,-1
193,282,663.96,12.39,421.16,1036.53,1,-1,-1,-1
194,279,5.52,93.44,440.80,907.31,1,-1,-1,-1
194,282,656.25,12.48,416.83,1029.21,1,-1,-1,-1
195,279,-18.97,94.37,447.01,928.00,1,-1,-1,-1
195,282,635.95,3.34,420.62,1036.96,1,-1,-1,-1
196,279,-26.41,94.91,447.22,935.70,1,-1,-1,-1
196,282,628.66,0.01,422.35,1039.80,1,-1,-1,-1
197,279,-27.74,103.16,435.77,918.82,1,-1,-1,-1
197,282,567.55,30.53,406.31,989.35,1,-1,-1,-1
197,287,164.00,122.00,390.00,850.00,1,-1,-1,-1
198,279,-26.25,106.55,429.50,911.98,1,-1,-1,-1
198,282,543.83,42.43,402.24,969.85,1,-1,-1,-1
198,287,164.00,122.00,390.00,850.00,1,-1,-1,-1
199,279,-39.69,143.58,396.00,864.36,1,-1,-1,-1
199,282,499.49,49.42,421.22,1004.47,1,-1,-1,-1
199,287,217.12,187.48,363.28,793.87,1,-1,-1,-1
200,279,-41.01,157.87,377.77,845.98,1,-1,-1,-1
200,282,482.47,51.92,430.76,1017.14,1,-1,-1,-1
200,287,234.03,207.79,354.12,776.46,1,-1,-1,-1
201,279,-18.98,150.92,357.08,823.28,1,-1,-1,-1
201,282,468.12,50.16,445.32,1023.33,1,-1,-1,-1
201,287,219.19,185.23,357.69,787.60,1,-1,-1,-1
202,279,-7.32,148.22,344.07,815.06,1,-1,-1,-1
202,282,460.33,49.39,457.14,1025.64,1,-1,-1,-1
202,287,214.40,177.21,357.95,791.88,1,-1,-1,-1
203,279,-19.45,149.54,341.41,808.75,1,-1,-1,-1
203,282,424.59,46.39,470.67,1021.18,1,-1,-1,-1
203,287,220.04,183.31,354.46,784.17,1,-1,-1,-1
204,282,407.71,45.19,483.88,1019.43,1,-1,-1,-1
205,282,366.24,15.62,498.37,1035.91,1,-1,-1,-1
206,282,349.45,4.52,507.39,1042.06,1,-1,-1,-1
207,282,329.92,1.12,508.79,1044.91,1,-1,-1,-1
207,288,928.00,368.00,162.00,430.00,1,-1,-1,-1
208,288,928.00,368.00,162.00,430.00,1,-1,-1,-1
209,282,112.15,17.61,551.50,1107.32,1,-1,-1,-1
209,288,956.14,399.18,147.81,391.02,1,-1,-1,-1
209,289,658.00,350.00,156.00,466.00,1,-1,-1,-1
210,282,72.94,20.16,567.17,1117.23,1,-1,-1,-1
210,288,964.61,408.81,143.87,378.98,1,-1,-1,-1
210,289,658.00,350.00,156.00,466.00,1,-1,-1,-1
211,282,37.22,15.86,572.51,1108.92,1,-1,-1,-1
211,288,978.76,401.80,149.01,391.57,1,-1,-1,-1
211,289,667.51,357.80,161.92,484.71,1,-1,-1,-1
211,290,1054.00,386.00,150.00,390.00,1,-1,-1,-1
212,282,22.64,14.26,579.06,1105.42,1,-1,-1,-1
212,288,982.70,399.33,151.04,395.84,1,-1,-1,-1
212,289,670.68,360.26,163.46,490.62,1,-1,-1,-1
212,290,1054.00,386.00,150.00,390.00,1,-1,-1,-1
213,282,12.38,28.15,569.79,1076.24,1,-1,-1,-1
213,288,981.54,399.56,147.29,386.41,1,-1,-1,-1
213,289,680.09,363.79,158.27,473.20,1,-1,-1,-1
213,290,1065.26,375.09,157.10,408.71,1,-1,-1,-1
214,282,8.52,33.50,569.04,1064.85,1,-1,-1,-1
214,288,980.60,399.42,145.94,383.26,1,-1,-1,-1
214,289,682.87,364.80,156.77,466.70,1,-1,-1,-1
214,290,1068.86,371.64,159.26,414.62,1,-1,-1,-1
215,282,59.56,26.18,553.50,1008.79,1,-1,-1,-1
215,288,965.48,371.63,153.79,408.58,1,-1,-1,-1
215,289,664.51,332.55,176.04,525.18,1,-1,-1,-1
215,290,1074.11,353.35,165.65,430.63,1,-1,-1,-1
216,282,76.99,23.36,554.43,987.50,1,-1,-1,-1
216,288,960.65,361.79,155.38,417.58,1,-1,-1,-1
216,289,658.41,321.54,182.33,545.15,1,-1,-1,-1
216,290,1075.66,347.22,167.92,435.86,1,-1,-1,-1
217,282,64.18,23.04,550.26,980.04,1,-1,-1,-1
217,288,961.97,358.34,155.96,419.14,1,-1,-1,-1
217,289,657.52,316.19,186.41,557.36,1,-1,-1,-1
217,290,1083.20,365.96,159.62,411.22,1,-1,-1,-1
218,290,1085.38,373.51,156.99,401.39,1,-1,-1,-1
219,289,659.23,268.95,204.36,612.21,1,-1,-1,-1
219,290,1084.61,369.38,160.10,406.10,1,-1,-1,-1
220,289,659.66,261.18,207.02,621.31,1,-1,-1,-1
220,290,1083.79,367.95,162.01,407.77,1,-1,-1,-1
221,289,656.20,259.77,206.07,624.40,1,-1,-1,-1
221,290,1092.80,380.91,157.20,394.90,1,-1,-1,-1
222,289,655.41,259.56,204.47,625.06,1,-1,-1,-1
222,290,1095.93,385.87,155.53,389.99,1,-1,-1,-1
223,289,659.86,274.11,200.74,609.18,1,-1,-1,-1
223,290,1100.29,387.66,149.55,374.74,1,-1,-1,-1
224,289,661.25,280.12,199.85,602.43,1,-1,-1,-1
224,290,1101.68,388.27,147.42,369.15,1,-1,-1,-1
225,279,189.19,279.59,315.59,695.89,1,-1,-1,-1
225,289,660.50,290.48,200.67,604.82,1,-1,-1,-1
225,290,1101.21,378.96,148.35,376.73,1,-1,-1,-1
226,279,186.81,281.68,328.43,694.37,1,-1,-1,-1
226,289,660.20,294.53,200.90,605.46,1,-1,-1,-1
226,290,1101.54,375.57,147.51,379.57,1,-1,-1,-1
227,279,196.02,287.13,326.19,689.60,1,-1,-1,-1
227,289,743.41,308.00,193.34,573.88,1,-1,-1,-1
227,290,1105.48,379.62,143.36,368.76,1,-1,-1,-1
227,291,1218.00,360.00,126.00,392.00,1,-1,-1,-1
228,289,774.88,313.32,191.69,561.28,1,-1,-1,-1
228,290,1106.83,381.19,141.83,364.73,1,-1,-1,-1
228,291,1218.00,360.00,126.00,392.00,1,-1,-1,-1
229,289,778.13,292.48,201.51,590.11,1,-1,-1,-1
229,290,1112.98,379.08,143.23,370.05,1,-1,-1,-1
229,291,1215.87,356.88,128.70,399.80,1,-1,-1,-1
230,289,779.15,284.92,205.05,600.55,1,-1,-1,-1
230,290,1115.35,378.31,143.40,372.09,1,-1,-1,-1
230,291,1215.11,355.90,129.74,402.25,1,-1,-1,-1
231,289,784.30,280.76,209.01,608.37,1,-1,-1,-1
231,290,1118.13,378.07,142.91,370.80,1,-1,-1,-1
231,291,1214.81,365.91,124.36,385.28,1,-1,-1,-1
232,289,785.56,279.27,211.15,611.19,1,-1,-1,-1
232,291,1214.72,369.40,122.53,379.30,1,-1,-1,-1
233,279,347.16,325.72,281.98,619.96,1,-1,-1,-1
233,289,796.94,278.81,202.50,589.78,1,-1,-1,-1
233,290,1123.41,383.03,141.37,364.64,1,-1,-1,-1
233,291,1210.03,379.00,119.99,368.90,1,-1,-1,-1
234,279,358.89,327.61,272.71,616.16,1,-1,-1,-1
234,289,801.20,278.77,198.46,581.28,1,-1,-1,-1
234,290,1123.94,383.80,141.73,363.68,1,-1,-1,-1
234,291,1208.15,382.22,119.70,365.46,1,-1,-1,-1
235,279,445.44,314.75,264.33,604.01,1,-1,-1,-1
235,289,809.37,269.53,200.43,590.04,1,-1,-1,-1
235,290,1126.53,384.17,141.11,362.10,1,-1,-1,-1
235,291,1213.58,384.57,120.06,364.45,1,-1,-1,-1
236,279,476.82,309.85,260.28,599.92,1,-1,-1,-1
236,289,812.44,266.18,200.60,593.25,1,-1,-1,-1
236,291,1215.35,385.26,120.69,364.27,1,-1,-1,-1
237,279,502.33,311.99,256.86,592.04,1,-1,-1,-1
237,289,815.85,291.37,190.25,561.47,1,-1,-1,-1
237,291,1230.57,381.30,123.05,368.45,1,-1,-1,-1
238,289,816.62,301.27,186.41,549.09,1,-1,-1,-1
238,291,1235.83,379.74,124.53,370.09,1,-1,-1,-1
239,279,494.43,302.25,263.84,613.95,1,-1,-1,-1
239,289,822.58,304.85,175.87,521.83,1,-1,-1,-1
239,291,1243.02,401.82,114.44,334.68,1,-1,-1,-1
239,292,910.00,312.00,176.00,514.00,1,-1,-1,-1
240,279,494.89,300.90,263.12,616.89,1,-1,-1,-1
240,289,824.78,306.11,171.39,511.88,1,-1,-1,-1
240,291,1245.11,410.17,111.49,321.23,1,-1,-1,-1
240,292,910.00,312.00,176.00,514.00,1,-1,-1,-1
241,279,512.71,316.35,246.86,580.81,1,-1,-1,-1
241,289,820.95,309.22,171.87,523.41,1,-1,-1,-1
241,291,1245.53,396.34,116.41,331.99,1,-1,-1,-1
241,292,919.69,307.32,178.46,521.80,1,-1,-1,-1
241,293,650.00,334.00,180.00,554.00,1,-1,-1,-1
242,279,518.68,322.19,240.41,567.28,1,-1,-1,-1
242,289,820.38,310.30,170.21,527.73,1,-1,-1,-1
242,291,1245.27,391.46,118.87,335.85,1,-1,-1,-1
242,292,922.83,305.85,179.03,524.25,1,-1,-1,-1
242,293,650.00,334.00,180.00,554.00,1,-1,-1,-1
243,279,533.96,324.67,237.27,559.87,1,-1,-1,-1
243,289,823.79,311.91,169.21,524.64,1,-1,-1,-1
243,291,1253.95,388.21,122.06,345.49,1,-1,-1,-1
243,292,927.83,298.15,181.00,532.19,1,-1,-1,-1
244,291,1257.15,386.96,123.15,349.19,1,-1,-1,-1
244,292,929.63,295.64,181.05,534.73,1,-1,-1,-1
245,279,611.70,338.55,239.83,575.12,1,-1,-1,-1
245,291,1258.36,375.89,129.92,366.52,1,-1,-1,-1
245,292,948.49,294.91,174.76,518.75,1,-1,-1,-1
246,279,624.80,340.64,237.46,577.12,1,-1,-1,-1
246,291,1258.55,371.75,132.84,373.01,1,-1,-1,-1
246,292,955.42,294.84,171.83,512.71,1,-1,-1,-1
247,279,640.10,337.34,227.92,555.29,1,-1,-1,-1
247,291,1257.12,387.14,130.15,363.76,1,-1,-1,-1
247,292,956.57,325.14,160.54,481.72,1,-1,-1,-1
248,279,645.02,335.93,224.15,547.25,1,-1,-1,-1
248,291,1256.27,393.17,129.39,360.09,1,-1,-1,-1
248,292,956.85,336.39,155.89,470.42,1,-1,-1,-1
249,279,651.50,332.64,214.87,525.73,1,-1,-1,-1
249,289,818.08,348.58,155.02,473.71,1,-1,-1,-1
249,291,1251.46,382.15,129.96,365.33,1,-1,-1,-1
249,292,957.17,351.22,146.62,446.03,1,-1,-1,-1
249,294,1570.00,466.00,80.00,280.00,1,-1,-1,-1
250,279,653.17,331.32,211.32,518.03,1,-1,-1,-1
250,289,816.63,350.71,155.86,470.82,1,-1,-1,-1
250,291,1249.97,378.02,129.44,367.28,1,-1,-1,-1
250,292,957.37,356.33,142.74,437.61,1,-1,-1,-1
250,294,1570.00,466.00,80.00,280.00,1,-1,-1,-1
251,279,656.84,321.35,215.05,534.41,1,-1,-1,-1
251,289,809.02,347.38,162.34,491.43,1,-1,-1,-1
251,291,1243.58,385.67,123.68,356.16,1,-1,-1,-1
251,292,959.85,357.89,146.01,450.15,1,-1,-1,-1
251,294,1575.00,464.44,80.92,283.12,1,-1,-1,-1
251,295,1084.00,342.00,134.00,456.00,1,-1,-1,-1
252,279,658.65,317.73,214.87,540.50,1,-1,-1,-1
252,289,806.37,346.13,164.52,498.91,1,-1,-1,-1
252,291,1241.55,388.63,120.52,351.87,1,-1,-1,-1
252,292,960.90,358.30,146.75,454.81,1,-1,-1,-1
252,294,1576.56,463.95,81.23,284.10,1,-1,-1,-1
252,295,1084.00,342.00,134.00,456.00,1,-1,-1,-1
253,279,664.11,328.27,204.31,521.82,1,-1,-1,-1
253,289,804.50,337.61,172.37,522.98,1,-1,-1,-1
253,291,1241.33,389.16,120.19,350.91,1,-1,-1,-1
253,292,953.89,350.21,146.95,460.81,1,-1,-1,-1
253,294,1578.46,463.36,81.56,285.28,1,-1,-1,-1
253,295,1094.75,335.76,134.33,457.56,1,-1,-1,-1
254,279,666.34,332.33,198.84,514.88,1,-1,-1,-1
254,289,803.82,334.35,175.29,532.05,1,-1,-1,-1
254,292,951.67,347.03,146.09,463.22,1,-1,-1,-1
254,295,1098.19,333.81,134.30,458.05,1,-1,-1,-1
255,279,675.52,333.36,196.78,509.53,1,-1,-1,-1
255,289,804.11,333.04,177.94,530.28,1,-1,-1,-1
255,292,949.57,355.03,145.60,461.58,1,-1,-1,-1
255,295,1102.41,345.12,133.43,452.27,1,-1,-1,-1
256,289,803.46,332.51,180.50,529.50,1,-1,-1,-1
256,292,948.74,357.94,145.46,461.07,1,-1,-1,-1
256,295,1103.29,349.03,133.75,450.31,1,-1,-1,-1
257,289,801.21,341.50,178.90,515.96,1,-1,-1,-1
257,292,947.43,366.90,144.75,452.99,1,-1,-1,-1
257,295,1100.55,333.43,140.99,472.19,1,-1,-1,-1
258,289,799.62,344.91,179.73,510.72,1,-1,-1,-1
258,292,946.44,370.14,145.49,450.06,1,-1,-1,-1
258,295,1099.23,327.93,144.06,479.87,1,-1,-1,-1
259,289,799.60,352.77,174.93,486.20,1,-1,-1,-1
259,292,946.60,373.63,144.57,447.22,1,-1,-1,-1
259,295,1101.13,338.02,137.47,453.04,1,-1,-1,-1
260,289,798.70,355.66,174.95,476.95,1,-1,-1,-1
260,295,1101.32,342.03,135.69,442.52,1,-1,-1,-1
261,289,799.95,357.98,177.20,477.75,1,-1,-1,-1
261,292,947.00,363.05,154.01,472.61,1,-1,-1,-1
261,295,1096.09,340.74,140.05,455.16,1,-1,-1,-1
262,289,799.89,358.75,179.11,478.16,1,-1,-1,-1
262,292,946.62,361.55,156.31,476.36,1,-1,-1,-1
262,295,1094.03,340.27,141.92,459.74,1,-1,-1,-1
263,289,799.36,333.65,188.83,502.41,1,-1,-1,-1
263,291,1376.73,390.11,109.73,322.48,1,-1,-1,-1
263,292,944.04,349.14,159.37,488.22,1,-1,-1,-1
263,295,1098.70,342.75,140.96,456.15,1,-1,-1,-1
264,289,798.98,324.36,192.79,511.40,1,-1,-1,-1
264,291,1382.17,390.10,108.85,321.48,1,-1,-1,-1
264,292,943.28,344.45,160.08,492.66,1,-1,-1,-1
264,295,1100.40,343.68,140.68,454.76,1,-1,-1,-1
265,289,807.51,341.74,178.24,467.76,1,-1,-1,-1
265,291,1391.02,390.30,108.13,319.35,1,-1,-1,-1
265,292,946.24,362.26,155.14,466.83,1,-1,-1,-1
265,295,1099.86,360.00,136.19,436.92,1,-1,-1,-1
265,296,1230.00,384.00,112.00,368.00,1,-1,-1,-1
266,289,810.44,348.75,173.29,450.45,1,-1,-1,-1
266,292,946.61,369.22,154.77,456.66,1,-1,-1,-1
266,295,1099.33,366.15,135.02,430.19,1,-1,-1,-1
266,296,1230.00,384.00,112.00,368.00,1,-1,-1,-1
267,289,821.84,355.30,175.19,453.94,1,-1,-1,-1
267,292,939.70,358.34,156.69,465.01,1,-1,-1,-1
267,295,1099.98,362.92,135.55,434.54,1,-1,-1,-1
268,289,825.73,357.62,176.22,455.32,1,-1,-1,-1
268,292,937.40,354.32,156.91,468.11,1,-1,-1,-1
268,295,1100.43,361.66,135.30,436.22,1,-1,-1,-1
269,289,837.78,370.41,160.56,414.67,1,-1,-1,-1
269,292,941.83,373.88,149.09,441.60,1,-1,-1,-1
269,295,1097.87,355.79,144.62,462.16,1,-1,-1,-1
270,289,842.16,375.20,154.69,399.34,1,-1,-1,-1
270,292,943.32,381.42,146.58,431.40,1,-1,-1,-1
270,295,1096.53,353.59,148.81,471.77,1,-1,-1,-1
271,289,846.28,378.41,151.28,390.54,1,-1,-1,-1
271,292,943.37,370.59,152.09,449.39,1,-1,-1,-1
271,295,1095.93,344.88,153.17,484.58,1,-1,-1,-1
271,297,1224.00,336.00,138.00,446.00,1,-1,-1,-1
272,292,943.55,366.64,153.76,455.93,1,-1,-1,-1
272,295,1095.61,341.52,154.98,489.40,1,-1,-1,-1
272,297,1224.00,336.00,138.00,446.00,1,-1,-1,-1
273,292,947.54,362.45,149.20,442.69,1,-1,-1,-1
273,295,1092.42,346.76,153.92,472.87,1,-1,-1,-1
273,297,1228.44,328.20,143.16,461.59,1,-1,-1,-1
274,292,949.09,360.81,147.40,437.62,1,-1,-1,-1
274,295,1090.14,348.84,155.51,466.25,1,-1,-1,-1
274,297,1229.67,325.74,145.11,466.51,1,-1,-1,-1
275,292,948.72,361.55,145.94,431.81,1,-1,-1,-1
275,295,1090.26,331.05,167.41,488.93,1,-1,-1,-1
275,297,1228.45,338.24,138.47,441.52,1,-1,-1,-1
276,292,948.43,361.82,145.69,429.74,1,-1,-1,-1
276,295,1089.07,324.51,174.27,497.26,1,-1,-1,-1
276,297,1227.50,342.77,136.84,432.46,1,-1,-1,-1
277,292,955.06,379.26,141.43,414.41,1,-1,-1,-1
277,295,1087.63,333.76,172.31,479.53,1,-1,-1,-1
277,297,1225.15,337.10,141.73,442.38,1,-1,-1,-1
278,292,957.29,385.81,140.35,408.78,1,-1,-1,-1
278,295,1086.02,337.51,173.54,472.40,1,-1,-1,-1
278,297,1223.71,335.10,144.68,445.90,1,-1,-1,-1
279,292,964.01,388.12,137.51,398.81,1,-1,-1,-1
279,295,1083.71,338.94,173.40,465.72,1,-1,-1,-1
279,297,1219.23,334.35,150.93,458.12,1,-1,-1,-1
280,292,966.27,388.86,136.82,395.32,1,-1,-1,-1
280,295,1082.23,339.50,174.55,463.19,1,-1,-1,-1
280,297,1216.85,334.07,154.68,462.61,1,-1,-1,-1
281,292,968.44,391.16,135.18,390.58,1,-1,-1,-1
281,295,1084.44,351.67,169.45,446.32,1,-1,-1,-1
281,297,1214.67,345.97,157.35,460.23,1,-1,-1,-1
282,295,1084.96,356.29,168.15,439.97,1,-1,-1,-1
282,297,1212.86,350.47,160.33,459.24,1,-1,-1,-1
283,295,1082.36,349.89,173.25,447.12,1,-1,-1,-1
283,297,1213.77,348.10,164.96,461.47,1,-1,-1,-1
284,295,1080.75,347.51,176.46,449.82,1,-1,-1,-1
284,297,1213.03,347.15,168.88,462.26,1,-1,-1,-1
285,295,1081.12,357.17,170.41,433.68,1,-1,-1,-1
285,297,1216.66,353.36,167.80,447.94,1,-1,-1,-1
286,295,1081.18,360.85,168.27,427.60,1,-1,-1,-1
286,297,1216.95,355.67,169.56,442.43,1,-1,-1,-1
287,292,1000.38,390.68,134.99,381.10,1,-1,-1,-1
287,295,1071.39,354.10,165.69,430.83,1,-1,-1,-1
287,297,1227.02,357.80,167.62,431.06,1,-1,-1,-1
288,292,1001.05,390.54,137.32,380.75,1,-1,-1,-1
288,295,1068.84,351.57,162.70,432.12,1,-1,-1,-1
288,297,1230.09,358.51,168.20,426.88,1,-1,-1,-1
289,292,1004.81,391.48,136.31,377.94,1,-1,-1,-1
289,295,1071.84,345.29,161.75,435.36,1,-1,-1,-1
289,297,1224.59,345.31,176.17,441.51,1,-1,-1,-1
290,295,1073.61,342.93,160.26,436.64,1,-1,-1,-1
290,297,1221.89,340.44,180.38,446.93,1,-1,-1,-1
291,289,1342.54,366.16,145.05,381.65,1,-1,-1,-1
291,295,1077.06,355.30,155.56,427.91,1,-1,-1,-1
291,297,1222.98,339.91,180.26,445.06,1,-1,-1,-1
292,289,1353.64,365.90,143.19,381.50,1,-1,-1,-1
292,295,1078.79,360.01,153.03,424.66,1,-1,-1,-1
292,297,1223.17,339.73,180.54,444.35,1,-1,-1,-1
293,289,1360.07,365.82,147.46,389.23,1,-1,-1,-1
293,295,1087.88,361.73,149.92,416.86,1,-1,-1,-1
293,297,1222.09,351.60,176.25,432.17,1,-1,-1,-1
294,289,1361.50,365.80,149.65,392.27,1,-1,-1,-1
294,295,1091.37,362.32,148.63,414.04,1,-1,-1,-1
294,297,1221.46,356.13,174.96,427.56,1,-1,-1,-1
295,289,1368.22,358.01,152.19,405.15,1,-1,-1,-1
295,295,1099.96,367.83,141.55,395.75,1,-1,-1,-1
295,297,1220.14,361.77,167.29,412.58,1,-1,-1,-1
296,289,1370.81,355.06,152.10,410.04,1,-1,-1,-1
296,295,1103.26,369.84,138.69,389.03,1,-1,-1,-1
296,297,1220.00,363.83,163.67,407.06,1,-1,-1,-1
297,289,1375.95,355.25,148.89,406.70,1,-1,-1,-1
297,295,1103.17,366.46,137.44,385.41,1,-1,-1,-1
297,297,1222.20,364.52,156.52,393.08,1,-1,-1,-1
298,289,1377.68,355.37,146.75,405.34,1,-1,-1,-1
298,295,1103.06,365.16,137.06,384.27,1,-1,-1,-1
298,297,1223.39,364.69,153.16,388.07,1,-1,-1,-1
299,289,1381.45,355.46,145.16,410.03,1,-1,-1,-1
299,295,1103.98,360.63,138.95,393.40,1,-1,-1,-1
299,297,1221.27,362.00,151.70,393.17,1,-1,-1,-1
300,289,1383.24,355.52,142.94,411.77,1,-1,-1,-1
300,295,1104.66,358.94,138.92,396.88,1,-1,-1,-1
300,297,1221.43,360.97,149.32,395.17,1,-1,-1,-1
301,289,1388.89,354.26,140.34,404.53,1,-1,-1,-1
301,295,1106.79,367.55,135.09,386.39,1,-1,-1,-1
301,297,1224.71,363.22,143.40,382.76,1,-1,-1,-1
302,289,1390.56,353.81,139.27,401.70,1,-1,-1,-1
302,295,1107.58,370.83,133.58,382.50,1,-1,-1,-1
302,297,1226.27,364.03,140.60,378.23,1,-1,-1,-1
303,289,1390.00,362.93,140.45,401.94,1,-1,-1,-1
303,295,1118.87,368.00,137.69,391.86,1,-1,-1,-1
303,297,1218.68,362.95,145.22,390.14,1,-1,-1,-1
304,289,1389.15,366.38,141.45,402.03,1,-1,-1,-1
304,295,1122.75,366.93,139.70,395.37,1,-1,-1,-1
304,297,1215.86,362.54,147.04,394.58,1,-1,-1,-1
305,289,1391.32,370.31,140.14,396.78,1,-1,-1,-1
305,295,1125.85,373.09,139.67,390.17,1,-1,-1,-1
305,297,1215.07,367.63,140.67,379.19,1,-1,-1,-1
306,289,1391.66,371.76,139.92,394.78,1,-1,-1,-1
306,295,1126.44,375.41,140.61,388.24,1,-1,-1,-1
306,297,1214.98,369.56,137.94,373.38,1,-1,-1,-1
307,289,1394.64,369.62,138.90,391.40,1,-1,-1,-1
307,295,1131.78,373.57,142.50,391.56,1,-1,-1,-1
307,297,1209.57,375.59,135.73,371.36,1,-1,-1,-1
308,289,1395.45,368.77,138.61,390.16,1,-1,-1,-1
308,295,1133.49,372.85,143.59,392.84,1,-1,-1,-1
308,297,1208.01,377.76,134.18,370.74,1,-1,-1,-1
309,289,1401.44,363.13,142.61,401.67,1,-1,-1,-1
309,295,1143.91,387.07,137.46,376.19,1,-1,-1,-1
309,297,1201.48,385.17,129.68,362.63,1,-1,-1,-1
310,289,1403.54,361.02,144.06,405.97,1,-1,-1,-1
310,295,1147.74,392.46,135.10,369.87,1,-1,-1,-1
310,297,1199.50,387.86,127.24,359.72,1,-1,-1,-1
311,289,1396.49,360.21,142.78,402.35,1,-1,-1,-1
311,292,1486.12,368.19,136.15,377.73,1,-1,-1,-1
311,295,1150.37,391.66,135.59,367.66,1,-1,-1,-1
311,297,1204.90,382.08,129.04,366.81,1,-1,-1,-1
312,289,1393.57,359.92,142.28,400.93,1,-1,-1,-1
312,292,1494.77,367.71,136.16,377.89,1,-1,-1,-1
312,295,1150.85,391.28,136.49,366.95,1,-1,-1,-1
312,297,1207.15,379.88,129.34,369.51,1,-1,-1,-1
313,289,1387.57,361.15,142.33,404.35,1,-1,-1,-1
313,292,1497.23,370.19,137.59,379.27,1,-1,-1,-1
313,295,1149.17,388.39,134.99,360.12,1,-1,-1,-1
313,297,1212.47,372.38,133.87,383.84,1,-1,-1,-1
314,289,1385.53,361.63,141.73,405.62,1,-1,-1,-1
314,292,1497.20,371.17,138.46,379.79,1,-1,-1,-1
314,295,1148.12,387.22,135.01,357.69,1,-1,-1,-1
314,297,1214.62,369.55,135.30,389.23,1,-1,-1,-1
315,289,1382.40,367.09,136.81,390.27,1,-1,-1,-1
315,292,1502.65,378.18,138.27,365.45,1,-1,-1,-1
315,295,1145.67,389.42,136.31,356.90,1,-1,-1,-1
315,297,1220.86,373.69,134.24,380.83,1,-1,-1,-1
316,289,1381.01,369.19,135.14,384.37,1,-1,-1,-1
316,292,1502.89,380.87,140.10,359.97,1,-1,-1,-1
316,295,1144.24,390.20,137.69,356.72,1,-1,-1,-1
316,297,1222.80,375.30,134.76,377.56,1,-1,-1,-1
317,289,1380.66,379.29,128.79,368.88,1,-1,-1,-1
317,292,1509.59,388.54,138.51,352.66,1,-1,-1,-1
317,295,1149.98,386.45,141.53,362.08,1,-1,-1,-1
317,297,1218.86,375.89,136.28,380.32,1,-1,-1,-1
318,289,1380.71,383.03,125.99,363.18,1,-1,-1,-1
318,292,1511.21,391.35,138.51,350.03,1,-1,-1,-1
318,295,1151.58,385.02,143.94,364.15,1,-1,-1,-1
318,297,1217.22,376.10,137.14,381.37,1,-1,-1,-1
319,289,1385.13,374.91,126.94,365.26,1,-1,-1,-1
319,292,1507.73,384.30,140.37,351.84,1,-1,-1,-1
319,295,1153.84,385.35,143.50,363.03,1,-1,-1,-1
319,297,1216.00,374.84,134.69,371.22,1,-1,-1,-1
320,289,1386.66,371.88,127.44,366.14,1,-1,-1,-1
320,292,1505.75,381.64,141.65,352.59,1,-1,-1,-1
320,297,1215.23,374.35,134.35,367.35,1,-1,-1,-1
321,289,1387.79,372.16,126.61,363.73,1,-1,-1,-1
321,292,1507.03,385.94,139.99,348.97,1,-1,-1,-1
321,297,1219.03,374.16,134.05,365.97,1,-1,-1,-1
322,292,1507.19,387.54,139.31,347.68,1,-1,-1,-1
322,297,1220.39,374.08,134.07,365.51,1,-1,-1,-1
323,292,1503.56,386.78,143.20,349.93,1,-1,-1,-1
323,297,1216.00,367.41,137.22,372.03,1,-1,-1,-1
324,292,1501.20,386.47,146.22,350.84,1,-1,-1,-1
324,297,1214.13,364.93,138.82,374.50,1,-1,-1,-1
325,292,1501.31,382.36,147.59,352.55,1,-1,-1,-1
325,297,1216.68,374.56,134.24,359.63,1,-1,-1,-1
326,292,1500.99,380.80,148.45,353.24,1,-1,-1,-1
326,297,1217.44,378.29,132.94,353.94,1,-1,-1,-1
327,292,1498.81,378.89,147.28,356.17,1,-1,-1,-1
327,297,1217.25,386.34,129.38,343.89,1,-1,-1,-1
328,292,1498.48,378.17,145.58,357.29,1,-1,-1,-1
328,297,1217.11,389.30,128.22,340.26,1,-1,-1,-1
329,292,1498.74,377.92,145.26,359.05,1,-1,-1,-1
329,297,1216.67,384.96,129.92,345.75,1,-1,-1,-1
330,292,1499.01,377.84,144.59,359.71,1,-1,-1,-1
330,297,1216.60,383.32,130.38,347.86,1,-1,-1,-1
331,292,1497.13,383.10,141.51,356.00,1,-1,-1,-1
331,297,1215.45,382.67,132.82,352.71,1,-1,-1,-1
332,292,1496.74,385.10,139.53,354.59,1,-1,-1,-1
332,297,1214.85,382.40,134.09,354.58,1,-1,-1,-1
333,289,1389.12,393.70,120.10,343.85,1,-1,-1,-1
333,292,1497.58,391.14,136.70,350.10,1,-1,-1,-1
333,297,1219.07,388.88,134.94,351.37,1,-1,-1,-1
334,289,1388.95,394.35,120.24,343.39,1,-1,-1,-1
334,292,1498.11,393.40,135.10,348.42,1,-1,-1,-1
334,297,1220.13,391.31,136.34,350.17,1,-1,-1,-1
335,289,1389.27,395.72,119.64,341.69,1,-1,-1,-1
335,292,1503.18,398.18,130.00,334.55,1,-1,-1,-1
335,297,1226.33,400.14,134.51,337.83,1,-1,-1,-1
336,292,1504.97,399.93,128.22,329.36,1,-1,-1,-1
336,297,1227.89,403.41,135.33,333.20,1,-1,-1,-1
337,289,1386.01,399.77,117.50,336.34,1,-1,-1,-1
337,292,1505.09,399.17,127.23,328.89,1,-1,-1,-1
337,297,1224.43,403.20,136.93,338.28,1,-1,-1,-1
338,289,1385.60,400.40,117.01,335.52,1,-1,-1,-1
338,292,1505.29,398.83,126.48,328.82,1,-1,-1,-1
338,297,1223.24,403.06,137.29,340.21,1,-1,-1,-1
339,289,1380.56,393.91,119.96,341.93,1,-1,-1,-1
339,292,1506.17,391.99,131.19,342.20,1,-1,-1,-1
339,297,1227.66,401.61,136.89,338.36,1,-1,-1,-1
340,289,1378.55,391.50,121.39,344.34,1,-1,-1,-1
340,292,1506.58,389.45,132.71,347.19,1,-1,-1,-1
340,297,1229.21,400.99,136.93,337.70,1,-1,-1,-1
341,289,1378.75,391.88,121.38,346.60,1,-1,-1,-1
341,292,1504.81,389.77,130.51,346.50,1,-1,-1,-1
341,297,1227.62,407.34,137.25,336.18,1,-1,-1,-1
342,289,1379.05,392.02,121.01,347.47,1,-1,-1,-1
342,292,1504.59,389.90,128.66,346.22,1,-1,-1,-1
342,297,1226.73,409.68,137.87,335.65,1,-1,-1,-1
343,289,1386.36,392.07,119.72,346.49,1,-1,-1,-1
343,292,1506.42,396.55,124.08,336.88,1,-1,-1,-1
343,295,1127.90,409.93,136.90,326.04,1,-1,-1,-1
343,297,1215.12,401.20,140.71,342.13,1,-1,-1,-1
343,298,1722.00,470.00,58.00,200.00,1,-1,-1,-1
344,289,1389.38,392.08,118.77,346.12,1,-1,-1,-1
344,292,1507.38,399.08,121.79,333.32,1,-1,-1,-1
344,295,1124.94,410.29,141.56,325.55,1,-1,-1,-1
344,297,1210.72,398.00,141.88,344.58,1,-1,-1,-1
344,298,1722.00,470.00,58.00,200.00,1,-1,-1,-1
345,289,1389.94,397.37,116.91,340.69,1,-1,-1,-1
345,292,1507.89,399.96,121.35,332.12,1,-1,-1,-1
345,295,1124.04,411.25,140.94,324.12,1,-1,-1,-1
345,297,1214.60,400.70,139.18,336.30,1,-1,-1,-1
345,299,1652.00,384.00,120.00,334.00,1,-1,-1,-1
346,289,1390.13,399.36,116.21,338.65,1,-1,-1,-1
346,297,1215.94,401.72,138.50,333.14,1,-1,-1,-1
346,299,1652.00,384.00,120.00,334.00,1,-1,-1,-1
347,289,1393.92,402.73,116.48,332.61,1,-1,-1,-1
347,297,1215.76,402.26,138.03,332.01,1,-1,-1,-1
347,299,1698.48,432.33,95.63,266.96,1,-1,-1,-1
348,289,1394.73,403.96,117.77,330.38,1,-1,-1,-1
348,299,1712.66,446.96,88.04,246.67,1,-1,-1,-1
349,289,1399.50,405.70,115.92,324.27,1,-1,-1,-1
349,299,1729.78,464.84,79.18,221.86,1,-1,-1,-1
350,289,1401.16,406.30,115.41,322.06,1,-1,-1,-1
351,289,1402.60,407.82,114.81,321.32,1,-1,-1,-1
351,300,1658.00,390.00,134.00,326.00,1,-1,-1,-1
352,289,1403.17,408.34,114.45,321.13,1,-1,-1,-1
352,300,1658.00,390.00,134.00,326.00,1,-1,-1,-1
353,289,1402.60,403.17,115.78,325.11,1,-1,-1,-1
353,297,1127.11,423.03,133.56,314.59,1,-1,-1,-1
353,300,1654.79,391.56,132.63,324.44,1,-1,-1,-1
354,289,1402.36,401.20,116.25,326.66,1,-1,-1,-1
354,297,1120.48,424.30,135.33,313.58,1,-1,-1,-1
354,300,1654.12,392.05,131.52,323.95,1,-1,-1,-1
355,289,1406.29,403.09,113.62,320.67,1,-1,-1,-1
355,297,1113.34,426.22,134.50,311.66,1,-1,-1,-1
355,300,1657.81,399.56,129.46,320.88,1,-1,-1,-1
356,289,1407.86,403.80,112.38,318.44,1,-1,-1,-1
356,300,1659.42,402.02,128.17,319.89,1,-1,-1,-1
357,289,1412.68,405.39,112.67,318.99,1,-1,-1,-1
357,297,1115.63,419.77,141.53,319.92,1,-1,-1,-1
357,300,1659.64,404.53,127.68,318.67,1,-1,-1,-1
358,289,1414.40,405.96,112.86,319.25,1,-1,-1,-1
358,297,1114.69,418.84,144.86,321.13,1,-1,-1,-1
359,289,1416.24,399.53,115.74,324.69,1,-1,-1,-1
359,297,1111.42,417.17,148.08,324.21,1,-1,-1,-1
359,300,1663.60,397.57,129.51,324.87,1,-1,-1,-1
360,289,1416.61,397.11,117.34,326.76,1,-1,-1,-1
360,297,1109.92,416.53,150.14,325.37,1,-1,-1,-1
360,300,1664.42,396.70,129.20,325.68,1,-1,-1,-1
361,289,1420.81,398.84,117.60,324.92,1,-1,-1,-1
361,297,1107.37,411.00,153.89,331.09,1,-1,-1,-1
361,300,1665.09,397.20,129.27,325.85,1,-1,-1,-1
362,289,1422.10,399.52,118.19,324.22,1,-1,-1,-1
362,297,1106.27,408.91,155.85,333.24,1,-1,-1,-1
363,289,1424.06,399.35,118.08,323.92,1,-1,-1,-1
363,297,1100.24,409.44,157.56,335.35,1,-1,-1,-1
363,300,1668.57,396.32,126.62,320.89,1,-1,-1,-1
364,297,1097.90,409.66,158.57,336.11,1,-1,-1,-1
364,300,1669.35,396.19,125.71,320.14,1,-1,-1,-1
365,297,1092.66,408.44,160.01,340.31,1,-1,-1,-1
365,300,1670.18,396.42,125.53,319.68,1,-1,-1,-1
366,297,1090.94,408.00,160.25,341.87,1,-1,-1,-1
367,289,1485.25,403.54,115.51,316.58,1,-1,-1,-1
367,297,1087.02,409.16,160.56,341.10,1,-1,-1,-1
368,289,1490.82,403.94,115.35,315.92,1,-1,-1,-1
368,297,1085.49,409.62,160.99,340.76,1,-1,-1,-1
369,289,1497.48,404.23,115.05,315.08,1,-1,-1,-1
369,297,1086.10,400.58,165.63,352.44,1,-1,-1,-1
370,297,1086.64,397.20,166.87,356.79,1,-1,-1,-1
371,289,1483.63,409.21,116.11,310.52,1,-1,-1,-1
371,297,1092.58,406.38,163.93,347.95,1,-1,-1,-1
371,300,1672.27,416.96,121.91,310.36,1,-1,-1,-1
372,289,1480.61,409.98,118.08,309.81,1,-1,-1,-1
372,297,1094.71,410.00,163.33,344.41,1,-1,-1,-1
372,300,1672.32,418.24,121.72,309.80,1,-1,-1,-1
373,289,1482.94,407.57,116.01,305.57,1,-1,-1,-1
373,297,1096.58,416.66,162.37,340.40,1,-1,-1,-1
373,300,1672.86,420.04,121.34,308.83,1,-1,-1,-1
374,289,1483.78,406.65,115.04,304.04,1,-1,-1,-1
374,297,1097.08,419.16,162.49,338.87,1,-1,-1,-1
375,289,1486.71,406.88,114.50,302.59,1,-1,-1,-1
375,297,1093.89,422.71,168.02,343.59,1,-1,-1,-1
376,297,1091.84,424.00,171.83,345.35,1,-1,-1,-1
377,297,1077.94,406.00,181.14,364.45,1,-1,-1,-1
377,301,252.00,312.00,178.00,526.00,1,-1,-1,-1
377,302,1788.00,384.00,84.00,264.00,1,-1,-1,-1
378,297,1072.81,399.25,184.50,371.57,1,-1,-1,-1
378,301,252.00,312.00,178.00,526.00,1,-1,-1,-1
378,302,1788.00,384.00,84.00,264.00,1,-1,-1,-1
379,297,1065.27,399.24,182.73,367.75,1,-1,-1,-1
379,301,259.21,301.09,193.20,569.66,1,-1,-1,-1
380,297,1062.41,399.30,182.04,366.12,1,-1,-1,-1
380,301,261.30,297.62,198.45,583.53,1,-1,-1,-1
381,297,1051.56,383.58,185.71,374.63,1,-1,-1,-1
381,301,264.12,293.45,204.12,600.20,1,-1,-1,-1
382,297,1047.72,377.71,186.75,377.76,1,-1,-1,-1
383,297,1041.51,369.02,194.24,394.55,1,-1,-1,-1
383,303,378.00,410.00,180.00,476.00,1,-1,-1,-1
384,297,1039.48,365.80,196.58,400.84,1,-1,-1,-1
384,303,378.00,410.00,180.00,476.00,1,-1,-1,-1
385,297,1035.11,365.98,198.42,409.62,1,-1,-1,-1
385,301,386.97,338.07,176.96,521.32,1,-1,-1,-1
386,297,1034.21,366.17,197.74,412.86,1,-1,-1,-1
386,301,396.64,341.96,174.05,513.70,1,-1,-1,-1
387,289,1517.28,380.51,111.55,295.81,1,-1,-1,-1
387,297,1041.96,366.36,195.80,415.24,1,-1,-1,-1
387,301,412.74,345.73,173.06,510.78,1,-1,-1,-1
387,304,974.00,370.00,166.00,418.00,1,-1,-1,-1
388,289,1518.18,379.65,111.23,295.70,1,-1,-1,-1
388,297,1045.90,366.54,193.35,415.98,1,-1,-1,-1
388,304,974.00,370.00,166.00,418.00,1,-1,-1,-1
389,289,1520.63,378.09,110.96,294.99,1,-1,-1,-1
389,297,1043.56,364.25,195.25,420.06,1,-1,-1,-1
391,297,979.87,353.27,206.25,444.73,1,-1,-1,-1
391,301,512.63,414.18,150.94,425.28,1,-1,-1,-1
392,297,969.63,351.46,207.73,448.78,1,-1,-1,-1
392,301,517.06,419.47,154.28,418.54,1,-1,-1,-1
393,297,965.47,344.33,209.37,458.00,1,-1,-1,-1
393,301,531.34,405.96,163.49,430.22,1,-1,-1,-1
394,297,964.78,341.69,208.58,461.35,1,-1,-1,-1
394,301,534.57,401.09,169.41,434.49,1,-1,-1,-1
395,297,952.38,353.80,204.41,446.82,1,-1,-1,-1
395,301,532.93,354.64,185.21,471.36,1,-1,-1,-1
396,297,947.36,358.66,203.80,440.89,1,-1,-1,-1
396,301,531.72,337.71,191.78,484.83,1,-1,-1,-1
397,297,943.83,360.53,209.99,454.42,1,-1,-1,-1
397,301,544.22,333.34,192.49,486.62,1,-1,-1,-1
398,297,942.69,361.25,212.23,459.38,1,-1,-1,-1
399,297,933.92,330.20,222.40,485.97,1,-1,-1,-1
400,297,931.32,318.47,225.03,495.94,1,-1,-1,-1
401,297,914.20,306.23,231.55,515.14,1,-1,-1,-1
401,301,642.08,363.22,167.03,423.14,1,-1,-1,-1
401,305,556.00,394.00,176.00,394.00,1,-1,-1,-1
402,297,908.36,301.63,232.79,522.36,1,-1,-1,-1
402,301,650.25,366.66,164.23,416.73,1,-1,-1,-1
402,305,556.00,394.00,176.00,394.00,1,-1,-1,-1
403,297,902.76,309.08,227.40,514.55,1,-1,-1,-1
403,301,657.70,344.50,177.35,450.14,1,-1,-1,-1
403,306,818.00,330.00,158.00,478.00,1,-1,-1,-1
404,297,901.38,312.22,224.18,511.15,1,-1,-1,-1
404,301,660.31,336.74,181.91,461.83,1,-1,-1,-1
404,306,818.00,330.00,158.00,478.00,1,-1,-1,-1
405,297,899.96,322.73,219.93,508.32,1,-1,-1,-1
405,301,672.33,327.28,182.60,463.79,1,-1,-1,-1
405,306,819.27,315.97,163.25,493.59,1,-1,-1,-1
406,297,900.45,326.85,216.67,507.05,1,-1,-1,-1
406,301,676.39,323.77,182.79,464.48,1,-1,-1,-1
406,306,819.63,311.54,165.00,498.51,1,-1,-1,-1
407,297,894.66,325.56,218.37,511.01,1,-1,-1,-1
407,301,686.41,319.96,175.44,446.22,1,-1,-1,-1
407,306,811.32,297.31,177.86,536.20,1,-1,-1,-1
408,301,689.64,318.70,172.51,439.15,1,-1,-1,-1
408,306,808.33,292.61,182.48,548.85,1,-1,-1,-1
409,301,700.51,315.11,171.97,437.78,1,-1,-1,-1
409,306,807.92,302.13,181.37,536.52,1,-1,-1,-1
410,306,806.94,306.17,182.55,530.99,1,-1,-1,-1
411,306,806.92,313.24,182.31,517.72,1,-1,-1,-1
412,306,805.68,316.01,184.68,512.45,1,-1,-1,-1
413,306,800.58,310.34,192.15,522.49,1,-1,-1,-1
414,306,797.55,308.28,197.20,526.09,1,-1,-1,-1
415,306,790.55,306.24,201.56,529.95,1,-1,-1,-1
416,306,787.11,305.53,204.81,531.26,1,-1,-1,-1
417,306,786.88,351.60,196.02,494.58,1,-1,-1,-1
418,306,785.60,369.49,195.14,480.19,1,-1,-1,-1
419,306,778.18,358.15,207.48,502.17,1,-1,-1,-1
420,306,774.53,354.01,213.94,510.06,1,-1,-1,-1
421,306,771.25,312.75,232.14,555.23,1,-1,-1,-1
422,306,770.27,297.34,238.48,572.05,1,-1,-1,-1
423,306,768.55,293.58,241.56,579.44,1,-1,-1,-1
427,301,926.45,307.54,184.43,489.38,1,-1,-1,-1
428,301,933.40,307.61,179.80,490.66,1,-1,-1,-1
429,301,949.29,333.74,162.52,454.55,1,-1,-1,-1
429,306,631.18,312.94,245.23,586.70,1,-1,-1,-1
430,301,955.35,344.01,154.47,440.24,1,-1,-1,-1
430,306,621.07,314.90,245.52,586.19,1,-1,-1,-1
431,297,623.51,484.66,193.30,415.34,1,-1,-1,-1
431,301,966.35,346.90,153.51,437.50,1,-1,-1,-1
431,306,609.90,314.55,247.24,590.30,1,-1,-1,-1
432,297,615.71,487.18,201.95,413.38,1,-1,-1,-1
433,297,605.65,493.57,200.01,409.39,1,-1,-1,-1
433,306,535.99,253.41,281.65,673.79,1,-1,-1,-1
434,306,524.15,243.80,286.73,687.05,1,-1,-1,-1
435,297,542.81,475.96,229.19,463.87,1,-1,-1,-1
435,306,508.27,237.18,291.61,698.74,1,-1,-1,-1
436,297,532.81,473.91,234.61,471.12,1,-1,-1,-1
437,297,517.40,475.17,237.47,476.86,1,-1,-1,-1
437,306,489.41,252.02,303.27,717.07,1,-1,-1,-1
438,306,485.09,254.63,307.78,720.07,1,-1,-1,-1
439,306,471.89,247.75,314.58,728.90,1,-1,-1,-1
440,306,466.56,245.24,318.44,731.95,1,-1,-1,-1
441,301,1081.04,389.69,133.94,365.02,1,-1,-1,-1
441,306,446.78,232.69,327.56,753.58,1,-1,-1,-1
442,301,1082.31,390.96,137.07,362.68,1,-1,-1,-1
442,306,439.65,228.01,330.77,761.56,1,-1,-1,-1
443,301,1101.03,399.62,135.96,345.47,1,-1,-1,-1
443,306,426.98,223.36,335.36,772.11,1,-1,-1,-1
444,301,1106.27,402.58,137.67,339.50,1,-1,-1,-1
445,301,1103.64,396.63,139.61,341.76,1,-1,-1,-1
445,306,319.45,223.97,319.79,729.11,1,-1,-1,-1
446,301,1102.07,394.36,140.86,342.81,1,-1,-1,-1
446,306,300.62,224.23,319.01,721.45,1,-1,-1,-1
447,301,1106.90,392.07,139.25,339.38,1,-1,-1,-1
447,306,293.43,234.95,316.57,713.65,1,-1,-1,-1
448,301,1108.38,391.14,138.65,338.32,1,-1,-1,-1
448,306,291.19,239.03,316.11,710.64,1,-1,-1,-1
449,301,1120.92,386.71,146.11,354.21,1,-1,-1,-1
449,306,285.30,237.97,336.67,753.22,1,-1,-1,-1
450,301,1125.10,385.08,149.37,360.08,1,-1,-1,-1
450,306,282.94,237.60,345.14,768.91,1,-1,-1,-1
451,301,1132.39,385.27,149.06,359.33,1,-1,-1,-1
451,306,235.30,236.20,349.40,773.49,1,-1,-1,-1
452,306,216.85,235.70,352.03,774.97,1,-1,-1,-1
453,306,184.69,243.41,349.39,751.68,1,-1,-1,-1
454,306,171.24,246.42,352.07,742.41,1,-1,-1,-1
455,306,110.13,198.46,378.94,797.22,1,-1,-1,-1
456,306,87.67,180.91,389.27,817.25,1,-1,-1,-1
457,306,58.64,159.94,395.27,831.32,1,-1,-1,-1
458,306,48.37,152.03,397.08,836.45,1,-1,-1,-1
459,306,26.51,153.17,394.74,848.49,1,-1,-1,-1
460,306,20.98,153.87,389.45,852.79,1,-1,-1,-1
461,306,10.13,132.23,397.22,878.87,1,-1,-1,-1
462,306,7.68,124.16,397.82,888.55,1,-1,-1,-1
463,306,8.45,130.42,399.89,886.70,1,-1,-1,-1
463,307,1200.00,404.00,186.00,310.00,1,-1,-1,-1
464,306,8.73,133.15,401.99,885.57,1,-1,-1,-1
464,307,1200.00,404.00,186.00,310.00,1,-1,-1,-1
465,306,2.86,138.36,397.46,884.79,1,-1,-1,-1
465,307,1217.10,407.12,190.78,319.35,1,-1,-1,-1
466,306,2.25,140.55,393.42,884.19,1,-1,-1,-1
466,307,1222.89,408.10,191.48,322.30,1,-1,-1,-1
467,306,-3.05,125.78,380.60,869.24,1,-1,-1,-1
467,307,1227.05,411.27,187.70,317.20,1,-1,-1,-1
467,308,258.00,330.00,210.00,556.00,1,-1,-1,-1
468,306,-2.95,120.30,372.44,863.25,1,-1,-1,-1
468,307,1228.38,412.28,185.71,315.25,1,-1,-1,-1
468,308,258.00,330.00,210.00,556.00,1,-1,-1,-1
469,306,-14.13,115.36,373.81,866.42,1,-1,-1,-1
469,307,1232.97,413.84,186.00,315.75,1,-1,-1,-1
469,308,280.00,342.47,198.74,523.26,1,-1,-1,-1
470,308,286.33,346.35,196.25,513.09,1,-1,-1,-1
471,308,339.44,357.80,181.34,471.54,1,-1,-1,-1
472,308,355.37,361.09,177.66,459.22,1,-1,-1,-1
473,308,369.05,357.50,186.85,475.13,1,-1,-1,-1
474,308,371.94,356.18,192.24,480.78,1,-1,-1,-1
475,308,379.27,358.29,189.62,466.83,1,-1,-1,-1
476,308,380.11,358.90,190.61,462.17,1,-1,-1,-1
477,308,389.27,372.70,184.52,441.69,1,-1,-1,-1
478,308,391.20,377.60,183.81,434.69,1,-1,-1,-1
479,308,401.64,384.65,185.17,431.21,1,-1,-1,-1
480,308,404.13,387.02,187.45,430.33,1,-1,-1,-1
481,308,412.68,387.71,193.86,442.51,1,-1,-1,-1
482,308,415.16,387.84,196.94,447.14,1,-1,-1,-1
483,308,424.60,391.17,195.26,443.34,1,-1,-1,-1
485,308,473.91,368.98,201.92,451.31,1,-1,-1,-1
486,308,480.38,365.69,205.21,452.45,1,-1,-1,-1
487,308,488.53,367.19,211.52,466.14,1,-1,-1,-1
488,308,491.23,367.75,213.92,471.24,1,-1,-1,-1
489,308,500.71,360.09,219.31,481.06,1,-1,-1,-1
490,308,503.72,357.18,221.84,484.78,1,-1,-1,-1
491,308,512.18,366.57,212.56,473.06,1,-1,-1,-1
492,308,515.93,370.22,207.03,468.47,1,-1,-1,-1
493,308,522.91,386.15,198.42,452.18,1,-1,-1,-1
493,309,122.00,476.00,204.00,494.00,1,-1,-1,-1
494,308,525.46,392.14,194.48,446.04,1,-1,-1,-1
494,309,122.00,476.00,204.00,494.00,1,-1,-1,-1
495,308,537.38,398.26,179.88,411.78,1,-1,-1,-1
496,308,541.29,400.40,174.59,399.01,1,-1,-1,-1
497,308,546.30,384.68,182.76,415.20,1,-1,-1,-1
497,310,220.00,236.00,190.00,568.00,1,-1,-1,-1
498,308,547.63,379.09,186.32,421.02,1,-1,-1,-1
498,310,220.00,236.00,190.00,568.00,1,-1,-1,-1
499,308,539.07,354.41,203.91,459.20,1,-1,-1,-1
499,310,263.17,240.68,220.60,650.63,1,-1,-1,-1
500,308,535.64,345.31,210.82,473.30,1,-1,-1,-1
500,310,275.49,242.18,233.47,677.14,1,-1,-1,-1
501,308,532.53,331.48,217.85,491.77,1,-1,-1,-1
501,310,292.47,243.97,244.41,708.88,1,-1,-1,-1
502,308,531.52,326.24,219.87,498.81,1,-1,-1,-1
503,308,596.54,350.29,200.90,459.92,1,-1,-1,-1
504,308,622.55,360.18,192.40,444.12,1,-1,-1,-1
505,308,632.98,359.32,192.04,443.30,1,-1,-1,-1
507,308,649.96,340.93,196.52,465.76,1,-1,-1,-1
508,308,654.71,338.11,193.38,469.16,1,-1,-1,-1
509,308,653.83,321.36,194.45,482.19,1,-1,-1,-1
509,310,504.09,259.94,233.82,651.69,1,-1,-1,-1
510,308,654.39,315.14,192.59,487.03,1,-1,-1,-1
510,310,507.75,260.40,238.70,643.71,1,-1,-1,-1
511,308,661.23,310.83,193.86,490.24,1,-1,-1,-1
511,310,529.56,262.16,240.19,647.72,1,-1,-1,-1
515,310,639.86,297.71,205.80,565.87,1,-1,-1,-1
516,310,648.97,300.66,199.86,558.35,1,-1,-1,-1
517,310,653.42,282.40,209.54,589.01,1,-1,-1,-1
518,310,655.06,275.96,212.28,599.80,1,-1,-1,-1
519,310,661.63,260.18,216.91,618.59,1,-1,-1,-1
520,310,664.05,254.21,217.63,625.66,1,-1,-1,-1
521,310,668.86,276.99,204.86,588.81,1,-1,-1,-1
522,310,669.83,285.98,199.85,574.29,1,-1,-1,-1
523,310,685.95,287.85,195.27,562.37,1,-1,-1,-1
524,310,691.51,288.48,193.41,558.12,1,-1,-1,-1
525,310,745.59,304.74,187.05,539.28,1,-1,-1,-1
