1,422,68.15,125.44,77.52,224.00,1,-1,-1,-1
1,447,168.69,154.69,61.12,189.10,1,-1,-1,-1
3,449,38.00,202.00,62.00,134.00,1,-1,-1,-1
4,449,38.00,202.00,62.00,134.00,1,-1,-1,-1
5,449,30.14,192.65,66.81,144.91,1,-1,-1,-1
6,449,27.76,189.67,68.10,148.38,1,-1,-1,-1
7,449,24.72,186.10,70.01,152.55,1,-1,-1,-1
25,450,44.00,174.00,64.00,190.00,1,-1,-1,-1
26,450,44.00,174.00,64.00,190.00,1,-1,-1,-1
27,450,29.01,169.32,65.91,196.24,1,-1,-1,-1
28,450,24.38,167.85,66.33,198.20,1,-1,-1,-1
29,450,-1.46,148.52,77.88,235.15,1,-1,-1,-1
30,450,-9.86,142.00,81.06,247.60,1,-1,-1,-1
31,450,-20.63,135.49,84.93,259.45,1,-1,-1,-1
47,451,44.00,166.00,66.00,180.00,1,-1,-1,-1
48,451,44.00,166.00,66.00,180.00,1,-1,-1,-1
49,451,35.71,166.00,66.99,183.12,1,-1,-1,-1
50,451,33.18,166.00,67.15,184.10,1,-1,-1,-1
51,451,30.00,166.00,67.58,185.28,1,-1,-1,-1
59,451,-1.59,48.24,140.11,392.24,1,-1,-1,-1
60,451,-2.08,42.15,141.33,402.99,1,-1,-1,-1
61,451,-11.32,35.48,141.92,415.87,1,-1,-1,-1
62,451,-14.14,33.04,140.07,420.64,1,-1,-1,-1
63,451,-18.00,23.09,146.01,438.47,1,-1,-1,-1
127,452,32.00,170.00,58.00,172.00,1,-1,-1,-1
128,452,32.00,170.00,58.00,172.00,1,-1,-1,-1
137,453,144.00,184.00,48.00,162.00,1,-1,-1,-1
138,453,144.00,184.00,48.00,162.00,1,-1,-1,-1
139,453,142.64,179.32,52.29,176.03,1,-1,-1,-1
140,453,142.14,177.83,53.78,180.50,1,-1,-1,-1
141,453,136.33,180.31,58.37,194.55,1,-1,-1,-1
142,453,134.14,181.23,60.26,199.33,1,-1,-1,-1
143,453,126.94,170.86,65.70,215.54,1,-1,-1,-1
144,453,124.09,166.99,68.08,221.44,1,-1,-1,-1
145,453,114.44,155.14,75.79,248.09,1,-1,-1,-1
146,453,110.94,150.62,78.38,258.21,1,-1,-1,-1
147,453,86.37,118.50,92.94,304.99,1,-1,-1,-1
148,453,76.69,106.03,98.86,323.20,1,-1,-1,-1
149,453,56.77,91.04,109.74,353.87,1,-1,-1,-1
150,453,48.33,85.08,114.98,366.07,1,-1,-1,-1
151,453,22.54,60.47,127.17,400.44,1,-1,-1,-1
152,453,11.93,50.75,132.80,413.95,1,-1,-1,-1
153,453,-2.50,27.08,143.16,450.08,1,-1,-1,-1
154,453,-7.78,17.78,146.49,464.25,1,-1,-1,-1
155,453,-16.44,8.13,152.02,481.77,1,-1,-1,-1
157,454,344.00,170.00,68.00,162.00,1,-1,-1,-1
158,454,344.00,170.00,68.00,162.00,1,-1,-1,-1
191,455,114.00,170.00,82.00,202.00,1,-1,-1,-1
192,455,114.00,170.00,82.00,202.00,1,-1,-1,-1
197,456,70.00,104.00,114.00,322.00,1,-1,-1,-1
198,456,70.00,104.00,114.00,322.00,1,-1,-1,-1
201,457,2.00,40.00,154.00,420.00,1,-1,-1,-1
202,457,2.00,40.00,154.00,420.00,1,-1,-1,-1
209,458,312.00,176.00,54.00,150.00,1,-1,-1,-1
210,458,312.00,176.00,54.00,150.00,1,-1,-1,-1
211,459,86.00,156.00,48.00,202.00,1,-1,-1,-1
212,459,86.00,156.00,48.00,202.00,1,-1,-1,-1
215,460,44.00,146.00,52.00,240.00,1,-1,-1,-1
216,460,44.00,146.00,52.00,240.00,1,-1,-1,-1
249,461,98.00,184.00,40.00,158.00,1,-1,-1,-1
249,462,184.00,188.00,46.00,152.00,1,-1,-1,-1
249,463,6.00,180.00,48.00,160.00,1,-1,-1,-1
250,461,98.00,184.00,40.00,158.00,1,-1,-1,-1
250,462,184.00,188.00,46.00,152.00,1,-1,-1,-1
250,463,6.00,180.00,48.00,160.00,1,-1,-1,-1
251,461,94.92,168.41,46.15,181.39,1,-1,-1,-1
251,462,185.97,181.76,46.74,153.56,1,-1,-1,-1
252,461,93.82,163.40,48.37,188.89,1,-1,-1,-1
252,462,186.46,179.80,47.23,154.05,1,-1,-1,-1
253,461,86.02,167.65,48.53,186.74,1,-1,-1,-1
253,462,187.25,177.44,47.41,154.64,1,-1,-1,-1
254,461,82.95,169.64,48.94,185.31,1,-1,-1,-1
255,461,79.08,163.63,53.44,198.27,1,-1,-1,-1
255,462,184.08,182.95,50.53,163.24,1,-1,-1,-1
256,461,77.35,161.52,55.80,202.84,1,-1,-1,-1
256,462,183.50,183.53,51.37,164.36,1,-1,-1,-1
257,461,74.76,158.63,57.44,208.78,1,-1,-1,-1
257,462,180.39,183.74,53.42,171.46,1,-1,-1,-1
258,462,179.31,183.83,54.05,174.01,1,-1,-1,-1
259,461,40.69,143.76,64.99,236.86,1,-1,-1,-1
259,462,173.52,182.56,54.52,176.20,1,-1,-1,-1
260,461,35.10,141.26,66.12,241.59,1,-1,-1,-1
260,462,171.39,182.08,54.54,176.94,1,-1,-1,-1
261,461,32.04,140.40,58.36,208.46,1,-1,-1,-1
261,462,166.41,188.48,56.37,185.01,1,-1,-1,-1
262,461,31.08,140.40,55.49,194.18,1,-1,-1,-1
262,462,164.76,190.90,56.65,187.99,1,-1,-1,-1
263,461,26.18,137.31,55.94,195.75,1,-1,-1,-1
263,462,162.95,191.53,57.55,190.96,1,-1,-1,-1
267,462,138.57,167.03,69.74,234.45,1,-1,-1,-1
267,464,274.00,170.00,64.00,152.00,1,-1,-1,-1
268,462,136.52,164.49,70.24,238.75,1,-1,-1,-1
268,464,274.00,170.00,64.00,152.00,1,-1,-1,-1
269,462,133.67,159.72,69.56,240.27,1,-1,-1,-1
270,462,132.93,157.91,68.71,240.68,1,-1,-1,-1
271,462,133.06,170.18,66.40,235.49,1,-1,-1,-1
272,462,133.45,175.05,65.05,233.26,1,-1,-1,-1
273,462,126.50,170.38,65.79,237.52,1,-1,-1,-1
273,465,270.00,178.00,56.00,142.00,1,-1,-1,-1
274,462,124.05,168.62,65.81,239.03,1,-1,-1,-1
274,465,270.00,178.00,56.00,142.00,1,-1,-1,-1
275,462,121.11,167.88,66.71,242.27,1,-1,-1,-1
275,465,272.12,171.76,58.01,146.68,1,-1,-1,-1
276,465,272.71,169.80,58.79,148.15,1,-1,-1,-1
277,465,270.80,170.76,58.73,147.06,1,-1,-1,-1
277,466,70.00,86.00,130.00,360.00,1,-1,-1,-1
278,465,269.96,171.22,58.94,146.59,1,-1,-1,-1
278,466,70.00,86.00,130.00,360.00,1,-1,-1,-1
279,465,270.00,172.85,56.92,142.19,1,-1,-1,-1
280,465,270.10,173.49,56.01,140.57,1,-1,-1,-1
281,465,270.06,173.17,55.80,140.04,1,-1,-1,-1
281,467,2.00,38.00,138.00,430.00,1,-1,-1,-1
282,467,2.00,38.00,138.00,430.00,1,-1,-1,-1
309,468,404.00,182.00,62.00,136.00,1,-1,-1,-1
310,468,404.00,182.00,62.00,136.00,1,-1,-1,-1
313,469,400.00,178.00,56.00,144.00,1,-1,-1,-1
314,469,400.00,178.00,56.00,144.00,1,-1,-1,-1
317,470,398.00,176.00,62.00,142.00,1,-1,-1,-1
318,470,398.00,176.00,62.00,142.00,1,-1,-1,-1
323,471,400.00,176.00,54.00,148.00,1,-1,-1,-1
324,471,400.00,176.00,54.00,148.00,1,-1,-1,-1
325,471,401.17,177.56,54.78,149.56,1,-1,-1,-1
326,471,401.44,178.05,55.22,150.05,1,-1,-1,-1
327,471,404.83,176.70,56.02,150.17,1,-1,-1,-1
328,471,405.66,176.22,56.87,150.18,1,-1,-1,-1
329,471,407.62,180.24,53.67,140.38,1,-1,-1,-1
330,471,408.07,181.70,52.82,136.80,1,-1,-1,-1
331,471,409.46,182.56,52.06,134.83,1,-1,-1,-1
335,472,174.00,178.00,48.00,162.00,1,-1,-1,-1
336,472,174.00,178.00,48.00,162.00,1,-1,-1,-1
337,472,175.73,173.32,50.78,171.35,1,-1,-1,-1
337,473,138.00,172.00,50.00,170.00,1,-1,-1,-1
338,472,176.27,171.84,51.68,174.32,1,-1,-1,-1
338,473,138.00,172.00,50.00,170.00,1,-1,-1,-1
339,471,405.70,182.16,51.15,129.77,1,-1,-1,-1
339,472,172.46,171.46,55.45,188.09,1,-1,-1,-1
339,473,135.65,168.88,53.15,180.91,1,-1,-1,-1
340,471,405.11,182.13,51.92,129.59,1,-1,-1,-1
340,472,171.26,171.38,56.48,192.75,1,-1,-1,-1
340,473,134.93,167.89,54.09,184.37,1,-1,-1,-1
341,471,404.07,182.11,53.88,134.86,1,-1,-1,-1
341,472,173.73,166.03,59.07,203.62,1,-1,-1,-1
341,473,127.90,158.98,57.93,198.25,1,-1,-1,-1
342,471,403.72,182.11,54.54,136.82,1,-1,-1,-1
342,472,174.89,164.06,59.56,207.51,1,-1,-1,-1
342,473,125.58,155.93,59.03,202.94,1,-1,-1,-1
343,471,403.67,182.27,54.53,136.79,1,-1,-1,-1
343,472,174.83,162.18,61.39,213.86,1,-1,-1,-1
343,473,102.48,152.24,60.82,207.05,1,-1,-1,-1
344,473,93.69,150.99,61.81,208.32,1,-1,-1,-1
345,473,87.33,148.03,63.36,213.55,1,-1,-1,-1
349,472,75.10,105.34,98.47,328.40,1,-1,-1,-1
350,472,65.78,101.14,104.60,336.68,1,-1,-1,-1
351,472,34.41,79.63,117.63,373.35,1,-1,-1,-1
352,472,21.68,71.20,123.63,387.70,1,-1,-1,-1
353,472,11.93,64.54,128.06,401.61,1,-1,-1,-1
