55,478,864.00,116.00,104.00,258.00,1,-1,-1,-1
56,478,864.00,116.00,104.00,258.00,1,-1,-1,-1
127,479,714.00,148.00,92.00,214.00,1,-1,-1,-1
128,479,714.00,148.00,92.00,214.00,1,-1,-1,-1
135,480,790.00,136.00,80.00,228.00,1,-1,-1,-1
136,480,790.00,136.00,80.00,228.00,1,-1,-1,-1
137,481,878.00,150.00,90.00,206.00,1,-1,-1,-1
138,481,878.00,150.00,90.00,206.00,1,-1,-1,-1
