1,2550,62.73,185.94,49.16,149.92,1,-1,-1,-1
1,2584,162.19,160.40,58.26,178.34,1,-1,-1,-1
1,2593,307.24,138.05,46.56,169.18,1,-1,-1,-1
1,2596,271.79,177.36,42.15,116.98,1,-1,-1,-1
1,2597,356.74,97.60,122.57,297.42,1,-1,-1,-1
1,2598,75.48,120.02,74.12,223.78,1,-1,-1,-1
2,2550,61.31,187.53,49.02,147.98,1,-1,-1,-1
2,2596,269.97,180.29,43.38,122.15,1,-1,-1,-1
3,2550,60.85,187.96,49.21,147.46,1,-1,-1,-1
3,2596,269.40,181.50,43.53,124.18,1,-1,-1,-1
4,2550,51.75,186.55,51.16,151.63,1,-1,-1,-1
4,2596,266.94,179.40,44.22,127.47,1,-1,-1,-1
5,2550,48.51,185.93,52.16,153.27,1,-1,-1,-1
5,2596,266.12,178.57,44.21,128.68,1,-1,-1,-1
6,2550,47.42,185.56,52.78,154.04,1,-1,-1,-1
6,2596,265.95,178.24,43.96,129.06,1,-1,-1,-1
7,2550,30.24,173.26,58.84,171.87,1,-1,-1,-1
7,2596,269.18,184.59,41.18,121.34,1,-1,-1,-1
7,2601,308.00,192.00,34.00,112.00,1,-1,-1,-1
8,2550,24.08,168.84,61.00,178.27,1,-1,-1,-1
8,2596,270.53,187.08,39.98,118.18,1,-1,-1,-1
8,2601,308.00,192.00,34.00,112.00,1,-1,-1,-1
9,2550,21.89,167.04,61.85,180.85,1,-1,-1,-1
9,2596,271.08,187.98,39.45,116.98,1,-1,-1,-1
9,2601,308.00,192.00,34.00,112.00,1,-1,-1,-1
10,2550,2.55,166.33,64.51,192.24,1,-1,-1,-1
10,2584,156.85,207.19,36.14,110.96,1,-1,-1,-1
10,2596,268.85,186.95,40.14,117.83,1,-1,-1,-1
10,2601,309.30,187.42,35.98,118.11,1,-1,-1,-1
11,2550,-4.35,166.06,64.85,196.54,1,-1,-1,-1
11,2584,157.43,209.97,34.55,106.31,1,-1,-1,-1
11,2596,267.92,186.54,40.60,118.14,1,-1,-1,-1
11,2601,309.66,185.95,36.74,120.07,1,-1,-1,-1
12,2550,-6.53,165.96,64.41,198.18,1,-1,-1,-1
12,2584,157.39,210.71,34.13,105.23,1,-1,-1,-1
12,2596,267.48,186.36,40.96,118.23,1,-1,-1,-1
12,2601,309.70,185.52,37.09,120.64,1,-1,-1,-1
13,2550,-13.06,165.81,65.03,200.10,1,-1,-1,-1
13,2557,135.24,197.92,40.17,129.86,1,-1,-1,-1
13,2584,156.44,212.95,33.26,102.52,1,-1,-1,-1
13,2596,267.08,186.80,41.13,118.71,1,-1,-1,-1
13,2601,310.09,184.20,37.62,122.39,1,-1,-1,-1
14,2557,130.61,199.24,41.09,129.43,1,-1,-1,-1
15,2557,129.43,199.49,41.84,129.38,1,-1,-1,-1
16,2557,119.81,187.67,48.18,147.75,1,-1,-1,-1
17,2557,116.11,183.39,50.68,154.42,1,-1,-1,-1
18,2557,114.91,181.57,51.84,157.14,1,-1,-1,-1
19,2557,97.85,170.54,55.29,167.16,1,-1,-1,-1
19,2596,274.19,186.20,40.56,116.32,1,-1,-1,-1
20,2557,91.40,166.30,56.68,170.98,1,-1,-1,-1
20,2596,274.61,186.11,40.69,116.11,1,-1,-1,-1
21,2557,89.11,164.62,57.27,172.42,1,-1,-1,-1
21,2596,274.70,186.09,40.84,116.05,1,-1,-1,-1
22,2557,69.85,161.40,61.30,181.92,1,-1,-1,-1
22,2596,274.46,182.10,42.74,121.32,1,-1,-1,-1
22,2601,310.37,181.74,39.52,128.28,1,-1,-1,-1
22,2602,212.00,204.00,34.00,94.00,1,-1,-1,-1
23,2557,62.40,160.19,63.28,185.52,1,-1,-1,-1
23,2596,274.35,180.61,43.46,123.28,1,-1,-1,-1
23,2601,310.32,181.75,39.62,128.37,1,-1,-1,-1
23,2602,212.00,204.00,34.00,94.00,1,-1,-1,-1
24,2557,59.57,159.74,64.42,186.84,1,-1,-1,-1
24,2596,274.29,180.05,43.75,124.02,1,-1,-1,-1
24,2601,310.28,181.74,39.70,128.43,1,-1,-1,-1
24,2602,212.00,204.00,34.00,94.00,1,-1,-1,-1
25,2557,49.52,167.34,66.56,188.55,1,-1,-1,-1
25,2596,274.52,179.57,44.02,124.78,1,-1,-1,-1
25,2601,310.40,181.26,39.95,129.24,1,-1,-1,-1
25,2602,212.00,204.00,34.00,94.00,1,-1,-1,-1
26,2557,45.51,170.30,68.15,189.12,1,-1,-1,-1
27,2557,43.90,171.46,69.43,189.24,1,-1,-1,-1
28,2557,12.73,145.84,83.35,229.59,1,-1,-1,-1
29,2557,1.49,136.55,87.85,244.30,1,-1,-1,-1
30,2557,-2.64,132.65,89.24,250.34,1,-1,-1,-1
31,2557,-12.47,126.11,91.63,265.18,1,-1,-1,-1
32,2557,-15.35,123.60,90.94,270.88,1,-1,-1,-1
33,2557,-15.49,122.71,89.21,272.92,1,-1,-1,-1
34,2550,129.48,205.55,39.63,117.28,1,-1,-1,-1
34,2557,-23.77,119.75,91.39,279.60,1,-1,-1,-1
35,2550,132.40,206.19,40.06,115.66,1,-1,-1,-1
36,2550,133.35,206.50,40.49,114.97,1,-1,-1,-1
37,2550,120.64,207.95,38.43,109.14,1,-1,-1,-1
38,2550,115.90,208.35,37.79,107.34,1,-1,-1,-1
39,2550,114.32,208.43,37.63,106.91,1,-1,-1,-1
40,2550,101.52,198.60,42.61,122.31,1,-1,-1,-1
40,2596,262.45,179.88,49.57,134.04,1,-1,-1,-1
41,2550,97.26,195.24,44.05,127.55,1,-1,-1,-1
41,2596,261.34,179.94,51.17,134.21,1,-1,-1,-1
42,2550,95.81,193.95,44.43,129.62,1,-1,-1,-1
42,2596,260.67,179.97,52.31,134.27,1,-1,-1,-1
43,2550,85.69,186.95,48.23,142.18,1,-1,-1,-1
43,2596,262.73,181.30,50.79,130.31,1,-1,-1,-1
43,2603,174.00,166.00,32.00,106.00,1,-1,-1,-1
44,2550,82.07,184.34,49.37,146.87,1,-1,-1,-1
44,2596,263.54,181.81,50.21,128.77,1,-1,-1,-1
44,2603,174.00,166.00,32.00,106.00,1,-1,-1,-1
45,2550,80.89,183.37,49.56,148.65,1,-1,-1,-1
45,2596,263.84,181.99,50.00,128.20,1,-1,-1,-1
45,2603,174.00,166.00,32.00,106.00,1,-1,-1,-1
46,2550,67.15,174.04,50.66,149.23,1,-1,-1,-1
46,2596,266.10,180.72,49.63,129.33,1,-1,-1,-1
46,2603,174.00,166.00,32.00,106.00,1,-1,-1,-1
47,2550,61.71,170.48,51.49,149.35,1,-1,-1,-1
47,2596,267.13,180.24,49.12,129.76,1,-1,-1,-1
48,2550,59.59,169.20,52.18,149.30,1,-1,-1,-1
48,2596,267.68,180.06,48.60,129.92,1,-1,-1,-1
49,2550,55.22,166.59,52.93,151.43,1,-1,-1,-1
49,2596,267.95,183.97,45.60,123.36,1,-1,-1,-1
49,2604,20.00,176.00,68.00,182.00,1,-1,-1,-1
50,2550,28.62,173.21,61.76,175.39,1,-1,-1,-1
50,2596,268.16,185.46,44.21,120.85,1,-1,-1,-1
51,2550,21.81,174.34,64.18,181.13,1,-1,-1,-1
51,2596,268.35,185.99,43.49,119.97,1,-1,-1,-1
52,2550,15.29,172.86,65.73,185.50,1,-1,-1,-1
52,2596,284.34,194.20,44.86,121.02,1,-1,-1,-1
53,2596,289.97,197.21,45.89,121.44,1,-1,-1,-1
54,2596,291.77,198.29,46.75,121.63,1,-1,-1,-1
55,2557,41.11,101.32,106.82,321.53,1,-1,-1,-1
55,2596,294.35,199.86,46.57,121.16,1,-1,-1,-1
56,2557,44.10,101.61,107.75,320.88,1,-1,-1,-1
57,2557,44.82,101.63,108.53,320.85,1,-1,-1,-1
58,2557,19.68,88.18,118.91,349.08,1,-1,-1,-1
58,2596,294.79,196.95,46.20,121.75,1,-1,-1,-1
59,2557,10.27,83.28,123.08,359.36,1,-1,-1,-1
59,2596,294.98,196.56,45.73,121.84,1,-1,-1,-1
60,2557,6.45,81.46,124.92,363.18,1,-1,-1,-1
60,2596,295.16,196.42,45.31,121.87,1,-1,-1,-1
61,2557,-11.28,52.04,126.75,385.37,1,-1,-1,-1
61,2596,294.10,188.41,46.00,124.53,1,-1,-1,-1
62,2557,-16.49,40.97,124.53,393.65,1,-1,-1,-1
62,2596,293.73,185.40,46.10,125.53,1,-1,-1,-1
63,2557,-17.23,36.82,121.24,396.60,1,-1,-1,-1
63,2596,293.62,184.26,46.00,125.91,1,-1,-1,-1
64,2557,-21.71,30.72,123.44,403.84,1,-1,-1,-1
64,2596,292.58,182.54,47.87,129.99,1,-1,-1,-1
65,2596,292.07,181.91,48.78,131.52,1,-1,-1,-1
66,2596,291.75,181.70,49.29,132.09,1,-1,-1,-1
67,2596,294.96,184.27,48.02,130.97,1,-1,-1,-1
68,2596,296.38,185.28,47.10,130.51,1,-1,-1,-1
69,2596,297.09,185.67,46.35,130.32,1,-1,-1,-1
70,2596,297.80,185.50,46.47,130.67,1,-1,-1,-1
73,2596,296.48,198.24,42.54,119.61,1,-1,-1,-1
73,2605,340.00,204.00,34.00,114.00,1,-1,-1,-1
74,2596,296.26,199.80,42.06,118.24,1,-1,-1,-1
74,2605,340.00,204.00,34.00,114.00,1,-1,-1,-1
75,2596,296.20,200.30,41.91,117.80,1,-1,-1,-1
75,2605,340.00,204.00,34.00,114.00,1,-1,-1,-1
76,2596,297.66,191.08,41.55,113.66,1,-1,-1,-1
76,2605,340.00,204.00,34.00,114.00,1,-1,-1,-1
77,2596,297.93,187.57,41.96,112.15,1,-1,-1,-1
78,2596,297.76,186.31,42.61,111.64,1,-1,-1,-1
79,2596,295.81,185.87,45.26,118.21,1,-1,-1,-1
79,2605,344.36,183.03,38.63,129.25,1,-1,-1,-1
80,2596,295.06,185.72,46.31,120.62,1,-1,-1,-1
80,2605,344.72,181.13,39.12,130.63,1,-1,-1,-1
81,2596,294.72,185.69,46.79,121.56,1,-1,-1,-1
81,2605,344.80,180.56,39.32,131.05,1,-1,-1,-1
82,2596,294.78,185.14,46.87,121.76,1,-1,-1,-1
82,2605,345.44,177.49,39.99,133.28,1,-1,-1,-1
88,2596,300.42,193.30,42.80,105.09,1,-1,-1,-1
89,2596,299.96,193.91,44.17,103.96,1,-1,-1,-1
90,2596,299.37,194.10,45.51,103.60,1,-1,-1,-1
91,2596,297.88,188.76,49.86,112.94,1,-1,-1,-1
92,2596,297.27,186.84,51.57,116.31,1,-1,-1,-1
93,2596,296.97,186.09,52.34,117.63,1,-1,-1,-1
94,2596,297.12,185.51,52.66,118.35,1,-1,-1,-1
97,2606,368.00,178.00,44.00,128.00,1,-1,-1,-1
97,2607,410.00,174.00,44.00,132.00,1,-1,-1,-1
98,2606,368.00,178.00,44.00,128.00,1,-1,-1,-1
98,2607,410.00,174.00,44.00,132.00,1,-1,-1,-1
99,2606,368.00,178.00,44.00,128.00,1,-1,-1,-1
99,2607,410.00,174.00,44.00,132.00,1,-1,-1,-1
100,2596,304.18,182.00,51.07,112.64,1,-1,-1,-1
100,2606,366.35,182.58,42.73,123.42,1,-1,-1,-1
100,2607,410.00,174.00,44.00,132.00,1,-1,-1,-1
101,2596,304.31,181.83,51.59,112.16,1,-1,-1,-1
101,2606,365.69,184.04,42.57,121.96,1,-1,-1,-1
102,2596,304.19,181.76,52.11,112.01,1,-1,-1,-1
102,2606,365.37,184.44,42.82,121.56,1,-1,-1,-1
103,2596,304.79,181.28,52.06,111.89,1,-1,-1,-1
103,2606,364.69,181.68,44.12,124.32,1,-1,-1,-1
103,2608,180.00,210.00,24.00,72.00,1,-1,-1,-1
104,2606,364.35,180.67,44.82,125.33,1,-1,-1,-1
104,2608,180.00,210.00,24.00,72.00,1,-1,-1,-1
105,2605,182.54,209.06,22.49,73.03,1,-1,-1,-1
105,2606,364.14,180.28,45.30,125.72,1,-1,-1,-1
106,2596,303.16,181.76,52.47,113.73,1,-1,-1,-1
106,2605,177.40,204.62,26.28,82.70,1,-1,-1,-1
106,2606,361.90,178.77,47.13,128.58,1,-1,-1,-1
106,2609,118.00,210.00,28.00,78.00,1,-1,-1,-1
106,2610,246.00,208.00,30.00,84.00,1,-1,-1,-1
107,2596,303.09,181.83,52.22,113.94,1,-1,-1,-1
107,2605,175.35,204.36,27.05,83.34,1,-1,-1,-1
107,2606,360.83,178.22,48.31,129.63,1,-1,-1,-1
107,2609,118.00,210.00,28.00,78.00,1,-1,-1,-1
107,2610,246.00,208.00,30.00,84.00,1,-1,-1,-1
108,2596,303.16,181.86,51.97,114.02,1,-1,-1,-1
108,2605,175.10,204.21,27.58,83.67,1,-1,-1,-1
108,2606,360.22,178.01,49.22,130.01,1,-1,-1,-1
108,2609,118.00,210.00,28.00,78.00,1,-1,-1,-1
108,2610,246.00,208.00,30.00,84.00,1,-1,-1,-1
109,2596,303.31,181.63,52.02,114.12,1,-1,-1,-1
109,2605,157.84,188.48,34.33,103.73,1,-1,-1,-1
109,2606,359.70,177.83,49.38,130.43,1,-1,-1,-1
109,2607,409.22,175.98,51.51,145.86,1,-1,-1,-1
109,2609,108.97,205.42,29.26,81.05,1,-1,-1,-1
109,2610,246.00,208.00,30.00,84.00,1,-1,-1,-1
110,2605,151.82,183.15,36.71,110.53,1,-1,-1,-1
110,2607,407.99,176.05,54.17,146.36,1,-1,-1,-1
110,2609,106.00,203.95,29.82,82.03,1,-1,-1,-1
111,2605,149.71,181.10,37.68,113.15,1,-1,-1,-1
111,2607,406.92,176.07,56.38,146.52,1,-1,-1,-1
111,2609,105.06,203.53,30.14,82.32,1,-1,-1,-1
112,2596,301.36,185.42,50.17,112.28,1,-1,-1,-1
112,2605,154.55,180.46,40.26,120.43,1,-1,-1,-1
112,2606,356.76,186.79,45.40,119.54,1,-1,-1,-1
112,2607,410.38,165.57,59.97,155.73,1,-1,-1,-1
112,2609,96.89,209.00,30.97,85.14,1,-1,-1,-1
112,2610,241.49,202.28,33.30,93.53,1,-1,-1,-1
112,2611,340.00,188.00,44.00,120.00,1,-1,-1,-1
112,2612,206.00,194.00,36.00,104.00,1,-1,-1,-1
113,2596,301.46,185.88,49.27,112.06,1,-1,-1,-1
113,2605,156.54,180.30,41.31,123.16,1,-1,-1,-1
113,2606,356.39,187.87,45.02,118.21,1,-1,-1,-1
113,2607,411.67,161.65,61.33,159.16,1,-1,-1,-1
113,2609,94.10,211.01,31.12,86.12,1,-1,-1,-1
113,2610,241.13,201.77,33.51,94.39,1,-1,-1,-1
113,2611,340.00,188.00,44.00,120.00,1,-1,-1,-1
113,2612,206.00,194.00,36.00,104.00,1,-1,-1,-1
114,2596,301.68,186.04,48.58,111.98,1,-1,-1,-1
114,2605,157.53,180.37,41.73,124.05,1,-1,-1,-1
114,2606,356.23,188.22,44.97,117.79,1,-1,-1,-1
114,2607,412.15,160.13,61.85,160.43,1,-1,-1,-1
114,2609,93.29,211.77,31.02,86.44,1,-1,-1,-1
114,2610,241.06,201.61,33.50,94.65,1,-1,-1,-1
114,2611,340.00,188.00,44.00,120.00,1,-1,-1,-1
114,2612,206.00,194.00,36.00,104.00,1,-1,-1,-1
115,2596,301.55,186.26,48.54,111.87,1,-1,-1,-1
115,2605,160.26,186.97,38.82,113.90,1,-1,-1,-1
115,2606,355.68,188.95,44.66,117.00,1,-1,-1,-1
115,2607,413.61,159.59,62.05,160.85,1,-1,-1,-1
115,2609,90.16,212.13,31.40,87.51,1,-1,-1,-1
115,2610,240.14,200.26,33.98,96.01,1,-1,-1,-1
115,2611,336.85,181.89,48.77,132.21,1,-1,-1,-1
115,2612,210.28,197.05,35.07,100.95,1,-1,-1,-1
115,2613,128.00,190.00,56.00,110.00,1,-1,-1,-1
115,2614,540.00,182.00,42.00,132.00,1,-1,-1,-1
116,2605,161.52,189.80,37.74,109.52,1,-1,-1,-1
116,2607,414.14,159.43,62.11,160.93,1,-1,-1,-1
116,2610,239.82,199.78,34.15,96.48,1,-1,-1,-1
116,2611,335.70,179.93,50.58,136.14,1,-1,-1,-1
116,2612,211.60,198.03,34.88,99.97,1,-1,-1,-1
116,2613,128.00,190.00,56.00,110.00,1,-1,-1,-1
116,2614,540.00,182.00,42.00,132.00,1,-1,-1,-1
117,2605,161.97,190.89,37.52,107.82,1,-1,-1,-1
117,2607,414.32,159.42,62.12,160.90,1,-1,-1,-1
117,2610,239.72,199.64,34.19,96.60,1,-1,-1,-1
117,2611,335.21,179.33,51.41,137.33,1,-1,-1,-1
117,2612,211.89,198.29,34.95,99.71,1,-1,-1,-1
117,2613,128.00,190.00,56.00,110.00,1,-1,-1,-1
117,2614,540.00,182.00,42.00,132.00,1,-1,-1,-1
118,2605,159.81,190.00,38.06,109.38,1,-1,-1,-1
118,2607,418.54,156.83,64.22,166.06,1,-1,-1,-1
118,2610,238.19,199.62,34.60,97.91,1,-1,-1,-1
118,2611,337.60,181.96,49.33,132.09,1,-1,-1,-1
118,2612,213.11,199.15,34.65,98.85,1,-1,-1,-1
118,2613,116.34,173.21,67.12,132.90,1,-1,-1,-1
118,2614,533.33,185.05,41.60,127.42,1,-1,-1,-1
119,2607,420.09,155.88,65.06,167.98,1,-1,-1,-1
119,2610,237.65,199.63,34.71,98.37,1,-1,-1,-1
119,2611,338.59,183.05,48.40,129.90,1,-1,-1,-1
119,2613,112.83,167.79,70.18,140.29,1,-1,-1,-1
119,2614,530.77,186.03,42.33,125.96,1,-1,-1,-1
120,2607,420.63,155.56,65.41,168.65,1,-1,-1,-1
120,2610,237.48,199.67,34.70,98.50,1,-1,-1,-1
120,2611,339.00,183.49,47.96,129.03,1,-1,-1,-1
120,2613,111.96,166.03,70.64,142.69,1,-1,-1,-1
120,2614,529.57,186.29,43.54,125.56,1,-1,-1,-1
121,2596,285.19,174.73,51.23,121.42,1,-1,-1,-1
121,2607,420.44,158.09,64.94,167.53,1,-1,-1,-1
121,2609,21.03,197.03,45.25,126.08,1,-1,-1,-1
121,2610,236.85,199.14,35.04,99.47,1,-1,-1,-1
121,2611,337.15,180.97,47.71,130.01,1,-1,-1,-1
121,2612,171.08,200.13,40.91,118.16,1,-1,-1,-1
121,2613,95.42,188.35,64.78,131.16,1,-1,-1,-1
121,2614,527.88,187.15,43.09,124.28,1,-1,-1,-1
122,2596,284.63,173.96,50.39,122.05,1,-1,-1,-1
122,2607,420.34,159.10,64.71,167.03,1,-1,-1,-1
122,2609,16.32,195.97,46.21,128.73,1,-1,-1,-1
122,2611,336.66,180.06,47.24,130.33,1,-1,-1,-1
122,2612,167.08,200.27,41.10,120.09,1,-1,-1,-1
122,2613,89.25,197.55,62.11,126.06,1,-1,-1,-1
123,2596,284.69,173.70,49.61,122.27,1,-1,-1,-1
123,2607,420.28,159.51,64.59,166.78,1,-1,-1,-1
123,2609,14.71,195.58,46.55,129.65,1,-1,-1,-1
123,2611,336.66,179.75,46.69,130.41,1,-1,-1,-1
123,2612,165.85,200.30,40.88,120.76,1,-1,-1,-1
123,2613,87.33,200.85,60.99,124.09,1,-1,-1,-1
124,2596,283.36,172.92,49.89,122.94,1,-1,-1,-1
124,2605,129.36,187.80,49.02,140.60,1,-1,-1,-1
124,2607,420.93,159.09,65.02,167.89,1,-1,-1,-1
124,2609,7.88,194.52,47.81,133.18,1,-1,-1,-1
124,2611,314.15,178.34,48.96,133.07,1,-1,-1,-1
124,2612,167.70,196.38,43.01,128.75,1,-1,-1,-1
124,2613,87.05,202.01,61.50,127.34,1,-1,-1,-1
124,2615,190.00,204.00,40.00,114.00,1,-1,-1,-1
124,2616,38.00,148.00,70.00,178.00,1,-1,-1,-1
125,2605,127.32,187.70,49.82,142.71,1,-1,-1,-1
125,2610,194.11,203.34,39.79,113.00,1,-1,-1,-1
125,2611,305.36,177.83,50.56,134.03,1,-1,-1,-1
125,2612,168.64,194.89,43.46,131.74,1,-1,-1,-1
125,2613,87.43,202.40,60.98,128.48,1,-1,-1,-1
125,2616,38.00,148.00,70.00,178.00,1,-1,-1,-1
126,2605,126.61,187.68,50.13,143.43,1,-1,-1,-1
126,2610,189.93,203.79,40.22,114.28,1,-1,-1,-1
126,2611,301.79,177.67,51.85,134.36,1,-1,-1,-1
126,2612,169.32,194.29,43.31,132.83,1,-1,-1,-1
126,2613,88.09,202.50,60.12,128.82,1,-1,-1,-1
126,2616,38.00,148.00,70.00,178.00,1,-1,-1,-1
127,2596,258.99,170.07,56.83,139.92,1,-1,-1,-1
127,2605,123.35,187.14,51.20,146.49,1,-1,-1,-1
127,2610,185.75,203.85,40.85,116.06,1,-1,-1,-1
127,2611,301.44,175.01,53.23,138.40,1,-1,-1,-1
127,2612,173.00,194.06,43.13,133.16,1,-1,-1,-1
127,2613,84.00,203.81,58.17,128.86,1,-1,-1,-1
127,2616,14.69,148.00,72.36,184.11,1,-1,-1,-1
128,2596,256.03,169.74,57.71,141.98,1,-1,-1,-1
128,2611,301.46,174.03,53.64,139.89,1,-1,-1,-1
128,2612,174.62,193.97,42.89,133.19,1,-1,-1,-1
128,2613,83.14,204.27,56.29,128.81,1,-1,-1,-1
128,2616,7.23,148.00,73.08,186.06,1,-1,-1,-1
129,2596,254.97,169.63,58.05,142.71,1,-1,-1,-1
129,2611,301.64,173.68,53.69,140.42,1,-1,-1,-1
129,2612,175.40,193.95,42.63,133.13,1,-1,-1,-1
129,2613,83.47,204.41,54.52,128.73,1,-1,-1,-1
129,2616,5.10,148.00,73.24,186.63,1,-1,-1,-1
130,2596,255.37,169.61,56.75,141.62,1,-1,-1,-1
130,2605,103.18,180.77,54.93,157.67,1,-1,-1,-1
130,2610,184.18,198.80,44.07,127.12,1,-1,-1,-1
130,2611,303.07,172.28,51.20,136.63,1,-1,-1,-1
130,2612,171.96,192.63,44.92,140.86,1,-1,-1,-1
130,2613,80.48,205.24,55.01,129.90,1,-1,-1,-1
130,2616,0.75,136.89,75.69,192.28,1,-1,-1,-1
131,2596,255.83,169.64,55.83,141.13,1,-1,-1,-1
131,2605,100.75,179.95,55.24,158.96,1,-1,-1,-1
131,2610,184.43,198.15,43.98,128.46,1,-1,-1,-1
131,2611,304.01,171.78,49.69,135.12,1,-1,-1,-1
131,2612,170.75,192.14,45.65,143.74,1,-1,-1,-1
131,2616,-0.66,132.91,76.70,194.25,1,-1,-1,-1
132,2596,256.26,169.67,55.13,140.89,1,-1,-1,-1
132,2605,99.94,179.66,55.28,159.41,1,-1,-1,-1
132,2610,184.68,197.91,43.67,128.93,1,-1,-1,-1
132,2611,304.69,171.63,48.61,134.53,1,-1,-1,-1
132,2612,170.40,191.96,45.82,144.79,1,-1,-1,-1
132,2616,-0.97,131.51,77.18,194.87,1,-1,-1,-1
133,2596,253.94,171.01,56.06,143.36,1,-1,-1,-1
133,2605,96.27,178.81,56.26,162.23,1,-1,-1,-1
133,2610,186.49,197.84,44.18,132.93,1,-1,-1,-1
133,2611,306.91,172.93,48.39,136.94,1,-1,-1,-1
133,2612,166.51,191.89,47.04,147.69,1,-1,-1,-1
133,2613,82.03,156.80,60.59,140.99,1,-1,-1,-1
133,2616,-5.63,129.26,78.02,197.01,1,-1,-1,-1
134,2596,253.14,171.54,56.38,144.26,1,-1,-1,-1
134,2610,187.46,197.82,43.94,134.40,1,-1,-1,-1
134,2611,308.09,173.44,47.70,137.83,1,-1,-1,-1
134,2612,164.98,191.88,47.64,148.73,1,-1,-1,-1
134,2613,81.98,150.90,61.91,142.30,1,-1,-1,-1
135,2596,252.92,171.75,56.46,144.55,1,-1,-1,-1
135,2610,188.10,197.82,43.47,134.90,1,-1,-1,-1
135,2611,308.86,173.65,46.89,138.15,1,-1,-1,-1
135,2612,164.39,191.88,47.99,149.05,1,-1,-1,-1
135,2613,81.79,148.83,62.77,142.74,1,-1,-1,-1
136,2596,252.17,170.53,56.65,143.31,1,-1,-1,-1
136,2610,186.27,197.53,44.11,136.88,1,-1,-1,-1
136,2611,309.06,172.44,46.85,138.25,1,-1,-1,-1
136,2612,160.33,181.47,52.01,160.81,1,-1,-1,-1
136,2613,80.24,144.79,63.52,144.45,1,-1,-1,-1
136,2616,-0.53,178.94,76.77,195.05,1,-1,-1,-1
137,2596,251.79,170.08,57.04,142.78,1,-1,-1,-1
137,2611,309.19,171.99,46.78,138.26,1,-1,-1,-1
137,2612,158.75,177.56,53.65,165.21,1,-1,-1,-1
137,2616,0.51,184.97,76.21,194.70,1,-1,-1,-1
138,2596,251.56,169.92,57.48,142.54,1,-1,-1,-1
138,2611,309.29,171.84,46.71,138.25,1,-1,-1,-1
138,2612,158.14,176.04,54.38,166.85,1,-1,-1,-1
138,2616,0.96,186.97,75.78,194.59,1,-1,-1,-1
139,2596,249.80,173.82,53.17,134.52,1,-1,-1,-1
139,2611,309.38,177.07,45.31,132.95,1,-1,-1,-1
139,2612,154.45,181.94,56.53,173.83,1,-1,-1,-1
139,2616,13.41,149.14,98.90,251.51,1,-1,-1,-1
140,2596,249.46,175.34,51.00,131.39,1,-1,-1,-1
140,2611,309.34,179.10,44.97,130.91,1,-1,-1,-1
140,2612,153.11,184.25,57.26,176.44,1,-1,-1,-1
140,2616,17.35,136.03,107.71,271.56,1,-1,-1,-1
141,2596,249.62,175.88,49.74,130.27,1,-1,-1,-1
141,2611,309.26,179.83,45.03,130.16,1,-1,-1,-1
141,2612,152.69,185.20,57.45,177.34,1,-1,-1,-1
141,2616,18.90,130.24,111.93,280.04,1,-1,-1,-1
142,2596,250.19,173.40,52.38,136.57,1,-1,-1,-1
142,2611,319.64,181.42,44.24,124.57,1,-1,-1,-1
142,2612,150.89,184.82,58.45,180.43,1,-1,-1,-1
142,2616,-3.76,109.06,126.15,324.70,1,-1,-1,-1
142,2617,102.00,144.00,92.00,256.00,1,-1,-1,-1
143,2596,250.35,172.48,53.49,138.88,1,-1,-1,-1
143,2611,323.30,182.00,44.51,122.49,1,-1,-1,-1
143,2616,-11.40,100.84,129.43,342.04,1,-1,-1,-1
143,2617,102.00,144.00,92.00,256.00,1,-1,-1,-1
144,2596,250.40,172.13,54.03,139.77,1,-1,-1,-1
144,2611,324.31,182.19,45.17,121.77,1,-1,-1,-1
144,2616,-13.71,97.51,128.86,348.93,1,-1,-1,-1
144,2617,102.00,144.00,92.00,256.00,1,-1,-1,-1
145,2596,248.03,170.68,56.45,145.34,1,-1,-1,-1
145,2611,325.68,182.71,44.75,120.65,1,-1,-1,-1
145,2616,-15.80,93.43,133.05,360.28,1,-1,-1,-1
145,2617,102.00,144.00,92.00,256.00,1,-1,-1,-1
146,2596,247.08,170.14,57.50,147.43,1,-1,-1,-1
147,2596,246.69,169.94,58.02,148.20,1,-1,-1,-1
148,2596,247.09,168.57,57.17,148.45,1,-1,-1,-1
148,2611,330.52,175.06,53.62,141.24,1,-1,-1,-1
148,2617,38.23,103.97,126.12,347.51,1,-1,-1,-1
149,2596,247.53,168.06,56.32,148.51,1,-1,-1,-1
149,2611,330.61,174.23,55.54,143.49,1,-1,-1,-1
149,2617,31.45,100.08,130.63,356.39,1,-1,-1,-1
150,2596,247.95,167.88,55.54,148.49,1,-1,-1,-1
150,2611,330.34,173.92,56.78,144.32,1,-1,-1,-1
150,2617,28.95,98.90,132.88,359.08,1,-1,-1,-1
151,2596,250.29,170.45,53.55,144.51,1,-1,-1,-1
151,2610,300.47,180.26,43.50,132.69,1,-1,-1,-1
151,2611,334.07,175.11,54.66,140.70,1,-1,-1,-1
151,2617,5.45,70.35,147.23,403.33,1,-1,-1,-1
151,2618,178.00,202.00,26.00,72.00,1,-1,-1,-1
152,2596,251.33,171.45,52.53,142.95,1,-1,-1,-1
152,2610,303.92,179.81,43.83,132.20,1,-1,-1,-1
152,2611,335.62,175.60,53.50,139.23,1,-1,-1,-1
152,2617,-2.82,59.50,151.35,420.15,1,-1,-1,-1
152,2618,178.00,202.00,26.00,72.00,1,-1,-1,-1
153,2596,251.85,171.83,51.91,142.36,1,-1,-1,-1
153,2610,305.06,179.63,44.15,132.08,1,-1,-1,-1
153,2611,336.30,175.79,52.75,138.65,1,-1,-1,-1
153,2617,-5.18,55.35,151.64,426.39,1,-1,-1,-1
153,2618,178.00,202.00,26.00,72.00,1,-1,-1,-1
154,2596,247.97,170.64,51.88,143.46,1,-1,-1,-1
154,2610,306.63,194.41,42.89,122.61,1,-1,-1,-1
154,2611,337.66,175.61,52.96,139.20,1,-1,-1,-1
154,2612,115.30,197.47,29.52,95.74,1,-1,-1,-1
154,2617,-17.73,38.78,153.99,443.46,1,-1,-1,-1
154,2618,177.42,198.95,30.20,84.21,1,-1,-1,-1
155,2596,246.64,170.20,51.64,143.87,1,-1,-1,-1
155,2610,306.50,200.09,43.09,119.01,1,-1,-1,-1
155,2612,115.08,198.02,27.32,91.94,1,-1,-1,-1
155,2617,-21.35,32.46,152.66,449.76,1,-1,-1,-1
155,2618,177.34,197.96,31.36,88.15,1,-1,-1,-1
156,2596,246.26,170.03,51.34,144.02,1,-1,-1,-1
156,2610,305.96,202.02,43.82,117.80,1,-1,-1,-1
156,2612,115.03,198.17,26.24,90.93,1,-1,-1,-1
156,2617,-21.45,30.28,150.02,451.66,1,-1,-1,-1
156,2618,177.41,197.65,31.53,89.40,1,-1,-1,-1
157,2596,245.58,169.91,51.40,144.20,1,-1,-1,-1
157,2610,304.44,198.55,47.80,126.97,1,-1,-1,-1
157,2612,113.08,198.68,25.27,87.58,1,-1,-1,-1
157,2617,-30.74,22.11,154.73,465.85,1,-1,-1,-1
157,2618,177.53,202.97,31.36,88.30,1,-1,-1,-1
158,2610,303.71,197.29,49.52,130.25,1,-1,-1,-1
158,2618,177.51,205.05,31.37,87.68,1,-1,-1,-1
159,2610,303.17,196.74,50.43,131.53,1,-1,-1,-1
159,2618,177.44,205.82,31.47,87.32,1,-1,-1,-1
160,2596,250.82,175.26,50.59,140.55,1,-1,-1,-1
160,2610,305.46,199.13,49.50,128.06,1,-1,-1,-1
160,2618,174.90,196.76,35.17,97.76,1,-1,-1,-1
161,2596,251.31,175.90,50.84,140.10,1,-1,-1,-1
161,2610,306.14,200.01,49.33,126.70,1,-1,-1,-1
161,2618,173.98,193.45,36.49,101.58,1,-1,-1,-1
162,2596,251.36,176.12,51.14,139.95,1,-1,-1,-1
162,2610,306.23,200.30,49.44,126.19,1,-1,-1,-1
162,2618,173.65,192.12,36.95,102.99,1,-1,-1,-1
163,2596,253.44,176.18,49.78,135.93,1,-1,-1,-1
163,2610,308.06,201.13,49.38,126.03,1,-1,-1,-1
163,2612,112.84,186.25,33.72,109.33,1,-1,-1,-1
163,2618,172.66,191.65,36.24,100.83,1,-1,-1,-1
164,2596,254.19,176.19,49.33,134.42,1,-1,-1,-1
164,2612,111.95,185.60,35.62,110.30,1,-1,-1,-1
164,2618,172.27,191.51,35.95,99.83,1,-1,-1,-1
165,2596,254.43,176.17,49.22,133.89,1,-1,-1,-1
165,2612,111.34,185.42,36.95,110.61,1,-1,-1,-1
165,2618,172.12,191.50,35.84,99.36,1,-1,-1,-1
166,2596,256.32,173.49,50.90,139.05,1,-1,-1,-1
166,2612,108.80,185.40,38.22,110.67,1,-1,-1,-1
166,2618,171.47,190.22,38.32,104.34,1,-1,-1,-1
167,2596,257.06,172.49,51.40,140.97,1,-1,-1,-1
167,2612,107.57,185.43,39.22,110.65,1,-1,-1,-1
167,2618,171.04,189.75,39.62,106.19,1,-1,-1,-1
168,2596,257.38,172.11,51.49,141.71,1,-1,-1,-1
168,2612,106.89,185.48,40.05,110.60,1,-1,-1,-1
168,2618,170.72,189.61,40.45,106.82,1,-1,-1,-1
169,2596,260.45,175.92,48.20,131.46,1,-1,-1,-1
169,2612,104.83,176.39,45.29,123.61,1,-1,-1,-1
169,2618,167.53,185.69,44.29,114.78,1,-1,-1,-1
170,2596,261.51,177.41,47.12,127.47,1,-1,-1,-1
170,2612,103.92,173.03,47.53,128.42,1,-1,-1,-1
170,2618,166.09,184.21,46.22,117.77,1,-1,-1,-1
171,2596,261.76,177.94,46.94,126.07,1,-1,-1,-1
171,2612,103.47,171.72,48.65,130.29,1,-1,-1,-1
171,2618,165.33,183.67,47.36,118.86,1,-1,-1,-1
172,2596,262.59,178.34,46.47,124.81,1,-1,-1,-1
172,2611,316.52,168.05,53.97,148.01,1,-1,-1,-1
172,2612,102.79,169.97,49.52,132.64,1,-1,-1,-1
172,2618,164.67,182.58,48.35,121.35,1,-1,-1,-1
173,2611,316.62,167.89,52.50,148.16,1,-1,-1,-1
174,2611,316.93,167.84,51.43,148.21,1,-1,-1,-1
175,2611,316.04,167.50,51.58,148.62,1,-1,-1,-1
175,2618,160.04,183.36,47.36,117.74,1,-1,-1,-1
176,2618,159.33,183.58,47.45,117.01,1,-1,-1,-1
177,2618,158.98,183.64,47.69,116.80,1,-1,-1,-1
178,2612,50.18,154.40,60.91,159.01,1,-1,-1,-1
178,2618,159.10,181.04,48.64,120.63,1,-1,-1,-1
178,2619,108.00,168.00,40.00,140.00,1,-1,-1,-1
179,2612,45.64,153.41,62.80,160.77,1,-1,-1,-1
179,2618,159.32,180.08,48.67,122.04,1,-1,-1,-1
179,2619,108.00,168.00,40.00,140.00,1,-1,-1,-1
180,2612,43.75,153.07,64.02,161.38,1,-1,-1,-1
180,2617,100.51,163.13,47.94,149.51,1,-1,-1,-1
180,2618,159.57,179.74,48.38,122.52,1,-1,-1,-1
181,2612,39.84,151.19,65.17,164.28,1,-1,-1,-1
181,2617,103.57,164.13,46.92,153.56,1,-1,-1,-1
181,2618,160.76,180.96,47.43,123.96,1,-1,-1,-1
182,2617,105.10,164.91,44.90,152.10,1,-1,-1,-1
182,2618,161.62,181.44,46.27,124.46,1,-1,-1,-1
183,2617,105.49,164.69,43.88,152.58,1,-1,-1,-1
183,2618,162.31,181.65,45.12,124.60,1,-1,-1,-1
184,2596,265.30,176.10,53.42,139.56,1,-1,-1,-1
184,2610,126.31,162.36,72.01,175.66,1,-1,-1,-1
184,2611,290.05,164.01,51.12,148.14,1,-1,-1,-1
184,2612,13.22,154.59,66.54,166.94,1,-1,-1,-1
184,2617,106.79,166.11,43.05,149.72,1,-1,-1,-1
184,2618,161.99,181.27,45.54,125.76,1,-1,-1,-1
185,2596,264.86,176.02,54.67,140.09,1,-1,-1,-1
185,2610,121.22,161.45,74.47,176.76,1,-1,-1,-1
185,2611,289.07,163.89,50.90,148.07,1,-1,-1,-1
185,2612,9.90,155.19,66.84,167.07,1,-1,-1,-1
186,2596,264.48,175.99,55.53,140.26,1,-1,-1,-1
186,2610,119.32,161.17,76.00,177.08,1,-1,-1,-1
186,2611,288.77,163.85,50.76,148.06,1,-1,-1,-1
186,2612,8.69,155.38,67.06,167.12,1,-1,-1,-1
187,2596,263.86,177.28,54.17,133.79,1,-1,-1,-1
187,2610,111.76,159.56,76.89,179.16,1,-1,-1,-1
187,2611,294.70,166.49,49.35,145.40,1,-1,-1,-1
187,2612,4.12,154.52,67.86,169.11,1,-1,-1,-1
187,2617,80.19,135.59,57.63,199.33,1,-1,-1,-1
188,2596,263.37,177.78,54.09,131.25,1,-1,-1,-1
188,2611,297.13,167.51,48.62,144.39,1,-1,-1,-1
188,2617,77.71,132.87,59.14,203.71,1,-1,-1,-1
189,2596,262.96,177.97,54.49,130.32,1,-1,-1,-1
189,2611,298.15,167.88,48.18,144.02,1,-1,-1,-1
189,2617,76.89,132.03,59.72,205.07,1,-1,-1,-1
190,2596,260.24,176.70,58.44,139.27,1,-1,-1,-1
190,2610,111.07,140.24,84.32,198.04,1,-1,-1,-1
190,2611,297.68,168.05,48.07,143.69,1,-1,-1,-1
190,2617,63.64,129.30,61.47,204.01,1,-1,-1,-1
191,2596,259.19,176.24,59.99,142.56,1,-1,-1,-1
191,2610,111.53,137.82,84.82,200.38,1,-1,-1,-1
191,2617,58.16,128.40,62.96,203.34,1,-1,-1,-1
192,2596,258.74,176.06,60.68,143.82,1,-1,-1,-1
192,2610,111.86,136.97,84.78,201.20,1,-1,-1,-1
192,2617,55.83,128.20,64.24,202.87,1,-1,-1,-1
193,2596,260.70,173.38,61.89,145.58,1,-1,-1,-1
193,2610,95.11,132.85,100.71,242.86,1,-1,-1,-1
193,2611,294.55,171.62,54.50,154.54,1,-1,-1,-1
193,2612,-3.49,106.91,105.98,266.15,1,-1,-1,-1
193,2617,51.69,124.98,65.62,207.23,1,-1,-1,-1
193,2620,320.00,196.00,56.00,130.00,1,-1,-1,-1
194,2596,261.34,172.36,62.57,146.22,1,-1,-1,-1
194,2610,89.31,131.27,105.66,258.17,1,-1,-1,-1
194,2611,293.22,172.03,57.19,155.79,1,-1,-1,-1
194,2612,-3.61,103.48,108.12,273.13,1,-1,-1,-1
194,2620,320.00,196.00,56.00,130.00,1,-1,-1,-1
195,2596,261.48,171.98,63.02,146.43,1,-1,-1,-1
195,2610,87.43,130.73,107.03,264.45,1,-1,-1,-1
195,2611,292.23,172.17,59.19,156.23,1,-1,-1,-1
195,2612,-3.34,102.24,108.62,275.67,1,-1,-1,-1
195,2620,320.00,196.00,56.00,130.00,1,-1,-1,-1
196,2596,264.11,174.47,56.69,132.05,1,-1,-1,-1
196,2610,77.33,124.31,117.79,295.77,1,-1,-1,-1
196,2611,291.78,172.61,59.51,157.07,1,-1,-1,-1
196,2612,-10.24,93.06,107.80,283.95,1,-1,-1,-1
196,2620,319.47,188.37,58.58,136.11,1,-1,-1,-1
197,2596,265.17,175.48,54.11,126.34,1,-1,-1,-1
197,2610,73.95,121.82,120.92,307.89,1,-1,-1,-1
197,2612,-11.97,89.54,105.56,287.02,1,-1,-1,-1
197,2620,319.33,185.92,59.36,138.06,1,-1,-1,-1
198,2596,265.56,175.84,53.15,124.36,1,-1,-1,-1
198,2610,73.20,120.91,121.27,312.58,1,-1,-1,-1
198,2612,-11.80,88.28,103.03,287.96,1,-1,-1,-1
198,2620,319.31,185.21,59.53,138.64,1,-1,-1,-1
199,2596,266.00,175.90,52.60,123.05,1,-1,-1,-1
199,2610,41.57,83.94,142.63,368.55,1,-1,-1,-1
199,2612,-14.65,84.26,105.65,295.27,1,-1,-1,-1
199,2620,318.86,189.23,59.08,137.35,1,-1,-1,-1
200,2610,29.58,69.87,150.57,389.93,1,-1,-1,-1
200,2620,318.67,190.81,58.93,136.80,1,-1,-1,-1
201,2610,24.86,64.06,153.61,398.56,1,-1,-1,-1
201,2620,318.58,191.43,58.92,136.54,1,-1,-1,-1
202,2596,262.72,181.41,51.52,121.71,1,-1,-1,-1
202,2610,3.20,30.51,169.61,444.28,1,-1,-1,-1
202,2620,316.01,190.33,58.60,137.76,1,-1,-1,-1
202,2621,188.00,214.00,22.00,74.00,1,-1,-1,-1
203,2596,262.54,182.01,51.04,121.59,1,-1,-1,-1
203,2610,-4.75,17.45,174.90,462.07,1,-1,-1,-1
203,2620,315.32,189.94,57.96,138.18,1,-1,-1,-1
203,2621,188.00,214.00,22.00,74.00,1,-1,-1,-1
204,2596,262.58,182.21,50.67,121.56,1,-1,-1,-1
204,2610,-7.35,12.30,176.12,468.90,1,-1,-1,-1
204,2620,315.33,189.81,57.22,138.31,1,-1,-1,-1
204,2621,188.00,214.00,22.00,74.00,1,-1,-1,-1
205,2596,262.47,182.78,50.32,120.73,1,-1,-1,-1
205,2610,-15.56,4.52,181.53,483.30,1,-1,-1,-1
205,2620,315.32,189.79,55.67,135.67,1,-1,-1,-1
205,2621,188.00,214.00,22.00,74.00,1,-1,-1,-1
206,2620,315.47,189.80,54.82,134.64,1,-1,-1,-1
207,2620,315.67,189.82,54.27,134.25,1,-1,-1,-1
208,2596,266.20,180.48,52.27,123.38,1,-1,-1,-1
208,2611,294.08,179.95,53.71,138.67,1,-1,-1,-1
208,2617,96.59,160.15,54.79,182.00,1,-1,-1,-1
208,2620,316.97,188.51,54.31,135.43,1,-1,-1,-1
209,2596,266.33,180.21,53.08,123.70,1,-1,-1,-1
209,2611,293.84,180.13,54.22,137.93,1,-1,-1,-1
209,2617,99.72,161.91,52.38,180.28,1,-1,-1,-1
209,2620,317.59,188.03,54.08,135.87,1,-1,-1,-1
210,2596,266.20,180.11,53.70,123.81,1,-1,-1,-1
210,2611,293.60,180.21,54.71,137.69,1,-1,-1,-1
210,2617,101.02,162.41,50.91,179.85,1,-1,-1,-1
210,2620,317.94,187.86,53.77,136.03,1,-1,-1,-1
211,2596,267.69,178.75,56.13,130.47,1,-1,-1,-1
211,2611,293.68,180.68,54.39,136.87,1,-1,-1,-1
211,2617,86.72,155.68,59.21,209.89,1,-1,-1,-1
211,2620,322.00,178.56,55.09,141.37,1,-1,-1,-1
211,2621,182.93,202.22,26.25,87.74,1,-1,-1,-1
211,2622,2.00,128.00,88.00,244.00,1,-1,-1,-1
211,2623,208.00,204.00,30.00,88.00,1,-1,-1,-1
212,2596,268.36,178.25,56.80,132.94,1,-1,-1,-1
212,2617,81.74,153.32,62.04,220.47,1,-1,-1,-1
212,2618,2.71,128.23,88.08,243.53,1,-1,-1,-1
212,2620,323.74,175.10,55.12,143.36,1,-1,-1,-1
212,2621,182.59,201.60,26.62,88.47,1,-1,-1,-1
212,2623,208.00,204.00,30.00,88.00,1,-1,-1,-1
213,2596,268.69,178.05,56.85,133.89,1,-1,-1,-1
213,2617,79.77,152.34,63.07,224.61,1,-1,-1,-1
213,2618,-0.28,127.27,88.79,245.64,1,-1,-1,-1
213,2620,324.60,173.82,54.72,144.09,1,-1,-1,-1
213,2621,182.44,201.41,26.83,88.69,1,-1,-1,-1
213,2623,208.00,204.00,30.00,88.00,1,-1,-1,-1
214,2596,274.41,175.37,57.42,136.83,1,-1,-1,-1
214,2617,66.05,140.27,67.35,240.30,1,-1,-1,-1
214,2618,-6.33,125.28,90.37,250.01,1,-1,-1,-1
214,2620,326.72,173.39,54.87,146.96,1,-1,-1,-1
214,2621,180.09,203.99,26.29,86.11,1,-1,-1,-1
214,2623,208.00,204.00,30.00,88.00,1,-1,-1,-1
215,2596,276.75,174.35,57.27,137.93,1,-1,-1,-1
215,2617,60.86,135.65,68.89,246.21,1,-1,-1,-1
215,2620,327.77,173.27,54.40,148.02,1,-1,-1,-1
215,2621,179.14,205.05,26.19,85.04,1,-1,-1,-1
216,2596,277.77,173.97,56.89,138.32,1,-1,-1,-1
216,2617,58.93,133.87,69.39,248.31,1,-1,-1,-1
216,2620,328.38,173.29,53.75,148.39,1,-1,-1,-1
216,2621,178.75,205.47,26.25,84.61,1,-1,-1,-1
217,2596,277.57,176.46,57.83,142.36,1,-1,-1,-1
217,2617,38.93,129.38,77.25,269.55,1,-1,-1,-1
217,2620,329.24,181.21,52.20,143.24,1,-1,-1,-1
217,2621,181.02,206.98,25.46,83.10,1,-1,-1,-1
218,2596,277.66,177.41,57.79,143.86,1,-1,-1,-1
218,2617,30.82,127.69,81.28,277.58,1,-1,-1,-1
218,2620,329.46,184.31,51.74,141.21,1,-1,-1,-1
218,2621,181.99,207.57,24.98,82.50,1,-1,-1,-1
219,2596,277.83,177.78,57.43,144.39,1,-1,-1,-1
219,2617,27.30,127.09,83.67,280.53,1,-1,-1,-1
219,2620,329.45,185.47,51.72,140.45,1,-1,-1,-1
219,2621,182.45,207.80,24.64,82.26,1,-1,-1,-1
220,2596,278.79,175.32,56.73,143.24,1,-1,-1,-1
220,2617,6.71,107.69,89.94,303.23,1,-1,-1,-1
220,2620,336.52,193.86,48.13,129.54,1,-1,-1,-1
220,2621,178.60,205.24,25.93,87.46,1,-1,-1,-1
220,2623,212.39,205.96,31.04,91.93,1,-1,-1,-1
221,2596,279.19,174.37,56.31,142.75,1,-1,-1,-1
221,2617,-1.00,100.28,92.04,311.86,1,-1,-1,-1
221,2620,339.09,197.06,46.95,125.37,1,-1,-1,-1
221,2621,177.26,204.30,26.25,89.38,1,-1,-1,-1
221,2623,212.74,206.06,30.82,92.12,1,-1,-1,-1
222,2596,279.38,174.02,56.03,142.54,1,-1,-1,-1
222,2617,-3.76,97.40,92.56,315.02,1,-1,-1,-1
222,2620,339.86,198.15,46.75,123.93,1,-1,-1,-1
222,2621,176.83,203.94,26.23,90.10,1,-1,-1,-1
222,2623,212.93,206.09,30.59,92.18,1,-1,-1,-1
223,2596,281.45,175.22,54.49,138.47,1,-1,-1,-1
223,2611,335.96,170.24,54.79,145.72,1,-1,-1,-1
223,2617,-9.79,93.58,94.90,322.99,1,-1,-1,-1
223,2620,341.26,199.51,46.17,122.37,1,-1,-1,-1
223,2621,172.97,198.60,28.42,98.18,1,-1,-1,-1
223,2623,211.35,196.80,33.78,102.81,1,-1,-1,-1
224,2596,282.20,175.69,53.91,136.89,1,-1,-1,-1
224,2611,338.29,169.88,52.85,146.04,1,-1,-1,-1
224,2621,171.58,196.61,29.15,101.19,1,-1,-1,-1
224,2623,210.88,193.41,34.74,106.69,1,-1,-1,-1
225,2596,282.44,175.87,53.72,136.30,1,-1,-1,-1
225,2611,339.45,169.77,51.42,146.15,1,-1,-1,-1
225,2621,171.09,195.84,29.35,102.34,1,-1,-1,-1
225,2623,210.76,192.08,34.93,108.19,1,-1,-1,-1
226,2596,281.51,177.26,54.31,137.40,1,-1,-1,-1
226,2611,340.83,174.99,51.42,143.55,1,-1,-1,-1
226,2621,170.16,199.45,28.40,98.86,1,-1,-1,-1
226,2623,209.45,200.65,32.34,99.66,1,-1,-1,-1
227,2596,281.10,177.79,54.61,137.82,1,-1,-1,-1
227,2611,341.08,177.01,51.77,142.55,1,-1,-1,-1
227,2621,169.84,200.92,28.02,97.40,1,-1,-1,-1
227,2623,208.88,204.16,31.33,96.13,1,-1,-1,-1
228,2596,280.89,177.98,54.80,137.97,1,-1,-1,-1
228,2611,340.94,177.76,52.20,142.17,1,-1,-1,-1
228,2621,169.74,201.50,27.89,96.81,1,-1,-1,-1
228,2623,208.64,205.43,31.04,94.82,1,-1,-1,-1
229,2596,280.77,175.41,57.56,144.64,1,-1,-1,-1
229,2611,340.23,174.06,54.84,148.64,1,-1,-1,-1
229,2621,172.83,196.46,29.52,101.82,1,-1,-1,-1
229,2623,207.39,201.90,31.93,97.00,1,-1,-1,-1
229,2624,118.00,192.00,30.00,100.00,1,-1,-1,-1
230,2596,280.68,174.44,58.65,147.11,1,-1,-1,-1
230,2611,339.87,172.68,55.95,151.05,1,-1,-1,-1
230,2621,173.95,194.59,30.23,103.67,1,-1,-1,-1
230,2623,206.88,200.58,32.36,97.80,1,-1,-1,-1
230,2624,118.00,192.00,30.00,100.00,1,-1,-1,-1
231,2596,280.61,174.08,59.12,148.04,1,-1,-1,-1
231,2611,339.60,172.15,56.48,151.96,1,-1,-1,-1
231,2621,174.36,193.89,30.59,104.35,1,-1,-1,-1
231,2623,206.65,200.09,32.60,98.08,1,-1,-1,-1
231,2624,118.00,192.00,30.00,100.00,1,-1,-1,-1
232,2596,282.30,171.33,58.44,145.75,1,-1,-1,-1
232,2611,338.94,170.65,55.07,149.65,1,-1,-1,-1
232,2621,170.39,187.14,33.78,114.98,1,-1,-1,-1
232,2623,205.78,192.00,35.61,108.73,1,-1,-1,-1
232,2624,111.09,192.00,31.60,104.58,1,-1,-1,-1
232,2625,136.00,186.00,36.00,116.00,1,-1,-1,-1
233,2596,282.87,170.28,58.29,144.82,1,-1,-1,-1
233,2611,338.76,170.08,54.25,148.74,1,-1,-1,-1
233,2621,168.88,184.62,35.02,118.95,1,-1,-1,-1
233,2623,205.62,189.03,36.39,112.64,1,-1,-1,-1
233,2624,108.78,192.00,32.32,106.05,1,-1,-1,-1
233,2625,136.00,186.00,36.00,116.00,1,-1,-1,-1
234,2596,283.02,169.91,58.34,144.45,1,-1,-1,-1
234,2611,338.77,169.89,53.71,148.37,1,-1,-1,-1
234,2621,168.27,183.65,35.53,120.47,1,-1,-1,-1
234,2623,205.70,187.88,36.42,114.16,1,-1,-1,-1
234,2624,107.99,192.00,32.75,106.48,1,-1,-1,-1
234,2625,136.00,186.00,36.00,116.00,1,-1,-1,-1
235,2596,283.72,173.75,58.33,145.61,1,-1,-1,-1
235,2611,338.65,171.15,53.69,150.86,1,-1,-1,-1
235,2621,164.60,188.48,33.62,113.27,1,-1,-1,-1
235,2623,205.37,186.52,36.99,115.93,1,-1,-1,-1
235,2624,101.26,186.46,36.31,117.63,1,-1,-1,-1
235,2625,136.00,186.00,36.00,116.00,1,-1,-1,-1
236,2596,284.10,175.21,58.07,146.03,1,-1,-1,-1
236,2611,338.82,171.63,53.20,151.79,1,-1,-1,-1
236,2621,163.12,190.49,32.91,110.26,1,-1,-1,-1
236,2624,98.84,184.50,37.68,121.57,1,-1,-1,-1
237,2596,284.34,175.76,57.74,146.18,1,-1,-1,-1
237,2611,339.07,171.83,52.59,152.12,1,-1,-1,-1
237,2621,162.56,191.27,32.74,109.10,1,-1,-1,-1
237,2624,97.98,183.77,38.27,122.98,1,-1,-1,-1
238,2596,283.73,174.65,58.99,147.53,1,-1,-1,-1
238,2611,337.63,173.22,51.41,148.28,1,-1,-1,-1
238,2621,161.67,186.29,34.08,115.25,1,-1,-1,-1
238,2624,89.38,179.60,40.79,129.94,1,-1,-1,-1
239,2596,283.29,174.23,59.84,148.02,1,-1,-1,-1
239,2611,337.03,173.76,51.03,146.79,1,-1,-1,-1
239,2621,161.50,184.46,34.28,117.51,1,-1,-1,-1
239,2624,86.06,178.04,41.95,132.51,1,-1,-1,-1
240,2596,282.94,174.07,60.50,148.19,1,-1,-1,-1
240,2611,336.76,173.95,50.96,146.23,1,-1,-1,-1
240,2621,161.60,183.78,34.10,118.34,1,-1,-1,-1
240,2624,84.78,177.49,42.57,133.38,1,-1,-1,-1
241,2596,282.06,171.37,63.53,154.82,1,-1,-1,-1
241,2611,334.51,172.70,52.57,150.01,1,-1,-1,-1
241,2621,155.45,190.08,37.31,129.03,1,-1,-1,-1
241,2624,70.97,173.43,44.96,141.38,1,-1,-1,-1
241,2625,98.47,180.11,38.42,127.78,1,-1,-1,-1
242,2596,281.64,170.37,64.85,157.29,1,-1,-1,-1
242,2611,333.59,172.23,53.32,151.41,1,-1,-1,-1
242,2621,153.12,192.45,38.59,133.03,1,-1,-1,-1
242,2624,65.81,171.92,45.76,144.37,1,-1,-1,-1
242,2625,97.11,179.81,37.47,128.38,1,-1,-1,-1
243,2596,281.39,169.99,65.50,158.20,1,-1,-1,-1
243,2611,333.17,172.05,53.75,151.94,1,-1,-1,-1
243,2621,152.20,193.42,39.14,134.55,1,-1,-1,-1
243,2624,63.96,171.38,45.95,145.41,1,-1,-1,-1
243,2625,97.01,179.72,36.48,128.57,1,-1,-1,-1
244,2596,281.44,169.59,66.02,159.46,1,-1,-1,-1
244,2611,332.97,171.95,53.90,152.37,1,-1,-1,-1
244,2621,141.59,188.65,43.19,146.65,1,-1,-1,-1
244,2624,53.37,175.11,49.23,153.43,1,-1,-1,-1
244,2625,93.22,179.13,36.81,129.74,1,-1,-1,-1
245,2621,137.41,186.84,45.03,151.23,1,-1,-1,-1
245,2624,49.17,176.57,50.91,156.44,1,-1,-1,-1
246,2621,135.67,186.12,46.00,152.96,1,-1,-1,-1
246,2624,47.49,177.20,51.91,157.49,1,-1,-1,-1
247,2621,132.21,171.74,50.78,166.34,1,-1,-1,-1
247,2624,26.37,167.15,53.52,164.21,1,-1,-1,-1
247,2625,92.66,167.35,46.57,160.34,1,-1,-1,-1
247,2626,206.00,196.00,48.00,138.00,1,-1,-1,-1
248,2621,130.68,166.25,53.05,171.42,1,-1,-1,-1
248,2624,18.51,163.30,53.77,166.72,1,-1,-1,-1
248,2625,92.16,165.93,48.58,164.03,1,-1,-1,-1
248,2626,206.00,196.00,48.00,138.00,1,-1,-1,-1
249,2621,129.97,164.08,54.29,173.33,1,-1,-1,-1
249,2624,15.78,161.83,53.53,167.56,1,-1,-1,-1
249,2625,91.83,165.42,49.79,165.37,1,-1,-1,-1
249,2626,206.00,196.00,48.00,138.00,1,-1,-1,-1
250,2596,279.74,171.70,63.19,152.94,1,-1,-1,-1
250,2611,335.67,173.85,50.45,144.63,1,-1,-1,-1
250,2621,105.59,158.18,57.04,184.16,1,-1,-1,-1
250,2624,4.18,162.62,52.93,167.75,1,-1,-1,-1
250,2625,68.87,156.29,56.31,187.57,1,-1,-1,-1
250,2626,196.86,185.31,54.07,156.32,1,-1,-1,-1
251,2596,279.66,171.90,62.83,152.32,1,-1,-1,-1
251,2611,336.13,173.99,49.69,144.07,1,-1,-1,-1
251,2621,96.40,155.93,57.72,188.28,1,-1,-1,-1
251,2624,0.06,162.99,52.31,167.70,1,-1,-1,-1
251,2625,60.25,152.85,58.68,195.96,1,-1,-1,-1
251,2626,194.05,181.87,55.75,162.21,1,-1,-1,-1
252,2596,279.66,171.96,62.67,152.13,1,-1,-1,-1
252,2611,336.41,174.03,49.17,143.88,1,-1,-1,-1
252,2621,93.01,155.12,57.63,189.75,1,-1,-1,-1
252,2624,-1.13,163.19,51.72,167.56,1,-1,-1,-1
252,2625,56.86,151.50,59.53,199.24,1,-1,-1,-1
252,2626,193.33,180.81,55.97,164.04,1,-1,-1,-1
253,2596,279.03,173.31,61.22,148.08,1,-1,-1,-1
253,2611,336.50,174.13,49.04,143.49,1,-1,-1,-1
253,2621,88.26,151.04,60.84,201.72,1,-1,-1,-1
253,2624,-6.82,162.02,52.49,170.06,1,-1,-1,-1
253,2625,52.52,149.37,61.09,204.44,1,-1,-1,-1
253,2626,189.16,180.61,55.95,163.03,1,-1,-1,-1
253,2627,500.00,368.00,140.00,110.00,1,-1,-1,-1
254,2596,278.74,173.82,60.77,146.54,1,-1,-1,-1
254,2621,86.62,149.50,61.81,206.25,1,-1,-1,-1
254,2626,187.63,180.69,56.05,162.38,1,-1,-1,-1
254,2627,500.00,368.00,140.00,110.00,1,-1,-1,-1
255,2596,278.60,174.00,60.71,145.99,1,-1,-1,-1
255,2621,86.24,148.98,61.94,207.87,1,-1,-1,-1
255,2626,187.08,180.84,56.24,161.94,1,-1,-1,-1
255,2627,500.00,368.00,140.00,110.00,1,-1,-1,-1
256,2596,279.27,171.40,60.59,147.15,1,-1,-1,-1
256,2611,330.05,174.05,47.67,140.25,1,-1,-1,-1
256,2621,82.36,146.82,63.32,212.51,1,-1,-1,-1
256,2625,15.22,133.61,67.64,223.42,1,-1,-1,-1
256,2626,182.59,174.31,58.37,168.31,1,-1,-1,-1
256,2627,500.00,368.00,140.00,110.00,1,-1,-1,-1
257,2596,279.67,170.42,60.26,147.59,1,-1,-1,-1
257,2611,329.39,174.03,47.34,139.89,1,-1,-1,-1
257,2625,10.06,131.59,69.05,225.65,1,-1,-1,-1
257,2626,181.01,171.93,59.09,170.60,1,-1,-1,-1
258,2596,279.96,170.06,59.88,147.77,1,-1,-1,-1
258,2611,329.22,174.03,47.13,139.78,1,-1,-1,-1
258,2625,8.04,130.87,69.92,226.43,1,-1,-1,-1
258,2626,180.53,171.12,59.28,171.34,1,-1,-1,-1
259,2596,279.54,172.58,58.14,143.88,1,-1,-1,-1
259,2611,331.27,171.37,48.18,142.41,1,-1,-1,-1
259,2625,29.91,129.39,67.86,218.83,1,-1,-1,-1
259,2626,165.50,165.65,62.93,184.62,1,-1,-1,-1
260,2596,279.42,173.55,57.41,142.41,1,-1,-1,-1
260,2611,332.01,170.38,48.66,143.40,1,-1,-1,-1
260,2625,38.69,128.94,67.11,215.62,1,-1,-1,-1
260,2626,160.19,163.64,63.71,189.56,1,-1,-1,-1
261,2596,279.42,173.91,57.08,141.90,1,-1,-1,-1
261,2611,332.27,170.01,48.92,143.79,1,-1,-1,-1
261,2625,42.05,128.85,66.91,214.28,1,-1,-1,-1
261,2626,158.48,162.95,63.45,191.36,1,-1,-1,-1
262,2596,281.44,176.69,55.59,139.07,1,-1,-1,-1
262,2611,327.44,187.04,46.99,137.33,1,-1,-1,-1
262,2625,25.17,126.27,67.76,209.73,1,-1,-1,-1
262,2626,151.16,160.19,67.85,207.43,1,-1,-1,-1
263,2596,282.29,177.73,54.87,138.04,1,-1,-1,-1
263,2611,325.54,193.58,46.37,134.86,1,-1,-1,-1
263,2625,18.23,125.38,69.16,207.87,1,-1,-1,-1
263,2626,148.70,159.17,68.94,213.49,1,-1,-1,-1
264,2596,282.68,178.10,54.45,137.69,1,-1,-1,-1
264,2611,324.81,195.91,46.27,133.99,1,-1,-1,-1
264,2625,15.24,125.12,70.67,207.11,1,-1,-1,-1
264,2626,148.13,158.86,68.83,215.72,1,-1,-1,-1
265,2596,282.06,172.88,57.16,146.93,1,-1,-1,-1
265,2611,326.59,181.99,48.89,143.05,1,-1,-1,-1
265,2625,12.07,123.33,71.07,208.29,1,-1,-1,-1
265,2626,144.60,156.26,69.21,216.40,1,-1,-1,-1
266,2596,282.11,170.96,57.60,150.32,1,-1,-1,-1
266,2611,327.38,176.90,49.57,146.36,1,-1,-1,-1
266,2626,143.32,155.32,69.38,216.48,1,-1,-1,-1
267,2596,282.36,170.22,57.31,151.64,1,-1,-1,-1
267,2611,327.83,174.89,49.59,147.65,1,-1,-1,-1
267,2626,142.93,155.04,69.46,216.34,1,-1,-1,-1
268,2596,273.20,177.79,52.15,139.04,1,-1,-1,-1
268,2611,321.39,179.37,49.76,149.42,1,-1,-1,-1
268,2626,132.62,148.50,79.59,247.38,1,-1,-1,-1
268,2628,292.00,178.00,52.00,144.00,1,-1,-1,-1
269,2596,269.69,180.79,49.94,134.05,1,-1,-1,-1
269,2611,319.06,181.09,49.59,150.08,1,-1,-1,-1
269,2626,128.72,146.06,83.46,258.90,1,-1,-1,-1
269,2628,292.00,178.00,52.00,144.00,1,-1,-1,-1
270,2596,268.57,181.84,48.98,132.29,1,-1,-1,-1
270,2611,318.31,181.75,49.31,150.30,1,-1,-1,-1
270,2626,127.24,145.15,85.06,263.41,1,-1,-1,-1
270,2628,292.00,178.00,52.00,144.00,1,-1,-1,-1
271,2596,266.13,176.82,50.10,134.39,1,-1,-1,-1
271,2611,317.92,178.05,46.86,141.17,1,-1,-1,-1
271,2626,120.60,137.23,86.55,268.76,1,-1,-1,-1
271,2628,292.00,178.00,52.00,144.00,1,-1,-1,-1
272,2596,265.19,174.97,50.71,135.19,1,-1,-1,-1
272,2611,317.70,176.61,46.15,137.59,1,-1,-1,-1
272,2626,118.17,134.19,86.94,270.66,1,-1,-1,-1
273,2596,264.80,174.27,51.12,135.52,1,-1,-1,-1
273,2611,317.54,176.10,46.14,136.31,1,-1,-1,-1
273,2626,117.41,133.09,86.90,271.16,1,-1,-1,-1
274,2596,261.54,167.38,56.28,148.93,1,-1,-1,-1
274,2611,317.95,171.91,49.27,145.22,1,-1,-1,-1
274,2626,102.14,115.96,96.36,300.86,1,-1,-1,-1
275,2596,260.33,164.86,58.23,153.84,1,-1,-1,-1
275,2611,318.07,170.39,50.48,148.47,1,-1,-1,-1
275,2626,96.42,109.52,99.88,312.02,1,-1,-1,-1
276,2596,259.88,163.90,59.05,155.76,1,-1,-1,-1
276,2611,318.12,169.83,51.00,149.72,1,-1,-1,-1
276,2626,94.28,107.04,101.20,316.28,1,-1,-1,-1
277,2596,258.05,171.35,56.28,147.37,1,-1,-1,-1
277,2611,318.50,172.27,51.82,150.17,1,-1,-1,-1
277,2626,69.67,99.82,112.43,344.49,1,-1,-1,-1
278,2596,257.31,174.35,55.35,143.98,1,-1,-1,-1
278,2611,318.49,173.23,52.46,150.32,1,-1,-1,-1
278,2626,59.61,97.08,118.02,355.27,1,-1,-1,-1
279,2596,256.99,175.46,55.19,142.72,1,-1,-1,-1
279,2611,318.35,173.62,53.01,150.34,1,-1,-1,-1
279,2626,55.21,96.13,121.24,359.29,1,-1,-1,-1
280,2596,261.66,175.87,53.61,138.26,1,-1,-1,-1
280,2611,318.90,169.83,53.32,151.65,1,-1,-1,-1
280,2626,23.45,69.10,134.36,392.45,1,-1,-1,-1
280,2628,299.36,172.06,51.14,142.02,1,-1,-1,-1
281,2596,263.44,176.01,53.08,136.58,1,-1,-1,-1
281,2611,319.16,168.41,53.35,152.12,1,-1,-1,-1
281,2626,10.75,58.75,140.49,405.11,1,-1,-1,-1
281,2628,299.67,171.86,50.99,141.95,1,-1,-1,-1
282,2596,264.07,176.06,52.96,135.98,1,-1,-1,-1
282,2611,319.31,167.89,53.28,152.27,1,-1,-1,-1
282,2626,5.41,54.74,143.78,409.84,1,-1,-1,-1
282,2628,299.81,171.79,50.87,141.93,1,-1,-1,-1
283,2596,266.32,173.41,54.25,138.45,1,-1,-1,-1
283,2611,320.91,167.72,52.78,150.99,1,-1,-1,-1
283,2626,-11.73,17.65,157.76,459.77,1,-1,-1,-1
283,2628,300.35,171.35,50.82,141.78,1,-1,-1,-1
284,2596,267.07,172.42,54.91,139.39,1,-1,-1,-1
284,2611,321.53,167.69,52.56,150.47,1,-1,-1,-1
284,2626,-17.22,3.49,160.96,478.84,1,-1,-1,-1
285,2596,267.26,172.05,55.32,139.75,1,-1,-1,-1
285,2611,321.78,167.70,52.45,150.27,1,-1,-1,-1
285,2626,-18.24,-2.04,160.36,486.19,1,-1,-1,-1
286,2596,267.92,177.21,54.29,135.93,1,-1,-1,-1
286,2611,324.37,174.33,50.03,143.57,1,-1,-1,-1
286,2626,-26.61,-10.75,164.92,500.04,1,-1,-1,-1
286,2629,532.00,186.00,50.00,150.00,1,-1,-1,-1
287,2596,268.04,179.18,54.14,134.48,1,-1,-1,-1
287,2611,325.38,176.89,49.06,141.00,1,-1,-1,-1
287,2629,532.00,186.00,50.00,150.00,1,-1,-1,-1
288,2596,267.95,179.90,54.32,133.96,1,-1,-1,-1
288,2611,325.75,177.81,48.67,140.08,1,-1,-1,-1
288,2629,532.00,186.00,50.00,150.00,1,-1,-1,-1
289,2596,273.42,169.50,59.35,148.43,1,-1,-1,-1
289,2611,326.20,178.39,48.40,139.32,1,-1,-1,-1
289,2629,532.00,186.00,50.00,150.00,1,-1,-1,-1
290,2596,275.65,165.73,60.66,153.67,1,-1,-1,-1
291,2596,276.72,164.25,60.75,155.73,1,-1,-1,-1
292,2596,277.68,163.16,61.38,157.36,1,-1,-1,-1
295,2596,297.51,168.70,62.16,155.06,1,-1,-1,-1
296,2596,299.38,169.49,63.41,154.64,1,-1,-1,-1
297,2596,299.64,169.75,64.56,154.51,1,-1,-1,-1
298,2596,301.95,169.58,64.88,155.28,1,-1,-1,-1
304,2596,327.89,171.80,59.19,139.29,1,-1,-1,-1
305,2596,328.99,171.97,59.44,138.11,1,-1,-1,-1
306,2596,329.24,172.02,59.89,137.74,1,-1,-1,-1
307,2596,341.30,170.70,62.72,143.00,1,-1,-1,-1
307,2611,403.83,170.14,55.23,151.81,1,-1,-1,-1
308,2596,345.53,170.21,64.05,144.95,1,-1,-1,-1
308,2611,404.77,169.92,56.99,152.13,1,-1,-1,-1
309,2596,346.86,170.02,64.77,145.70,1,-1,-1,-1
309,2611,404.72,169.85,58.20,152.24,1,-1,-1,-1
310,2596,354.70,172.60,64.58,145.98,1,-1,-1,-1
310,2611,408.26,169.51,58.40,152.75,1,-1,-1,-1
311,2596,357.60,173.58,64.35,146.08,1,-1,-1,-1
312,2596,358.60,173.94,64.12,146.10,1,-1,-1,-1
313,2596,367.84,170.11,64.48,148.75,1,-1,-1,-1
313,2611,432.93,169.82,58.40,154.03,1,-1,-1,-1
313,2630,254.00,214.00,24.00,76.00,1,-1,-1,-1
314,2596,371.41,168.66,64.20,149.73,1,-1,-1,-1
314,2611,435.91,169.88,58.08,154.17,1,-1,-1,-1
314,2630,254.00,214.00,24.00,76.00,1,-1,-1,-1
315,2596,372.78,168.12,63.72,150.09,1,-1,-1,-1
315,2611,437.00,169.89,57.82,154.21,1,-1,-1,-1
315,2630,254.00,214.00,24.00,76.00,1,-1,-1,-1
316,2596,376.42,167.92,62.25,147.57,1,-1,-1,-1
316,2611,441.22,169.73,57.97,154.62,1,-1,-1,-1
316,2630,249.12,212.47,24.61,77.53,1,-1,-1,-1
317,2596,377.73,167.86,61.48,146.59,1,-1,-1,-1
317,2630,247.50,211.98,24.91,78.02,1,-1,-1,-1
318,2596,378.18,167.85,61.01,146.22,1,-1,-1,-1
318,2630,246.98,211.85,25.12,78.15,1,-1,-1,-1
319,2596,384.26,170.51,59.33,143.43,1,-1,-1,-1
319,2611,443.61,164.61,61.15,164.81,1,-1,-1,-1
319,2630,243.64,209.03,27.46,85.15,1,-1,-1,-1
320,2596,386.55,171.52,58.43,142.38,1,-1,-1,-1
320,2611,443.98,164.01,61.09,166.02,1,-1,-1,-1
320,2630,242.45,208.05,28.36,87.60,1,-1,-1,-1
321,2596,387.40,171.90,57.86,142.00,1,-1,-1,-1
321,2611,444.20,163.80,60.84,166.44,1,-1,-1,-1
321,2630,242.04,207.71,28.74,88.48,1,-1,-1,-1
322,2596,390.00,169.37,59.49,147.18,1,-1,-1,-1
322,2611,446.21,170.28,57.98,158.70,1,-1,-1,-1
322,2630,244.76,208.94,28.55,87.41,1,-1,-1,-1
322,2631,278.00,210.00,28.00,80.00,1,-1,-1,-1
323,2596,391.02,168.43,59.82,149.11,1,-1,-1,-1
323,2611,446.85,172.82,56.83,155.65,1,-1,-1,-1
323,2630,245.83,209.45,28.54,86.92,1,-1,-1,-1
323,2631,278.00,210.00,28.00,80.00,1,-1,-1,-1
324,2596,391.42,168.08,59.72,149.85,1,-1,-1,-1
324,2611,447.01,173.74,56.39,154.52,1,-1,-1,-1
324,2630,246.23,209.67,28.60,86.69,1,-1,-1,-1
324,2631,278.00,210.00,28.00,80.00,1,-1,-1,-1
325,2596,393.69,171.89,56.53,140.91,1,-1,-1,-1
325,2611,454.09,167.42,59.31,162.08,1,-1,-1,-1
325,2630,242.57,207.12,33.63,102.44,1,-1,-1,-1
325,2631,283.13,210.00,28.43,81.53,1,-1,-1,-1
325,2632,208.00,210.00,34.00,106.00,1,-1,-1,-1
326,2596,394.33,173.38,55.47,137.42,1,-1,-1,-1
326,2611,456.62,165.09,60.46,164.87,1,-1,-1,-1
326,2630,241.30,206.19,35.32,108.15,1,-1,-1,-1
326,2631,284.81,210.00,28.49,82.02,1,-1,-1,-1
326,2632,208.00,210.00,34.00,106.00,1,-1,-1,-1
327,2596,394.39,173.91,55.27,136.18,1,-1,-1,-1
327,2611,457.45,164.19,60.96,165.92,1,-1,-1,-1
327,2630,240.86,205.83,35.90,110.42,1,-1,-1,-1
327,2631,285.34,210.00,28.41,82.15,1,-1,-1,-1
327,2632,208.00,210.00,34.00,106.00,1,-1,-1,-1
328,2596,397.24,176.77,57.43,138.44,1,-1,-1,-1
328,2611,463.84,171.73,60.60,163.67,1,-1,-1,-1
328,2630,240.04,206.99,36.18,111.21,1,-1,-1,-1
328,2631,286.78,210.00,28.56,82.59,1,-1,-1,-1
328,2632,208.00,210.00,34.00,106.00,1,-1,-1,-1
328,2633,14.00,148.00,68.00,170.00,1,-1,-1,-1
329,2596,397.88,177.81,58.92,139.29,1,-1,-1,-1
329,2611,466.06,174.65,60.68,162.77,1,-1,-1,-1
329,2630,239.75,207.47,36.26,111.42,1,-1,-1,-1
329,2633,14.00,148.00,68.00,170.00,1,-1,-1,-1
330,2596,397.74,178.18,60.10,139.64,1,-1,-1,-1
330,2611,466.68,175.73,60.91,162.41,1,-1,-1,-1
330,2630,239.66,207.68,36.27,111.39,1,-1,-1,-1
330,2633,14.00,148.00,68.00,170.00,1,-1,-1,-1
331,2596,400.69,175.64,57.03,131.84,1,-1,-1,-1
331,2611,469.76,170.83,60.38,162.26,1,-1,-1,-1
331,2630,232.53,188.32,44.02,133.34,1,-1,-1,-1
331,2633,14.00,148.00,68.00,170.00,1,-1,-1,-1
332,2596,401.63,174.63,56.00,128.87,1,-1,-1,-1
332,2611,470.94,168.97,59.93,162.19,1,-1,-1,-1
332,2630,229.70,181.21,47.28,141.45,1,-1,-1,-1
333,2596,401.84,174.25,55.78,127.84,1,-1,-1,-1
333,2611,471.40,168.26,59.54,162.15,1,-1,-1,-1
333,2630,228.39,178.25,48.92,144.73,1,-1,-1,-1
334,2596,400.12,174.11,55.15,126.18,1,-1,-1,-1
334,2611,469.97,170.65,57.12,155.52,1,-1,-1,-1
334,2630,225.99,178.41,48.33,143.36,1,-1,-1,-1
334,2632,164.09,176.63,47.23,145.26,1,-1,-1,-1
334,2633,-4.55,155.63,63.15,160.47,1,-1,-1,-1
335,2596,399.39,174.06,55.00,125.61,1,-1,-1,-1
335,2611,469.30,171.57,56.21,152.98,1,-1,-1,-1
335,2630,225.12,178.58,47.97,142.62,1,-1,-1,-1
335,2632,161.32,174.75,48.55,147.48,1,-1,-1,-1
335,2633,-5.62,156.26,61.81,159.68,1,-1,-1,-1
336,2596,399.05,174.03,55.01,125.46,1,-1,-1,-1
336,2611,468.98,171.90,55.89,152.07,1,-1,-1,-1
336,2630,224.87,178.73,47.72,142.20,1,-1,-1,-1
336,2632,160.31,174.18,49.32,148.14,1,-1,-1,-1
336,2633,-5.60,156.46,60.70,159.43,1,-1,-1,-1
337,2596,398.80,174.02,55.20,126.78,1,-1,-1,-1
337,2611,469.44,181.36,54.53,147.76,1,-1,-1,-1
337,2630,204.49,173.68,53.30,158.74,1,-1,-1,-1
337,2632,155.74,170.70,50.68,152.23,1,-1,-1,-1
337,2633,-8.26,157.51,60.19,158.11,1,-1,-1,-1
338,2596,398.78,174.02,55.08,127.31,1,-1,-1,-1
338,2611,469.49,184.90,54.15,146.18,1,-1,-1,-1
338,2630,196.85,171.79,55.41,164.94,1,-1,-1,-1
339,2596,398.84,174.02,54.86,127.54,1,-1,-1,-1
339,2611,469.40,186.14,54.14,145.65,1,-1,-1,-1
339,2630,193.82,171.11,56.22,167.30,1,-1,-1,-1
340,2596,398.57,172.69,56.65,131.63,1,-1,-1,-1
340,2611,469.29,187.88,54.25,145.50,1,-1,-1,-1
340,2630,179.41,168.37,60.17,180.83,1,-1,-1,-1
340,2631,247.47,206.06,32.70,93.91,1,-1,-1,-1
340,2632,119.22,160.04,61.95,188.08,1,-1,-1,-1
341,2596,398.44,172.19,57.35,133.16,1,-1,-1,-1
341,2611,469.16,188.47,54.40,145.49,1,-1,-1,-1
341,2630,174.06,167.34,61.34,186.01,1,-1,-1,-1
341,2631,246.07,205.93,33.00,94.24,1,-1,-1,-1
341,2632,114.75,158.73,62.89,192.74,1,-1,-1,-1
342,2596,398.37,172.01,57.63,133.76,1,-1,-1,-1
342,2611,469.04,188.63,54.54,145.52,1,-1,-1,-1
342,2630,172.21,167.00,61.45,187.90,1,-1,-1,-1
342,2631,245.54,205.89,33.18,94.36,1,-1,-1,-1
342,2632,113.29,158.31,62.93,194.43,1,-1,-1,-1
343,2596,398.80,173.26,56.79,131.35,1,-1,-1,-1
343,2611,469.20,180.66,58.13,152.22,1,-1,-1,-1
343,2630,145.01,156.73,72.51,216.58,1,-1,-1,-1
343,2631,243.50,205.66,33.44,95.09,1,-1,-1,-1
343,2632,95.12,153.16,65.37,198.72,1,-1,-1,-1
344,2596,398.90,173.74,56.56,130.42,1,-1,-1,-1
344,2611,468.94,177.69,60.07,154.71,1,-1,-1,-1
344,2630,134.17,152.82,77.75,227.47,1,-1,-1,-1
344,2632,87.91,151.23,66.81,200.24,1,-1,-1,-1
345,2596,398.88,173.93,56.57,130.08,1,-1,-1,-1
345,2611,468.56,176.54,61.34,155.67,1,-1,-1,-1
345,2630,129.45,151.29,80.69,231.76,1,-1,-1,-1
345,2632,85.07,150.59,67.77,200.65,1,-1,-1,-1
346,2596,401.05,179.29,53.52,122.01,1,-1,-1,-1
346,2611,471.45,182.66,60.94,150.77,1,-1,-1,-1
346,2630,128.00,134.34,90.19,259.77,1,-1,-1,-1
346,2631,239.55,209.39,30.77,85.62,1,-1,-1,-1
346,2632,58.54,144.00,79.47,228.98,1,-1,-1,-1
346,2634,276.00,208.00,28.00,86.00,1,-1,-1,-1
347,2596,401.74,181.34,52.59,118.94,1,-1,-1,-1
347,2611,472.15,185.02,61.54,148.87,1,-1,-1,-1
347,2630,127.52,127.79,93.72,270.58,1,-1,-1,-1
347,2631,239.03,209.87,30.84,84.37,1,-1,-1,-1
347,2632,47.91,141.51,85.14,239.63,1,-1,-1,-1
347,2634,276.00,208.00,28.00,86.00,1,-1,-1,-1
348,2596,401.87,182.05,52.48,117.88,1,-1,-1,-1
348,2611,472.03,185.88,62.47,148.18,1,-1,-1,-1
348,2630,127.64,125.21,94.95,274.75,1,-1,-1,-1
348,2631,238.71,210.03,31.11,83.98,1,-1,-1,-1
348,2632,43.33,140.62,88.42,243.78,1,-1,-1,-1
348,2634,276.00,208.00,28.00,86.00,1,-1,-1,-1
349,2596,397.89,176.90,55.09,122.91,1,-1,-1,-1
349,2611,470.64,190.16,58.80,138.64,1,-1,-1,-1
349,2630,94.83,110.40,109.63,320.36,1,-1,-1,-1
349,2631,223.75,208.74,32.87,87.87,1,-1,-1,-1
349,2632,9.15,122.61,102.90,288.35,1,-1,-1,-1
349,2634,276.00,208.00,28.00,86.00,1,-1,-1,-1
349,2635,238.00,212.00,36.00,88.00,1,-1,-1,-1
350,2596,396.33,175.02,56.26,124.77,1,-1,-1,-1
350,2611,469.98,191.75,57.58,135.03,1,-1,-1,-1
350,2630,82.59,104.70,114.58,337.87,1,-1,-1,-1
350,2631,218.23,208.26,33.67,89.30,1,-1,-1,-1
350,2632,-3.41,115.74,107.36,305.35,1,-1,-1,-1
350,2634,245.65,211.52,28.91,87.76,1,-1,-1,-1
351,2596,395.64,174.29,56.89,125.50,1,-1,-1,-1
351,2611,469.64,192.28,57.32,133.79,1,-1,-1,-1
351,2630,77.95,102.48,115.99,344.85,1,-1,-1,-1
351,2631,216.17,208.07,34.11,89.85,1,-1,-1,-1
351,2632,-7.91,112.98,108.30,312.20,1,-1,-1,-1
351,2634,240.25,212.12,29.39,88.06,1,-1,-1,-1
352,2596,389.63,174.02,60.75,133.70,1,-1,-1,-1
352,2611,460.77,193.78,57.21,133.40,1,-1,-1,-1
352,2630,70.52,97.94,119.79,356.14,1,-1,-1,-1
352,2631,207.14,206.69,35.22,92.69,1,-1,-1,-1
352,2632,-10.37,66.79,133.20,387.47,1,-1,-1,-1
352,2634,242.01,210.90,29.88,89.54,1,-1,-1,-1
352,2636,534.00,214.00,54.00,98.00,1,-1,-1,-1
353,2596,387.36,173.92,62.26,136.75,1,-1,-1,-1
353,2611,457.48,194.29,57.23,133.32,1,-1,-1,-1
353,2631,203.83,206.17,35.65,93.74,1,-1,-1,-1
353,2632,-11.21,49.19,141.92,416.26,1,-1,-1,-1
353,2634,242.92,210.44,30.05,90.06,1,-1,-1,-1
353,2636,534.00,214.00,54.00,98.00,1,-1,-1,-1
354,2596,386.46,173.90,62.90,137.92,1,-1,-1,-1
354,2611,456.28,194.44,57.29,133.34,1,-1,-1,-1
354,2631,202.69,205.98,35.82,94.13,1,-1,-1,-1
354,2632,-10.76,41.75,144.93,428.27,1,-1,-1,-1
354,2634,243.51,210.24,30.10,90.22,1,-1,-1,-1
354,2636,534.00,214.00,54.00,98.00,1,-1,-1,-1
