1,2596,385.51,173.70,63.38,138.96,1,-1,-1,-1
1,2611,455.22,195.37,56.80,132.20,1,-1,-1,-1
1,2631,199.17,205.74,36.05,94.73,1,-1,-1,-1
1,2632,-19.21,33.93,150.12,443.61,1,-1,-1,-1
1,2634,239.71,210.48,30.28,90.76,1,-1,-1,-1
1,2636,534.00,214.00,54.00,98.00,1,-1,-1,-1
16,2637,824.00,162.00,40.00,68.00,1,-1,-1,-1
17,2637,824.00,162.00,40.00,68.00,1,-1,-1,-1
18,2637,824.00,162.00,40.00,68.00,1,-1,-1,-1
19,2637,824.00,162.00,40.00,68.00,1,-1,-1,-1
22,2638,900.00,164.00,56.00,86.00,1,-1,-1,-1
23,2638,900.00,164.00,56.00,86.00,1,-1,-1,-1
24,2638,900.00,164.00,56.00,86.00,1,-1,-1,-1
25,2638,900.00,164.00,56.00,86.00,1,-1,-1,-1
25,2639,986.00,168.00,56.00,108.00,1,-1,-1,-1
25,2640,954.00,174.00,50.00,94.00,1,-1,-1,-1
25,2641,942.00,170.00,44.00,80.00,1,-1,-1,-1
26,2639,986.00,168.00,56.00,108.00,1,-1,-1,-1
26,2640,954.00,174.00,50.00,94.00,1,-1,-1,-1
26,2641,942.00,170.00,44.00,80.00,1,-1,-1,-1
27,2639,986.00,168.00,56.00,108.00,1,-1,-1,-1
27,2640,954.00,174.00,50.00,94.00,1,-1,-1,-1
27,2641,942.00,170.00,44.00,80.00,1,-1,-1,-1
28,2639,986.00,168.00,56.00,108.00,1,-1,-1,-1
28,2640,954.00,174.00,50.00,94.00,1,-1,-1,-1
28,2641,942.00,170.00,44.00,80.00,1,-1,-1,-1
28,2642,1036.00,148.00,72.00,132.00,1,-1,-1,-1
29,2642,1036.00,148.00,72.00,132.00,1,-1,-1,-1
30,2642,1036.00,148.00,72.00,132.00,1,-1,-1,-1
31,2642,1036.00,148.00,72.00,132.00,1,-1,-1,-1
31,2643,1078.00,204.00,40.00,64.00,1,-1,-1,-1
32,2643,1078.00,204.00,40.00,64.00,1,-1,-1,-1
33,2643,1078.00,204.00,40.00,64.00,1,-1,-1,-1
34,2643,1078.00,204.00,40.00,64.00,1,-1,-1,-1
40,2644,954.00,178.00,28.00,50.00,1,-1,-1,-1
40,2645,1040.00,182.00,36.00,66.00,1,-1,-1,-1
41,2644,954.00,178.00,28.00,50.00,1,-1,-1,-1
41,2645,1040.00,182.00,36.00,66.00,1,-1,-1,-1
42,2644,954.00,178.00,28.00,50.00,1,-1,-1,-1
42,2645,1040.00,182.00,36.00,66.00,1,-1,-1,-1
43,2644,954.00,178.00,28.00,50.00,1,-1,-1,-1
43,2645,1040.00,182.00,36.00,66.00,1,-1,-1,-1
43,2646,196.00,172.00,30.00,58.00,1,-1,-1,-1
44,2646,196.00,172.00,30.00,58.00,1,-1,-1,-1
45,2646,196.00,172.00,30.00,58.00,1,-1,-1,-1
46,2646,196.00,172.00,30.00,58.00,1,-1,-1,-1
46,2647,242.00,176.00,50.00,92.00,1,-1,-1,-1
47,2647,242.00,176.00,50.00,92.00,1,-1,-1,-1
48,2647,242.00,176.00,50.00,92.00,1,-1,-1,-1
49,2647,242.00,176.00,50.00,92.00,1,-1,-1,-1
49,2648,34.00,162.00,48.00,90.00,1,-1,-1,-1
49,2649,160.00,174.00,52.00,106.00,1,-1,-1,-1
50,2648,34.00,162.00,48.00,90.00,1,-1,-1,-1
50,2649,160.00,174.00,52.00,106.00,1,-1,-1,-1
51,2648,34.00,162.00,48.00,90.00,1,-1,-1,-1
51,2649,160.00,174.00,52.00,106.00,1,-1,-1,-1
52,2648,34.00,162.00,48.00,90.00,1,-1,-1,-1
52,2649,160.00,174.00,52.00,106.00,1,-1,-1,-1
64,2650,900.00,160.00,30.00,72.00,1,-1,-1,-1
65,2650,900.00,160.00,30.00,72.00,1,-1,-1,-1
66,2650,900.00,160.00,30.00,72.00,1,-1,-1,-1
67,2650,900.00,160.00,30.00,72.00,1,-1,-1,-1
67,2651,810.00,162.00,52.00,84.00,1,-1,-1,-1
67,2652,912.00,162.00,44.00,90.00,1,-1,-1,-1
68,2650,913.26,161.76,36.89,87.83,1,-1,-1,-1
68,2651,810.00,162.00,52.00,84.00,1,-1,-1,-1
69,2650,915.51,162.08,38.42,90.69,1,-1,-1,-1
69,2651,810.00,162.00,52.00,84.00,1,-1,-1,-1
70,2650,916.04,170.13,35.23,82.27,1,-1,-1,-1
70,2651,810.00,162.00,52.00,84.00,1,-1,-1,-1
70,2653,1038.00,214.00,68.00,96.00,1,-1,-1,-1
71,2650,915.84,173.31,34.00,78.54,1,-1,-1,-1
71,2653,1038.00,214.00,68.00,96.00,1,-1,-1,-1
72,2650,915.54,174.37,33.76,77.16,1,-1,-1,-1
72,2653,1038.00,214.00,68.00,96.00,1,-1,-1,-1
73,2648,229.96,183.95,35.28,62.06,1,-1,-1,-1
73,2650,917.62,176.11,34.10,77.92,1,-1,-1,-1
73,2653,1038.00,214.00,68.00,96.00,1,-1,-1,-1
73,2654,926.00,168.00,68.00,112.00,1,-1,-1,-1
74,2648,231.40,184.20,36.61,61.75,1,-1,-1,-1
74,2654,926.00,168.00,68.00,112.00,1,-1,-1,-1
75,2648,231.99,184.32,37.63,61.59,1,-1,-1,-1
75,2654,926.00,168.00,68.00,112.00,1,-1,-1,-1
76,2648,238.80,185.08,37.04,60.63,1,-1,-1,-1
76,2654,926.00,168.00,68.00,112.00,1,-1,-1,-1
76,2655,202.00,172.00,46.00,80.00,1,-1,-1,-1
76,2656,1024.00,156.00,80.00,148.00,1,-1,-1,-1
76,2657,826.00,170.00,38.00,80.00,1,-1,-1,-1
77,2649,204.55,172.00,40.78,80.04,1,-1,-1,-1
77,2656,1024.00,156.00,80.00,148.00,1,-1,-1,-1
77,2657,826.00,170.00,38.00,80.00,1,-1,-1,-1
78,2649,204.52,171.98,41.63,79.77,1,-1,-1,-1
78,2656,1024.00,156.00,80.00,148.00,1,-1,-1,-1
78,2657,826.00,170.00,38.00,80.00,1,-1,-1,-1
79,2649,210.94,171.97,50.06,93.58,1,-1,-1,-1
79,2656,1024.00,156.00,80.00,148.00,1,-1,-1,-1
79,2657,826.00,170.00,38.00,80.00,1,-1,-1,-1
79,2658,954.00,194.00,36.00,56.00,1,-1,-1,-1
79,2659,920.00,190.00,48.00,66.00,1,-1,-1,-1
79,2660,102.00,180.00,56.00,90.00,1,-1,-1,-1
80,2649,212.87,171.97,53.55,98.31,1,-1,-1,-1
80,2658,954.00,194.00,36.00,56.00,1,-1,-1,-1
80,2659,920.00,190.00,48.00,66.00,1,-1,-1,-1
80,2660,102.00,180.00,56.00,90.00,1,-1,-1,-1
81,2649,213.30,171.97,55.32,100.16,1,-1,-1,-1
81,2658,954.00,194.00,36.00,56.00,1,-1,-1,-1
81,2659,920.00,190.00,48.00,66.00,1,-1,-1,-1
81,2660,102.00,180.00,56.00,90.00,1,-1,-1,-1
82,2649,215.60,171.93,56.48,102.26,1,-1,-1,-1
82,2658,954.00,194.00,36.00,56.00,1,-1,-1,-1
82,2659,920.00,190.00,48.00,66.00,1,-1,-1,-1
82,2660,80.04,178.47,60.23,97.63,1,-1,-1,-1
82,2661,144.00,176.00,56.00,104.00,1,-1,-1,-1
82,2662,34.00,182.00,50.00,94.00,1,-1,-1,-1
83,2660,73.22,177.98,61.12,100.08,1,-1,-1,-1
83,2661,144.00,176.00,56.00,104.00,1,-1,-1,-1
83,2662,34.00,182.00,50.00,94.00,1,-1,-1,-1
84,2660,71.43,177.84,60.88,100.82,1,-1,-1,-1
84,2661,144.00,176.00,56.00,104.00,1,-1,-1,-1
84,2662,34.00,182.00,50.00,94.00,1,-1,-1,-1
85,2660,65.01,177.39,62.22,103.03,1,-1,-1,-1
85,2661,144.00,176.00,56.00,104.00,1,-1,-1,-1
85,2662,34.00,182.00,50.00,94.00,1,-1,-1,-1
85,2663,368.00,178.00,28.00,50.00,1,-1,-1,-1
86,2663,368.00,178.00,28.00,50.00,1,-1,-1,-1
87,2663,368.00,178.00,28.00,50.00,1,-1,-1,-1
88,2648,250.22,176.15,32.75,53.96,1,-1,-1,-1
88,2649,233.17,175.72,38.85,69.19,1,-1,-1,-1
88,2660,82.76,168.82,53.56,88.40,1,-1,-1,-1
88,2663,361.21,171.89,40.05,71.37,1,-1,-1,-1
89,2648,250.52,175.90,32.50,53.79,1,-1,-1,-1
89,2649,233.66,176.00,37.68,66.29,1,-1,-1,-1
89,2660,85.32,167.87,52.58,86.51,1,-1,-1,-1
89,2663,358.97,169.91,44.05,78.32,1,-1,-1,-1
90,2648,250.62,175.82,32.36,53.74,1,-1,-1,-1
90,2649,233.87,176.08,37.63,65.59,1,-1,-1,-1
90,2660,85.91,167.57,52.41,85.98,1,-1,-1,-1
90,2663,358.11,169.19,45.57,80.82,1,-1,-1,-1
91,2648,252.23,175.41,32.05,53.21,1,-1,-1,-1
91,2649,235.90,176.33,36.74,64.03,1,-1,-1,-1
91,2660,84.89,166.45,52.07,85.42,1,-1,-1,-1
91,2662,15.44,176.11,49.82,94.00,1,-1,-1,-1
91,2663,356.02,167.31,49.30,87.43,1,-1,-1,-1
91,2664,1048.00,200.00,52.00,92.00,1,-1,-1,-1
91,2665,310.00,170.00,50.00,82.00,1,-1,-1,-1
91,2666,1134.00,206.00,24.00,28.00,1,-1,-1,-1
92,2662,14.63,175.83,49.65,94.00,1,-1,-1,-1
92,2664,1048.00,200.00,52.00,92.00,1,-1,-1,-1
92,2665,310.00,170.00,50.00,82.00,1,-1,-1,-1
92,2666,1134.00,206.00,24.00,28.00,1,-1,-1,-1
93,2662,14.40,175.73,49.50,94.00,1,-1,-1,-1
93,2664,1048.00,200.00,52.00,92.00,1,-1,-1,-1
93,2665,310.00,170.00,50.00,82.00,1,-1,-1,-1
93,2666,1134.00,206.00,24.00,28.00,1,-1,-1,-1
94,2662,12.59,175.16,49.50,94.00,1,-1,-1,-1
94,2664,1063.77,204.58,49.46,87.42,1,-1,-1,-1
94,2665,310.00,170.00,50.00,82.00,1,-1,-1,-1
94,2666,1134.00,206.00,24.00,28.00,1,-1,-1,-1
94,2667,206.00,176.00,66.00,104.00,1,-1,-1,-1
95,2653,1063.62,206.02,58.69,86.02,1,-1,-1,-1
95,2664,1069.27,206.17,48.56,85.83,1,-1,-1,-1
95,2667,206.00,176.00,66.00,104.00,1,-1,-1,-1
96,2653,1064.71,205.91,57.06,85.88,1,-1,-1,-1
96,2661,209.89,176.00,57.30,104.00,1,-1,-1,-1
97,2653,1065.69,205.59,56.79,85.48,1,-1,-1,-1
97,2661,214.96,176.00,57.30,104.00,1,-1,-1,-1
97,2662,13.61,172.16,61.72,118.97,1,-1,-1,-1
97,2668,130.00,176.00,72.00,112.00,1,-1,-1,-1
98,2662,14.05,171.80,62.38,121.83,1,-1,-1,-1
98,2668,130.00,176.00,72.00,112.00,1,-1,-1,-1
99,2662,14.47,171.68,62.21,122.88,1,-1,-1,-1
99,2668,130.00,176.00,72.00,112.00,1,-1,-1,-1
100,2662,13.49,171.05,63.46,125.34,1,-1,-1,-1
100,2668,130.00,176.00,72.00,112.00,1,-1,-1,-1
100,2669,926.00,174.00,32.00,54.00,1,-1,-1,-1
101,2669,926.00,174.00,32.00,54.00,1,-1,-1,-1
102,2669,926.00,174.00,32.00,54.00,1,-1,-1,-1
103,2669,926.00,174.00,32.00,54.00,1,-1,-1,-1
106,2648,213.49,168.01,34.14,57.88,1,-1,-1,-1
106,2670,1178.00,170.00,46.00,102.00,1,-1,-1,-1
107,2648,212.61,167.83,33.78,58.03,1,-1,-1,-1
107,2670,1178.00,170.00,46.00,102.00,1,-1,-1,-1
108,2648,212.42,167.78,33.50,58.08,1,-1,-1,-1
108,2670,1178.00,170.00,46.00,102.00,1,-1,-1,-1
109,2648,210.63,167.36,33.60,58.25,1,-1,-1,-1
109,2670,1178.00,170.00,46.00,102.00,1,-1,-1,-1
112,2671,98.00,144.00,50.00,90.00,1,-1,-1,-1
113,2671,98.00,144.00,50.00,90.00,1,-1,-1,-1
114,2671,98.00,144.00,50.00,90.00,1,-1,-1,-1
115,2662,18.44,150.27,54.84,107.33,1,-1,-1,-1
115,2671,98.00,144.00,50.00,90.00,1,-1,-1,-1
116,2662,18.68,149.80,54.58,106.16,1,-1,-1,-1
117,2662,18.65,149.58,54.67,105.86,1,-1,-1,-1
118,2662,18.79,148.57,54.38,105.30,1,-1,-1,-1
118,2672,912.00,200.00,234.00,168.00,1,-1,-1,-1
119,2672,912.00,200.00,234.00,168.00,1,-1,-1,-1
120,2672,912.00,200.00,234.00,168.00,1,-1,-1,-1
121,2672,912.00,200.00,234.00,168.00,1,-1,-1,-1
124,2673,344.00,180.00,46.00,94.00,1,-1,-1,-1
124,2674,772.00,202.00,126.00,82.00,1,-1,-1,-1
125,2673,344.00,180.00,46.00,94.00,1,-1,-1,-1
125,2674,772.00,202.00,126.00,82.00,1,-1,-1,-1
126,2673,344.00,180.00,46.00,94.00,1,-1,-1,-1
126,2674,772.00,202.00,126.00,82.00,1,-1,-1,-1
127,2672,789.96,201.96,169.91,120.89,1,-1,-1,-1
127,2673,344.00,180.00,46.00,94.00,1,-1,-1,-1
127,2674,772.00,202.00,126.00,82.00,1,-1,-1,-1
128,2672,784.61,202.04,168.74,119.08,1,-1,-1,-1
129,2672,782.03,202.07,168.92,118.32,1,-1,-1,-1
130,2672,771.31,202.24,162.94,114.12,1,-1,-1,-1
130,2675,844.00,230.00,240.00,128.00,1,-1,-1,-1
131,2675,844.00,230.00,240.00,128.00,1,-1,-1,-1
132,2675,844.00,230.00,240.00,128.00,1,-1,-1,-1
133,2675,844.00,230.00,240.00,128.00,1,-1,-1,-1
133,2676,806.00,202.00,152.00,120.00,1,-1,-1,-1
134,2676,806.00,202.00,152.00,120.00,1,-1,-1,-1
135,2676,806.00,202.00,152.00,120.00,1,-1,-1,-1
136,2676,806.00,202.00,152.00,120.00,1,-1,-1,-1
142,2677,84.00,152.00,44.00,108.00,1,-1,-1,-1
143,2677,84.00,152.00,44.00,108.00,1,-1,-1,-1
144,2677,84.00,152.00,44.00,108.00,1,-1,-1,-1
145,2677,84.00,152.00,44.00,108.00,1,-1,-1,-1
148,2674,791.79,231.94,148.30,93.97,1,-1,-1,-1
149,2674,790.79,232.44,151.33,94.18,1,-1,-1,-1
150,2674,789.90,232.60,153.44,94.24,1,-1,-1,-1
151,2674,809.81,245.74,178.00,106.06,1,-1,-1,-1
151,2678,1074.00,204.00,60.00,84.00,1,-1,-1,-1
152,2674,815.80,250.58,189.72,110.42,1,-1,-1,-1
152,2678,1074.00,204.00,60.00,84.00,1,-1,-1,-1
153,2674,817.15,252.46,196.33,112.13,1,-1,-1,-1
153,2678,1074.00,204.00,60.00,84.00,1,-1,-1,-1
154,2674,820.63,255.06,199.68,114.04,1,-1,-1,-1
154,2678,1074.00,204.00,60.00,84.00,1,-1,-1,-1
163,2679,888.00,184.00,52.00,88.00,1,-1,-1,-1
164,2679,888.00,184.00,52.00,88.00,1,-1,-1,-1
165,2679,888.00,184.00,52.00,88.00,1,-1,-1,-1
166,2679,888.00,184.00,52.00,88.00,1,-1,-1,-1
172,2680,1114.00,192.00,76.00,104.00,1,-1,-1,-1
173,2680,1114.00,192.00,76.00,104.00,1,-1,-1,-1
174,2680,1114.00,192.00,76.00,104.00,1,-1,-1,-1
175,2680,1114.00,192.00,76.00,104.00,1,-1,-1,-1
220,2681,756.00,168.00,36.00,84.00,1,-1,-1,-1
220,2682,782.00,164.00,34.00,86.00,1,-1,-1,-1
221,2681,756.00,168.00,36.00,84.00,1,-1,-1,-1
221,2682,782.00,164.00,34.00,86.00,1,-1,-1,-1
222,2681,756.00,168.00,36.00,84.00,1,-1,-1,-1
222,2682,782.00,164.00,34.00,86.00,1,-1,-1,-1
223,2681,756.00,168.00,36.00,84.00,1,-1,-1,-1
223,2682,782.00,164.00,34.00,86.00,1,-1,-1,-1
229,2681,796.74,193.52,46.79,107.55,1,-1,-1,-1
230,2681,798.66,194.92,47.99,108.85,1,-1,-1,-1
231,2681,799.05,195.34,48.75,109.24,1,-1,-1,-1
232,2681,803.25,197.97,49.84,111.66,1,-1,-1,-1
235,2683,1004.00,152.00,150.00,218.00,1,-1,-1,-1
236,2683,1004.00,152.00,150.00,218.00,1,-1,-1,-1
237,2683,1004.00,152.00,150.00,218.00,1,-1,-1,-1
238,2683,1004.00,152.00,150.00,218.00,1,-1,-1,-1
238,2684,1080.00,200.00,144.00,162.00,1,-1,-1,-1
239,2684,1080.00,200.00,144.00,162.00,1,-1,-1,-1
240,2684,1080.00,200.00,144.00,162.00,1,-1,-1,-1
241,2684,1080.00,200.00,144.00,162.00,1,-1,-1,-1
244,2685,1170.00,158.00,54.00,120.00,1,-1,-1,-1
245,2683,1154.91,157.91,80.72,121.43,1,-1,-1,-1
246,2683,1160.18,158.07,76.49,118.82,1,-1,-1,-1
247,2683,1173.91,158.62,70.70,109.82,1,-1,-1,-1
250,2686,434.00,168.00,42.00,82.00,1,-1,-1,-1
251,2686,434.00,168.00,42.00,82.00,1,-1,-1,-1
252,2686,434.00,168.00,42.00,82.00,1,-1,-1,-1
253,2686,447.05,174.11,38.80,75.89,1,-1,-1,-1
253,2687,354.00,178.00,54.00,96.00,1,-1,-1,-1
254,2686,451.24,176.05,37.72,73.95,1,-1,-1,-1
254,2687,354.00,178.00,54.00,96.00,1,-1,-1,-1
255,2686,452.36,176.56,37.37,73.44,1,-1,-1,-1
255,2687,354.00,178.00,54.00,96.00,1,-1,-1,-1
256,2686,455.95,178.24,36.52,71.76,1,-1,-1,-1
256,2687,343.91,173.42,55.86,100.58,1,-1,-1,-1
256,2688,406.00,178.00,38.00,90.00,1,-1,-1,-1
256,2689,362.00,180.00,34.00,76.00,1,-1,-1,-1
256,2690,432.00,180.00,34.00,72.00,1,-1,-1,-1
256,2691,292.00,170.00,58.00,106.00,1,-1,-1,-1
257,2687,340.98,171.95,55.84,102.05,1,-1,-1,-1
257,2688,406.00,178.00,38.00,90.00,1,-1,-1,-1
257,2689,362.00,180.00,34.00,76.00,1,-1,-1,-1
257,2690,432.00,180.00,34.00,72.00,1,-1,-1,-1
257,2691,292.00,170.00,58.00,106.00,1,-1,-1,-1
258,2686,434.06,180.16,36.25,71.64,1,-1,-1,-1
258,2687,340.48,171.52,55.13,102.48,1,-1,-1,-1
258,2688,406.00,178.00,38.00,90.00,1,-1,-1,-1
258,2689,362.00,180.00,34.00,76.00,1,-1,-1,-1
258,2691,292.00,170.00,58.00,106.00,1,-1,-1,-1
259,2686,433.00,181.62,35.66,70.47,1,-1,-1,-1
259,2687,327.72,182.52,56.82,106.70,1,-1,-1,-1
259,2688,405.20,179.53,38.07,90.00,1,-1,-1,-1
259,2689,362.00,180.00,34.00,76.00,1,-1,-1,-1
259,2691,292.00,170.00,58.00,106.00,1,-1,-1,-1
259,2692,382.00,190.00,44.00,100.00,1,-1,-1,-1
259,2693,204.00,178.00,66.00,154.00,1,-1,-1,-1
260,2687,323.43,186.51,57.00,108.18,1,-1,-1,-1
260,2688,404.91,180.02,38.16,90.00,1,-1,-1,-1
260,2692,382.00,190.00,44.00,100.00,1,-1,-1,-1
260,2693,204.00,178.00,66.00,154.00,1,-1,-1,-1
261,2687,322.22,187.99,56.63,108.66,1,-1,-1,-1
261,2688,404.80,180.15,38.26,90.00,1,-1,-1,-1
261,2689,380.25,189.29,43.93,98.28,1,-1,-1,-1
261,2693,204.00,178.00,66.00,154.00,1,-1,-1,-1
262,2687,317.90,189.44,57.47,110.26,1,-1,-1,-1
262,2688,404.58,180.58,38.26,90.00,1,-1,-1,-1
262,2689,384.13,191.26,46.05,103.03,1,-1,-1,-1
262,2693,204.00,178.00,66.00,154.00,1,-1,-1,-1
262,2694,356.00,176.00,46.00,102.00,1,-1,-1,-1
263,2694,356.00,176.00,46.00,102.00,1,-1,-1,-1
264,2694,356.00,176.00,46.00,102.00,1,-1,-1,-1
265,2694,348.69,177.53,46.88,103.53,1,-1,-1,-1
265,2695,864.00,166.00,52.00,116.00,1,-1,-1,-1
266,2694,346.27,178.02,47.32,104.02,1,-1,-1,-1
266,2695,864.00,166.00,52.00,116.00,1,-1,-1,-1
267,2694,345.49,178.15,47.63,104.15,1,-1,-1,-1
267,2695,864.00,166.00,52.00,116.00,1,-1,-1,-1
268,2694,343.44,178.59,47.83,104.59,1,-1,-1,-1
268,2695,875.43,158.37,47.45,105.31,1,-1,-1,-1
268,2696,910.00,156.00,48.00,114.00,1,-1,-1,-1
268,2697,970.00,154.00,74.00,150.00,1,-1,-1,-1
269,2695,878.98,155.93,46.19,101.91,1,-1,-1,-1
269,2696,910.00,156.00,48.00,114.00,1,-1,-1,-1
269,2697,970.00,154.00,74.00,150.00,1,-1,-1,-1
270,2695,879.77,155.32,46.10,101.04,1,-1,-1,-1
270,2696,910.00,156.00,48.00,114.00,1,-1,-1,-1
270,2697,970.00,154.00,74.00,150.00,1,-1,-1,-1
271,2695,882.95,153.23,44.76,98.12,1,-1,-1,-1
271,2696,910.00,156.00,48.00,114.00,1,-1,-1,-1
271,2697,970.00,154.00,74.00,150.00,1,-1,-1,-1
277,2698,332.00,184.00,52.00,80.00,1,-1,-1,-1
278,2693,338.90,183.98,37.34,80.26,1,-1,-1,-1
279,2693,339.29,184.04,39.17,79.46,1,-1,-1,-1
280,2693,348.36,179.68,39.13,74.47,1,-1,-1,-1
280,2699,318.00,180.00,52.00,76.00,1,-1,-1,-1
281,2693,350.29,178.21,40.33,73.09,1,-1,-1,-1
281,2699,318.00,180.00,52.00,76.00,1,-1,-1,-1
282,2693,350.07,177.78,41.77,72.84,1,-1,-1,-1
282,2699,318.00,180.00,52.00,76.00,1,-1,-1,-1
283,2689,341.36,182.94,42.88,92.09,1,-1,-1,-1
283,2693,355.35,176.90,40.25,70.20,1,-1,-1,-1
283,2699,318.00,180.00,52.00,76.00,1,-1,-1,-1
284,2689,338.54,182.07,43.13,90.21,1,-1,-1,-1
285,2689,337.57,181.91,43.79,89.89,1,-1,-1,-1
286,2687,381.20,178.36,47.22,92.44,1,-1,-1,-1
286,2689,335.96,181.55,43.52,89.35,1,-1,-1,-1
286,2691,360.58,175.99,52.66,100.01,1,-1,-1,-1
287,2687,383.10,177.97,46.35,91.93,1,-1,-1,-1
287,2691,362.02,176.06,51.31,99.94,1,-1,-1,-1
288,2687,383.89,177.84,45.85,91.75,1,-1,-1,-1
288,2691,362.76,176.09,50.38,99.91,1,-1,-1,-1
289,2687,386.16,177.41,45.52,91.09,1,-1,-1,-1
289,2691,364.77,176.26,50.29,99.74,1,-1,-1,-1
313,2700,6.00,138.00,174.00,230.00,1,-1,-1,-1
314,2700,6.00,138.00,174.00,230.00,1,-1,-1,-1
315,2700,6.00,138.00,174.00,230.00,1,-1,-1,-1
316,2700,6.00,138.00,174.00,230.00,1,-1,-1,-1
319,2701,210.00,120.00,48.00,94.00,1,-1,-1,-1
320,2701,210.00,120.00,48.00,94.00,1,-1,-1,-1
321,2701,210.00,120.00,48.00,94.00,1,-1,-1,-1
322,2701,210.00,120.00,48.00,94.00,1,-1,-1,-1
337,2702,948.00,184.00,34.00,64.00,1,-1,-1,-1
338,2702,948.00,184.00,34.00,64.00,1,-1,-1,-1
339,2702,948.00,184.00,34.00,64.00,1,-1,-1,-1
340,2702,942.81,164.16,47.44,89.95,1,-1,-1,-1
