1,2702,940.96,157.25,52.21,98.98,1,-1,-1,-1
13,2703,574.00,142.00,114.00,222.00,1,-1,-1,-1
14,2703,574.00,142.00,114.00,222.00,1,-1,-1,-1
15,2703,574.00,142.00,114.00,222.00,1,-1,-1,-1
16,2703,605.85,145.05,112.88,218.95,1,-1,-1,-1
17,2703,615.85,146.03,112.90,217.97,1,-1,-1,-1
18,2703,618.40,146.30,113.34,217.70,1,-1,-1,-1
19,2703,643.73,147.75,115.62,220.47,1,-1,-1,-1
20,2703,652.01,148.23,117.02,221.48,1,-1,-1,-1
21,2703,654.19,148.36,118.10,221.85,1,-1,-1,-1
22,2703,664.50,149.13,118.16,221.96,1,-1,-1,-1
22,2704,996.00,160.00,146.00,210.00,1,-1,-1,-1
23,2704,996.00,160.00,146.00,210.00,1,-1,-1,-1
24,2704,996.00,160.00,146.00,210.00,1,-1,-1,-1
25,2703,717.31,151.94,116.61,216.64,1,-1,-1,-1
25,2704,996.00,160.00,146.00,210.00,1,-1,-1,-1
26,2703,722.36,152.23,117.43,216.04,1,-1,-1,-1
27,2703,723.73,152.33,118.35,215.84,1,-1,-1,-1
28,2703,762.67,141.68,120.96,225.11,1,-1,-1,-1
28,2705,818.00,144.00,140.00,220.00,1,-1,-1,-1
29,2703,777.49,137.73,120.54,228.55,1,-1,-1,-1
29,2705,818.00,144.00,140.00,220.00,1,-1,-1,-1
30,2703,815.54,141.48,120.11,223.29,1,-1,-1,-1
30,2705,777.20,137.76,143.64,227.80,1,-1,-1,-1
31,2703,825.10,137.66,126.09,230.51,1,-1,-1,-1
31,2705,760.07,135.19,145.67,231.02,1,-1,-1,-1
31,2706,492.00,138.00,42.00,94.00,1,-1,-1,-1
32,2703,827.68,136.27,129.46,233.17,1,-1,-1,-1
32,2706,492.00,138.00,42.00,94.00,1,-1,-1,-1
33,2703,827.54,135.77,131.73,234.14,1,-1,-1,-1
33,2706,492.00,138.00,42.00,94.00,1,-1,-1,-1
34,2703,874.49,140.86,131.92,227.91,1,-1,-1,-1
34,2706,492.00,138.00,42.00,94.00,1,-1,-1,-1
35,2703,890.94,142.86,133.80,225.46,1,-1,-1,-1
36,2703,895.58,143.61,136.23,224.53,1,-1,-1,-1
37,2703,946.25,138.59,138.78,229.48,1,-1,-1,-1
37,2707,478.00,122.00,120.00,240.00,1,-1,-1,-1
38,2703,964.79,136.72,139.49,231.33,1,-1,-1,-1
38,2707,478.00,122.00,120.00,240.00,1,-1,-1,-1
39,2703,971.21,136.02,139.53,232.01,1,-1,-1,-1
39,2707,478.00,122.00,120.00,240.00,1,-1,-1,-1
40,2703,1035.60,139.73,140.49,226.98,1,-1,-1,-1
40,2707,478.00,122.00,120.00,240.00,1,-1,-1,-1
41,2703,1058.31,141.18,142.86,225.03,1,-1,-1,-1
42,2703,1064.97,141.72,145.62,224.30,1,-1,-1,-1
43,2703,1086.74,141.77,145.48,224.09,1,-1,-1,-1
43,2705,567.78,131.76,146.42,236.29,1,-1,-1,-1
44,2705,564.41,131.76,144.35,236.32,1,-1,-1,-1
45,2705,563.34,131.73,142.65,236.36,1,-1,-1,-1
46,2705,549.86,131.23,143.07,237.05,1,-1,-1,-1
46,2708,558.00,140.00,32.00,82.00,1,-1,-1,-1
46,2709,634.00,128.00,136.00,234.00,1,-1,-1,-1
47,2708,558.00,140.00,32.00,82.00,1,-1,-1,-1
47,2709,634.00,128.00,136.00,234.00,1,-1,-1,-1
48,2707,640.53,127.93,119.05,234.07,1,-1,-1,-1
48,2708,558.00,140.00,32.00,82.00,1,-1,-1,-1
49,2707,656.36,128.50,118.76,233.50,1,-1,-1,-1
49,2708,565.44,143.05,29.33,74.37,1,-1,-1,-1
50,2708,567.70,144.03,28.71,71.93,1,-1,-1,-1
51,2708,568.13,144.27,28.84,71.32,1,-1,-1,-1
52,2704,717.24,128.04,148.23,231.97,1,-1,-1,-1
52,2708,564.92,144.31,29.66,71.22,1,-1,-1,-1
53,2704,717.72,127.63,140.06,232.26,1,-1,-1,-1
53,2708,563.44,144.29,30.58,71.28,1,-1,-1,-1
54,2704,719.51,127.50,134.28,232.34,1,-1,-1,-1
54,2708,562.58,144.25,31.52,71.37,1,-1,-1,-1
55,2704,710.71,126.51,134.67,233.02,1,-1,-1,-1
55,2708,567.53,141.48,33.62,75.56,1,-1,-1,-1
55,2710,812.00,128.00,156.00,236.00,1,-1,-1,-1
56,2708,569.21,140.48,34.55,77.08,1,-1,-1,-1
56,2710,812.00,128.00,156.00,236.00,1,-1,-1,-1
57,2707,825.54,128.16,125.81,235.77,1,-1,-1,-1
57,2708,569.72,140.10,35.06,77.68,1,-1,-1,-1
58,2707,862.81,122.61,131.47,238.67,1,-1,-1,-1
58,2708,564.88,141.29,37.28,81.88,1,-1,-1,-1
58,2711,592.00,142.00,50.00,84.00,1,-1,-1,-1
59,2707,874.42,120.76,135.25,239.63,1,-1,-1,-1
59,2708,562.95,141.73,38.31,83.44,1,-1,-1,-1
59,2711,592.00,142.00,50.00,84.00,1,-1,-1,-1
60,2707,877.34,120.08,138.07,239.98,1,-1,-1,-1
60,2708,562.08,141.91,38.88,84.03,1,-1,-1,-1
60,2711,592.00,142.00,50.00,84.00,1,-1,-1,-1
61,2707,934.55,117.20,141.48,246.70,1,-1,-1,-1
61,2708,563.62,140.67,36.63,79.00,1,-1,-1,-1
61,2711,599.12,140.47,47.97,80.95,1,-1,-1,-1
62,2707,955.59,116.14,142.53,249.21,1,-1,-1,-1
62,2708,564.20,140.19,35.77,77.00,1,-1,-1,-1
62,2711,601.48,139.99,47.15,79.97,1,-1,-1,-1
63,2707,962.86,115.76,142.73,250.14,1,-1,-1,-1
63,2708,564.38,140.01,35.49,76.27,1,-1,-1,-1
63,2711,602.22,139.85,46.72,79.71,1,-1,-1,-1
64,2707,995.41,111.71,147.15,251.76,1,-1,-1,-1
64,2708,564.69,139.86,35.38,76.04,1,-1,-1,-1
64,2711,608.01,138.42,49.47,85.32,1,-1,-1,-1
65,2707,1006.15,110.20,150.53,252.33,1,-1,-1,-1
65,2711,610.17,137.93,50.03,87.28,1,-1,-1,-1
66,2707,1008.64,109.67,153.31,252.51,1,-1,-1,-1
66,2711,611.04,137.78,49.86,88.00,1,-1,-1,-1
67,2707,1028.11,108.57,153.94,253.54,1,-1,-1,-1
67,2711,611.29,139.08,49.71,88.24,1,-1,-1,-1
68,2711,611.37,139.59,49.47,88.30,1,-1,-1,-1
69,2711,611.40,139.80,49.20,88.29,1,-1,-1,-1
70,2711,612.90,139.66,49.48,88.80,1,-1,-1,-1
73,2712,560.00,138.00,42.00,86.00,1,-1,-1,-1
74,2708,560.99,138.01,40.21,85.70,1,-1,-1,-1
75,2708,560.71,137.94,40.65,86.11,1,-1,-1,-1
76,2708,565.03,137.92,41.06,88.84,1,-1,-1,-1
77,2708,566.87,137.92,40.81,89.87,1,-1,-1,-1
78,2708,567.74,137.92,40.38,90.24,1,-1,-1,-1
79,2708,568.11,137.80,40.72,91.00,1,-1,-1,-1
79,2713,612.00,138.00,42.00,90.00,1,-1,-1,-1
80,2713,612.00,138.00,42.00,90.00,1,-1,-1,-1
81,2713,612.00,138.00,42.00,90.00,1,-1,-1,-1
82,2713,607.40,136.47,43.58,93.05,1,-1,-1,-1
83,2713,605.85,135.98,44.22,94.03,1,-1,-1,-1
84,2713,605.33,135.84,44.55,94.31,1,-1,-1,-1
85,2713,604.04,135.41,44.96,95.19,1,-1,-1,-1
88,2713,603.19,132.19,48.76,103.44,1,-1,-1,-1
89,2713,603.14,131.84,49.09,104.33,1,-1,-1,-1
90,2713,603.16,131.73,49.15,104.62,1,-1,-1,-1
91,2711,792.59,149.89,66.36,125.79,1,-1,-1,-1
91,2713,602.43,131.15,49.79,105.99,1,-1,-1,-1
92,2711,797.60,150.13,64.33,126.56,1,-1,-1,-1
93,2711,799.64,150.21,62.74,126.79,1,-1,-1,-1
94,2711,807.10,150.64,63.50,128.34,1,-1,-1,-1
94,2713,609.43,135.20,47.21,101.23,1,-1,-1,-1
95,2713,610.49,135.75,46.59,100.52,1,-1,-1,-1
96,2713,610.91,135.93,46.24,100.31,1,-1,-1,-1
97,2713,611.12,135.97,46.39,100.64,1,-1,-1,-1
100,2713,614.47,137.78,46.43,100.19,1,-1,-1,-1
100,2714,742.00,150.00,40.00,104.00,1,-1,-1,-1
101,2713,614.77,138.00,46.60,100.12,1,-1,-1,-1
101,2714,742.00,150.00,40.00,104.00,1,-1,-1,-1
102,2713,614.82,138.07,46.76,100.09,1,-1,-1,-1
102,2714,742.00,150.00,40.00,104.00,1,-1,-1,-1
103,2708,650.35,145.92,50.18,113.97,1,-1,-1,-1
103,2713,619.56,136.77,47.92,102.73,1,-1,-1,-1
103,2714,746.30,150.00,40.56,105.53,1,-1,-1,-1
104,2708,652.11,146.09,49.84,114.30,1,-1,-1,-1
104,2713,621.34,136.27,48.32,103.71,1,-1,-1,-1
104,2714,747.69,150.00,40.71,106.02,1,-1,-1,-1
105,2708,652.78,146.15,49.57,114.41,1,-1,-1,-1
105,2713,621.99,136.08,48.44,104.06,1,-1,-1,-1
105,2714,748.10,150.00,40.73,106.15,1,-1,-1,-1
106,2708,647.99,139.56,56.65,128.92,1,-1,-1,-1
106,2713,622.97,136.03,48.66,104.53,1,-1,-1,-1
106,2714,749.32,150.00,40.90,106.59,1,-1,-1,-1
107,2708,646.06,137.14,59.62,134.26,1,-1,-1,-1
108,2708,645.03,136.17,61.04,136.34,1,-1,-1,-1
109,2708,646.59,135.47,62.21,138.96,1,-1,-1,-1
112,2708,652.32,139.11,63.40,146.11,1,-1,-1,-1
113,2708,653.63,139.64,62.15,146.87,1,-1,-1,-1
114,2708,654.45,139.82,60.99,147.14,1,-1,-1,-1
115,2708,655.83,139.70,61.90,149.34,1,-1,-1,-1
142,2715,972.00,156.00,116.00,214.00,1,-1,-1,-1
143,2708,979.63,155.87,96.77,213.98,1,-1,-1,-1
144,2708,982.81,156.17,101.62,214.73,1,-1,-1,-1
145,2708,995.01,156.79,102.66,216.92,1,-1,-1,-1
145,2716,1058.00,160.00,148.00,208.00,1,-1,-1,-1
