137,1324,878.00,150.00,90.00,206.00,1,-1,-1,-1
138,1324,878.00,150.00,90.00,206.00,1,-1,-1,-1
139,1324,878.00,150.00,90.00,206.00,1,-1,-1,-1
140,1324,878.00,150.00,90.00,206.00,1,-1,-1,-1
141,1324,878.00,150.00,90.00,206.00,1,-1,-1,-1
