1,1330,340.82,98.83,84.60,255.14,1,-1,-1,-1
1,1337,448.80,98.20,74.16,239.95,1,-1,-1,-1
1,1338,553.89,210.59,55.14,148.69,1,-1,-1,-1
1,1339,548.00,98.00,60.00,180.00,1,-1,-1,-1
1,1340,180.00,88.00,70.00,254.00,1,-1,-1,-1
1,1341,98.00,78.00,62.00,244.00,1,-1,-1,-1
2,1330,344.79,88.88,85.49,257.67,1,-1,-1,-1
2,1337,455.05,96.96,75.70,240.26,1,-1,-1,-1
2,1339,548.00,98.00,60.00,180.00,1,-1,-1,-1
2,1340,180.00,88.00,70.00,254.00,1,-1,-1,-1
2,1341,98.00,78.00,62.00,244.00,1,-1,-1,-1
3,1330,346.07,85.40,85.84,258.56,1,-1,-1,-1
3,1337,456.76,96.56,76.78,240.36,1,-1,-1,-1
3,1339,548.00,98.00,60.00,180.00,1,-1,-1,-1
3,1340,180.00,88.00,70.00,254.00,1,-1,-1,-1
3,1341,98.00,78.00,62.00,244.00,1,-1,-1,-1
4,1330,346.25,84.36,85.97,258.83,1,-1,-1,-1
4,1337,456.49,96.54,77.57,240.36,1,-1,-1,-1
4,1339,548.00,98.00,60.00,180.00,1,-1,-1,-1
4,1340,180.00,88.00,70.00,254.00,1,-1,-1,-1
4,1341,98.00,78.00,62.00,244.00,1,-1,-1,-1
5,1330,353.94,90.79,83.26,247.09,1,-1,-1,-1
5,1337,460.22,95.32,76.83,235.04,1,-1,-1,-1
5,1339,550.08,98.00,60.27,180.00,1,-1,-1,-1
5,1340,200.58,93.90,65.72,237.77,1,-1,-1,-1
5,1341,86.79,95.70,60.81,235.15,1,-1,-1,-1
6,1330,356.26,93.67,82.71,242.46,1,-1,-1,-1
6,1337,460.75,94.98,76.95,232.99,1,-1,-1,-1
6,1339,550.67,98.00,60.57,180.00,1,-1,-1,-1
6,1340,207.42,95.88,64.41,232.33,1,-1,-1,-1
6,1341,82.65,101.63,61.19,232.18,1,-1,-1,-1
7,1330,356.62,94.92,83.00,240.75,1,-1,-1,-1
7,1337,460.28,94.95,77.35,232.23,1,-1,-1,-1
7,1339,550.73,98.00,60.89,180.00,1,-1,-1,-1
7,1340,209.32,96.45,64.19,230.75,1,-1,-1,-1
7,1341,80.98,103.39,62.18,231.30,1,-1,-1,-1
8,1330,356.30,95.55,83.55,240.13,1,-1,-1,-1
8,1337,459.52,95.01,77.81,231.96,1,-1,-1,-1
8,1339,550.62,98.00,61.22,180.00,1,-1,-1,-1
8,1340,209.64,96.58,64.32,230.42,1,-1,-1,-1
8,1341,80.12,103.78,63.38,231.11,1,-1,-1,-1
9,1330,361.72,91.89,83.41,239.73,1,-1,-1,-1
9,1337,461.08,92.45,76.16,229.22,1,-1,-1,-1
9,1339,549.71,99.36,60.30,175.91,1,-1,-1,-1
9,1340,218.24,93.79,63.60,222.18,1,-1,-1,-1
9,1341,61.20,102.35,61.44,224.27,1,-1,-1,-1
10,1337,461.46,91.56,75.20,228.20,1,-1,-1,-1
10,1339,549.21,99.87,60.25,174.40,1,-1,-1,-1
10,1340,220.63,92.71,64.33,219.39,1,-1,-1,-1
10,1341,54.44,101.63,60.73,221.87,1,-1,-1,-1
11,1337,461.45,91.30,74.54,227.84,1,-1,-1,-1
11,1339,548.87,100.04,60.53,173.88,1,-1,-1,-1
11,1340,220.80,92.31,65.58,218.57,1,-1,-1,-1
11,1341,52.25,101.26,60.46,221.12,1,-1,-1,-1
12,1337,461.32,91.26,74.03,227.74,1,-1,-1,-1
12,1339,548.60,100.09,60.90,173.72,1,-1,-1,-1
12,1340,220.22,92.16,66.97,218.43,1,-1,-1,-1
12,1341,51.68,101.03,60.36,220.96,1,-1,-1,-1
13,1330,382.89,81.59,80.54,234.35,1,-1,-1,-1
13,1337,479.08,96.61,72.24,219.76,1,-1,-1,-1
13,1339,544.13,100.10,60.40,172.35,1,-1,-1,-1
13,1340,230.29,101.56,65.56,211.75,1,-1,-1,-1
13,1341,37.61,96.83,60.15,220.99,1,-1,-1,-1
14,1330,384.84,80.88,79.57,233.88,1,-1,-1,-1
14,1337,485.33,98.71,71.97,216.76,1,-1,-1,-1
14,1339,542.47,100.10,60.21,171.87,1,-1,-1,-1
14,1340,233.65,105.03,65.43,209.44,1,-1,-1,-1
14,1341,32.65,95.21,59.97,221.08,1,-1,-1,-1
15,1330,385.72,80.63,78.85,233.72,1,-1,-1,-1
15,1337,487.18,99.49,72.25,215.72,1,-1,-1,-1
15,1339,541.88,100.09,60.13,171.72,1,-1,-1,-1
15,1340,234.52,106.23,65.76,208.74,1,-1,-1,-1
15,1341,31.09,94.58,59.81,221.19,1,-1,-1,-1
16,1330,386.04,80.64,78.27,233.68,1,-1,-1,-1
16,1337,487.45,99.79,72.70,215.40,1,-1,-1,-1
16,1339,541.69,100.08,60.10,171.69,1,-1,-1,-1
16,1340,234.51,106.60,66.23,208.61,1,-1,-1,-1
16,1341,30.78,94.33,59.66,221.28,1,-1,-1,-1
17,1330,387.97,84.72,82.07,244.31,1,-1,-1,-1
17,1337,494.57,99.90,73.02,211.34,1,-1,-1,-1
17,1339,534.91,98.74,64.26,183.68,1,-1,-1,-1
17,1340,250.91,98.63,68.20,214.04,1,-1,-1,-1
17,1341,26.32,94.65,59.35,220.12,1,-1,-1,-1
17,1342,126.00,66.00,74.00,192.00,1,-1,-1,-1
18,1330,388.53,86.28,83.61,248.25,1,-1,-1,-1
18,1337,496.55,99.95,74.03,209.88,1,-1,-1,-1
18,1339,532.44,98.24,65.76,188.09,1,-1,-1,-1
18,1340,256.76,95.66,69.09,216.11,1,-1,-1,-1
18,1342,126.00,66.00,74.00,192.00,1,-1,-1,-1
19,1330,388.54,86.96,84.31,249.76,1,-1,-1,-1
19,1337,496.66,99.97,75.21,209.40,1,-1,-1,-1
19,1339,531.53,98.05,66.31,189.79,1,-1,-1,-1
19,1340,258.70,94.53,69.57,216.96,1,-1,-1,-1
19,1342,126.00,66.00,74.00,192.00,1,-1,-1,-1
20,1330,388.37,87.27,84.66,250.29,1,-1,-1,-1
20,1337,496.14,99.98,76.38,209.29,1,-1,-1,-1
20,1339,531.25,97.98,66.49,190.39,1,-1,-1,-1
20,1340,259.17,94.10,69.88,217.32,1,-1,-1,-1
20,1342,126.00,66.00,74.00,192.00,1,-1,-1,-1
21,1330,397.35,86.11,83.53,246.52,1,-1,-1,-1
21,1337,498.06,98.65,77.58,213.30,1,-1,-1,-1
21,1339,529.66,96.65,68.30,197.12,1,-1,-1,-1
21,1340,265.59,91.30,73.03,225.44,1,-1,-1,-1
21,1341,4.13,121.70,54.82,199.43,1,-1,-1,-1
21,1342,126.00,66.00,74.00,192.00,1,-1,-1,-1
21,1343,178.00,102.00,52.00,150.00,1,-1,-1,-1
22,1330,400.62,85.71,83.16,245.03,1,-1,-1,-1
22,1337,498.70,98.16,77.89,214.83,1,-1,-1,-1
22,1339,529.24,96.15,68.68,199.63,1,-1,-1,-1
22,1340,267.71,90.27,74.52,228.48,1,-1,-1,-1
22,1341,2.08,124.13,55.21,197.65,1,-1,-1,-1
22,1343,178.00,102.00,52.00,150.00,1,-1,-1,-1
23,1330,401.68,85.60,83.08,244.46,1,-1,-1,-1
23,1337,498.85,97.98,77.89,215.44,1,-1,-1,-1
23,1339,529.26,95.96,68.54,200.53,1,-1,-1,-1
23,1340,268.21,89.89,75.37,229.64,1,-1,-1,-1
23,1341,1.13,124.91,55.79,197.06,1,-1,-1,-1
23,1343,178.00,102.00,52.00,150.00,1,-1,-1,-1
24,1330,401.93,85.59,83.11,244.23,1,-1,-1,-1
24,1337,498.82,97.92,77.78,215.69,1,-1,-1,-1
24,1339,529.43,95.90,68.23,200.81,1,-1,-1,-1
24,1340,268.11,89.77,75.93,230.07,1,-1,-1,-1
24,1341,0.75,125.11,56.39,196.93,1,-1,-1,-1
24,1343,178.00,102.00,52.00,150.00,1,-1,-1,-1
25,1330,421.79,89.58,76.40,226.95,1,-1,-1,-1
25,1337,498.87,99.23,73.42,206.54,1,-1,-1,-1
25,1339,530.96,97.19,67.86,199.54,1,-1,-1,-1
25,1340,277.72,98.94,70.99,213.12,1,-1,-1,-1
25,1341,-2.72,127.29,55.81,194.88,1,-1,-1,-1
25,1343,174.33,96.10,53.44,154.43,1,-1,-1,-1
26,1330,429.44,91.16,73.43,220.30,1,-1,-1,-1
26,1337,498.99,99.74,71.24,203.07,1,-1,-1,-1
26,1339,531.56,97.70,67.74,198.99,1,-1,-1,-1
26,1340,281.05,102.53,69.37,206.52,1,-1,-1,-1
26,1343,173.14,94.13,53.85,155.90,1,-1,-1,-1
27,1330,432.20,91.73,72.01,217.99,1,-1,-1,-1
27,1337,499.19,99.92,69.97,201.85,1,-1,-1,-1
27,1339,531.80,97.89,67.71,198.73,1,-1,-1,-1
27,1340,281.95,103.80,69.11,204.21,1,-1,-1,-1
27,1343,172.81,93.51,53.90,156.36,1,-1,-1,-1
28,1330,433.20,91.94,71.18,217.23,1,-1,-1,-1
28,1337,499.41,99.99,69.07,201.46,1,-1,-1,-1
28,1339,531.90,97.97,67.71,198.59,1,-1,-1,-1
28,1340,282.00,104.23,69.32,203.43,1,-1,-1,-1
28,1343,172.77,93.37,53.82,156.47,1,-1,-1,-1
29,1330,432.23,85.31,74.57,226.42,1,-1,-1,-1
29,1337,501.10,100.04,68.60,200.11,1,-1,-1,-1
29,1339,536.66,100.63,66.20,191.92,1,-1,-1,-1
29,1340,291.30,107.03,69.29,203.22,1,-1,-1,-1
29,1343,170.72,94.74,55.23,160.53,1,-1,-1,-1
30,1330,431.68,82.88,76.03,229.83,1,-1,-1,-1
30,1339,538.32,101.64,65.99,189.32,1,-1,-1,-1
30,1340,294.61,108.04,69.33,203.21,1,-1,-1,-1
30,1343,169.98,95.28,55.76,161.99,1,-1,-1,-1
31,1330,431.22,81.98,76.79,231.17,1,-1,-1,-1
31,1339,538.74,102.01,66.27,188.36,1,-1,-1,-1
31,1340,295.67,108.37,69.38,203.26,1,-1,-1,-1
31,1343,169.74,95.53,55.94,162.48,1,-1,-1,-1
32,1330,430.85,81.68,77.24,231.69,1,-1,-1,-1
32,1339,538.72,102.13,66.70,188.02,1,-1,-1,-1
32,1340,295.90,108.45,69.44,203.34,1,-1,-1,-1
32,1343,169.69,95.65,56.00,162.60,1,-1,-1,-1
33,1330,439.76,85.55,78.88,234.53,1,-1,-1,-1
33,1339,540.85,106.14,66.55,185.24,1,-1,-1,-1
33,1340,304.00,107.12,70.45,203.41,1,-1,-1,-1
33,1343,168.92,95.17,56.41,163.77,1,-1,-1,-1
34,1330,442.85,87.04,79.88,235.60,1,-1,-1,-1
34,1339,541.42,107.64,66.93,184.21,1,-1,-1,-1
34,1340,306.64,106.59,71.36,203.48,1,-1,-1,-1
35,1330,443.74,87.62,80.58,235.99,1,-1,-1,-1
35,1339,541.40,108.17,67.48,183.85,1,-1,-1,-1
35,1340,307.25,106.36,72.18,203.54,1,-1,-1,-1
36,1330,443.81,87.84,81.15,236.13,1,-1,-1,-1
36,1339,541.20,108.33,68.05,183.74,1,-1,-1,-1
36,1340,307.13,106.26,72.93,203.60,1,-1,-1,-1
37,1330,453.58,93.20,78.77,222.99,1,-1,-1,-1
37,1339,543.90,105.70,69.30,187.71,1,-1,-1,-1
37,1340,318.03,108.86,69.59,191.72,1,-1,-1,-1
38,1330,456.67,95.27,78.88,217.92,1,-1,-1,-1
38,1339,544.95,104.71,69.65,189.20,1,-1,-1,-1
38,1340,321.79,109.83,68.77,187.23,1,-1,-1,-1
39,1330,457.16,95.99,79.93,216.12,1,-1,-1,-1
39,1339,545.37,104.31,69.67,189.77,1,-1,-1,-1
39,1340,322.78,110.15,68.93,185.68,1,-1,-1,-1
40,1330,456.76,96.23,81.24,215.52,1,-1,-1,-1
40,1339,545.55,104.15,69.58,189.98,1,-1,-1,-1
40,1340,322.81,110.25,69.41,185.20,1,-1,-1,-1
41,1330,457.68,100.30,79.37,211.35,1,-1,-1,-1
41,1339,545.77,106.73,69.20,194.01,1,-1,-1,-1
41,1340,338.87,102.23,70.70,189.11,1,-1,-1,-1
42,1330,457.97,101.79,78.54,209.86,1,-1,-1,-1
42,1339,546.33,107.69,68.04,195.52,1,-1,-1,-1
42,1340,344.73,99.27,71.09,190.61,1,-1,-1,-1
43,1330,458.05,102.30,78.11,209.37,1,-1,-1,-1
43,1339,546.98,108.04,66.69,196.07,1,-1,-1,-1
43,1340,346.80,98.16,71.17,191.23,1,-1,-1,-1
44,1330,458.05,102.45,77.84,209.26,1,-1,-1,-1
44,1339,547.61,108.16,65.35,196.26,1,-1,-1,-1
44,1340,347.42,97.78,71.13,191.49,1,-1,-1,-1
45,1330,469.64,98.47,78.41,209.28,1,-1,-1,-1
45,1339,546.51,108.19,63.55,192.36,1,-1,-1,-1
45,1340,354.92,97.66,70.82,190.30,1,-1,-1,-1
46,1330,473.74,96.95,78.94,209.34,1,-1,-1,-1
46,1339,546.20,108.18,62.59,190.84,1,-1,-1,-1
46,1340,357.53,97.65,70.78,189.87,1,-1,-1,-1
47,1330,475.02,96.37,79.42,209.41,1,-1,-1,-1
47,1339,546.20,108.17,61.99,190.27,1,-1,-1,-1
47,1340,358.31,97.67,70.84,189.74,1,-1,-1,-1
48,1330,475.26,96.14,79.86,209.48,1,-1,-1,-1
48,1339,546.31,108.15,61.55,190.06,1,-1,-1,-1
48,1340,358.42,97.70,70.94,189.71,1,-1,-1,-1
49,1330,478.35,98.71,80.45,209.54,1,-1,-1,-1
49,1339,543.25,106.81,63.60,196.60,1,-1,-1,-1
49,1340,378.74,99.06,69.85,188.40,1,-1,-1,-1
50,1330,479.26,99.67,80.98,209.59,1,-1,-1,-1
50,1339,542.13,106.31,64.32,199.04,1,-1,-1,-1
50,1340,386.40,99.59,69.13,187.93,1,-1,-1,-1
51,1330,479.36,100.02,81.46,209.64,1,-1,-1,-1
51,1339,541.73,106.11,64.56,199.96,1,-1,-1,-1
51,1340,389.20,99.80,68.58,187.77,1,-1,-1,-1
52,1330,479.17,100.14,81.90,209.68,1,-1,-1,-1
52,1339,541.61,106.03,64.60,200.27,1,-1,-1,-1
52,1340,390.18,99.88,68.13,187.74,1,-1,-1,-1
53,1330,509.73,98.84,78.88,201.78,1,-1,-1,-1
53,1339,541.24,106.01,64.86,201.06,1,-1,-1,-1
53,1340,395.81,93.30,72.94,199.67,1,-1,-1,-1
54,1330,521.22,98.33,77.77,198.80,1,-1,-1,-1
54,1340,397.67,90.87,75.00,204.07,1,-1,-1,-1
55,1330,525.21,98.14,77.42,197.76,1,-1,-1,-1
55,1340,398.08,89.95,76.03,205.77,1,-1,-1,-1
56,1330,526.45,98.07,77.34,197.44,1,-1,-1,-1
56,1340,397.95,89.64,76.62,206.37,1,-1,-1,-1
57,1330,528.66,96.70,76.08,194.70,1,-1,-1,-1
57,1340,405.78,92.17,75.16,200.01,1,-1,-1,-1
58,1330,529.31,96.19,75.53,193.74,1,-1,-1,-1
58,1340,408.39,93.19,75.02,197.50,1,-1,-1,-1
59,1330,529.41,96.01,75.26,193.44,1,-1,-1,-1
59,1340,409.00,93.59,75.38,196.56,1,-1,-1,-1
60,1330,529.33,95.95,75.10,193.38,1,-1,-1,-1
60,1340,408.89,93.75,75.89,196.20,1,-1,-1,-1
61,1330,534.99,98.59,74.04,189.42,1,-1,-1,-1
61,1340,407.59,95.15,77.00,196.06,1,-1,-1,-1
62,1330,536.83,99.59,73.91,187.98,1,-1,-1,-1
62,1340,406.67,95.68,78.03,196.01,1,-1,-1,-1
63,1330,537.27,99.95,74.11,187.50,1,-1,-1,-1
63,1340,405.94,95.89,78.97,196.00,1,-1,-1,-1
64,1330,537.20,100.08,74.41,187.38,1,-1,-1,-1
64,1340,405.32,95.97,79.83,195.99,1,-1,-1,-1
65,1330,544.03,101.44,73.90,186.06,1,-1,-1,-1
65,1339,441.82,100.13,56.87,176.76,1,-1,-1,-1
65,1340,404.19,95.99,77.81,190.70,1,-1,-1,-1
66,1330,546.47,101.94,73.73,185.61,1,-1,-1,-1
66,1339,438.64,99.94,56.48,175.85,1,-1,-1,-1
66,1340,403.63,96.00,77.12,188.69,1,-1,-1,-1
67,1330,547.25,102.11,73.70,185.49,1,-1,-1,-1
67,1339,437.51,99.87,56.30,175.54,1,-1,-1,-1
67,1340,403.33,96.01,76.94,187.97,1,-1,-1,-1
68,1330,547.42,102.16,73.71,185.49,1,-1,-1,-1
68,1339,437.32,99.85,56.22,175.48,1,-1,-1,-1
68,1340,403.15,96.01,76.94,187.74,1,-1,-1,-1
69,1330,550.06,104.82,72.33,184.20,1,-1,-1,-1
69,1339,446.11,101.21,56.43,175.50,1,-1,-1,-1
69,1340,395.97,97.34,71.14,177.05,1,-1,-1,-1
70,1330,551.18,105.81,71.37,183.75,1,-1,-1,-1
70,1339,449.52,101.72,56.62,175.55,1,-1,-1,-1
70,1340,393.52,97.84,68.27,173.02,1,-1,-1,-1
71,1330,551.71,106.15,70.61,183.62,1,-1,-1,-1
71,1339,450.86,101.91,56.78,175.60,1,-1,-1,-1
71,1340,392.98,98.02,66.60,171.65,1,-1,-1,-1
72,1330,552.01,106.26,69.96,183.60,1,-1,-1,-1
72,1339,451.40,101.98,56.92,175.65,1,-1,-1,-1
72,1340,393.10,98.07,65.42,171.22,1,-1,-1,-1
73,1330,550.66,95.67,72.51,194.23,1,-1,-1,-1
73,1339,455.66,100.68,56.96,177.03,1,-1,-1,-1
73,1340,379.37,96.75,65.80,175.16,1,-1,-1,-1
73,1344,170.00,92.00,56.00,164.00,1,-1,-1,-1
74,1330,550.55,91.75,72.60,198.17,1,-1,-1,-1
74,1339,457.40,100.19,56.79,177.56,1,-1,-1,-1
74,1340,374.65,96.25,65.33,176.66,1,-1,-1,-1
74,1344,170.00,92.00,56.00,164.00,1,-1,-1,-1
75,1330,550.82,90.25,71.89,199.68,1,-1,-1,-1
75,1339,458.16,100.01,56.55,177.77,1,-1,-1,-1
75,1340,373.22,96.07,64.63,177.27,1,-1,-1,-1
75,1344,170.00,92.00,56.00,164.00,1,-1,-1,-1
76,1330,551.21,89.71,70.94,200.23,1,-1,-1,-1
76,1339,458.55,99.95,56.31,177.86,1,-1,-1,-1
76,1340,373.03,96.00,63.88,177.54,1,-1,-1,-1
76,1344,170.00,92.00,56.00,164.00,1,-1,-1,-1
77,1330,550.58,96.10,66.79,192.54,1,-1,-1,-1
77,1339,463.69,101.25,58.16,181.87,1,-1,-1,-1
77,1340,369.49,97.30,64.11,177.66,1,-1,-1,-1
77,1344,174.52,94.95,55.82,164.00,1,-1,-1,-1
78,1330,550.65,98.61,64.48,189.53,1,-1,-1,-1
78,1339,465.47,101.75,59.15,183.38,1,-1,-1,-1
78,1340,368.20,97.79,64.30,177.72,1,-1,-1,-1
78,1344,176.09,95.94,55.62,164.00,1,-1,-1,-1
79,1330,550.98,99.54,62.96,188.42,1,-1,-1,-1
79,1339,466.00,101.94,59.79,183.94,1,-1,-1,-1
79,1340,367.76,97.97,64.47,177.77,1,-1,-1,-1
79,1344,176.65,96.24,55.41,164.00,1,-1,-1,-1
80,1330,551.39,99.89,61.80,188.02,1,-1,-1,-1
80,1339,466.06,102.00,60.27,184.14,1,-1,-1,-1
80,1340,367.63,98.03,64.62,177.80,1,-1,-1,-1
80,1344,176.87,96.31,55.19,164.00,1,-1,-1,-1
81,1330,548.19,103.99,60.06,185.23,1,-1,-1,-1
81,1339,465.76,107.30,58.40,178.93,1,-1,-1,-1
81,1340,363.96,103.34,61.50,168.57,1,-1,-1,-1
81,1344,176.83,97.66,53.87,159.91,1,-1,-1,-1
81,1345,484.00,98.00,60.00,186.00,1,-1,-1,-1
82,1330,547.19,105.53,59.00,184.19,1,-1,-1,-1
82,1339,465.66,109.31,57.61,176.92,1,-1,-1,-1
82,1340,362.61,105.36,60.43,165.06,1,-1,-1,-1
82,1344,176.75,98.13,53.42,158.40,1,-1,-1,-1
82,1345,484.00,98.00,60.00,186.00,1,-1,-1,-1
83,1330,547.01,106.08,58.22,183.83,1,-1,-1,-1
83,1339,465.65,110.03,57.24,176.18,1,-1,-1,-1
83,1340,362.14,106.07,60.17,163.84,1,-1,-1,-1
83,1344,176.67,98.27,53.30,157.88,1,-1,-1,-1
83,1345,484.00,98.00,60.00,186.00,1,-1,-1,-1
84,1330,547.13,106.26,57.59,183.73,1,-1,-1,-1
84,1339,465.66,110.27,57.04,175.92,1,-1,-1,-1
84,1340,361.98,106.30,60.19,163.45,1,-1,-1,-1
84,1344,176.60,98.29,53.30,157.72,1,-1,-1,-1
84,1345,484.00,98.00,60.00,186.00,1,-1,-1,-1
85,1330,540.45,104.97,56.23,177.07,1,-1,-1,-1
85,1339,465.95,110.99,56.91,175.52,1,-1,-1,-1
85,1340,357.26,102.34,58.99,156.68,1,-1,-1,-1
85,1344,177.89,102.30,51.98,153.67,1,-1,-1,-1
85,1345,492.94,100.95,59.83,183.05,1,-1,-1,-1
86,1330,537.75,104.45,56.08,174.59,1,-1,-1,-1
86,1340,355.25,100.82,59.20,154.21,1,-1,-1,-1
86,1344,178.33,103.77,51.53,152.18,1,-1,-1,-1
86,1345,495.62,101.94,60.38,182.06,1,-1,-1,-1
87,1330,536.63,104.25,56.38,173.72,1,-1,-1,-1
87,1340,354.28,100.26,59.92,153.39,1,-1,-1,-1
87,1344,178.45,104.27,51.41,151.69,1,-1,-1,-1
87,1345,496.11,102.24,61.19,181.76,1,-1,-1,-1
88,1330,536.10,104.16,56.82,173.46,1,-1,-1,-1
88,1340,353.72,100.06,60.76,153.17,1,-1,-1,-1
88,1344,178.46,104.41,51.40,151.54,1,-1,-1,-1
88,1345,495.85,102.30,62.11,181.70,1,-1,-1,-1
89,1330,535.13,104.37,56.42,172.23,1,-1,-1,-1
89,1340,352.55,101.33,60.47,153.16,1,-1,-1,-1
89,1344,178.93,105.29,51.08,150.60,1,-1,-1,-1
89,1345,503.90,100.93,63.76,181.71,1,-1,-1,-1
90,1340,352.25,101.80,60.23,153.22,1,-1,-1,-1
90,1345,506.23,100.40,65.39,181.74,1,-1,-1,-1
91,1340,352.26,101.97,60.02,153.30,1,-1,-1,-1
91,1345,506.47,100.19,66.98,181.77,1,-1,-1,-1
92,1340,352.38,102.03,59.83,153.38,1,-1,-1,-1
92,1345,505.97,100.11,68.50,181.80,1,-1,-1,-1
93,1340,350.50,99.39,62.38,158.77,1,-1,-1,-1
93,1345,523.35,104.08,65.79,171.13,1,-1,-1,-1
93,1346,320.00,104.00,62.00,156.00,1,-1,-1,-1
94,1339,329.02,104.40,52.62,156.47,1,-1,-1,-1
94,1340,349.70,98.41,63.59,160.79,1,-1,-1,-1
94,1345,529.45,105.58,65.46,167.11,1,-1,-1,-1
95,1339,322.54,104.05,53.77,155.71,1,-1,-1,-1
95,1340,349.33,98.04,64.27,161.57,1,-1,-1,-1
95,1345,531.12,106.09,66.04,165.73,1,-1,-1,-1
96,1339,320.00,103.94,54.79,155.44,1,-1,-1,-1
96,1340,349.13,97.91,64.73,161.87,1,-1,-1,-1
96,1345,531.24,106.25,66.91,165.31,1,-1,-1,-1
97,1339,317.52,105.25,54.90,155.39,1,-1,-1,-1
97,1340,352.10,101.83,62.84,159.35,1,-1,-1,-1
97,1344,181.62,102.33,52.68,153.65,1,-1,-1,-1
97,1345,528.31,103.60,68.83,166.56,1,-1,-1,-1
98,1339,316.91,105.74,55.02,155.42,1,-1,-1,-1
98,1340,353.49,103.32,61.67,158.39,1,-1,-1,-1
98,1344,181.52,102.14,53.19,153.84,1,-1,-1,-1
98,1345,526.69,102.60,70.36,167.09,1,-1,-1,-1
99,1339,316.96,105.93,55.13,155.48,1,-1,-1,-1
99,1340,354.23,103.88,60.82,158.04,1,-1,-1,-1
99,1344,181.37,102.08,53.57,153.91,1,-1,-1,-1
99,1345,525.60,102.22,71.67,167.33,1,-1,-1,-1
100,1339,317.22,106.00,55.23,155.54,1,-1,-1,-1
100,1340,354.71,104.07,60.12,157.92,1,-1,-1,-1
100,1344,181.23,102.05,53.88,153.94,1,-1,-1,-1
100,1345,524.77,102.07,72.83,167.47,1,-1,-1,-1
101,1330,501.69,115.85,51.33,152.09,1,-1,-1,-1
101,1339,313.93,99.36,55.83,160.92,1,-1,-1,-1
101,1340,356.87,106.78,57.26,153.91,1,-1,-1,-1
101,1344,181.83,99.39,53.98,152.64,1,-1,-1,-1
101,1345,529.87,100.69,72.90,168.88,1,-1,-1,-1
102,1330,500.23,116.19,52.24,151.57,1,-1,-1,-1
102,1339,313.19,96.91,55.38,162.93,1,-1,-1,-1
102,1340,358.03,107.79,55.50,152.41,1,-1,-1,-1
102,1344,181.91,98.39,54.29,152.15,1,-1,-1,-1
102,1345,531.86,100.18,72.64,169.44,1,-1,-1,-1
103,1330,499.50,116.30,53.00,151.38,1,-1,-1,-1
103,1339,313.40,95.99,54.63,163.70,1,-1,-1,-1
103,1340,358.78,108.14,54.23,151.88,1,-1,-1,-1
103,1344,181.81,98.02,54.64,151.97,1,-1,-1,-1
103,1345,532.65,99.99,72.28,169.67,1,-1,-1,-1
104,1330,499.14,116.32,53.64,151.36,1,-1,-1,-1
104,1339,313.91,95.68,53.83,163.99,1,-1,-1,-1
104,1340,359.34,108.25,53.19,151.71,1,-1,-1,-1
104,1344,181.66,97.90,54.97,151.91,1,-1,-1,-1
104,1345,532.99,99.93,71.91,169.77,1,-1,-1,-1
105,1330,495.40,117.63,51.89,146.06,1,-1,-1,-1
105,1339,311.07,98.23,53.31,162.77,1,-1,-1,-1
105,1340,359.64,108.27,51.30,149.02,1,-1,-1,-1
105,1344,180.53,97.86,55.89,153.22,1,-1,-1,-1
105,1345,538.97,106.52,65.20,156.59,1,-1,-1,-1
106,1330,494.06,118.10,51.30,144.13,1,-1,-1,-1
106,1339,310.18,99.24,53.05,162.30,1,-1,-1,-1
106,1340,360.00,108.25,50.11,148.03,1,-1,-1,-1
106,1344,179.98,97.86,56.47,153.72,1,-1,-1,-1
106,1345,541.41,109.08,62.10,151.54,1,-1,-1,-1
107,1330,493.62,118.24,51.16,143.49,1,-1,-1,-1
107,1339,310.00,99.63,52.90,162.12,1,-1,-1,-1
107,1340,360.36,108.22,49.23,147.71,1,-1,-1,-1
107,1344,179.67,97.87,56.88,153.91,1,-1,-1,-1
107,1345,542.46,109.96,60.50,149.82,1,-1,-1,-1
108,1330,493.51,118.27,51.17,143.32,1,-1,-1,-1
108,1339,310.08,99.79,52.79,162.05,1,-1,-1,-1
108,1340,360.69,108.20,48.50,147.62,1,-1,-1,-1
108,1344,179.46,97.88,57.22,153.98,1,-1,-1,-1
108,1345,543.01,110.25,59.48,149.27,1,-1,-1,-1
109,1330,493.84,118.26,51.92,141.98,1,-1,-1,-1
109,1339,307.79,97.22,53.63,164.66,1,-1,-1,-1
109,1340,360.63,104.19,48.63,150.27,1,-1,-1,-1
109,1344,178.95,99.21,56.89,152.69,1,-1,-1,-1
109,1345,545.41,108.98,58.60,150.49,1,-1,-1,-1
110,1330,493.72,118.23,52.82,141.54,1,-1,-1,-1
110,1339,307.02,96.26,53.95,165.64,1,-1,-1,-1
110,1340,360.81,102.69,48.27,151.29,1,-1,-1,-1
110,1344,178.71,99.73,56.84,152.20,1,-1,-1,-1
110,1345,546.61,108.49,57.56,151.00,1,-1,-1,-1
111,1330,493.45,118.21,53.71,141.42,1,-1,-1,-1
111,1339,306.83,95.91,54.06,166.01,1,-1,-1,-1
111,1340,361.06,102.12,47.78,151.68,1,-1,-1,-1
111,1344,178.59,99.92,56.89,152.02,1,-1,-1,-1
111,1345,547.32,108.29,56.53,151.25,1,-1,-1,-1
112,1330,493.15,118.18,54.54,141.43,1,-1,-1,-1
112,1339,306.85,95.80,54.09,166.13,1,-1,-1,-1
112,1340,361.32,101.92,47.27,151.84,1,-1,-1,-1
112,1344,178.51,99.99,56.98,151.95,1,-1,-1,-1
112,1345,547.82,108.20,55.56,151.39,1,-1,-1,-1
113,1330,493.56,114.17,56.55,144.14,1,-1,-1,-1
113,1339,306.54,98.41,52.25,160.89,1,-1,-1,-1
113,1340,361.26,101.59,47.24,151.73,1,-1,-1,-1
113,1344,179.56,100.01,57.49,153.26,1,-1,-1,-1
113,1345,546.39,112.14,54.36,147.50,1,-1,-1,-1
113,1347,454.00,120.00,58.00,138.00,1,-1,-1,-1
114,1330,493.47,112.67,57.83,145.17,1,-1,-1,-1
114,1339,306.56,99.43,51.46,158.87,1,-1,-1,-1
114,1344,179.95,100.02,57.70,153.75,1,-1,-1,-1
114,1345,545.73,113.61,54.05,146.08,1,-1,-1,-1
114,1347,454.00,120.00,58.00,138.00,1,-1,-1,-1
115,1330,493.24,112.11,58.77,145.59,1,-1,-1,-1
115,1339,306.66,99.81,51.11,158.14,1,-1,-1,-1
115,1344,180.09,100.02,57.79,153.94,1,-1,-1,-1
115,1345,545.40,114.13,54.06,145.60,1,-1,-1,-1
115,1347,454.00,120.00,58.00,138.00,1,-1,-1,-1
116,1330,492.96,111.91,59.53,145.76,1,-1,-1,-1
116,1339,306.78,99.95,50.93,157.88,1,-1,-1,-1
116,1344,180.13,100.02,57.83,154.01,1,-1,-1,-1
116,1345,545.20,114.29,54.18,145.47,1,-1,-1,-1
116,1347,454.00,120.00,58.00,138.00,1,-1,-1,-1
117,1330,496.28,113.17,56.97,140.55,1,-1,-1,-1
117,1339,305.57,100.00,50.78,157.43,1,-1,-1,-1
117,1340,406.86,116.44,41.97,135.52,1,-1,-1,-1
117,1344,180.35,101.34,57.44,152.71,1,-1,-1,-1
117,1345,545.78,114.96,53.78,144.40,1,-1,-1,-1
117,1347,449.64,118.52,57.86,139.48,1,-1,-1,-1
118,1330,497.67,113.67,55.79,138.58,1,-1,-1,-1
118,1340,411.24,117.88,41.32,134.00,1,-1,-1,-1
118,1344,180.40,101.84,57.33,152.22,1,-1,-1,-1
118,1347,448.49,118.03,57.23,139.97,1,-1,-1,-1
119,1330,498.27,113.86,55.17,137.89,1,-1,-1,-1
119,1340,412.70,118.33,41.01,133.51,1,-1,-1,-1
119,1344,180.40,102.02,57.33,152.03,1,-1,-1,-1
119,1347,448.44,117.88,56.39,140.12,1,-1,-1,-1
120,1330,498.58,113.93,54.77,137.66,1,-1,-1,-1
120,1340,413.13,118.46,40.84,133.38,1,-1,-1,-1
120,1344,180.37,102.08,57.37,151.97,1,-1,-1,-1
120,1347,448.79,117.85,55.49,140.15,1,-1,-1,-1
121,1330,499.64,113.96,52.72,133.62,1,-1,-1,-1
121,1340,414.73,115.79,41.64,136.07,1,-1,-1,-1
121,1344,180.61,95.47,58.20,157.24,1,-1,-1,-1
121,1347,447.78,117.53,55.61,140.47,1,-1,-1,-1
122,1330,500.14,113.97,51.74,132.14,1,-1,-1,-1
122,1340,415.23,114.77,41.93,137.09,1,-1,-1,-1
122,1344,181.02,93.01,57.86,159.21,1,-1,-1,-1
123,1330,500.42,113.98,51.20,131.64,1,-1,-1,-1
123,1340,415.30,114.37,42.03,137.51,1,-1,-1,-1
123,1344,181.46,92.08,57.16,159.95,1,-1,-1,-1
124,1330,500.60,113.98,50.82,131.50,1,-1,-1,-1
124,1340,415.22,114.20,42.07,137.69,1,-1,-1,-1
124,1344,181.88,91.76,56.38,160.21,1,-1,-1,-1
125,1330,498.78,108.65,54.46,142.16,1,-1,-1,-1
125,1339,278.13,82.65,58.69,184.87,1,-1,-1,-1
125,1340,413.80,114.13,43.36,140.42,1,-1,-1,-1
125,1344,184.89,89.04,55.61,160.28,1,-1,-1,-1
126,1330,498.26,106.71,55.51,146.05,1,-1,-1,-1
126,1339,277.15,81.77,58.42,186.27,1,-1,-1,-1
126,1340,413.08,114.10,44.09,141.46,1,-1,-1,-1
126,1344,186.25,88.03,54.90,160.29,1,-1,-1,-1
127,1330,498.17,105.97,55.69,147.57,1,-1,-1,-1
127,1339,277.01,81.48,57.99,186.75,1,-1,-1,-1
127,1340,412.63,114.08,44.59,141.85,1,-1,-1,-1
127,1344,186.93,87.69,54.24,160.27,1,-1,-1,-1
128,1330,498.25,105.72,55.53,148.13,1,-1,-1,-1
128,1339,277.16,81.40,57.55,186.87,1,-1,-1,-1
128,1340,412.30,114.07,44.96,141.99,1,-1,-1,-1
128,1344,187.35,87.59,53.65,160.24,1,-1,-1,-1
129,1330,497.30,109.58,54.81,145.70,1,-1,-1,-1
129,1339,278.34,80.12,56.59,185.55,1,-1,-1,-1
129,1340,411.08,118.01,44.57,139.41,1,-1,-1,-1
129,1344,188.03,88.91,52.35,157.58,1,-1,-1,-1
130,1330,496.89,111.09,54.63,144.74,1,-1,-1,-1
130,1339,279.00,79.66,55.94,184.99,1,-1,-1,-1
130,1340,410.45,119.51,44.63,138.42,1,-1,-1,-1
130,1344,188.37,89.44,51.64,156.55,1,-1,-1,-1
131,1330,496.69,111.66,54.64,144.36,1,-1,-1,-1
131,1339,279.43,79.53,55.46,184.73,1,-1,-1,-1
131,1340,410.09,120.05,44.85,138.06,1,-1,-1,-1
131,1344,188.59,89.66,51.18,156.17,1,-1,-1,-1
132,1330,496.59,111.88,54.73,144.20,1,-1,-1,-1
132,1339,279.75,79.52,55.07,184.59,1,-1,-1,-1
132,1340,409.83,120.22,45.12,137.93,1,-1,-1,-1
132,1344,188.74,89.76,50.84,156.02,1,-1,-1,-1
133,1330,496.40,111.89,54.80,144.40,1,-1,-1,-1
133,1339,282.20,88.75,52.98,173.98,1,-1,-1,-1
133,1340,404.34,116.29,45.37,139.22,1,-1,-1,-1
133,1344,188.10,92.46,49.44,152.00,1,-1,-1,-1
133,1347,456.57,106.13,58.15,149.91,1,-1,-1,-1
134,1339,282.98,92.36,52.64,169.84,1,-1,-1,-1
134,1340,402.31,114.80,45.37,139.71,1,-1,-1,-1
134,1344,187.86,93.49,48.87,150.48,1,-1,-1,-1
134,1347,457.36,105.78,57.34,150.19,1,-1,-1,-1
135,1339,283.05,93.66,52.99,168.35,1,-1,-1,-1
135,1340,401.58,114.24,45.29,139.90,1,-1,-1,-1
135,1344,187.79,93.88,48.63,149.94,1,-1,-1,-1
135,1347,457.83,105.66,56.66,150.28,1,-1,-1,-1
136,1339,282.89,94.12,53.54,167.83,1,-1,-1,-1
136,1340,401.36,114.03,45.19,139.97,1,-1,-1,-1
136,1344,187.77,94.01,48.51,149.77,1,-1,-1,-1
136,1347,458.15,105.65,56.09,150.30,1,-1,-1,-1
137,1339,280.74,94.26,53.97,166.34,1,-1,-1,-1
137,1340,398.88,111.31,46.00,142.64,1,-1,-1,-1
137,1344,186.65,94.06,49.37,152.38,1,-1,-1,-1
137,1347,459.13,104.35,55.44,148.96,1,-1,-1,-1
138,1339,279.72,94.28,54.60,165.81,1,-1,-1,-1
138,1340,397.98,110.30,46.28,143.64,1,-1,-1,-1
138,1344,186.23,94.07,49.70,153.38,1,-1,-1,-1
138,1347,459.53,103.88,55.12,148.43,1,-1,-1,-1
139,1339,279.15,94.27,55.27,165.65,1,-1,-1,-1
139,1340,397.66,109.93,46.36,144.01,1,-1,-1,-1
139,1344,186.07,94.07,49.83,153.76,1,-1,-1,-1
139,1347,459.69,103.73,54.93,148.22,1,-1,-1,-1
140,1339,278.77,94.25,55.90,165.62,1,-1,-1,-1
140,1340,397.58,109.81,46.37,144.13,1,-1,-1,-1
140,1344,186.01,94.06,49.89,153.91,1,-1,-1,-1
140,1347,459.77,103.70,54.81,148.14,1,-1,-1,-1
141,1339,274.11,90.23,57.25,168.30,1,-1,-1,-1
141,1340,397.22,107.15,48.38,148.12,1,-1,-1,-1
141,1344,183.17,94.06,50.28,155.29,1,-1,-1,-1
141,1347,459.39,101.07,55.54,150.74,1,-1,-1,-1
142,1339,272.27,88.73,58.00,169.32,1,-1,-1,-1
142,1340,396.90,106.16,49.53,149.60,1,-1,-1,-1
142,1344,182.12,94.05,50.40,155.80,1,-1,-1,-1
142,1347,459.31,100.10,55.69,151.71,1,-1,-1,-1
143,1339,271.50,88.16,58.50,169.72,1,-1,-1,-1
143,1340,396.62,105.81,50.31,150.15,1,-1,-1,-1
143,1344,181.75,94.04,50.42,156.00,1,-1,-1,-1
143,1347,459.32,99.76,55.63,152.07,1,-1,-1,-1
144,1339,271.15,87.95,58.88,169.87,1,-1,-1,-1
144,1340,396.37,105.70,50.92,150.32,1,-1,-1,-1
144,1344,181.64,94.04,50.40,156.06,1,-1,-1,-1
144,1347,459.36,99.66,55.51,152.18,1,-1,-1,-1
145,1330,377.10,119.84,52.75,138.18,1,-1,-1,-1
145,1339,268.71,87.89,58.43,169.94,1,-1,-1,-1
145,1340,397.11,108.31,49.52,147.73,1,-1,-1,-1
145,1344,179.17,94.03,50.01,154.76,1,-1,-1,-1
145,1347,459.47,103.60,53.95,148.26,1,-1,-1,-1
146,1330,373.06,120.10,52.88,137.95,1,-1,-1,-1
146,1339,267.95,87.87,58.01,169.96,1,-1,-1,-1
146,1340,397.54,109.33,48.70,146.71,1,-1,-1,-1
146,1344,178.24,94.03,49.87,154.26,1,-1,-1,-1
146,1347,459.54,105.14,53.29,146.74,1,-1,-1,-1
147,1330,371.60,120.19,53.01,137.87,1,-1,-1,-1
147,1339,267.81,87.88,57.63,169.97,1,-1,-1,-1
147,1340,397.83,109.73,48.15,146.32,1,-1,-1,-1
147,1344,177.91,94.03,49.83,154.07,1,-1,-1,-1
147,1347,459.59,105.71,52.98,146.18,1,-1,-1,-1
148,1330,371.28,120.21,53.13,137.86,1,-1,-1,-1
148,1339,267.90,87.89,57.28,169.98,1,-1,-1,-1
148,1340,398.06,109.88,47.71,146.16,1,-1,-1,-1
148,1344,177.81,94.02,49.82,154.00,1,-1,-1,-1
148,1347,459.63,105.93,52.82,145.98,1,-1,-1,-1
149,1330,366.92,121.53,50.19,133.87,1,-1,-1,-1
149,1339,267.71,97.15,53.72,160.73,1,-1,-1,-1
149,1340,402.59,113.91,45.28,140.81,1,-1,-1,-1
149,1344,180.79,99.31,49.12,150.01,1,-1,-1,-1
149,1347,456.99,104.68,52.77,148.56,1,-1,-1,-1
150,1330,365.87,122.01,48.48,132.37,1,-1,-1,-1
150,1339,267.79,100.70,52.14,157.20,1,-1,-1,-1
150,1340,404.50,115.44,44.01,138.77,1,-1,-1,-1
150,1344,181.80,101.31,49.16,148.50,1,-1,-1,-1
150,1347,456.27,104.21,52.22,149.54,1,-1,-1,-1
151,1330,365.97,122.17,47.32,131.86,1,-1,-1,-1
151,1339,267.96,101.96,51.37,155.96,1,-1,-1,-1
151,1340,405.34,115.99,43.23,138.04,1,-1,-1,-1
151,1344,182.04,102.03,49.45,147.96,1,-1,-1,-1
151,1347,456.24,104.03,51.54,149.90,1,-1,-1,-1
152,1330,366.43,122.21,46.44,131.69,1,-1,-1,-1
152,1339,268.14,102.37,50.91,155.55,1,-1,-1,-1
152,1340,405.78,116.17,42.65,137.79,1,-1,-1,-1
152,1344,182.00,102.27,49.83,147.79,1,-1,-1,-1
152,1347,456.45,103.97,50.85,150.04,1,-1,-1,-1
153,1330,364.11,119.53,46.12,133.00,1,-1,-1,-1
153,1339,267.35,103.82,49.84,152.78,1,-1,-1,-1
153,1340,408.18,113.56,43.27,140.38,1,-1,-1,-1
153,1344,178.44,99.67,50.40,150.40,1,-1,-1,-1
153,1347,454.47,103.95,50.79,150.08,1,-1,-1,-1
153,1348,46.00,118.00,58.00,166.00,1,-1,-1,-1
154,1330,363.58,118.53,45.61,133.51,1,-1,-1,-1
154,1339,267.13,104.31,49.37,151.80,1,-1,-1,-1
154,1340,409.11,112.57,43.40,141.37,1,-1,-1,-1
154,1344,177.20,98.68,50.45,151.39,1,-1,-1,-1
154,1347,453.76,103.95,50.72,150.09,1,-1,-1,-1
154,1348,46.00,118.00,58.00,166.00,1,-1,-1,-1
155,1330,363.71,118.15,45.08,133.72,1,-1,-1,-1
155,1339,267.11,104.45,49.13,151.49,1,-1,-1,-1
155,1340,409.48,112.19,43.37,141.75,1,-1,-1,-1
155,1344,176.82,98.29,50.33,151.77,1,-1,-1,-1
155,1347,453.53,103.95,50.65,150.08,1,-1,-1,-1
155,1348,46.00,118.00,58.00,166.00,1,-1,-1,-1
156,1330,364.04,118.01,44.59,133.81,1,-1,-1,-1
156,1339,267.16,104.46,48.98,151.42,1,-1,-1,-1
156,1340,409.63,112.05,43.28,141.90,1,-1,-1,-1
156,1344,176.76,98.14,50.15,151.92,1,-1,-1,-1
156,1347,453.48,103.96,50.59,150.08,1,-1,-1,-1
156,1348,46.00,118.00,58.00,166.00,1,-1,-1,-1
157,1330,363.10,117.96,44.13,133.85,1,-1,-1,-1
157,1339,266.71,105.30,48.63,150.34,1,-1,-1,-1
157,1340,410.68,112.00,43.86,144.60,1,-1,-1,-1
157,1344,181.15,99.40,50.53,151.98,1,-1,-1,-1
157,1347,451.80,103.96,51.29,151.39,1,-1,-1,-1
157,1348,46.00,118.00,58.00,166.00,1,-1,-1,-1
157,1349,324.00,116.00,42.00,138.00,1,-1,-1,-1
157,1350,82.00,86.00,60.00,196.00,1,-1,-1,-1
158,1330,362.97,117.95,43.72,133.88,1,-1,-1,-1
158,1340,411.12,111.98,43.95,145.61,1,-1,-1,-1
158,1344,182.72,99.87,50.87,152.00,1,-1,-1,-1
158,1347,451.11,103.97,51.70,151.88,1,-1,-1,-1
158,1348,73.39,90.63,66.52,191.66,1,-1,-1,-1
158,1349,324.00,116.00,42.00,138.00,1,-1,-1,-1
159,1330,363.12,117.95,43.35,133.90,1,-1,-1,-1
159,1339,314.43,114.67,44.83,139.50,1,-1,-1,-1
159,1340,411.32,111.98,43.87,145.99,1,-1,-1,-1
159,1344,183.23,100.04,51.17,152.00,1,-1,-1,-1
159,1347,450.81,103.97,51.97,152.05,1,-1,-1,-1
159,1348,78.71,85.52,67.69,196.45,1,-1,-1,-1
160,1330,363.37,117.95,43.02,133.91,1,-1,-1,-1
160,1339,321.85,116.09,44.05,137.85,1,-1,-1,-1
160,1340,411.42,111.98,43.73,146.12,1,-1,-1,-1
160,1344,183.33,100.09,51.44,152.01,1,-1,-1,-1
160,1347,450.66,103.97,52.19,152.11,1,-1,-1,-1
160,1348,80.62,83.85,67.73,198.02,1,-1,-1,-1
161,1330,361.36,119.28,43.29,135.24,1,-1,-1,-1
161,1339,324.88,117.91,43.87,137.32,1,-1,-1,-1
161,1340,414.10,113.29,43.62,144.84,1,-1,-1,-1
161,1344,182.14,97.46,52.64,155.97,1,-1,-1,-1
161,1347,449.45,106.61,51.98,149.48,1,-1,-1,-1
161,1348,90.06,88.78,65.61,191.73,1,-1,-1,-1
162,1330,360.71,119.78,43.30,135.75,1,-1,-1,-1
162,1339,325.81,118.51,43.82,137.19,1,-1,-1,-1
162,1340,415.03,113.80,43.72,144.34,1,-1,-1,-1
162,1344,181.73,96.47,53.02,157.45,1,-1,-1,-1
162,1347,448.84,107.62,52.26,148.48,1,-1,-1,-1
162,1348,93.39,90.98,64.72,189.04,1,-1,-1,-1
163,1330,360.58,119.97,43.22,135.94,1,-1,-1,-1
163,1339,325.98,118.67,43.82,137.21,1,-1,-1,-1
163,1340,415.28,113.98,43.89,144.14,1,-1,-1,-1
163,1344,181.60,96.10,53.09,158.00,1,-1,-1,-1
163,1347,448.46,107.98,52.69,148.10,1,-1,-1,-1
163,1348,94.39,91.95,64.35,187.90,1,-1,-1,-1
164,1330,360.63,120.03,43.13,136.01,1,-1,-1,-1
164,1339,325.88,118.67,43.83,137.28,1,-1,-1,-1
164,1340,415.29,114.04,44.07,144.07,1,-1,-1,-1
164,1344,181.57,95.96,53.05,158.19,1,-1,-1,-1
164,1347,448.19,108.11,53.15,147.97,1,-1,-1,-1
164,1348,94.54,92.43,64.20,187.38,1,-1,-1,-1
165,1330,362.46,117.41,43.55,138.67,1,-1,-1,-1
165,1339,324.37,115.95,43.85,137.36,1,-1,-1,-1
165,1340,414.30,111.42,44.75,146.68,1,-1,-1,-1
165,1344,181.61,95.76,53.22,158.71,1,-1,-1,-1
165,1347,447.39,106.82,53.43,149.25,1,-1,-1,-1
165,1348,98.88,90.18,64.84,189.24,1,-1,-1,-1
166,1330,363.30,116.43,43.48,139.67,1,-1,-1,-1
166,1339,323.69,114.90,43.87,137.43,1,-1,-1,-1
166,1340,413.94,110.43,44.94,147.66,1,-1,-1,-1
166,1347,447.15,106.32,53.44,149.74,1,-1,-1,-1
167,1330,363.76,116.06,43.25,140.03,1,-1,-1,-1
167,1339,323.33,114.47,43.88,137.50,1,-1,-1,-1
167,1340,413.81,110.06,44.95,148.02,1,-1,-1,-1
167,1347,447.12,106.13,53.36,149.92,1,-1,-1,-1
168,1330,364.06,115.93,42.97,140.16,1,-1,-1,-1
168,1339,323.11,114.30,43.90,137.56,1,-1,-1,-1
168,1340,413.78,109.93,44.89,148.14,1,-1,-1,-1
168,1347,447.17,106.06,53.26,149.99,1,-1,-1,-1
169,1330,365.78,117.20,42.36,138.87,1,-1,-1,-1
169,1339,321.05,114.22,43.74,136.29,1,-1,-1,-1
169,1340,413.98,111.21,45.73,149.49,1,-1,-1,-1
169,1344,179.51,99.54,53.47,160.07,1,-1,-1,-1
169,1347,446.12,109.99,52.74,148.69,1,-1,-1,-1
169,1348,121.26,85.57,66.58,196.06,1,-1,-1,-1
170,1330,366.51,117.70,42.00,138.37,1,-1,-1,-1
170,1339,320.14,114.17,43.83,135.84,1,-1,-1,-1
170,1340,413.93,111.70,46.27,149.99,1,-1,-1,-1
170,1344,179.39,99.92,53.32,160.16,1,-1,-1,-1
170,1347,445.75,111.47,52.52,148.20,1,-1,-1,-1
170,1348,123.33,85.29,66.24,196.59,1,-1,-1,-1
171,1330,366.86,117.89,41.76,138.17,1,-1,-1,-1
171,1339,319.69,114.14,43.99,135.70,1,-1,-1,-1
171,1340,413.80,111.89,46.68,150.16,1,-1,-1,-1
171,1344,179.39,100.05,53.19,160.20,1,-1,-1,-1
171,1347,445.64,112.01,52.41,148.02,1,-1,-1,-1
171,1348,124.18,85.19,65.87,196.77,1,-1,-1,-1
172,1330,367.05,117.96,41.57,138.09,1,-1,-1,-1
172,1339,319.43,114.12,44.16,135.67,1,-1,-1,-1
172,1340,413.65,111.96,47.02,150.20,1,-1,-1,-1
172,1344,179.43,100.09,53.06,160.20,1,-1,-1,-1
172,1347,445.63,112.19,52.35,147.96,1,-1,-1,-1
172,1348,124.46,85.20,65.49,196.78,1,-1,-1,-1
173,1330,365.09,115.34,41.60,138.06,1,-1,-1,-1
173,1339,320.78,110.13,45.25,139.67,1,-1,-1,-1
173,1340,415.20,110.67,47.85,151.52,1,-1,-1,-1
173,1344,179.28,100.28,53.17,160.53,1,-1,-1,-1
173,1347,445.26,112.71,52.31,147.82,1,-1,-1,-1
173,1348,126.91,82.63,65.60,195.41,1,-1,-1,-1
174,1330,364.35,114.36,41.64,138.04,1,-1,-1,-1
174,1339,321.31,108.64,45.55,141.17,1,-1,-1,-1
174,1340,415.67,110.18,48.38,152.01,1,-1,-1,-1
174,1348,127.55,81.71,65.91,194.84,1,-1,-1,-1
175,1330,364.08,114.00,41.67,138.03,1,-1,-1,-1
175,1339,321.54,108.08,45.56,141.75,1,-1,-1,-1
175,1340,415.73,110.00,48.78,152.17,1,-1,-1,-1
175,1348,127.54,81.42,66.26,194.58,1,-1,-1,-1
176,1330,363.98,113.88,41.70,138.03,1,-1,-1,-1
176,1339,321.63,107.88,45.47,141.96,1,-1,-1,-1
176,1340,415.65,109.94,49.11,152.22,1,-1,-1,-1
176,1348,127.29,81.36,66.61,194.45,1,-1,-1,-1
177,1330,364.88,117.81,41.19,136.70,1,-1,-1,-1
177,1339,321.70,109.14,45.33,143.36,1,-1,-1,-1
177,1340,415.14,112.56,48.83,150.90,1,-1,-1,-1
177,1344,170.92,98.27,57.33,172.92,1,-1,-1,-1
177,1348,134.16,85.35,67.14,194.38,1,-1,-1,-1
178,1330,365.26,119.31,40.94,136.20,1,-1,-1,-1
178,1339,321.85,109.63,44.97,143.88,1,-1,-1,-1
178,1340,414.89,113.56,48.81,150.38,1,-1,-1,-1
178,1344,170.11,98.07,57.75,174.08,1,-1,-1,-1
178,1348,136.51,86.90,67.61,194.32,1,-1,-1,-1
179,1330,365.44,119.86,40.80,136.02,1,-1,-1,-1
179,1339,322.03,109.82,44.55,144.06,1,-1,-1,-1
179,1340,414.75,113.93,48.87,150.18,1,-1,-1,-1
179,1344,169.82,98.00,57.92,174.48,1,-1,-1,-1
179,1348,137.15,87.51,68.04,194.28,1,-1,-1,-1
