1,3882,211.72,165.37,22.92,50.63,1,-1,-1,-1
1,3886,435.14,264.80,42.91,117.98,1,-1,-1,-1
1,3891,225.19,184.93,28.24,70.55,1,-1,-1,-1
1,3900,394.39,169.93,23.95,60.89,1,-1,-1,-1
1,3904,52.00,166.00,108.00,272.00,1,-1,-1,-1
1,3905,204.00,210.00,48.00,136.00,1,-1,-1,-1
1,3906,388.00,176.00,158.00,246.00,1,-1,-1,-1
1,3907,264.00,218.00,120.00,168.00,1,-1,-1,-1
2,3904,52.00,166.00,108.00,272.00,1,-1,-1,-1
2,3905,204.00,210.00,48.00,136.00,1,-1,-1,-1
2,3906,388.00,176.00,158.00,246.00,1,-1,-1,-1
2,3907,264.00,218.00,120.00,168.00,1,-1,-1,-1
3,3904,52.00,166.00,108.00,272.00,1,-1,-1,-1
3,3905,204.00,210.00,48.00,136.00,1,-1,-1,-1
3,3906,388.00,176.00,158.00,246.00,1,-1,-1,-1
3,3907,264.00,218.00,120.00,168.00,1,-1,-1,-1
4,3904,52.00,166.00,108.00,272.00,1,-1,-1,-1
4,3905,204.00,210.00,48.00,136.00,1,-1,-1,-1
4,3906,388.00,176.00,158.00,246.00,1,-1,-1,-1
4,3907,264.00,218.00,120.00,168.00,1,-1,-1,-1
5,3904,72.66,168.95,107.99,269.05,1,-1,-1,-1
5,3905,210.24,207.05,50.27,143.38,1,-1,-1,-1
5,3906,404.71,186.33,148.19,231.25,1,-1,-1,-1
5,3907,264.00,218.00,120.00,168.00,1,-1,-1,-1
6,3904,79.12,169.94,108.87,268.06,1,-1,-1,-1
6,3905,212.45,206.07,50.75,145.83,1,-1,-1,-1
6,3906,410.43,189.79,144.66,226.30,1,-1,-1,-1
7,3904,80.60,170.24,110.11,267.76,1,-1,-1,-1
7,3905,213.30,205.75,50.63,146.62,1,-1,-1,-1
7,3906,412.22,190.80,143.37,224.86,1,-1,-1,-1
8,3904,80.39,170.30,111.48,267.70,1,-1,-1,-1
8,3905,213.66,205.68,50.28,146.80,1,-1,-1,-1
8,3906,412.77,191.01,142.78,224.55,1,-1,-1,-1
9,3904,106.23,168.93,112.98,269.07,1,-1,-1,-1
9,3905,215.01,205.03,50.83,148.42,1,-1,-1,-1
9,3906,437.82,179.93,142.32,231.51,1,-1,-1,-1
9,3907,207.86,206.53,119.45,171.82,1,-1,-1,-1
10,3904,115.17,168.40,114.13,269.60,1,-1,-1,-1
10,3906,448.24,175.91,139.03,234.08,1,-1,-1,-1
10,3907,205.18,205.68,116.54,172.11,1,-1,-1,-1
11,3904,117.86,168.19,115.12,269.81,1,-1,-1,-1
11,3906,453.32,174.41,134.87,235.11,1,-1,-1,-1
11,3907,205.27,205.41,113.67,172.20,1,-1,-1,-1
12,3904,118.26,168.11,116.02,269.89,1,-1,-1,-1
12,3906,456.34,173.88,130.53,235.52,1,-1,-1,-1
12,3907,206.40,205.36,110.94,172.21,1,-1,-1,-1
13,3904,148.90,166.74,112.18,260.58,1,-1,-1,-1
13,3906,480.34,173.71,132.02,241.03,1,-1,-1,-1
13,3907,213.75,196.08,111.24,177.53,1,-1,-1,-1
14,3904,160.06,166.21,110.82,257.08,1,-1,-1,-1
14,3906,489.54,173.67,131.66,243.09,1,-1,-1,-1
14,3907,217.54,192.66,109.54,179.49,1,-1,-1,-1
15,3904,163.73,166.03,110.43,255.85,1,-1,-1,-1
15,3906,493.15,173.69,130.68,243.87,1,-1,-1,-1
15,3907,219.98,191.43,107.28,180.20,1,-1,-1,-1
16,3904,164.67,165.96,110.40,255.45,1,-1,-1,-1
16,3906,494.60,173.71,129.53,244.14,1,-1,-1,-1
16,3907,221.78,191.06,104.93,180.43,1,-1,-1,-1
17,3904,174.72,164.61,115.67,268.72,1,-1,-1,-1
17,3905,286.06,205.78,45.68,133.07,1,-1,-1,-1
17,3906,502.42,172.42,133.78,254.79,1,-1,-1,-1
17,3907,219.11,189.07,105.49,181.40,1,-1,-1,-1
18,3904,178.39,164.11,117.35,273.61,1,-1,-1,-1
18,3905,289.28,205.89,45.44,132.12,1,-1,-1,-1
18,3906,505.60,171.95,134.55,258.74,1,-1,-1,-1
19,3904,179.58,163.93,117.76,275.49,1,-1,-1,-1
19,3905,290.42,205.92,45.41,131.84,1,-1,-1,-1
19,3906,506.92,171.79,134.12,260.22,1,-1,-1,-1
20,3904,179.83,163.88,117.68,276.18,1,-1,-1,-1
20,3905,290.63,205.93,45.45,131.75,1,-1,-1,-1
20,3906,507.51,171.75,133.26,260.71,1,-1,-1,-1
21,3904,197.47,161.24,124.11,285.61,1,-1,-1,-1
21,3905,300.01,209.97,46.54,133.09,1,-1,-1,-1
21,3906,523.16,169.13,129.16,260.83,1,-1,-1,-1
21,3908,152.00,198.00,74.00,196.00,1,-1,-1,-1
22,3904,203.26,160.25,127.86,289.12,1,-1,-1,-1
22,3905,303.17,211.47,47.28,133.61,1,-1,-1,-1
22,3906,530.03,168.15,125.35,260.81,1,-1,-1,-1
22,3907,139.97,196.63,108.34,195.29,1,-1,-1,-1
23,3904,204.61,159.89,130.46,290.41,1,-1,-1,-1
23,3905,304.00,212.01,47.83,133.81,1,-1,-1,-1
23,3906,533.43,167.81,121.86,260.75,1,-1,-1,-1
23,3907,135.78,197.39,104.60,196.33,1,-1,-1,-1
24,3904,204.30,159.77,132.50,290.82,1,-1,-1,-1
24,3905,304.00,212.19,48.28,133.89,1,-1,-1,-1
24,3906,535.42,167.70,118.68,260.67,1,-1,-1,-1
24,3907,135.41,197.66,101.19,196.69,1,-1,-1,-1
25,3904,235.83,157.13,132.38,294.84,1,-1,-1,-1
25,3905,307.98,212.72,48.25,133.79,1,-1,-1,-1
25,3906,540.31,167.09,119.17,261.76,1,-1,-1,-1
25,3907,120.14,203.01,95.32,177.14,1,-1,-1,-1
25,3909,0.00,162.00,36.00,276.00,1,-1,-1,-1
26,3904,248.09,156.14,131.25,296.31,1,-1,-1,-1
26,3907,113.92,205.13,94.56,169.33,1,-1,-1,-1
26,3909,0.00,162.00,36.00,276.00,1,-1,-1,-1
27,3904,252.93,155.79,129.85,296.79,1,-1,-1,-1
27,3907,111.15,205.87,95.98,166.61,1,-1,-1,-1
27,3909,0.00,162.00,36.00,276.00,1,-1,-1,-1
28,3904,254.86,155.68,128.43,296.90,1,-1,-1,-1
28,3907,109.67,206.12,97.99,165.68,1,-1,-1,-1
28,3909,0.00,162.00,36.00,276.00,1,-1,-1,-1
29,3904,280.50,155.67,126.03,295.56,1,-1,-1,-1
29,3907,94.61,207.54,101.46,164.06,1,-1,-1,-1
29,3909,15.02,176.75,32.52,233.22,1,-1,-1,-1
29,3910,232.00,206.00,92.00,150.00,1,-1,-1,-1
30,3904,290.41,155.69,124.13,294.99,1,-1,-1,-1
30,3907,88.16,208.04,105.04,163.52,1,-1,-1,-1
30,3909,19.43,181.75,32.69,218.74,1,-1,-1,-1
30,3910,232.00,206.00,92.00,150.00,1,-1,-1,-1
31,3904,294.23,155.72,122.53,294.72,1,-1,-1,-1
31,3907,85.04,208.20,108.41,163.38,1,-1,-1,-1
31,3909,19.72,183.03,34.41,215.01,1,-1,-1,-1
31,3910,232.00,206.00,92.00,150.00,1,-1,-1,-1
32,3904,295.72,155.75,121.12,294.58,1,-1,-1,-1
32,3907,83.23,208.24,111.50,163.38,1,-1,-1,-1
32,3909,18.84,183.29,36.64,214.27,1,-1,-1,-1
32,3910,232.00,206.00,92.00,150.00,1,-1,-1,-1
33,3904,312.62,170.29,120.20,283.94,1,-1,-1,-1
33,3907,54.17,198.91,125.93,190.08,1,-1,-1,-1
33,3909,22.15,186.17,35.20,205.90,1,-1,-1,-1
33,3910,238.08,211.90,91.64,150.00,1,-1,-1,-1
33,3911,10.00,188.00,130.00,222.00,1,-1,-1,-1
34,3904,317.81,175.86,121.55,279.83,1,-1,-1,-1
34,3907,44.88,195.58,128.69,199.62,1,-1,-1,-1
34,3910,240.25,213.87,91.24,150.00,1,-1,-1,-1
34,3911,10.00,188.00,130.00,222.00,1,-1,-1,-1
35,3904,318.58,177.86,123.68,278.34,1,-1,-1,-1
35,3907,42.37,194.23,127.91,203.47,1,-1,-1,-1
35,3910,241.07,214.48,90.81,150.00,1,-1,-1,-1
35,3911,10.00,188.00,130.00,222.00,1,-1,-1,-1
36,3904,317.80,178.54,125.96,277.81,1,-1,-1,-1
36,3907,42.57,193.73,125.86,204.89,1,-1,-1,-1
36,3910,241.43,214.61,90.38,150.00,1,-1,-1,-1
36,3911,10.00,188.00,130.00,222.00,1,-1,-1,-1
37,3904,342.98,168.09,128.47,284.30,1,-1,-1,-1
37,3907,35.11,192.78,127.62,207.75,1,-1,-1,-1
37,3910,259.37,213.23,91.28,152.73,1,-1,-1,-1
37,3911,9.33,185.05,135.77,232.33,1,-1,-1,-1
38,3904,352.23,164.16,129.18,286.73,1,-1,-1,-1
38,3910,266.10,212.69,91.14,153.72,1,-1,-1,-1
38,3911,9.21,184.07,137.47,235.76,1,-1,-1,-1
39,3904,355.50,162.65,129.24,287.66,1,-1,-1,-1
39,3910,268.68,212.44,90.63,154.08,1,-1,-1,-1
39,3911,9.29,183.75,137.78,236.86,1,-1,-1,-1
40,3904,356.48,162.09,129.07,288.00,1,-1,-1,-1
40,3910,269.68,212.33,90.01,154.19,1,-1,-1,-1
40,3911,9.44,183.68,137.59,237.12,1,-1,-1,-1
41,3904,378.46,159.26,128.66,292.08,1,-1,-1,-1
41,3910,285.90,209.60,89.70,154.21,1,-1,-1,-1
41,3911,10.73,189.09,122.84,214.12,1,-1,-1,-1
42,3904,387.09,158.20,127.28,293.60,1,-1,-1,-1
42,3910,291.93,208.56,89.39,154.20,1,-1,-1,-1
42,3911,11.61,191.21,116.37,205.17,1,-1,-1,-1
43,3904,390.56,157.83,125.67,294.15,1,-1,-1,-1
43,3910,294.09,208.17,89.10,154.18,1,-1,-1,-1
43,3911,12.31,191.92,113.39,202.17,1,-1,-1,-1
44,3904,392.03,157.71,124.07,294.33,1,-1,-1,-1
44,3910,294.78,208.02,88.82,154.16,1,-1,-1,-1
44,3911,12.94,192.15,111.64,201.21,1,-1,-1,-1
45,3904,414.48,160.33,123.82,290.41,1,-1,-1,-1
45,3907,69.01,184.06,134.54,233.83,1,-1,-1,-1
45,3910,303.45,210.62,88.75,154.14,1,-1,-1,-1
45,3911,-7.04,192.21,113.42,210.48,1,-1,-1,-1
46,3904,422.33,161.34,124.43,288.89,1,-1,-1,-1
46,3907,75.29,183.69,128.17,234.94,1,-1,-1,-1
46,3910,306.57,211.60,88.68,154.13,1,-1,-1,-1
46,3911,-13.21,192.22,112.03,213.88,1,-1,-1,-1
47,3904,424.60,161.74,125.32,288.32,1,-1,-1,-1
47,3907,79.01,183.56,122.81,235.33,1,-1,-1,-1
47,3910,307.57,211.96,88.61,154.11,1,-1,-1,-1
47,3911,-14.52,192.21,109.70,215.21,1,-1,-1,-1
48,3904,424.81,161.89,126.26,288.10,1,-1,-1,-1
48,3907,81.67,183.54,118.29,235.39,1,-1,-1,-1
48,3910,307.79,212.09,88.56,154.10,1,-1,-1,-1
48,3911,-14.02,192.19,107.14,215.73,1,-1,-1,-1
49,3904,446.50,160.62,129.09,290.67,1,-1,-1,-1
49,3907,102.09,186.18,119.63,232.69,1,-1,-1,-1
49,3910,314.59,209.48,89.34,155.41,1,-1,-1,-1
49,3911,-17.32,192.49,107.16,215.76,1,-1,-1,-1
50,3904,453.91,160.15,131.07,291.63,1,-1,-1,-1
50,3907,109.32,187.23,121.32,231.56,1,-1,-1,-1
50,3910,317.00,208.49,89.65,155.90,1,-1,-1,-1
51,3904,455.96,159.98,132.63,291.98,1,-1,-1,-1
51,3907,111.44,187.64,123.01,231.06,1,-1,-1,-1
51,3910,317.75,208.12,89.78,156.07,1,-1,-1,-1
52,3904,456.02,159.92,133.96,292.11,1,-1,-1,-1
52,3907,111.68,187.80,124.56,230.82,1,-1,-1,-1
52,3910,317.88,207.98,89.83,156.12,1,-1,-1,-1
53,3904,482.85,170.47,130.38,286.86,1,-1,-1,-1
53,3905,473.94,202.09,51.73,151.93,1,-1,-1,-1
53,3907,139.98,185.24,123.91,239.91,1,-1,-1,-1
53,3910,331.79,206.62,92.21,162.73,1,-1,-1,-1
54,3904,492.99,174.48,128.41,284.86,1,-1,-1,-1
54,3905,477.00,201.88,50.07,152.22,1,-1,-1,-1
54,3907,151.98,184.28,120.70,243.28,1,-1,-1,-1
54,3910,337.32,206.11,92.28,165.19,1,-1,-1,-1
55,3904,496.69,175.93,127.13,284.12,1,-1,-1,-1
55,3905,478.21,201.81,48.95,152.30,1,-1,-1,-1
55,3907,157.69,183.93,116.91,244.51,1,-1,-1,-1
55,3910,339.64,205.93,91.59,166.11,1,-1,-1,-1
56,3904,497.97,176.43,126.15,283.87,1,-1,-1,-1
56,3905,478.63,201.81,48.14,152.31,1,-1,-1,-1
56,3907,160.79,183.81,113.19,244.89,1,-1,-1,-1
56,3910,340.68,205.87,90.67,166.42,1,-1,-1,-1
57,3904,523.84,163.31,124.72,289.09,1,-1,-1,-1
57,3905,483.18,201.46,48.31,152.84,1,-1,-1,-1
57,3907,189.98,192.96,103.83,225.30,1,-1,-1,-1
57,3910,352.43,211.10,88.26,162.56,1,-1,-1,-1
58,3904,534.27,158.37,122.16,291.06,1,-1,-1,-1
58,3907,201.10,196.56,99.98,217.52,1,-1,-1,-1
58,3910,356.83,213.12,87.16,161.04,1,-1,-1,-1
59,3904,538.76,156.51,119.38,291.80,1,-1,-1,-1
59,3907,204.90,197.83,98.48,214.76,1,-1,-1,-1
59,3910,358.39,213.86,86.60,160.45,1,-1,-1,-1
60,3904,540.91,155.84,116.68,292.07,1,-1,-1,-1
60,3907,206.08,198.26,97.83,213.80,1,-1,-1,-1
60,3910,358.87,214.12,86.25,160.22,1,-1,-1,-1
61,3904,541.99,149.02,117.09,302.70,1,-1,-1,-1
61,3905,520.36,205.48,45.91,144.97,1,-1,-1,-1
61,3907,225.11,199.72,108.04,226.88,1,-1,-1,-1
61,3910,366.38,212.88,84.39,157.48,1,-1,-1,-1
62,3904,543.27,146.50,115.10,306.67,1,-1,-1,-1
62,3905,523.48,205.89,45.72,144.17,1,-1,-1,-1
62,3907,230.73,200.23,114.21,231.67,1,-1,-1,-1
62,3910,369.15,212.39,83.49,156.44,1,-1,-1,-1
63,3904,544.40,145.59,112.46,308.15,1,-1,-1,-1
63,3905,524.54,206.02,45.69,143.92,1,-1,-1,-1
63,3907,231.54,200.39,118.65,233.52,1,-1,-1,-1
63,3910,370.12,212.20,82.98,156.06,1,-1,-1,-1
64,3904,545.44,145.30,109.74,308.65,1,-1,-1,-1
64,3905,524.72,206.07,45.70,143.84,1,-1,-1,-1
64,3907,230.60,200.42,122.18,234.19,1,-1,-1,-1
64,3910,370.41,212.12,82.63,155.92,1,-1,-1,-1
65,3904,550.45,143.83,110.31,310.24,1,-1,-1,-1
65,3905,535.30,206.07,45.57,145.15,1,-1,-1,-1
65,3907,256.12,196.46,115.84,226.53,1,-1,-1,-1
65,3910,382.66,218.71,80.51,147.93,1,-1,-1,-1
66,3905,539.20,206.07,45.27,145.66,1,-1,-1,-1
66,3907,266.14,194.90,112.24,223.54,1,-1,-1,-1
66,3910,386.62,221.22,80.74,144.90,1,-1,-1,-1
67,3905,540.57,206.07,44.94,145.85,1,-1,-1,-1
67,3907,270.08,194.32,109.81,222.43,1,-1,-1,-1
67,3910,387.40,222.09,81.84,143.85,1,-1,-1,-1
68,3905,540.98,206.06,44.64,145.93,1,-1,-1,-1
68,3907,271.72,194.10,107.93,222.03,1,-1,-1,-1
68,3910,387.08,222.37,83.17,143.51,1,-1,-1,-1
69,3905,548.03,213.99,47.58,136.70,1,-1,-1,-1
69,3907,300.65,190.04,108.38,228.52,1,-1,-1,-1
69,3910,404.44,221.10,87.18,151.46,1,-1,-1,-1
70,3905,549.19,217.03,51.24,133.16,1,-1,-1,-1
70,3907,311.96,188.53,107.05,230.95,1,-1,-1,-1
70,3910,410.89,220.62,88.32,154.38,1,-1,-1,-1
71,3905,548.21,218.08,55.03,131.94,1,-1,-1,-1
71,3907,316.57,187.97,105.23,231.86,1,-1,-1,-1
71,3910,413.32,220.40,88.48,155.52,1,-1,-1,-1
