1,1,1677.00,392.00,132.00,351.00,1,-1,-1,-1
2,1,1677.00,392.00,132.00,351.00,1,-1,-1,-1
3,1,1680.77,388.10,133.81,355.68,1,-1,-1,-1
4,1,1681.94,386.88,134.43,357.15,1,-1,-1,-1
5,1,1683.38,385.40,135.09,358.92,1,-1,-1,-1
7,1,1678.33,391.11,135.11,358.42,1,-1,-1,-1
8,1,1677.65,391.77,135.32,358.41,1,-1,-1,-1
9,1,1677.57,391.97,135.64,359.28,1,-1,-1,-1
13,1,1679.47,395.76,137.65,364.83,1,-1,-1,-1
14,1,1679.67,396.08,137.75,365.28,1,-1,-1,-1
15,1,1679.50,390.20,138.92,369.43,1,-1,-1,-1
16,1,1679.54,388.01,139.13,370.93,1,-1,-1,-1
17,1,1680.71,391.15,138.86,368.15,1,-1,-1,-1
18,1,1680.95,392.36,139.13,367.04,1,-1,-1,-1
19,1,1674.39,388.18,141.24,373.87,1,-1,-1,-1
20,1,1672.06,386.61,141.76,376.40,1,-1,-1,-1
21,1,1672.59,391.29,138.49,368.76,1,-1,-1,-1
22,1,1672.93,393.10,137.00,365.77,1,-1,-1,-1
23,1,1668.02,393.12,134.63,361.98,1,-1,-1,-1
24,1,1666.44,393.11,133.24,360.56,1,-1,-1,-1
25,1,1661.74,385.14,136.41,373.32,1,-1,-1,-1
26,1,1660.45,382.18,136.72,378.05,1,-1,-1,-1
27,1,1659.78,377.13,140.59,390.97,1,-1,-1,-1
28,1,1659.80,375.25,141.59,395.83,1,-1,-1,-1
29,1,1658.11,370.66,140.91,398.91,1,-1,-1,-1
29,2,57.00,497.00,233.00,413.00,1,-1,-1,-1
29,3,19.00,230.00,325.00,666.00,1,-1,-1,-1
30,1,1657.98,368.96,139.66,399.99,1,-1,-1,-1
30,2,57.00,497.00,233.00,413.00,1,-1,-1,-1
30,3,19.00,230.00,325.00,666.00,1,-1,-1,-1
31,1,1658.98,380.16,133.91,380.65,1,-1,-1,-1
31,2,80.59,502.46,227.92,403.65,1,-1,-1,-1
32,1,1659.21,384.59,132.11,373.01,1,-1,-1,-1
32,2,87.87,504.16,226.51,400.72,1,-1,-1,-1
33,1,1656.80,367.54,137.86,392.23,1,-1,-1,-1
33,2,102.88,511.26,221.95,393.33,1,-1,-1,-1
34,1,1656.24,361.34,139.34,399.22,1,-1,-1,-1
34,2,107.47,513.48,220.26,391.10,1,-1,-1,-1
35,1,1659.31,354.43,144.52,415.58,1,-1,-1,-1
35,2,183.69,531.76,205.38,360.83,1,-1,-1,-1
36,1,1660.66,351.86,146.18,421.74,1,-1,-1,-1
36,2,209.36,538.01,201.62,350.40,1,-1,-1,-1
37,1,1659.18,345.13,147.59,429.84,1,-1,-1,-1
37,2,233.14,544.27,196.10,340.81,1,-1,-1,-1
38,1,1659.01,342.63,147.34,432.82,1,-1,-1,-1
39,1,1657.13,340.48,149.57,441.62,1,-1,-1,-1
39,2,220.34,534.70,204.67,350.48,1,-1,-1,-1
40,1,1656.64,339.76,149.96,444.84,1,-1,-1,-1
40,2,218.73,533.79,207.91,351.22,1,-1,-1,-1
41,1,1659.01,346.75,146.96,436.79,1,-1,-1,-1
41,2,231.95,536.33,205.19,346.62,1,-1,-1,-1
42,1,1660.03,349.59,145.58,433.47,1,-1,-1,-1
43,1,1651.36,347.42,147.36,442.64,1,-1,-1,-1
43,2,253.09,531.57,214.21,357.75,1,-1,-1,-1
44,1,1648.48,346.65,147.29,446.01,1,-1,-1,-1
44,2,255.66,530.96,217.24,359.23,1,-1,-1,-1
45,1,1644.55,337.25,150.35,453.06,1,-1,-1,-1
45,2,242.19,494.83,225.38,381.71,1,-1,-1,-1
46,1,1642.91,333.71,151.87,455.63,1,-1,-1,-1
46,2,238.64,481.59,225.32,389.97,1,-1,-1,-1
47,1,1640.60,320.01,156.58,470.87,1,-1,-1,-1
47,2,245.71,477.50,226.28,391.63,1,-1,-1,-1
48,1,1639.87,314.88,158.12,476.54,1,-1,-1,-1
49,1,1633.58,318.23,158.44,473.35,1,-1,-1,-1
49,2,357.16,487.46,210.14,367.39,1,-1,-1,-1
50,1,1630.87,319.68,159.21,471.91,1,-1,-1,-1
50,2,376.02,489.20,206.04,363.36,1,-1,-1,-1
51,1,1628.96,322.30,156.76,467.28,1,-1,-1,-1
51,2,392.24,487.24,205.34,362.12,1,-1,-1,-1
52,1,1628.55,323.40,155.32,465.37,1,-1,-1,-1
53,1,1621.60,327.19,157.94,468.52,1,-1,-1,-1
54,1,1618.64,328.67,159.73,469.62,1,-1,-1,-1
55,1,1618.45,329.27,160.66,466.01,1,-1,-1,-1
56,1,1617.93,329.53,162.10,464.55,1,-1,-1,-1
57,1,1614.65,321.07,167.59,478.48,1,-1,-1,-1
57,2,496.89,506.32,198.57,335.07,1,-1,-1,-1
58,1,1613.31,317.92,169.99,483.64,1,-1,-1,-1
58,2,499.03,507.69,204.23,333.48,1,-1,-1,-1
59,1,1615.56,311.53,172.68,492.73,1,-1,-1,-1
59,2,508.70,469.12,221.53,367.91,1,-1,-1,-1
60,1,1616.61,309.15,173.40,496.10,1,-1,-1,-1
60,2,513.18,455.42,225.67,380.12,1,-1,-1,-1
61,1,1616.48,303.73,176.79,506.41,1,-1,-1,-1
61,2,524.81,441.71,228.85,389.47,1,-1,-1,-1
62,1,1616.52,301.74,177.92,510.22,1,-1,-1,-1
62,2,529.38,436.57,228.89,393.00,1,-1,-1,-1
63,1,1611.28,299.76,180.40,512.84,1,-1,-1,-1
63,2,541.78,430.70,230.94,396.52,1,-1,-1,-1
64,1,1608.90,299.09,182.12,513.68,1,-1,-1,-1
65,1,1608.36,290.41,184.71,521.72,1,-1,-1,-1
65,2,599.42,368.97,266.75,469.79,1,-1,-1,-1
65,4,1532.00,370.00,138.00,440.00,1,-1,-1,-1
66,1,1608.27,287.19,185.51,524.65,1,-1,-1,-1
66,2,611.65,358.83,267.65,481.68,1,-1,-1,-1
66,4,1532.00,370.00,138.00,440.00,1,-1,-1,-1
67,1,1608.00,290.64,188.95,532.81,1,-1,-1,-1
67,2,624.62,340.50,269.07,487.98,1,-1,-1,-1
68,1,1607.79,292.05,190.50,535.79,1,-1,-1,-1
68,2,629.70,333.64,268.47,490.12,1,-1,-1,-1
69,1,1606.87,286.13,194.77,547.22,1,-1,-1,-1
69,2,644.44,330.71,267.94,495.78,1,-1,-1,-1
69,5,1521.00,369.00,155.00,441.00,1,-1,-1,-1
70,1,1606.50,283.94,196.45,551.44,1,-1,-1,-1
70,2,650.60,329.91,265.79,497.69,1,-1,-1,-1
70,5,1521.00,369.00,155.00,441.00,1,-1,-1,-1
71,1,1608.78,291.02,193.55,539.82,1,-1,-1,-1
71,2,663.46,320.71,270.06,505.68,1,-1,-1,-1
71,5,1518.83,378.35,152.33,433.20,1,-1,-1,-1
72,1,1609.39,293.86,192.97,535.10,1,-1,-1,-1
72,5,1518.11,381.28,151.57,430.77,1,-1,-1,-1
73,1,1610.27,294.97,196.73,543.13,1,-1,-1,-1
73,2,721.70,316.94,247.49,470.67,1,-1,-1,-1
73,5,1512.15,383.47,151.82,431.67,1,-1,-1,-1
74,1,1610.38,295.41,198.57,546.05,1,-1,-1,-1
74,2,732.45,316.68,240.92,464.30,1,-1,-1,-1
74,5,1510.25,384.02,151.91,432.10,1,-1,-1,-1
75,1,1609.22,283.13,206.24,566.75,1,-1,-1,-1
75,2,743.29,333.19,232.39,452.93,1,-1,-1,-1
75,5,1504.19,377.75,153.17,435.14,1,-1,-1,-1
76,1,1608.75,278.52,209.19,574.47,1,-1,-1,-1
76,2,747.36,339.58,227.93,448.63,1,-1,-1,-1
76,5,1502.07,375.42,153.78,436.28,1,-1,-1,-1
77,1,1623.19,295.68,203.80,558.40,1,-1,-1,-1
77,2,754.69,346.11,226.22,446.34,1,-1,-1,-1
77,5,1498.43,366.36,156.60,445.56,1,-1,-1,-1
78,1,1628.71,302.46,201.84,551.88,1,-1,-1,-1
78,2,757.06,348.67,225.31,445.47,1,-1,-1,-1
78,5,1497.34,363.05,157.34,448.96,1,-1,-1,-1
79,1,1635.15,308.97,196.85,534.78,1,-1,-1,-1
79,2,777.88,343.06,228.69,448.46,1,-1,-1,-1
79,5,1484.66,339.15,169.72,488.24,1,-1,-1,-1
80,1,1637.18,311.40,195.56,528.23,1,-1,-1,-1
80,2,784.78,341.01,230.92,449.58,1,-1,-1,-1
80,5,1480.48,330.39,173.37,502.65,1,-1,-1,-1
81,1,1641.37,312.92,196.71,531.15,1,-1,-1,-1
81,2,802.86,359.51,220.36,420.88,1,-1,-1,-1
81,5,1474.21,343.96,170.69,493.18,1,-1,-1,-1
82,1,1642.83,313.44,197.18,532.26,1,-1,-1,-1
82,2,808.09,366.74,218.21,409.83,1,-1,-1,-1
82,5,1471.80,349.57,169.82,489.05,1,-1,-1,-1
83,1,1637.04,306.96,203.89,549.90,1,-1,-1,-1
83,2,823.34,368.64,215.58,401.92,1,-1,-1,-1
83,5,1470.48,344.54,168.59,487.28,1,-1,-1,-1
84,1,1634.76,304.51,206.50,556.49,1,-1,-1,-1
84,2,828.00,369.29,215.52,399.20,1,-1,-1,-1
84,5,1470.30,342.72,167.73,486.45,1,-1,-1,-1
85,1,1637.00,304.21,205.04,549.78,1,-1,-1,-1
85,2,861.74,324.46,230.54,435.99,1,-1,-1,-1
85,5,1474.58,348.05,166.21,477.42,1,-1,-1,-1
86,1,1637.55,304.08,204.97,547.09,1,-1,-1,-1
86,2,875.27,308.34,233.05,449.23,1,-1,-1,-1
86,5,1475.94,350.18,166.42,473.83,1,-1,-1,-1
87,1,1638.67,295.44,208.95,557.93,1,-1,-1,-1
87,2,888.24,322.96,223.35,436.90,1,-1,-1,-1
87,5,1467.83,353.69,163.98,466.45,1,-1,-1,-1
88,1,1639.08,292.22,210.37,561.95,1,-1,-1,-1
88,2,893.35,329.02,217.87,431.93,1,-1,-1,-1
88,5,1464.83,355.05,163.13,463.62,1,-1,-1,-1
89,1,1640.83,289.05,218.77,588.35,1,-1,-1,-1
89,2,909.43,343.35,201.77,406.84,1,-1,-1,-1
89,5,1455.66,375.52,167.14,470.52,1,-1,-1,-1
90,1,1641.87,287.88,221.07,598.23,1,-1,-1,-1
90,2,915.64,348.93,194.01,397.32,1,-1,-1,-1
90,5,1451.90,383.14,169.51,473.09,1,-1,-1,-1
91,1,1645.63,284.88,220.31,597.35,1,-1,-1,-1
91,2,940.76,340.87,200.56,414.19,1,-1,-1,-1
91,5,1448.55,385.86,169.87,474.11,1,-1,-1,-1
92,1,1647.15,283.78,219.72,596.79,1,-1,-1,-1
92,2,950.09,337.96,201.98,420.31,1,-1,-1,-1
93,1,1637.97,274.89,221.14,600.99,1,-1,-1,-1
93,2,963.20,359.27,192.90,398.35,1,-1,-1,-1
93,5,1398.84,379.23,160.15,445.64,1,-1,-1,-1
94,1,1634.48,271.57,221.57,602.44,1,-1,-1,-1
94,2,967.13,367.60,190.09,389.86,1,-1,-1,-1
94,5,1390.81,378.12,158.93,441.07,1,-1,-1,-1
95,1,1631.59,277.60,224.77,614.64,1,-1,-1,-1
95,2,980.38,390.07,176.69,359.97,1,-1,-1,-1
95,5,1384.60,354.25,171.04,471.84,1,-1,-1,-1
96,1,1630.85,279.95,225.23,619.14,1,-1,-1,-1
96,2,984.29,398.32,172.34,349.03,1,-1,-1,-1
96,5,1382.14,345.69,175.96,482.87,1,-1,-1,-1
97,1,1625.87,280.92,220.41,603.04,1,-1,-1,-1
97,2,995.45,403.33,168.87,342.00,1,-1,-1,-1
97,5,1375.30,343.19,176.92,485.50,1,-1,-1,-1
98,1,1623.71,281.34,218.98,596.60,1,-1,-1,-1
99,1,1616.21,276.89,219.30,598.74,1,-1,-1,-1
99,2,1035.64,378.26,180.57,370.61,1,-1,-1,-1
99,5,1379.33,361.49,165.97,454.10,1,-1,-1,-1
100,1,1613.56,275.26,219.16,599.49,1,-1,-1,-1
100,2,1042.75,375.03,180.21,374.21,1,-1,-1,-1
100,5,1380.03,364.57,164.47,448.86,1,-1,-1,-1
101,1,1611.65,274.06,219.74,601.07,1,-1,-1,-1
101,2,1052.81,369.86,180.98,382.20,1,-1,-1,-1
101,5,1369.51,337.39,178.70,491.43,1,-1,-1,-1
102,2,1057.00,367.92,179.70,385.23,1,-1,-1,-1
102,5,1366.13,327.71,183.00,506.59,1,-1,-1,-1
103,1,1603.47,269.42,221.57,613.31,1,-1,-1,-1
103,2,1072.62,373.09,176.53,380.49,1,-1,-1,-1
103,5,1353.18,313.64,193.46,539.63,1,-1,-1,-1
104,1,1603.10,268.68,219.98,615.26,1,-1,-1,-1
104,2,1078.35,375.08,174.84,378.68,1,-1,-1,-1
104,5,1348.71,308.30,196.66,552.25,1,-1,-1,-1
105,1,1600.74,267.33,220.85,617.69,1,-1,-1,-1
105,2,1089.08,375.46,174.56,378.06,1,-1,-1,-1
105,5,1341.93,304.45,203.17,577.53,1,-1,-1,-1
105,6,1213.00,304.00,166.00,442.00,1,-1,-1,-1
106,5,1340.12,303.08,204.29,587.12,1,-1,-1,-1
106,6,1213.00,304.00,166.00,442.00,1,-1,-1,-1
107,2,1101.89,379.42,171.79,371.90,1,-1,-1,-1
107,5,1343.05,325.23,191.99,552.58,1,-1,-1,-1
107,6,1214.80,309.46,164.73,438.10,1,-1,-1,-1
108,2,1103.86,380.04,171.41,370.93,1,-1,-1,-1
108,5,1344.63,334.34,186.75,538.22,1,-1,-1,-1
108,6,1215.27,311.17,164.52,436.88,1,-1,-1,-1
109,2,1112.90,380.73,170.91,369.84,1,-1,-1,-1
109,5,1344.57,356.99,185.71,534.06,1,-1,-1,-1
109,6,1209.44,313.80,162.32,429.19,1,-1,-1,-1
110,5,1344.58,365.45,185.49,532.38,1,-1,-1,-1
110,6,1207.20,314.56,162.14,426.71,1,-1,-1,-1
111,5,1341.15,367.73,186.35,534.85,1,-1,-1,-1
111,6,1200.23,310.48,180.29,472.61,1,-1,-1,-1
112,6,1197.57,309.07,187.07,488.39,1,-1,-1,-1
113,6,1196.14,301.21,203.18,530.60,1,-1,-1,-1
114,6,1195.67,298.22,209.17,546.41,1,-1,-1,-1
115,6,1194.07,284.78,229.89,599.97,1,-1,-1,-1
116,6,1193.41,279.63,237.92,620.37,1,-1,-1,-1
117,6,1198.53,277.63,239.20,623.47,1,-1,-1,-1
118,6,1200.64,276.94,239.47,623.93,1,-1,-1,-1
119,6,1203.22,298.76,240.42,624.78,1,-1,-1,-1
120,6,1204.08,307.29,240.93,624.57,1,-1,-1,-1
121,1,1485.28,190.74,214.81,580.03,1,-1,-1,-1
121,6,1211.28,380.85,216.17,553.07,1,-1,-1,-1
122,1,1480.33,189.00,219.29,578.81,1,-1,-1,-1
122,6,1213.60,410.15,207.08,523.51,1,-1,-1,-1
123,1,1469.01,187.00,223.04,570.97,1,-1,-1,-1
123,6,1185.55,340.54,237.70,604.91,1,-1,-1,-1
124,1,1463.82,186.44,226.99,568.16,1,-1,-1,-1
124,6,1176.48,316.96,247.15,632.80,1,-1,-1,-1
125,1,1457.75,181.00,232.62,576.65,1,-1,-1,-1
125,6,1188.94,385.91,221.29,554.18,1,-1,-1,-1
126,1,1455.21,179.12,235.73,579.87,1,-1,-1,-1
126,6,1193.60,414.91,211.83,520.11,1,-1,-1,-1
127,1,1450.10,175.70,235.53,579.37,1,-1,-1,-1
127,6,1169.83,360.01,238.22,587.32,1,-1,-1,-1
128,6,1162.01,341.43,246.59,610.24,1,-1,-1,-1
129,1,1388.99,196.20,286.81,719.27,1,-1,-1,-1
129,6,1157.77,339.13,250.33,619.51,1,-1,-1,-1
130,1,1381.44,199.04,290.52,740.26,1,-1,-1,-1
131,1,1374.16,195.13,294.77,757.08,1,-1,-1,-1
132,1,1372.19,193.59,295.16,763.21,1,-1,-1,-1
133,1,1365.34,192.36,299.65,773.42,1,-1,-1,-1
133,6,1124.84,285.08,286.53,691.09,1,-1,-1,-1
134,1,1362.86,191.90,301.48,776.92,1,-1,-1,-1
134,6,1119.06,279.67,295.39,697.76,1,-1,-1,-1
135,1,1359.46,176.22,303.67,784.88,1,-1,-1,-1
135,6,1110.87,272.58,305.01,709.81,1,-1,-1,-1
136,1,1358.67,170.19,303.90,787.52,1,-1,-1,-1
136,6,1106.79,270.04,310.74,714.08,1,-1,-1,-1
137,1,1344.16,152.98,312.03,809.51,1,-1,-1,-1
137,6,1099.75,265.39,317.59,720.50,1,-1,-1,-1
137,7,2.00,466.00,178.00,408.00,1,-1,-1,-1
138,1,1338.93,146.47,314.83,817.59,1,-1,-1,-1
138,6,1096.21,263.80,322.07,722.59,1,-1,-1,-1
138,7,2.00,466.00,178.00,408.00,1,-1,-1,-1
139,1,1335.39,147.97,312.89,816.36,1,-1,-1,-1
139,6,1094.17,229.52,331.84,742.54,1,-1,-1,-1
139,7,-6.08,435.60,202.74,466.47,1,-1,-1,-1
140,1,1334.70,148.71,311.22,815.39,1,-1,-1,-1
140,6,1093.30,216.61,335.91,749.88,1,-1,-1,-1
140,7,-8.28,425.85,209.88,485.22,1,-1,-1,-1
141,1,1327.61,145.60,314.97,825.22,1,-1,-1,-1
141,6,1078.49,220.34,338.68,762.06,1,-1,-1,-1
141,7,-10.85,404.21,217.88,507.20,1,-1,-1,-1
142,6,1073.62,222.06,338.19,766.40,1,-1,-1,-1
142,7,-11.06,396.85,219.19,514.18,1,-1,-1,-1
143,6,1046.31,208.68,353.92,797.62,1,-1,-1,-1
143,7,-13.81,384.06,227.44,533.52,1,-1,-1,-1
144,6,1035.52,203.75,360.85,809.25,1,-1,-1,-1
145,6,1054.94,187.87,367.11,822.40,1,-1,-1,-1
146,6,1062.61,181.96,369.55,827.08,1,-1,-1,-1
147,6,1055.45,187.11,367.56,818.68,1,-1,-1,-1
147,7,77.02,383.93,211.57,503.66,1,-1,-1,-1
147,8,405.00,431.00,157.00,316.00,1,-1,-1,-1
148,6,1052.39,189.42,367.47,814.96,1,-1,-1,-1
148,7,87.75,385.61,206.39,498.10,1,-1,-1,-1
148,8,405.00,431.00,157.00,316.00,1,-1,-1,-1
149,6,1067.27,172.81,376.17,834.20,1,-1,-1,-1
149,7,94.15,362.17,217.21,534.64,1,-1,-1,-1
149,8,404.52,432.56,157.17,316.78,1,-1,-1,-1
150,6,1072.98,166.70,379.36,841.23,1,-1,-1,-1
150,7,97.70,353.84,218.46,547.63,1,-1,-1,-1
150,8,404.48,433.05,157.02,317.02,1,-1,-1,-1
151,6,1087.06,161.99,385.55,853.37,1,-1,-1,-1
151,7,96.33,341.83,219.04,556.84,1,-1,-1,-1
151,8,401.73,422.85,164.67,334.04,1,-1,-1,-1
152,6,1092.29,160.41,388.15,857.71,1,-1,-1,-1
152,7,96.34,337.51,217.46,559.99,1,-1,-1,-1
152,8,401.13,419.44,166.59,339.69,1,-1,-1,-1
153,1,879.84,272.61,287.63,747.23,1,-1,-1,-1
153,6,1087.32,160.70,384.00,854.44,1,-1,-1,-1
153,7,101.28,329.04,221.26,569.78,1,-1,-1,-1
153,8,408.87,414.88,169.22,347.68,1,-1,-1,-1
154,1,864.39,277.65,287.62,742.76,1,-1,-1,-1
154,6,1086.06,161.05,380.87,852.84,1,-1,-1,-1
154,8,412.19,413.32,169.20,350.40,1,-1,-1,-1
155,1,845.47,283.46,290.13,740.78,1,-1,-1,-1
155,6,1101.00,157.43,381.57,860.49,1,-1,-1,-1
155,8,413.02,410.56,171.69,355.57,1,-1,-1,-1
156,1,838.93,285.32,292.45,740.15,1,-1,-1,-1
156,6,1107.37,156.22,380.29,863.16,1,-1,-1,-1
157,1,829.62,292.44,295.29,737.33,1,-1,-1,-1
157,6,1107.45,137.56,390.84,890.83,1,-1,-1,-1
157,7,211.47,280.62,229.72,606.29,1,-1,-1,-1
158,1,826.28,294.83,298.16,736.37,1,-1,-1,-1
158,6,1107.89,130.63,393.84,901.10,1,-1,-1,-1
158,7,224.48,276.41,226.04,609.16,1,-1,-1,-1
159,1,818.38,275.38,300.92,746.16,1,-1,-1,-1
159,6,1119.54,123.61,392.62,908.00,1,-1,-1,-1
159,7,249.43,306.36,216.60,589.87,1,-1,-1,-1
159,8,379.66,388.07,197.09,420.83,1,-1,-1,-1
160,1,816.39,267.98,301.38,749.85,1,-1,-1,-1
160,6,1125.08,121.13,389.79,910.33,1,-1,-1,-1
160,7,258.94,318.23,211.82,582.09,1,-1,-1,-1
160,8,378.94,386.03,194.43,426.87,1,-1,-1,-1
161,1,801.35,269.73,308.98,764.53,1,-1,-1,-1
161,6,1117.56,111.24,393.93,931.18,1,-1,-1,-1
161,7,271.33,337.40,201.25,554.50,1,-1,-1,-1
161,8,371.30,372.42,201.75,452.20,1,-1,-1,-1
162,1,795.79,270.35,312.69,770.03,1,-1,-1,-1
162,6,1115.94,107.66,392.81,938.86,1,-1,-1,-1
162,7,275.48,344.87,196.90,543.77,1,-1,-1,-1
162,8,369.60,367.29,202.16,461.71,1,-1,-1,-1
163,1,773.10,258.68,323.50,787.21,1,-1,-1,-1
163,6,1101.38,93.46,393.26,944.08,1,-1,-1,-1
163,7,287.34,344.85,196.80,543.51,1,-1,-1,-1
163,8,366.22,348.78,219.32,509.88,1,-1,-1,-1
164,1,763.99,254.23,329.55,793.63,1,-1,-1,-1
164,6,1096.22,88.24,392.39,945.74,1,-1,-1,-1
164,8,366.08,341.71,223.61,528.30,1,-1,-1,-1
165,1,752.98,245.98,328.99,791.35,1,-1,-1,-1
165,6,1080.64,91.72,394.98,945.40,1,-1,-1,-1
165,8,369.12,332.74,227.45,542.86,1,-1,-1,-1
166,1,749.24,242.85,328.90,790.31,1,-1,-1,-1
166,6,1074.04,93.30,397.27,944.96,1,-1,-1,-1
166,8,371.05,329.35,227.58,548.19,1,-1,-1,-1
167,1,736.58,241.20,330.14,793.25,1,-1,-1,-1
167,6,1046.74,97.38,405.11,943.88,1,-1,-1,-1
167,8,379.70,340.40,221.47,535.70,1,-1,-1,-1
168,6,1034.32,99.11,412.34,943.23,1,-1,-1,-1
168,8,383.47,345.04,218.35,530.14,1,-1,-1,-1
169,6,1003.82,68.97,426.81,965.82,1,-1,-1,-1
169,8,387.55,352.19,220.30,537.40,1,-1,-1,-1
170,6,991.25,57.73,434.70,974.17,1,-1,-1,-1
170,8,389.41,355.01,220.38,539.88,1,-1,-1,-1
171,1,559.89,148.60,360.86,863.18,1,-1,-1,-1
171,6,978.81,58.22,440.38,979.09,1,-1,-1,-1
171,8,393.30,384.83,197.73,491.69,1,-1,-1,-1
172,1,542.97,139.78,364.93,869.75,1,-1,-1,-1
172,6,973.45,58.66,444.27,980.70,1,-1,-1,-1
172,8,395.53,396.80,187.20,471.93,1,-1,-1,-1
173,1,530.83,148.48,358.13,843.94,1,-1,-1,-1
173,6,950.43,43.29,442.94,976.47,1,-1,-1,-1
173,8,395.39,399.07,187.45,472.57,1,-1,-1,-1
174,1,526.32,152.24,357.14,833.66,1,-1,-1,-1
174,6,941.83,37.65,442.63,974.61,1,-1,-1,-1
175,1,499.43,153.89,365.66,847.52,1,-1,-1,-1
175,6,933.51,47.61,437.47,959.23,1,-1,-1,-1
176,1,489.30,154.69,370.10,852.60,1,-1,-1,-1
176,6,930.28,51.66,436.37,953.20,1,-1,-1,-1
177,1,467.48,180.14,369.17,839.28,1,-1,-1,-1
177,6,921.77,48.10,436.98,954.54,1,-1,-1,-1
178,1,458.82,190.10,371.08,833.98,1,-1,-1,-1
179,1,423.34,182.63,376.74,828.60,1,-1,-1,-1
179,6,842.38,68.05,431.31,952.81,1,-1,-1,-1
180,1,408.65,179.84,382.93,826.52,1,-1,-1,-1
180,6,831.62,71.18,426.98,952.54,1,-1,-1,-1
181,1,388.36,169.57,397.03,844.23,1,-1,-1,-1
181,6,815.07,57.65,428.85,961.07,1,-1,-1,-1
182,1,379.75,165.77,405.45,850.83,1,-1,-1,-1
182,6,809.87,52.64,428.53,964.21,1,-1,-1,-1
183,1,308.54,163.76,402.67,833.55,1,-1,-1,-1
183,6,803.65,45.54,432.75,985.12,1,-1,-1,-1
184,1,280.71,163.10,404.26,826.79,1,-1,-1,-1
184,6,803.08,42.93,431.64,992.92,1,-1,-1,-1
185,1,252.06,158.30,411.85,846.81,1,-1,-1,-1
185,6,788.41,54.50,432.91,1001.67,1,-1,-1,-1
186,1,242.64,156.58,413.47,854.23,1,-1,-1,-1
186,6,783.93,59.00,432.01,1004.84,1,-1,-1,-1
187,1,208.98,150.11,414.28,859.62,1,-1,-1,-1
187,6,752.67,34.50,439.77,1034.76,1,-1,-1,-1
188,1,197.48,147.74,413.60,861.56,1,-1,-1,-1
188,6,742.60,25.28,439.89,1045.91,1,-1,-1,-1
189,1,151.62,132.47,417.12,870.08,1,-1,-1,-1
189,6,712.98,7.48,442.79,1064.29,1,-1,-1,-1
190,1,135.20,126.80,418.10,873.20,1,-1,-1,-1
190,6,703.41,0.80,441.22,1071.07,1,-1,-1,-1
191,1,111.04,123.48,421.29,869.00,1,-1,-1,-1
191,6,688.74,5.61,438.20,1064.20,1,-1,-1,-1
192,1,101.46,122.39,425.13,867.27,1,-1,-1,-1
192,6,683.78,7.68,436.79,1061.21,1,-1,-1,-1
193,1,32.90,102.35,440.08,895.54,1,-1,-1,-1
193,6,660.75,10.59,426.32,1040.10,1,-1,-1,-1
194,1,7.53,94.95,446.24,906.05,1,-1,-1,-1
194,6,653.06,11.85,421.32,1031.80,1,-1,-1,-1
195,1,-17.84,94.93,453.06,927.56,1,-1,-1,-1
195,6,634.33,3.16,423.75,1036.55,1,-1,-1,-1
196,1,-25.66,95.11,453.54,935.58,1,-1,-1,-1
196,6,627.68,-0.01,424.89,1038.26,1,-1,-1,-1
197,1,-26.73,107.78,440.03,914.25,1,-1,-1,-1
197,6,636.24,-0.43,387.78,936.52,1,-1,-1,-1
197,9,1431.00,438.00,76.00,225.00,1,-1,-1,-1
197,10,157.00,125.00,397.00,853.00,1,-1,-1,-1
198,1,-25.16,112.89,433.06,905.66,1,-1,-1,-1
198,6,639.69,-0.34,375.23,896.75,1,-1,-1,-1
198,9,1431.00,438.00,76.00,225.00,1,-1,-1,-1
198,10,157.00,125.00,397.00,853.00,1,-1,-1,-1
199,1,-39.45,149.28,398.94,856.69,1,-1,-1,-1
199,6,530.48,36.02,412.69,977.58,1,-1,-1,-1
199,10,215.30,190.48,367.71,792.19,1,-1,-1,-1
200,1,-41.18,163.26,380.69,837.85,1,-1,-1,-1
200,6,491.53,48.59,427.86,1005.50,1,-1,-1,-1
200,10,233.81,210.78,357.74,773.35,1,-1,-1,-1
201,1,-20.05,154.81,360.85,817.69,1,-1,-1,-1
201,6,470.22,52.11,445.93,1018.48,1,-1,-1,-1
201,10,255.50,235.38,347.17,750.50,1,-1,-1,-1
202,1,-8.71,151.56,348.08,810.45,1,-1,-1,-1
202,6,459.66,53.32,459.48,1023.39,1,-1,-1,-1
203,1,-20.79,152.93,345.33,804.04,1,-1,-1,-1
203,6,422.10,48.38,474.31,1021.83,1,-1,-1,-1
204,6,404.57,46.37,488.01,1021.09,1,-1,-1,-1
205,6,363.81,16.52,501.08,1033.86,1,-1,-1,-1
206,6,347.26,5.22,509.70,1038.58,1,-1,-1,-1
207,6,325.71,2.81,511.67,1042.59,1,-1,-1,-1
207,11,928.00,370.00,163.00,434.00,1,-1,-1,-1
208,11,928.00,370.00,163.00,434.00,1,-1,-1,-1
209,6,107.72,18.17,554.57,1106.41,1,-1,-1,-1
209,11,957.58,401.96,147.49,391.90,1,-1,-1,-1
209,12,659.00,349.00,155.00,465.00,1,-1,-1,-1
210,6,68.57,20.57,569.76,1116.61,1,-1,-1,-1
210,11,966.57,411.82,142.98,378.92,1,-1,-1,-1
210,12,659.00,349.00,155.00,465.00,1,-1,-1,-1
211,6,36.27,16.21,576.69,1111.66,1,-1,-1,-1
211,11,977.38,405.59,147.30,389.05,1,-1,-1,-1
211,12,668.75,359.13,161.23,484.49,1,-1,-1,-1
211,13,1058.00,384.00,147.00,391.00,1,-1,-1,-1
212,6,23.02,14.56,583.80,1109.42,1,-1,-1,-1
212,11,980.18,403.34,149.20,392.60,1,-1,-1,-1
212,12,671.95,362.34,162.94,490.64,1,-1,-1,-1
212,13,1058.00,384.00,147.00,391.00,1,-1,-1,-1
213,6,11.08,26.42,573.26,1078.74,1,-1,-1,-1
213,11,980.64,402.95,145.68,384.36,1,-1,-1,-1
213,12,681.18,363.87,158.91,476.94,1,-1,-1,-1
213,13,1067.63,372.31,153.47,408.15,1,-1,-1,-1
214,6,6.74,30.99,571.76,1066.69,1,-1,-1,-1
214,11,980.42,402.57,144.28,381.71,1,-1,-1,-1
214,12,683.93,364.15,157.73,471.72,1,-1,-1,-1
214,13,1070.66,368.61,155.53,413.57,1,-1,-1,-1
215,6,61.76,25.37,555.59,1009.70,1,-1,-1,-1
215,11,966.69,374.68,151.24,404.50,1,-1,-1,-1
215,12,666.05,330.33,176.91,531.07,1,-1,-1,-1
215,13,1078.41,354.60,161.71,428.74,1,-1,-1,-1
216,6,80.79,23.18,556.21,988.00,1,-1,-1,-1
216,11,962.29,364.78,152.62,412.63,1,-1,-1,-1
216,12,660.17,318.73,182.99,551.45,1,-1,-1,-1
216,13,1080.73,349.97,164.11,433.69,1,-1,-1,-1
217,6,67.78,23.18,552.32,981.06,1,-1,-1,-1
217,11,963.72,361.31,152.88,413.34,1,-1,-1,-1
217,12,660.92,307.11,183.57,552.39,1,-1,-1,-1
217,13,1084.52,364.43,158.43,416.50,1,-1,-1,-1
217,14,1711.00,410.00,80.00,234.00,1,-1,-1,-1
218,12,661.17,302.86,183.72,552.08,1,-1,-1,-1
218,13,1085.39,370.23,156.64,409.59,1,-1,-1,-1
218,14,1711.00,410.00,80.00,234.00,1,-1,-1,-1
219,12,659.40,266.51,201.93,608.93,1,-1,-1,-1
219,13,1086.02,366.93,158.38,411.10,1,-1,-1,-1
220,12,658.98,253.09,208.18,629.91,1,-1,-1,-1
220,13,1085.74,365.78,159.72,411.58,1,-1,-1,-1
221,12,658.37,255.14,206.30,628.11,1,-1,-1,-1
221,13,1095.00,378.86,155.27,398.25,1,-1,-1,-1
222,12,658.49,256.44,204.61,626.61,1,-1,-1,-1
222,13,1098.12,383.86,153.97,393.16,1,-1,-1,-1
223,12,662.27,272.27,200.93,611.15,1,-1,-1,-1
223,13,1101.64,385.65,148.45,377.84,1,-1,-1,-1
224,12,663.41,278.75,200.02,604.59,1,-1,-1,-1
224,13,1102.61,386.27,146.69,372.22,1,-1,-1,-1
225,6,147.13,277.77,393.02,699.31,1,-1,-1,-1
225,12,664.15,291.28,199.61,601.75,1,-1,-1,-1
225,13,1104.01,379.67,147.11,377.75,1,-1,-1,-1
226,6,152.27,288.58,386.20,688.16,1,-1,-1,-1
226,12,664.29,296.18,199.64,600.38,1,-1,-1,-1
226,13,1104.92,377.25,146.29,379.86,1,-1,-1,-1
227,6,153.93,307.23,373.39,665.32,1,-1,-1,-1
227,12,744.74,307.35,192.23,569.94,1,-1,-1,-1
227,13,1107.88,379.00,143.19,373.41,1,-1,-1,-1
227,15,1218.00,358.00,125.00,396.00,1,-1,-1,-1
228,12,775.03,311.74,190.60,557.88,1,-1,-1,-1
228,13,1109.04,379.67,141.72,371.06,1,-1,-1,-1
228,15,1218.00,358.00,125.00,396.00,1,-1,-1,-1
229,12,778.33,290.57,201.46,589.60,1,-1,-1,-1
229,13,1116.52,373.90,143.61,377.63,1,-1,-1,-1
229,15,1214.41,352.54,128.27,405.35,1,-1,-1,-1
230,12,779.36,282.89,205.41,601.09,1,-1,-1,-1
230,13,1119.38,371.78,143.98,380.12,1,-1,-1,-1
230,15,1213.13,350.82,129.61,408.30,1,-1,-1,-1
231,12,783.84,280.00,210.21,611.27,1,-1,-1,-1
231,13,1122.35,370.98,143.69,379.36,1,-1,-1,-1
231,15,1213.61,358.44,125.42,394.40,1,-1,-1,-1
232,12,784.85,278.99,212.69,614.99,1,-1,-1,-1
232,15,1213.78,361.18,124.08,389.43,1,-1,-1,-1
233,6,323.40,325.52,325.82,613.70,1,-1,-1,-1
233,12,798.88,278.06,200.64,578.89,1,-1,-1,-1
233,13,1125.40,380.07,140.68,369.50,1,-1,-1,-1
233,15,1213.24,362.24,123.42,387.36,1,-1,-1,-1
234,6,338.29,326.74,310.66,610.73,1,-1,-1,-1
234,12,803.72,277.87,196.03,564.51,1,-1,-1,-1
234,13,1125.61,381.50,140.72,367.97,1,-1,-1,-1
235,6,429.24,319.51,295.45,594.59,1,-1,-1,-1
235,12,809.15,271.85,200.47,580.03,1,-1,-1,-1
235,13,1180.77,380.64,140.06,369.46,1,-1,-1,-1
236,6,463.47,316.46,287.29,589.24,1,-1,-1,-1
236,12,811.21,269.71,201.56,585.68,1,-1,-1,-1
236,13,1201.32,380.31,139.20,370.06,1,-1,-1,-1
237,6,488.53,321.64,281.30,576.96,1,-1,-1,-1
237,12,818.09,295.34,188.44,545.00,1,-1,-1,-1
237,13,1221.03,375.54,140.10,372.98,1,-1,-1,-1
238,12,820.06,305.48,183.72,529.08,1,-1,-1,-1
238,13,1228.13,373.74,140.34,374.11,1,-1,-1,-1
239,6,478.51,301.75,293.99,617.75,1,-1,-1,-1
239,12,821.88,305.70,177.99,516.73,1,-1,-1,-1
239,13,1238.76,394.21,128.33,340.21,1,-1,-1,-1
239,16,908.00,314.00,183.00,511.00,1,-1,-1,-1
240,6,480.71,299.17,290.65,622.95,1,-1,-1,-1
240,12,822.65,305.71,175.20,512.42,1,-1,-1,-1
240,13,1241.95,402.19,124.00,327.10,1,-1,-1,-1
240,16,908.00,314.00,183.00,511.00,1,-1,-1,-1
241,6,503.50,315.36,268.41,582.70,1,-1,-1,-1
241,12,893.20,310.37,174.52,511.72,1,-1,-1,-1
241,13,1243.07,391.95,127.32,336.98,1,-1,-1,-1
241,17,650.00,333.00,181.00,554.00,1,-1,-1,-1
242,6,511.94,321.48,258.60,567.51,1,-1,-1,-1
242,12,919.06,312.03,174.09,511.67,1,-1,-1,-1
242,13,1243.42,388.30,128.29,340.55,1,-1,-1,-1
242,17,650.00,333.00,181.00,554.00,1,-1,-1,-1
243,6,517.91,324.92,254.34,565.05,1,-1,-1,-1
243,12,932.00,301.23,176.26,522.52,1,-1,-1,-1
243,13,1251.69,384.23,130.98,350.00,1,-1,-1,-1
243,17,645.53,311.95,195.40,597.66,1,-1,-1,-1
244,6,520.35,326.06,251.37,564.43,1,-1,-1,-1
244,12,936.75,297.18,176.26,526.66,1,-1,-1,-1
244,13,1254.79,382.70,131.54,353.61,1,-1,-1,-1
244,17,644.05,305.27,200.10,611.52,1,-1,-1,-1
245,6,532.78,329.09,248.26,557.44,1,-1,-1,-1
245,12,953.65,294.98,172.69,518.40,1,-1,-1,-1
245,13,1256.40,373.56,136.89,368.20,1,-1,-1,-1
245,17,644.94,328.64,195.89,595.04,1,-1,-1,-1
246,12,959.65,294.16,170.96,515.34,1,-1,-1,-1
246,13,1256.85,370.14,138.85,373.68,1,-1,-1,-1
246,17,644.95,337.49,194.87,588.04,1,-1,-1,-1
247,12,961.65,325.80,158.48,480.37,1,-1,-1,-1
247,13,1254.51,384.53,136.28,366.63,1,-1,-1,-1
247,17,652.27,335.65,188.94,563.56,1,-1,-1,-1
247,18,1575.00,470.00,76.00,264.00,1,-1,-1,-1
248,12,961.81,337.86,153.37,467.24,1,-1,-1,-1
248,13,1253.32,390.16,135.28,363.82,1,-1,-1,-1
248,17,654.22,334.87,188.13,554.52,1,-1,-1,-1
248,18,1575.00,470.00,76.00,264.00,1,-1,-1,-1
249,6,776.05,352.09,207.01,480.12,1,-1,-1,-1
249,12,963.70,351.52,144.50,444.47,1,-1,-1,-1
249,13,1249.73,381.69,134.23,365.39,1,-1,-1,-1
249,17,660.98,333.86,181.82,529.29,1,-1,-1,-1
249,18,1571.92,463.76,81.39,282.71,1,-1,-1,-1
250,6,798.61,353.87,198.92,473.92,1,-1,-1,-1
250,12,964.24,356.29,140.67,436.52,1,-1,-1,-1
250,13,1248.68,378.50,132.96,365.96,1,-1,-1,-1
250,17,662.67,333.44,180.91,520.29,1,-1,-1,-1
250,18,1570.94,461.78,83.10,288.65,1,-1,-1,-1
251,6,800.52,351.73,198.27,483.49,1,-1,-1,-1
251,12,965.78,360.52,142.91,444.22,1,-1,-1,-1
251,13,1242.69,385.87,126.93,354.30,1,-1,-1,-1
251,17,666.16,322.28,185.69,531.80,1,-1,-1,-1
251,18,1575.72,463.43,82.82,287.30,1,-1,-1,-1
251,19,1085.00,341.00,136.00,451.00,1,-1,-1,-1
252,6,801.68,350.89,195.83,487.12,1,-1,-1,-1
252,12,966.18,361.88,143.65,447.23,1,-1,-1,-1
252,13,1240.71,388.71,123.73,349.82,1,-1,-1,-1
252,17,667.09,318.29,187.93,536.09,1,-1,-1,-1
252,18,1577.44,464.15,82.67,286.41,1,-1,-1,-1
252,19,1085.00,341.00,136.00,451.00,1,-1,-1,-1
253,6,800.24,342.43,202.75,513.58,1,-1,-1,-1
253,12,958.52,351.50,145.07,457.29,1,-1,-1,-1
253,13,1241.96,389.26,123.30,348.60,1,-1,-1,-1
253,17,669.97,326.24,182.83,523.10,1,-1,-1,-1
253,18,1580.60,456.14,80.87,280.30,1,-1,-1,-1
253,19,1089.26,333.98,140.73,466.59,1,-1,-1,-1
254,6,800.23,339.27,203.37,523.42,1,-1,-1,-1
254,12,955.98,347.50,144.65,461.19,1,-1,-1,-1
254,17,671.07,329.32,180.66,518.36,1,-1,-1,-1
254,18,1581.73,453.28,80.14,277.90,1,-1,-1,-1
254,19,1090.59,331.77,142.25,471.51,1,-1,-1,-1
255,6,801.41,335.37,202.98,522.74,1,-1,-1,-1
255,12,953.47,355.14,144.00,459.50,1,-1,-1,-1
255,13,1227.82,378.15,129.05,370.68,1,-1,-1,-1
255,17,680.62,341.89,168.17,477.09,1,-1,-1,-1
255,18,1582.87,450.96,80.46,279.02,1,-1,-1,-1
255,19,1097.01,343.60,139.21,458.90,1,-1,-1,-1
256,6,801.20,333.85,202.78,522.53,1,-1,-1,-1
256,12,952.41,357.94,143.72,458.97,1,-1,-1,-1
256,13,1226.45,376.47,128.42,374.01,1,-1,-1,-1
256,17,683.58,346.62,164.50,461.85,1,-1,-1,-1
256,19,1098.83,347.84,138.61,454.19,1,-1,-1,-1
257,6,799.13,343.19,199.00,511.92,1,-1,-1,-1
257,12,949.70,366.18,143.44,452.24,1,-1,-1,-1
257,13,1225.70,375.65,128.95,375.54,1,-1,-1,-1
257,17,687.07,348.65,161.05,452.16,1,-1,-1,-1
257,19,1097.65,333.74,144.54,471.55,1,-1,-1,-1
258,6,797.69,346.72,197.75,507.96,1,-1,-1,-1
258,12,948.11,369.17,144.31,449.80,1,-1,-1,-1
258,19,1096.94,328.77,147.05,477.62,1,-1,-1,-1
259,6,797.47,354.64,189.89,482.62,1,-1,-1,-1
259,12,949.66,372.44,143.42,447.03,1,-1,-1,-1
259,19,1098.49,340.45,139.39,449.41,1,-1,-1,-1
260,6,796.36,357.56,187.94,473.18,1,-1,-1,-1
260,19,1098.68,345.02,136.97,438.42,1,-1,-1,-1
261,6,797.75,359.22,188.51,471.97,1,-1,-1,-1
261,12,949.24,366.24,151.10,465.74,1,-1,-1,-1
261,19,1095.31,343.90,140.82,449.62,1,-1,-1,-1
262,6,797.71,359.76,189.34,471.71,1,-1,-1,-1
262,12,948.60,365.37,153.46,468.52,1,-1,-1,-1
262,19,1093.96,343.48,142.42,453.68,1,-1,-1,-1
263,6,798.69,335.84,198.54,495.17,1,-1,-1,-1
263,12,946.05,351.85,156.93,482.04,1,-1,-1,-1
263,13,1372.56,387.90,110.92,323.88,1,-1,-1,-1
263,19,1098.46,341.96,143.61,457.23,1,-1,-1,-1
264,6,798.99,327.03,201.82,503.86,1,-1,-1,-1
264,12,945.32,346.76,157.73,487.08,1,-1,-1,-1
264,13,1382.72,388.85,109.42,320.16,1,-1,-1,-1
264,19,1100.10,341.38,144.10,458.57,1,-1,-1,-1
265,6,807.45,344.00,186.58,462.68,1,-1,-1,-1
265,12,947.51,365.72,153.02,462.16,1,-1,-1,-1
265,13,1393.79,389.43,108.29,316.84,1,-1,-1,-1
265,19,1101.35,358.40,138.27,437.16,1,-1,-1,-1
265,20,1230.00,382.00,113.00,370.00,1,-1,-1,-1
266,6,810.12,350.82,181.14,446.51,1,-1,-1,-1
266,12,947.56,373.11,152.70,452.37,1,-1,-1,-1
266,19,1101.53,364.89,136.50,428.96,1,-1,-1,-1
266,20,1230.00,382.00,113.00,370.00,1,-1,-1,-1
267,6,822.33,358.65,181.49,447.03,1,-1,-1,-1
267,12,939.59,360.39,155.13,462.20,1,-1,-1,-1
267,19,1102.10,361.11,138.16,437.50,1,-1,-1,-1
268,6,826.52,361.44,181.75,447.38,1,-1,-1,-1
268,12,936.90,355.68,155.55,465.83,1,-1,-1,-1
268,19,1102.57,359.66,138.19,440.68,1,-1,-1,-1
269,6,897.77,375.77,173.65,432.34,1,-1,-1,-1
269,12,936.45,355.58,155.53,465.76,1,-1,-1,-1
269,19,1100.24,358.38,145.14,459.82,1,-1,-1,-1
269,21,1221.00,363.00,142.00,403.00,1,-1,-1,-1
270,6,924.71,381.05,169.70,426.91,1,-1,-1,-1
270,19,1099.08,357.87,148.28,466.98,1,-1,-1,-1
270,21,1221.00,363.00,142.00,403.00,1,-1,-1,-1
271,6,933.07,368.71,175.56,449.38,1,-1,-1,-1
271,19,1097.33,346.51,153.33,482.11,1,-1,-1,-1
271,21,1218.44,343.51,151.80,431.84,1,-1,-1,-1
272,6,936.73,364.21,175.93,457.57,1,-1,-1,-1
272,19,1096.58,342.15,155.37,487.81,1,-1,-1,-1
272,21,1217.81,337.33,154.54,441.00,1,-1,-1,-1
273,6,944.25,363.72,166.64,438.48,1,-1,-1,-1
273,19,1093.44,348.30,153.34,469.68,1,-1,-1,-1
273,21,1218.97,327.09,163.39,467.11,1,-1,-1,-1
274,6,946.88,363.48,162.12,431.15,1,-1,-1,-1
274,19,1091.29,350.73,154.33,462.42,1,-1,-1,-1
274,21,1219.54,323.78,166.10,475.84,1,-1,-1,-1
275,6,945.50,363.36,160.35,428.57,1,-1,-1,-1
275,19,1091.47,329.73,167.32,488.23,1,-1,-1,-1
275,21,1221.18,338.59,155.21,443.03,1,-1,-1,-1
276,6,944.82,363.30,159.33,427.75,1,-1,-1,-1
276,19,1090.28,322.03,174.60,497.68,1,-1,-1,-1
276,21,1221.67,344.82,150.99,429.39,1,-1,-1,-1
277,6,951.01,379.90,154.72,413.58,1,-1,-1,-1
277,19,1087.70,330.82,173.80,483.68,1,-1,-1,-1
277,21,1217.55,337.49,155.95,440.23,1,-1,-1,-1
278,6,952.76,386.13,153.39,408.41,1,-1,-1,-1
278,19,1085.67,334.39,175.45,478.00,1,-1,-1,-1
278,21,1215.70,334.94,158.45,444.01,1,-1,-1,-1
279,6,961.56,390.32,148.82,397.28,1,-1,-1,-1
279,19,1083.43,336.44,175.00,471.17,1,-1,-1,-1
279,21,1211.12,333.43,166.47,462.63,1,-1,-1,-1
280,6,964.59,391.75,147.01,393.36,1,-1,-1,-1
280,19,1082.06,337.25,175.89,468.55,1,-1,-1,-1
280,21,1209.00,332.94,170.28,469.46,1,-1,-1,-1
281,6,971.47,394.53,145.11,388.28,1,-1,-1,-1
281,19,1085.56,351.50,169.50,447.67,1,-1,-1,-1
281,21,1208.63,346.00,170.84,462.00,1,-1,-1,-1
282,19,1086.54,356.93,167.79,439.74,1,-1,-1,-1
282,21,1207.66,351.15,172.72,458.83,1,-1,-1,-1
283,6,974.81,394.00,144.30,377.16,1,-1,-1,-1
283,19,1083.54,352.82,171.18,442.98,1,-1,-1,-1
283,21,1209.43,349.79,174.45,456.15,1,-1,-1,-1
284,6,974.19,393.95,146.54,375.47,1,-1,-1,-1
284,19,1081.85,351.27,173.63,444.26,1,-1,-1,-1
284,21,1209.37,349.27,176.56,455.00,1,-1,-1,-1
285,6,979.56,395.81,144.67,370.69,1,-1,-1,-1
285,19,1081.54,358.62,169.24,432.87,1,-1,-1,-1
285,21,1213.42,354.37,175.80,445.20,1,-1,-1,-1
286,19,1081.40,361.36,167.66,428.65,1,-1,-1,-1
286,21,1214.16,356.30,177.07,441.38,1,-1,-1,-1
287,6,996.09,388.78,149.50,381.62,1,-1,-1,-1
287,19,1071.46,354.96,164.82,431.22,1,-1,-1,-1
287,21,1224.12,357.00,175.42,432.60,1,-1,-1,-1
288,6,998.46,387.80,150.56,383.09,1,-1,-1,-1
288,19,1068.83,352.54,161.73,432.27,1,-1,-1,-1
288,21,1227.33,357.23,175.78,429.29,1,-1,-1,-1
289,6,1004.12,388.31,149.72,380.97,1,-1,-1,-1
289,19,1071.10,341.00,162.16,438.06,1,-1,-1,-1
289,21,1221.89,341.28,183.69,443.44,1,-1,-1,-1
290,19,1072.47,336.67,161.42,440.29,1,-1,-1,-1
290,21,1219.23,335.39,187.82,448.68,1,-1,-1,-1
291,12,1351.16,361.95,131.57,388.47,1,-1,-1,-1
291,19,1076.18,352.91,156.20,429.95,1,-1,-1,-1
291,21,1220.77,338.44,186.12,444.08,1,-1,-1,-1
292,12,1357.42,362.06,132.29,387.21,1,-1,-1,-1
292,19,1078.01,359.15,153.51,426.06,1,-1,-1,-1
292,21,1221.26,339.69,185.56,442.26,1,-1,-1,-1
293,12,1362.52,364.84,137.45,391.52,1,-1,-1,-1
293,19,1085.44,362.10,149.73,414.69,1,-1,-1,-1
293,21,1221.05,353.45,180.08,428.98,1,-1,-1,-1
293,22,1700.00,511.00,84.00,203.00,1,-1,-1,-1
294,12,1363.00,365.84,140.76,393.20,1,-1,-1,-1
294,19,1088.16,363.15,148.51,410.53,1,-1,-1,-1
294,21,1220.90,358.71,178.04,423.93,1,-1,-1,-1
294,22,1700.00,511.00,84.00,203.00,1,-1,-1,-1
295,12,1367.44,357.39,144.16,404.73,1,-1,-1,-1
295,19,1098.69,366.17,142.37,395.73,1,-1,-1,-1
295,21,1219.66,362.62,170.93,411.44,1,-1,-1,-1
296,12,1368.77,354.26,145.11,409.03,1,-1,-1,-1
296,19,1102.78,367.23,139.75,390.37,1,-1,-1,-1
296,21,1219.64,364.03,167.35,406.84,1,-1,-1,-1
297,12,1374.01,354.43,143.56,407.98,1,-1,-1,-1
297,19,1103.70,362.84,139.85,389.94,1,-1,-1,-1
297,21,1219.71,363.82,161.19,395.88,1,-1,-1,-1
298,12,1375.78,354.53,142.43,407.55,1,-1,-1,-1
298,19,1103.90,361.19,140.08,389.94,1,-1,-1,-1
298,21,1220.15,363.68,158.12,391.96,1,-1,-1,-1
299,12,1381.92,353.94,141.57,413.34,1,-1,-1,-1
299,19,1108.51,358.54,141.01,397.45,1,-1,-1,-1
299,21,1217.35,360.22,156.92,398.73,1,-1,-1,-1
300,12,1384.62,353.74,139.82,415.49,1,-1,-1,-1
300,19,1110.64,357.55,140.43,400.33,1,-1,-1,-1
300,21,1217.41,358.93,154.36,401.32,1,-1,-1,-1
301,12,1388.69,356.34,137.01,405.70,1,-1,-1,-1
301,19,1109.41,364.45,137.55,391.60,1,-1,-1,-1
301,21,1221.62,359.74,149.09,390.47,1,-1,-1,-1
302,12,1389.76,357.35,136.14,401.90,1,-1,-1,-1
302,19,1108.81,367.07,136.58,388.36,1,-1,-1,-1
302,21,1223.52,360.04,146.57,386.46,1,-1,-1,-1
303,12,1390.60,368.39,136.39,398.50,1,-1,-1,-1
303,19,1119.37,364.01,140.58,397.26,1,-1,-1,-1
303,21,1217.31,361.47,148.83,391.12,1,-1,-1,-1
304,12,1390.30,372.52,137.20,397.25,1,-1,-1,-1
304,19,1122.98,362.85,142.55,400.61,1,-1,-1,-1
304,21,1214.89,361.99,149.96,392.93,1,-1,-1,-1
305,12,1392.42,375.34,136.60,390.83,1,-1,-1,-1
305,19,1126.19,371.63,142.10,392.04,1,-1,-1,-1
305,21,1214.25,369.45,143.31,376.47,1,-1,-1,-1
306,12,1392.57,376.33,137.21,388.45,1,-1,-1,-1
306,19,1126.63,374.95,143.25,388.81,1,-1,-1,-1
306,21,1214.15,372.26,140.63,370.31,1,-1,-1,-1
307,12,1395.33,371.97,137.01,386.96,1,-1,-1,-1
307,19,1131.76,375.48,144.22,389.67,1,-1,-1,-1
307,21,1208.97,377.94,137.28,366.85,1,-1,-1,-1
308,12,1396.09,370.29,137.12,386.46,1,-1,-1,-1
308,19,1133.39,375.62,144.96,390.05,1,-1,-1,-1
308,21,1207.64,379.97,135.03,365.72,1,-1,-1,-1
309,12,1399.52,362.98,141.87,400.96,1,-1,-1,-1
309,19,1142.85,385.56,139.93,377.00,1,-1,-1,-1
309,21,1202.47,384.66,132.34,363.43,1,-1,-1,-1
310,12,1400.80,360.27,143.42,406.35,1,-1,-1,-1
310,19,1146.33,389.27,137.95,372.12,1,-1,-1,-1
310,21,1201.10,386.32,130.42,362.72,1,-1,-1,-1
311,6,1483.78,366.16,144.89,376.79,1,-1,-1,-1
311,12,1394.89,358.58,142.74,404.48,1,-1,-1,-1
311,19,1149.96,389.21,137.66,367.74,1,-1,-1,-1
311,21,1205.22,377.51,132.67,370.58,1,-1,-1,-1
312,6,1493.06,365.72,143.02,376.86,1,-1,-1,-1
312,12,1392.48,357.96,142.45,403.73,1,-1,-1,-1
312,19,1150.81,389.09,138.30,366.24,1,-1,-1,-1
312,21,1206.96,374.19,133.21,373.57,1,-1,-1,-1
313,6,1496.03,371.53,142.83,374.91,1,-1,-1,-1
313,12,1387.98,359.07,142.06,406.06,1,-1,-1,-1
313,19,1154.23,390.92,137.22,363.38,1,-1,-1,-1
313,21,1212.05,368.94,136.58,385.34,1,-1,-1,-1
314,6,1496.20,373.77,142.96,374.18,1,-1,-1,-1
314,12,1386.54,359.51,141.27,406.92,1,-1,-1,-1
314,21,1214.21,366.95,137.40,389.78,1,-1,-1,-1
315,6,1501.07,376.61,143.21,364.62,1,-1,-1,-1
315,12,1382.25,364.31,137.16,393.38,1,-1,-1,-1
315,19,1145.33,386.40,139.05,363.07,1,-1,-1,-1
315,21,1220.74,370.79,136.19,382.31,1,-1,-1,-1
316,6,1501.35,377.68,144.86,361.03,1,-1,-1,-1
316,12,1380.42,366.16,135.86,388.17,1,-1,-1,-1
316,19,1143.34,385.74,140.70,362.99,1,-1,-1,-1
316,21,1222.90,372.27,136.43,379.40,1,-1,-1,-1
317,6,1508.50,388.76,141.64,350.40,1,-1,-1,-1
317,12,1381.16,379.51,128.55,368.95,1,-1,-1,-1
317,19,1144.87,386.53,139.91,360.95,1,-1,-1,-1
317,21,1218.55,372.17,138.83,384.28,1,-1,-1,-1
318,6,1510.30,392.87,140.93,346.51,1,-1,-1,-1
318,12,1381.57,384.50,125.53,361.80,1,-1,-1,-1
318,21,1216.74,372.12,140.08,386.12,1,-1,-1,-1
319,6,1506.08,386.25,142.13,347.21,1,-1,-1,-1
319,12,1385.97,376.12,126.76,364.06,1,-1,-1,-1
319,21,1216.12,374.07,137.09,373.64,1,-1,-1,-1
320,6,1503.90,383.74,143.07,347.57,1,-1,-1,-1
320,12,1387.44,373.01,127.49,365.00,1,-1,-1,-1
320,21,1215.50,374.81,136.70,368.85,1,-1,-1,-1
321,6,1503.80,388.10,141.96,345.14,1,-1,-1,-1
321,12,1386.24,371.14,126.59,365.47,1,-1,-1,-1
321,21,1218.43,373.73,136.25,367.12,1,-1,-1,-1
322,6,1503.45,389.71,141.52,344.32,1,-1,-1,-1
322,12,1386.04,370.43,125.72,365.75,1,-1,-1,-1
322,21,1219.46,373.32,136.20,366.54,1,-1,-1,-1
323,6,1501.60,387.60,145.62,348.09,1,-1,-1,-1
323,12,1386.44,370.48,125.06,363.82,1,-1,-1,-1
323,21,1217.72,367.18,138.44,371.02,1,-1,-1,-1
324,6,1500.04,386.78,148.49,349.56,1,-1,-1,-1
324,21,1216.90,364.89,139.60,372.74,1,-1,-1,-1
325,6,1499.67,379.83,150.70,354.80,1,-1,-1,-1
325,21,1217.44,372.63,135.69,358.89,1,-1,-1,-1
326,6,1499.37,377.21,151.55,356.79,1,-1,-1,-1
326,21,1217.32,375.62,134.84,353.63,1,-1,-1,-1
327,6,1498.58,376.88,149.59,357.56,1,-1,-1,-1
327,21,1217.61,382.06,132.51,347.76,1,-1,-1,-1
328,6,1498.73,376.78,147.67,357.86,1,-1,-1,-1
328,21,1217.73,384.43,131.64,345.68,1,-1,-1,-1
329,6,1498.71,378.08,146.86,357.97,1,-1,-1,-1
329,21,1217.60,381.24,133.03,349.69,1,-1,-1,-1
330,6,1498.82,378.59,146.11,358.01,1,-1,-1,-1
330,21,1217.57,380.03,133.50,351.26,1,-1,-1,-1
331,6,1497.99,383.41,142.78,354.06,1,-1,-1,-1
331,21,1215.98,381.52,134.21,351.92,1,-1,-1,-1
332,6,1498.03,385.24,140.63,352.57,1,-1,-1,-1
332,21,1215.25,382.07,134.75,352.22,1,-1,-1,-1
333,6,1496.63,389.89,138.56,350.70,1,-1,-1,-1
333,12,1390.56,392.48,119.83,347.92,1,-1,-1,-1
333,21,1220.20,389.53,135.77,350.40,1,-1,-1,-1
334,6,1496.40,391.62,137.11,350.01,1,-1,-1,-1
334,12,1390.61,393.31,119.85,347.46,1,-1,-1,-1
334,21,1221.61,392.31,137.08,349.75,1,-1,-1,-1
335,6,1503.06,396.20,131.60,336.53,1,-1,-1,-1
335,12,1391.00,394.79,119.31,345.89,1,-1,-1,-1
335,21,1229.23,400.59,134.63,334.97,1,-1,-1,-1
336,6,1505.60,397.89,129.42,331.45,1,-1,-1,-1
336,21,1231.25,403.64,135.38,329.42,1,-1,-1,-1
337,6,1506.74,400.46,127.46,329.00,1,-1,-1,-1
337,12,1388.70,402.21,115.22,332.75,1,-1,-1,-1
337,21,1225.83,402.66,137.79,336.22,1,-1,-1,-1
338,6,1507.37,401.35,126.24,328.19,1,-1,-1,-1
338,12,1388.21,403.35,114.86,330.74,1,-1,-1,-1
338,21,1223.92,402.24,138.48,338.78,1,-1,-1,-1
339,6,1508.42,393.62,130.06,337.98,1,-1,-1,-1
339,12,1380.07,396.34,118.59,336.79,1,-1,-1,-1
339,21,1230.31,402.00,137.69,334.52,1,-1,-1,-1
340,6,1508.76,390.73,131.53,341.66,1,-1,-1,-1
340,12,1376.73,393.73,120.74,339.06,1,-1,-1,-1
340,21,1232.46,401.83,137.90,332.96,1,-1,-1,-1
341,6,1507.72,390.27,130.39,342.43,1,-1,-1,-1
341,12,1376.75,392.06,121.71,343.95,1,-1,-1,-1
341,21,1229.10,406.37,138.22,331.78,1,-1,-1,-1
342,6,1507.66,390.09,129.21,342.74,1,-1,-1,-1
342,12,1376.98,391.41,121.72,345.83,1,-1,-1,-1
342,21,1227.58,408.02,138.79,331.40,1,-1,-1,-1
343,6,1509.07,397.94,124.51,333.62,1,-1,-1,-1
343,12,1384.37,394.46,120.39,344.57,1,-1,-1,-1
343,21,1217.51,400.60,142.04,338.62,1,-1,-1,-1
343,23,1646.00,394.00,116.00,343.00,1,-1,-1,-1
343,24,1723.00,472.00,58.00,196.00,1,-1,-1,-1
344,6,1509.89,400.93,122.08,330.17,1,-1,-1,-1
344,12,1387.42,395.61,119.46,344.11,1,-1,-1,-1
344,21,1213.68,397.80,143.38,341.34,1,-1,-1,-1
344,23,1646.00,394.00,116.00,343.00,1,-1,-1,-1
344,24,1723.00,472.00,58.00,196.00,1,-1,-1,-1
345,6,1507.71,400.67,119.47,322.93,1,-1,-1,-1
345,12,1387.32,398.68,118.30,339.97,1,-1,-1,-1
345,21,1215.87,399.99,142.56,336.48,1,-1,-1,-1
345,23,1652.52,389.32,113.10,333.65,1,-1,-1,-1
346,6,1506.85,400.52,118.55,320.29,1,-1,-1,-1
346,12,1387.20,399.81,118.01,338.42,1,-1,-1,-1
346,21,1216.43,400.82,142.87,334.62,1,-1,-1,-1
346,23,1654.43,387.86,112.44,330.72,1,-1,-1,-1
347,6,1503.29,406.45,117.34,317.39,1,-1,-1,-1
347,12,1391.40,402.20,118.69,334.55,1,-1,-1,-1
347,21,1216.19,401.33,142.55,333.87,1,-1,-1,-1
347,23,1654.94,394.97,110.68,324.07,1,-1,-1,-1
347,25,1716.00,446.00,82.00,245.00,1,-1,-1,-1
348,6,1502.00,408.62,116.86,316.40,1,-1,-1,-1
348,12,1392.45,403.06,119.98,333.14,1,-1,-1,-1
348,23,1654.78,397.38,110.56,322.09,1,-1,-1,-1
348,25,1716.00,446.00,82.00,245.00,1,-1,-1,-1
349,6,1501.62,410.11,116.09,314.33,1,-1,-1,-1
349,12,1399.21,406.67,116.98,325.34,1,-1,-1,-1
349,23,1656.34,398.55,109.24,318.24,1,-1,-1,-1
350,12,1401.76,407.98,115.77,322.47,1,-1,-1,-1
351,12,1402.32,408.42,114.67,321.48,1,-1,-1,-1
351,23,1669.51,393.86,111.88,320.75,1,-1,-1,-1
352,12,1402.66,408.53,113.90,321.18,1,-1,-1,-1
352,23,1670.56,393.29,113.66,320.94,1,-1,-1,-1
353,6,1495.35,408.65,114.97,310.60,1,-1,-1,-1
353,12,1402.38,403.21,114.99,325.80,1,-1,-1,-1
353,21,1129.34,426.73,135.31,311.04,1,-1,-1,-1
353,23,1666.38,397.15,112.40,319.00,1,-1,-1,-1
354,6,1494.70,408.45,115.11,310.37,1,-1,-1,-1
354,12,1402.38,401.20,115.13,327.58,1,-1,-1,-1
354,21,1122.87,428.32,136.70,309.64,1,-1,-1,-1
354,23,1664.90,398.57,111.64,318.37,1,-1,-1,-1
355,6,1493.91,409.14,114.55,308.88,1,-1,-1,-1
355,12,1407.90,404.39,112.65,321.68,1,-1,-1,-1
355,21,1115.89,430.59,135.75,307.47,1,-1,-1,-1
355,23,1667.33,401.75,111.98,318.89,1,-1,-1,-1
356,12,1410.05,405.59,111.52,319.47,1,-1,-1,-1
356,23,1668.13,402.91,112.21,319.14,1,-1,-1,-1
357,12,1416.22,407.36,111.60,318.04,1,-1,-1,-1
357,21,1120.79,417.92,144.25,319.26,1,-1,-1,-1
357,23,1669.68,403.90,111.77,317.89,1,-1,-1,-1
358,12,1418.30,408.00,111.95,317.55,1,-1,-1,-1
358,21,1120.26,416.08,147.68,320.97,1,-1,-1,-1
359,12,1419.02,400.25,114.73,322.73,1,-1,-1,-1
359,21,1114.98,411.45,152.61,328.20,1,-1,-1,-1
359,23,1670.53,399.17,114.16,321.87,1,-1,-1,-1
360,12,1418.96,397.34,116.30,324.70,1,-1,-1,-1
360,21,1112.74,409.72,155.23,330.90,1,-1,-1,-1
360,23,1670.32,398.46,115.24,322.46,1,-1,-1,-1
361,12,1423.55,398.89,116.75,322.83,1,-1,-1,-1
361,21,1112.39,405.79,160.13,337.16,1,-1,-1,-1
361,23,1671.56,398.63,115.08,322.03,1,-1,-1,-1
362,12,1424.93,399.50,117.50,322.13,1,-1,-1,-1
362,21,1111.90,404.32,162.94,339.51,1,-1,-1,-1
363,12,1427.07,399.24,117.34,321.67,1,-1,-1,-1
363,21,1106.93,412.31,158.76,329.21,1,-1,-1,-1
364,21,1104.99,415.43,157.47,325.18,1,-1,-1,-1
365,21,1095.36,406.62,164.40,340.94,1,-1,-1,-1
366,21,1092.07,403.38,166.57,346.73,1,-1,-1,-1
367,12,1483.06,400.76,115.96,319.07,1,-1,-1,-1
367,21,1086.70,400.84,168.68,350.22,1,-1,-1,-1
368,12,1488.31,400.92,115.53,318.86,1,-1,-1,-1
368,21,1084.67,399.91,169.69,351.49,1,-1,-1,-1
369,12,1494.59,400.91,115.35,318.36,1,-1,-1,-1
369,21,1086.49,394.35,172.99,359.10,1,-1,-1,-1
370,21,1087.38,392.28,174.02,361.91,1,-1,-1,-1
371,12,1483.80,407.76,115.71,311.97,1,-1,-1,-1
371,21,1092.22,399.37,172.81,356.37,1,-1,-1,-1
371,26,1672.00,422.00,126.00,306.00,1,-1,-1,-1
372,12,1481.23,408.83,117.53,310.98,1,-1,-1,-1
372,21,1093.84,402.18,173.02,354.11,1,-1,-1,-1
372,26,1672.00,422.00,126.00,306.00,1,-1,-1,-1
373,12,1484.75,406.52,114.02,302.65,1,-1,-1,-1
373,21,1094.26,413.81,168.31,341.98,1,-1,-1,-1
374,12,1485.99,405.62,112.57,299.59,1,-1,-1,-1
374,21,1094.19,418.25,167.09,337.31,1,-1,-1,-1
375,12,1489.17,405.86,111.82,297.59,1,-1,-1,-1
375,21,1087.35,413.19,176.35,352.25,1,-1,-1,-1
376,21,1084.34,411.31,180.79,357.73,1,-1,-1,-1
377,21,1071.46,392.90,190.34,378.12,1,-1,-1,-1
377,27,255.00,332.00,175.00,505.00,1,-1,-1,-1
377,28,1787.00,387.00,86.00,258.00,1,-1,-1,-1
378,21,1066.84,385.93,193.51,385.79,1,-1,-1,-1
378,27,255.00,332.00,175.00,505.00,1,-1,-1,-1
378,28,1787.00,387.00,86.00,258.00,1,-1,-1,-1
379,21,1061.04,383.90,193.82,384.78,1,-1,-1,-1
380,21,1058.71,383.20,194.26,384.21,1,-1,-1,-1
381,21,1053.65,376.47,192.46,381.24,1,-1,-1,-1
381,29,275.00,339.00,216.00,507.00,1,-1,-1,-1
382,21,1051.92,373.98,191.56,379.99,1,-1,-1,-1
382,29,275.00,339.00,216.00,507.00,1,-1,-1,-1
383,12,1521.06,398.31,107.40,280.05,1,-1,-1,-1
383,21,1045.74,370.50,199.84,395.87,1,-1,-1,-1
383,29,343.86,381.10,212.37,499.98,1,-1,-1,-1
384,12,1521.56,397.95,108.76,279.38,1,-1,-1,-1
384,21,1043.43,369.25,203.06,401.76,1,-1,-1,-1
384,29,365.71,394.27,210.64,497.79,1,-1,-1,-1
385,12,1525.08,397.47,107.99,277.41,1,-1,-1,-1
385,21,1039.14,366.27,203.50,405.86,1,-1,-1,-1
385,29,374.12,361.12,215.04,513.57,1,-1,-1,-1
386,21,1038.04,365.21,202.73,407.30,1,-1,-1,-1
386,29,376.87,349.63,214.71,518.86,1,-1,-1,-1
387,12,1517.43,382.42,115.61,296.11,1,-1,-1,-1
387,21,1043.47,363.59,205.31,416.86,1,-1,-1,-1
387,29,393.19,348.63,216.02,522.03,1,-1,-1,-1
387,30,968.00,376.00,174.00,408.00,1,-1,-1,-1
388,12,1516.29,380.15,116.95,298.85,1,-1,-1,-1
388,21,1046.22,363.05,205.06,420.38,1,-1,-1,-1
388,30,968.00,376.00,174.00,408.00,1,-1,-1,-1
389,12,1517.95,378.14,117.22,299.53,1,-1,-1,-1
389,21,1049.05,373.36,195.68,397.47,1,-1,-1,-1
389,30,969.28,376.78,170.65,398.65,1,-1,-1,-1
390,21,1049.86,377.51,192.74,388.26,1,-1,-1,-1
390,30,969.39,377.02,170.20,395.72,1,-1,-1,-1
391,21,1048.64,377.17,192.89,388.56,1,-1,-1,-1
391,29,502.25,417.76,177.37,419.27,1,-1,-1,-1
391,30,970.00,377.32,168.68,392.19,1,-1,-1,-1
392,29,508.10,423.51,177.15,410.57,1,-1,-1,-1
393,21,975.43,355.72,214.65,439.06,1,-1,-1,-1
393,29,521.25,400.81,189.14,433.80,1,-1,-1,-1
394,21,965.44,352.43,215.51,446.78,1,-1,-1,-1
394,29,524.94,393.03,194.44,441.77,1,-1,-1,-1
395,21,951.34,360.97,213.53,439.20,1,-1,-1,-1
395,29,524.59,352.49,206.92,472.46,1,-1,-1,-1
396,21,945.85,364.40,213.44,436.00,1,-1,-1,-1
396,29,524.41,337.50,210.96,483.85,1,-1,-1,-1
397,21,940.60,367.72,218.37,447.76,1,-1,-1,-1
397,29,536.93,331.53,212.24,486.79,1,-1,-1,-1
398,21,939.06,368.99,219.73,452.08,1,-1,-1,-1
399,21,928.35,340.84,229.34,478.99,1,-1,-1,-1
400,21,925.40,330.20,231.02,489.10,1,-1,-1,-1
401,21,909.31,311.27,239.53,513.46,1,-1,-1,-1
401,29,629.29,359.72,186.93,434.50,1,-1,-1,-1
401,31,565.00,390.00,173.00,408.00,1,-1,-1,-1
402,21,904.10,304.07,241.11,522.69,1,-1,-1,-1
402,29,637.78,363.17,182.52,429.03,1,-1,-1,-1
402,31,565.00,390.00,173.00,408.00,1,-1,-1,-1
403,21,899.23,314.29,232.46,509.92,1,-1,-1,-1
403,29,647.87,343.83,191.32,454.45,1,-1,-1,-1
403,30,802.67,338.28,195.64,469.23,1,-1,-1,-1
404,21,898.40,318.59,227.51,504.45,1,-1,-1,-1
404,29,651.86,336.98,193.36,463.48,1,-1,-1,-1
404,30,800.02,337.10,191.66,471.51,1,-1,-1,-1
405,21,894.17,328.23,224.10,503.46,1,-1,-1,-1
405,29,664.40,328.55,191.87,461.71,1,-1,-1,-1
405,30,800.04,318.75,195.39,490.20,1,-1,-1,-1
406,21,893.60,331.99,221.18,502.90,1,-1,-1,-1
406,29,668.81,325.47,190.91,460.96,1,-1,-1,-1
406,30,801.23,311.76,194.94,497.28,1,-1,-1,-1
407,21,886.67,330.61,223.10,507.27,1,-1,-1,-1
407,29,680.55,319.84,184.58,445.42,1,-1,-1,-1
407,30,792.96,299.49,204.58,526.89,1,-1,-1,-1
408,29,684.39,317.90,182.21,439.47,1,-1,-1,-1
408,30,790.47,294.86,207.22,538.13,1,-1,-1,-1
409,29,695.43,313.98,181.59,437.97,1,-1,-1,-1
409,30,790.76,304.10,206.99,531.40,1,-1,-1,-1
410,30,790.72,307.97,207.86,528.38,1,-1,-1,-1
411,30,790.96,316.74,206.20,513.94,1,-1,-1,-1
412,30,790.41,320.25,207.38,508.12,1,-1,-1,-1
413,30,785.47,309.08,217.01,524.94,1,-1,-1,-1
414,30,783.01,304.96,222.06,531.13,1,-1,-1,-1
415,30,775.05,302.80,225.35,535.95,1,-1,-1,-1
416,30,771.85,302.07,227.20,537.63,1,-1,-1,-1
417,30,772.85,350.33,214.61,497.50,1,-1,-1,-1
418,30,772.60,369.32,211.53,481.54,1,-1,-1,-1
419,30,766.73,364.58,221.57,498.06,1,-1,-1,-1
420,30,763.90,362.80,226.76,504.03,1,-1,-1,-1
421,30,760.16,315.20,247.52,556.36,1,-1,-1,-1
422,30,759.62,297.56,253.55,575.74,1,-1,-1,-1
423,30,756.26,293.31,257.08,583.74,1,-1,-1,-1
427,29,919.46,313.44,190.52,485.41,1,-1,-1,-1
427,30,663.02,449.81,212.38,465.49,1,-1,-1,-1
428,29,927.26,313.69,183.96,486.59,1,-1,-1,-1
428,30,651.16,467.44,211.81,451.28,1,-1,-1,-1
429,21,617.72,314.87,257.62,589.12,1,-1,-1,-1
429,29,947.43,336.63,166.56,454.34,1,-1,-1,-1
429,30,641.80,478.04,209.36,446.05,1,-1,-1,-1
430,21,613.74,314.74,257.15,590.18,1,-1,-1,-1
430,29,955.37,345.61,158.10,441.61,1,-1,-1,-1
431,21,602.20,314.08,258.66,593.65,1,-1,-1,-1
431,29,966.74,348.35,157.23,439.18,1,-1,-1,-1
431,30,617.01,489.46,201.26,416.80,1,-1,-1,-1
432,30,611.60,491.12,203.82,412.64,1,-1,-1,-1
433,21,532.70,252.91,292.84,676.21,1,-1,-1,-1
433,30,602.82,499.46,200.32,405.54,1,-1,-1,-1
434,21,521.97,243.35,297.17,689.21,1,-1,-1,-1
435,21,505.93,236.07,302.20,700.88,1,-1,-1,-1
435,30,542.91,479.50,229.46,462.34,1,-1,-1,-1
436,30,533.56,477.26,234.08,469.82,1,-1,-1,-1
437,21,488.34,265.75,300.69,695.09,1,-1,-1,-1
437,30,520.27,480.52,235.14,471.94,1,-1,-1,-1
438,21,485.40,270.97,300.89,693.85,1,-1,-1,-1
439,21,477.10,279.33,302.39,693.43,1,-1,-1,-1
440,21,474.05,282.56,303.57,693.01,1,-1,-1,-1
441,21,448.30,251.66,323.82,737.24,1,-1,-1,-1
442,21,438.64,240.13,331.78,753.66,1,-1,-1,-1
443,21,425.75,235.26,336.65,764.72,1,-1,-1,-1
443,29,1109.75,403.63,130.55,341.14,1,-1,-1,-1
444,29,1110.19,404.96,135.11,338.56,1,-1,-1,-1
445,29,1108.48,393.12,140.93,347.19,1,-1,-1,-1
446,29,1107.09,388.84,144.04,350.41,1,-1,-1,-1
447,21,306.90,236.61,318.89,721.07,1,-1,-1,-1
447,29,1109.16,383.13,143.26,349.11,1,-1,-1,-1
448,21,295.59,237.39,317.36,715.04,1,-1,-1,-1
448,29,1109.63,380.97,142.91,348.77,1,-1,-1,-1
449,21,279.38,231.53,331.49,739.35,1,-1,-1,-1
449,29,1115.93,380.55,141.87,346.24,1,-1,-1,-1
450,21,272.97,229.45,338.24,748.14,1,-1,-1,-1
451,21,232.20,235.34,348.62,763.11,1,-1,-1,-1
452,21,216.32,237.68,354.25,768.62,1,-1,-1,-1
453,21,183.68,230.81,355.80,751.49,1,-1,-1,-1
453,29,1191.76,390.98,138.87,341.54,1,-1,-1,-1
454,21,169.75,228.23,360.71,744.57,1,-1,-1,-1
454,29,1198.54,391.92,137.91,341.24,1,-1,-1,-1
455,21,105.30,190.26,387.63,800.79,1,-1,-1,-1
455,29,1209.21,392.70,137.18,339.43,1,-1,-1,-1
456,21,81.89,176.34,397.33,821.39,1,-1,-1,-1
457,21,55.36,162.68,399.36,827.26,1,-1,-1,-1
457,29,1220.16,393.19,129.43,313.84,1,-1,-1,-1
458,21,46.16,157.63,399.55,829.14,1,-1,-1,-1
458,29,1220.88,393.25,129.84,309.93,1,-1,-1,-1
459,21,26.96,160.54,394.68,834.72,1,-1,-1,-1
459,29,1229.71,393.85,128.14,305.86,1,-1,-1,-1
460,21,22.35,161.90,388.76,836.55,1,-1,-1,-1
461,21,10.38,135.84,401.87,874.88,1,-1,-1,-1
462,21,7.61,126.14,404.14,889.16,1,-1,-1,-1
463,21,7.58,133.00,405.64,886.55,1,-1,-1,-1
463,29,1222.83,395.09,141.44,317.76,1,-1,-1,-1
464,21,7.66,136.00,407.37,885.06,1,-1,-1,-1
464,29,1219.20,395.19,148.37,318.86,1,-1,-1,-1
465,21,2.95,140.00,401.56,880.20,1,-1,-1,-1
465,29,1233.94,399.18,152.38,324.55,1,-1,-1,-1
466,21,2.64,141.73,397.35,878.01,1,-1,-1,-1
466,29,1238.98,400.66,154.50,326.70,1,-1,-1,-1
467,21,-5.41,125.46,385.57,867.05,1,-1,-1,-1
467,29,1244.45,407.76,151.75,315.05,1,-1,-1,-1
467,32,260.00,331.00,208.00,562.00,1,-1,-1,-1
468,21,-6.20,119.44,377.48,862.62,1,-1,-1,-1
468,29,1245.64,410.44,151.91,310.58,1,-1,-1,-1
468,32,260.00,331.00,208.00,562.00,1,-1,-1,-1
469,21,-17.84,114.16,379.05,866.21,1,-1,-1,-1
469,29,1251.07,412.11,151.11,308.95,1,-1,-1,-1
469,32,281.49,337.24,196.21,526.92,1,-1,-1,-1
470,32,287.62,339.17,193.62,516.03,1,-1,-1,-1
471,32,341.05,356.23,177.32,468.99,1,-1,-1,-1
472,32,356.88,361.46,173.51,455.07,1,-1,-1,-1
473,32,370.29,355.49,185.41,478.02,1,-1,-1,-1
474,32,373.12,353.45,191.74,485.79,1,-1,-1,-1
475,32,381.92,358.02,185.70,462.42,1,-1,-1,-1
476,32,383.14,359.55,185.52,454.25,1,-1,-1,-1
477,32,389.19,374.44,182.16,441.45,1,-1,-1,-1
478,32,390.18,379.65,182.24,437.31,1,-1,-1,-1
479,32,401.41,383.38,184.96,439.62,1,-1,-1,-1
480,32,404.55,384.56,187.11,440.78,1,-1,-1,-1
481,32,412.08,385.50,193.19,452.93,1,-1,-1,-1
482,32,414.28,385.72,196.03,457.58,1,-1,-1,-1
483,32,419.19,404.21,190.85,446.90,1,-1,-1,-1
484,32,420.77,411.07,188.63,443.00,1,-1,-1,-1
485,32,463.08,378.66,196.00,452.40,1,-1,-1,-1
486,32,477.46,366.62,200.66,455.96,1,-1,-1,-1
487,32,490.66,364.67,208.49,473.25,1,-1,-1,-1
488,32,495.21,363.95,211.56,479.76,1,-1,-1,-1
489,32,504.92,356.52,216.74,488.14,1,-1,-1,-1
490,32,507.83,353.71,219.51,491.30,1,-1,-1,-1
491,32,514.43,362.50,210.66,477.38,1,-1,-1,-1
492,32,517.10,365.97,205.89,471.93,1,-1,-1,-1
493,32,524.94,387.17,195.69,450.00,1,-1,-1,-1
493,33,121.00,475.00,205.00,493.00,1,-1,-1,-1
494,32,527.57,395.19,191.53,441.73,1,-1,-1,-1
494,33,121.00,475.00,205.00,493.00,1,-1,-1,-1
495,32,538.96,400.71,176.64,406.59,1,-1,-1,-1
496,32,542.61,402.59,171.31,393.63,1,-1,-1,-1
497,21,200.43,236.81,229.20,559.80,1,-1,-1,-1
497,32,549.95,388.77,181.49,413.31,1,-1,-1,-1
498,21,208.42,238.68,218.68,556.25,1,-1,-1,-1
498,32,551.95,383.89,186.05,420.30,1,-1,-1,-1
499,21,240.69,248.90,263.36,633.27,1,-1,-1,-1
499,32,539.54,352.19,204.91,462.22,1,-1,-1,-1
500,21,248.23,252.30,284.75,659.08,1,-1,-1,-1
500,32,534.81,340.50,212.05,477.71,1,-1,-1,-1
501,21,263.02,257.80,290.38,672.13,1,-1,-1,-1
501,32,528.93,321.14,222.36,505.10,1,-1,-1,-1
502,32,527.07,313.77,225.27,515.58,1,-1,-1,-1
503,32,595.16,340.71,204.31,471.20,1,-1,-1,-1
504,32,622.67,351.99,194.99,452.87,1,-1,-1,-1
505,32,643.59,354.80,187.16,432.13,1,-1,-1,-1
506,32,650.56,355.91,184.84,424.51,1,-1,-1,-1
507,32,653.99,340.88,194.21,456.14,1,-1,-1,-1
508,32,656.44,335.49,194.98,467.52,1,-1,-1,-1
509,21,475.43,260.57,283.93,645.01,1,-1,-1,-1
509,32,654.44,321.10,195.73,478.45,1,-1,-1,-1
510,21,482.31,259.99,286.20,641.99,1,-1,-1,-1
510,32,654.38,315.67,193.94,482.57,1,-1,-1,-1
511,21,503.35,261.90,287.06,643.91,1,-1,-1,-1
511,32,660.85,311.36,195.31,485.98,1,-1,-1,-1
513,21,513.97,257.41,293.07,639.42,1,-1,-1,-1
514,21,513.31,256.74,298.70,638.75,1,-1,-1,-1
515,21,589.58,280.55,264.99,595.08,1,-1,-1,-1
516,21,619.87,289.50,247.28,578.53,1,-1,-1,-1
517,21,630.33,268.77,253.68,611.57,1,-1,-1,-1
518,21,635.77,261.37,251.99,623.35,1,-1,-1,-1
519,21,645.08,252.54,252.25,638.47,1,-1,-1,-1
520,21,649.42,249.19,249.44,644.19,1,-1,-1,-1
521,21,656.44,270.93,233.62,610.85,1,-1,-1,-1
522,21,658.89,279.42,226.13,597.78,1,-1,-1,-1
523,21,675.77,287.16,215.97,576.31,1,-1,-1,-1
524,21,681.94,289.94,211.24,568.48,1,-1,-1,-1
525,21,694.11,292.61,209.32,563.34,1,-1,-1,-1
