1,490,652.10,178.00,178.75,477.82,1,-1,-1,-1
1,500,201.35,61.01,284.62,766.16,1,-1,-1,-1
1,501,1082.29,251.74,149.45,349.24,1,-1,-1,-1
1,502,1477.00,513.00,46.00,107.00,1,-1,-1,-1
1,503,1423.00,493.00,40.00,117.00,1,-1,-1,-1
2,502,1477.00,513.00,46.00,107.00,1,-1,-1,-1
2,503,1423.00,493.00,40.00,117.00,1,-1,-1,-1
3,504,563.00,503.00,48.00,113.00,1,-1,-1,-1
4,504,563.00,503.00,48.00,113.00,1,-1,-1,-1
5,504,554.00,496.76,48.84,115.34,1,-1,-1,-1
5,505,1430.00,498.00,38.00,111.00,1,-1,-1,-1
6,504,551.24,494.80,48.96,116.07,1,-1,-1,-1
6,505,1430.00,498.00,38.00,111.00,1,-1,-1,-1
7,504,562.02,493.58,49.51,118.45,1,-1,-1,-1
7,505,1443.09,506.58,34.44,100.09,1,-1,-1,-1
8,504,565.99,493.27,49.32,119.22,1,-1,-1,-1
8,505,1447.05,509.22,33.49,96.72,1,-1,-1,-1
9,504,567.11,491.60,49.81,120.40,1,-1,-1,-1
9,505,1442.59,512.87,34.00,98.27,1,-1,-1,-1
10,505,1441.07,513.88,34.18,98.88,1,-1,-1,-1
11,505,1446.41,516.90,33.70,97.08,1,-1,-1,-1
12,505,1448.17,517.81,33.66,96.53,1,-1,-1,-1
13,504,570.62,487.79,50.97,125.94,1,-1,-1,-1
13,505,1451.22,522.16,35.55,101.24,1,-1,-1,-1
14,504,571.34,487.52,50.12,126.37,1,-1,-1,-1
14,505,1452.17,523.64,36.40,102.94,1,-1,-1,-1
15,504,572.21,486.30,50.59,127.55,1,-1,-1,-1
15,505,1459.13,523.41,33.99,94.27,1,-1,-1,-1
15,506,1439.00,529.00,39.00,89.00,1,-1,-1,-1
16,505,1461.50,523.11,33.40,90.93,1,-1,-1,-1
16,506,1439.00,529.00,39.00,89.00,1,-1,-1,-1
17,505,1459.71,528.43,31.37,82.94,1,-1,-1,-1
17,506,1435.40,536.80,36.07,81.98,1,-1,-1,-1
18,505,1458.65,530.23,31.14,80.15,1,-1,-1,-1
18,506,1434.22,539.21,35.29,79.81,1,-1,-1,-1
19,505,1464.26,531.46,31.51,78.59,1,-1,-1,-1
19,506,1438.22,538.99,35.69,80.08,1,-1,-1,-1
20,505,1465.88,531.80,32.23,78.14,1,-1,-1,-1
20,506,1439.42,538.81,36.08,80.27,1,-1,-1,-1
21,505,1468.28,533.65,31.38,76.08,1,-1,-1,-1
21,506,1442.51,534.41,39.32,86.79,1,-1,-1,-1
21,507,1727.00,578.00,84.00,158.00,1,-1,-1,-1
22,506,1443.46,532.87,40.68,89.05,1,-1,-1,-1
22,507,1727.00,578.00,84.00,158.00,1,-1,-1,-1
23,506,1444.81,526.25,42.43,92.58,1,-1,-1,-1
24,506,1445.24,523.76,43.17,93.88,1,-1,-1,-1
25,504,524.58,530.26,48.55,121.55,1,-1,-1,-1
25,506,1443.02,530.10,46.12,100.93,1,-1,-1,-1
25,508,1768.00,585.00,77.00,167.00,1,-1,-1,-1
26,504,522.38,532.23,48.64,121.14,1,-1,-1,-1
26,506,1442.26,532.49,47.04,103.55,1,-1,-1,-1
26,508,1768.00,585.00,77.00,167.00,1,-1,-1,-1
27,504,534.35,527.53,49.45,124.39,1,-1,-1,-1
27,506,1440.06,545.09,45.93,101.29,1,-1,-1,-1
27,508,1766.93,593.58,76.02,164.66,1,-1,-1,-1
28,504,538.87,525.76,49.52,125.57,1,-1,-1,-1
28,506,1439.18,550.07,45.40,100.29,1,-1,-1,-1
28,508,1766.55,596.26,75.80,163.93,1,-1,-1,-1
29,504,539.13,527.00,49.27,125.34,1,-1,-1,-1
29,506,1440.44,540.72,50.54,113.68,1,-1,-1,-1
29,508,1779.51,614.70,74.86,162.27,1,-1,-1,-1
29,509,1463.00,543.00,45.00,107.00,1,-1,-1,-1
30,504,539.28,527.41,49.09,125.24,1,-1,-1,-1
30,506,1441.21,537.33,51.81,118.57,1,-1,-1,-1
30,508,1783.88,620.62,74.43,161.77,1,-1,-1,-1
30,509,1463.00,543.00,45.00,107.00,1,-1,-1,-1
31,504,538.98,528.55,49.21,125.54,1,-1,-1,-1
31,506,1458.42,542.88,48.93,112.86,1,-1,-1,-1
31,508,1787.45,627.78,73.99,160.81,1,-1,-1,-1
31,509,1452.73,535.20,49.95,119.47,1,-1,-1,-1
31,510,578.00,549.00,51.00,116.00,1,-1,-1,-1
32,506,1465.54,545.14,47.48,110.35,1,-1,-1,-1
32,509,1449.60,532.71,51.22,123.46,1,-1,-1,-1
32,510,578.00,549.00,51.00,116.00,1,-1,-1,-1
33,504,553.23,519.97,51.74,132.79,1,-1,-1,-1
33,506,1452.90,534.12,51.09,120.53,1,-1,-1,-1
33,509,1445.63,529.73,53.20,128.24,1,-1,-1,-1
34,504,555.55,518.66,51.91,133.93,1,-1,-1,-1
34,506,1448.52,530.09,51.94,124.25,1,-1,-1,-1
35,504,549.03,518.84,50.26,129.73,1,-1,-1,-1
35,506,1458.94,529.75,54.01,128.85,1,-1,-1,-1
36,504,546.47,518.92,49.59,128.07,1,-1,-1,-1
36,506,1462.98,529.65,54.88,130.58,1,-1,-1,-1
37,504,546.65,518.84,49.69,128.32,1,-1,-1,-1
37,505,1425.52,505.20,39.44,97.81,1,-1,-1,-1
37,506,1466.48,521.27,56.45,135.01,1,-1,-1,-1
38,505,1424.72,504.47,39.03,98.36,1,-1,-1,-1
38,506,1467.88,518.04,56.87,136.66,1,-1,-1,-1
39,505,1422.64,503.12,39.41,99.32,1,-1,-1,-1
39,506,1467.77,514.89,58.83,143.00,1,-1,-1,-1
40,506,1467.88,513.71,59.18,145.38,1,-1,-1,-1
41,506,1475.26,521.66,56.04,137.85,1,-1,-1,-1
42,506,1478.15,524.93,54.69,134.67,1,-1,-1,-1
43,505,1430.90,498.85,38.13,99.49,1,-1,-1,-1
43,506,1473.67,523.52,51.93,128.80,1,-1,-1,-1
44,505,1432.51,498.55,37.11,99.39,1,-1,-1,-1
44,506,1471.97,523.01,50.68,126.50,1,-1,-1,-1
45,505,1431.63,497.35,37.36,100.04,1,-1,-1,-1
45,506,1457.37,520.84,53.42,135.64,1,-1,-1,-1
46,506,1452.32,520.05,53.86,138.96,1,-1,-1,-1
47,504,550.17,518.98,48.63,124.18,1,-1,-1,-1
47,506,1444.84,524.97,50.80,133.07,1,-1,-1,-1
48,504,550.10,518.99,48.95,123.99,1,-1,-1,-1
48,506,1442.17,526.95,49.17,130.64,1,-1,-1,-1
49,504,558.89,521.66,48.81,122.59,1,-1,-1,-1
49,506,1443.11,541.65,45.51,121.07,1,-1,-1,-1
50,504,562.04,522.66,48.94,122.08,1,-1,-1,-1
50,506,1443.62,547.22,44.07,117.41,1,-1,-1,-1
51,504,563.59,523.04,48.79,121.72,1,-1,-1,-1
51,506,1442.02,549.44,43.69,116.40,1,-1,-1,-1
51,511,1409.00,551.00,41.00,115.00,1,-1,-1,-1
52,511,1409.00,551.00,41.00,115.00,1,-1,-1,-1
53,504,551.30,524.82,48.71,121.00,1,-1,-1,-1
53,506,1404.72,547.10,42.67,114.92,1,-1,-1,-1
54,504,549.36,525.10,48.84,120.89,1,-1,-1,-1
54,506,1399.37,546.78,42.19,114.68,1,-1,-1,-1
55,504,560.04,523.19,49.52,122.18,1,-1,-1,-1
55,506,1401.69,553.37,40.58,109.25,1,-1,-1,-1
56,504,563.96,522.47,49.86,122.67,1,-1,-1,-1
56,506,1402.75,555.76,40.18,107.27,1,-1,-1,-1
57,504,565.27,522.56,49.83,122.60,1,-1,-1,-1
57,505,1446.43,574.72,33.05,83.61,1,-1,-1,-1
57,506,1407.18,553.17,39.70,105.25,1,-1,-1,-1
57,512,1409.00,519.00,27.00,82.00,1,-1,-1,-1
58,505,1446.52,577.53,33.97,82.94,1,-1,-1,-1
58,506,1408.89,552.15,39.69,104.58,1,-1,-1,-1
58,512,1409.00,519.00,27.00,82.00,1,-1,-1,-1
59,505,1447.27,581.81,33.63,82.12,1,-1,-1,-1
59,506,1404.10,545.67,40.62,107.76,1,-1,-1,-1
59,512,1407.07,497.17,27.74,84.34,1,-1,-1,-1
59,513,1420.00,479.00,32.00,86.00,1,-1,-1,-1
59,514,374.00,529.00,50.00,144.00,1,-1,-1,-1
60,506,1402.49,543.28,40.83,108.95,1,-1,-1,-1
60,512,1406.48,490.29,27.95,85.08,1,-1,-1,-1
60,513,1420.00,479.00,32.00,86.00,1,-1,-1,-1
60,514,374.00,529.00,50.00,144.00,1,-1,-1,-1
61,506,1403.84,539.72,43.17,114.73,1,-1,-1,-1
61,512,1405.74,482.00,28.24,85.96,1,-1,-1,-1
61,514,365.12,526.66,49.83,143.22,1,-1,-1,-1
62,506,1404.34,538.41,44.14,116.90,1,-1,-1,-1
62,514,362.29,525.93,49.86,142.98,1,-1,-1,-1
63,504,569.21,515.44,53.80,132.41,1,-1,-1,-1
63,506,1403.47,546.40,42.91,110.56,1,-1,-1,-1
63,514,358.95,525.04,49.76,142.68,1,-1,-1,-1
64,504,569.38,514.97,54.06,133.06,1,-1,-1,-1
64,506,1402.96,549.57,42.96,108.05,1,-1,-1,-1
65,504,555.32,514.81,52.90,130.66,1,-1,-1,-1
65,506,1402.82,553.39,42.33,104.48,1,-1,-1,-1
65,514,369.69,528.49,48.35,139.27,1,-1,-1,-1
65,515,1595.00,545.00,74.00,176.00,1,-1,-1,-1
66,504,549.97,514.76,52.36,129.72,1,-1,-1,-1
66,506,1402.63,554.78,42.50,103.18,1,-1,-1,-1
66,514,370.98,528.88,47.98,138.85,1,-1,-1,-1
66,515,1595.00,545.00,74.00,176.00,1,-1,-1,-1
67,504,548.91,514.32,52.48,130.02,1,-1,-1,-1
67,506,1397.96,549.88,44.48,109.45,1,-1,-1,-1
67,514,372.60,531.07,47.51,137.34,1,-1,-1,-1
67,515,1597.11,548.12,74.46,177.56,1,-1,-1,-1
68,506,1396.47,548.10,44.84,111.73,1,-1,-1,-1
68,514,373.17,531.85,47.38,136.83,1,-1,-1,-1
68,515,1597.87,549.10,74.42,178.05,1,-1,-1,-1
69,504,536.07,526.55,47.79,119.15,1,-1,-1,-1
69,506,1396.97,552.63,44.91,111.31,1,-1,-1,-1
69,514,379.21,532.80,47.84,138.72,1,-1,-1,-1
69,515,1603.22,550.07,74.36,178.17,1,-1,-1,-1
70,504,534.13,528.53,46.84,117.39,1,-1,-1,-1
70,506,1397.17,554.37,45.05,111.14,1,-1,-1,-1
70,514,381.46,533.12,47.90,139.43,1,-1,-1,-1
70,515,1605.03,550.34,74.24,178.18,1,-1,-1,-1
71,504,532.02,529.49,46.47,116.47,1,-1,-1,-1
71,506,1393.95,558.31,43.89,107.78,1,-1,-1,-1
71,514,381.38,535.89,47.02,137.05,1,-1,-1,-1
71,515,1606.88,545.49,75.75,183.06,1,-1,-1,-1
72,506,1392.72,559.77,43.54,106.49,1,-1,-1,-1
72,514,381.30,536.91,46.66,136.16,1,-1,-1,-1
72,515,1607.65,543.73,75.91,184.77,1,-1,-1,-1
73,506,1394.85,560.94,43.70,106.03,1,-1,-1,-1
73,514,378.38,533.90,46.87,136.53,1,-1,-1,-1
73,515,1609.74,539.72,76.89,189.40,1,-1,-1,-1
74,506,1395.59,561.34,43.95,105.87,1,-1,-1,-1
74,514,377.24,532.76,47.01,136.68,1,-1,-1,-1
74,515,1610.75,538.24,76.65,191.07,1,-1,-1,-1
75,504,516.94,521.03,50.74,126.82,1,-1,-1,-1
75,506,1402.43,554.14,44.93,109.15,1,-1,-1,-1
75,514,376.21,530.99,47.59,137.43,1,-1,-1,-1
75,515,1623.99,541.05,75.88,189.64,1,-1,-1,-1
76,504,515.60,520.27,51.22,127.75,1,-1,-1,-1
76,506,1405.09,551.45,45.08,110.38,1,-1,-1,-1
76,514,375.72,530.32,47.98,137.72,1,-1,-1,-1
76,515,1629.00,542.16,75.45,189.01,1,-1,-1,-1
77,504,512.99,519.98,51.42,128.24,1,-1,-1,-1
77,506,1403.41,554.35,43.32,107.56,1,-1,-1,-1
77,514,360.69,529.41,48.67,138.50,1,-1,-1,-1
77,515,1632.23,541.80,75.91,190.14,1,-1,-1,-1
78,506,1402.89,555.48,42.34,106.47,1,-1,-1,-1
78,514,354.93,529.07,49.16,138.80,1,-1,-1,-1
79,504,500.15,529.12,50.01,121.49,1,-1,-1,-1
79,506,1405.40,547.92,40.55,102.75,1,-1,-1,-1
79,514,359.15,530.27,48.58,136.94,1,-1,-1,-1
79,516,1435.00,486.00,33.00,81.00,1,-1,-1,-1
80,504,497.71,530.62,50.57,120.39,1,-1,-1,-1
80,506,1406.42,545.07,39.73,101.36,1,-1,-1,-1
80,514,360.81,530.74,48.40,136.23,1,-1,-1,-1
80,516,1435.00,486.00,33.00,81.00,1,-1,-1,-1
81,504,494.60,531.33,50.43,120.06,1,-1,-1,-1
81,506,1408.42,558.11,38.84,99.54,1,-1,-1,-1
81,514,351.87,530.25,48.96,137.31,1,-1,-1,-1
82,506,1409.19,562.98,38.44,98.89,1,-1,-1,-1
82,514,348.52,530.06,49.28,137.72,1,-1,-1,-1
83,506,1409.30,555.37,41.28,106.72,1,-1,-1,-1
83,514,362.41,531.98,48.30,135.23,1,-1,-1,-1
84,506,1409.39,552.61,42.20,109.56,1,-1,-1,-1
84,514,367.79,532.71,47.88,134.30,1,-1,-1,-1
85,506,1403.45,533.95,47.31,124.98,1,-1,-1,-1
85,514,368.15,532.92,47.73,133.88,1,-1,-1,-1
85,515,1657.81,536.11,91.91,227.85,1,-1,-1,-1
85,517,83.00,529.00,62.00,200.00,1,-1,-1,-1
85,518,142.00,524.00,67.00,197.00,1,-1,-1,-1
86,506,1401.49,526.97,48.72,130.75,1,-1,-1,-1
86,515,1658.55,535.84,93.43,229.74,1,-1,-1,-1
86,517,83.00,529.00,62.00,200.00,1,-1,-1,-1
86,518,142.00,524.00,67.00,197.00,1,-1,-1,-1
87,505,1437.88,481.35,37.32,100.93,1,-1,-1,-1
87,506,1400.86,534.94,43.83,119.75,1,-1,-1,-1
87,515,1661.61,535.30,94.72,232.91,1,-1,-1,-1
87,519,1407.00,588.00,52.00,126.00,1,-1,-1,-1
88,505,1438.72,479.56,35.34,101.27,1,-1,-1,-1
88,506,1400.81,538.43,41.41,115.00,1,-1,-1,-1
88,519,1407.00,588.00,52.00,126.00,1,-1,-1,-1
89,505,1438.31,475.84,35.59,101.97,1,-1,-1,-1
89,506,1402.98,537.10,40.15,112.57,1,-1,-1,-1
90,506,1403.89,536.64,39.48,111.65,1,-1,-1,-1
91,504,390.33,543.86,54.88,133.58,1,-1,-1,-1
91,506,1397.71,535.19,38.36,110.63,1,-1,-1,-1
91,520,1392.00,584.00,52.00,135.00,1,-1,-1,-1
92,504,386.74,544.32,54.25,134.14,1,-1,-1,-1
92,506,1395.59,534.68,37.54,110.24,1,-1,-1,-1
92,520,1392.00,584.00,52.00,135.00,1,-1,-1,-1
93,504,378.89,545.36,54.58,134.95,1,-1,-1,-1
93,505,1433.99,480.66,34.87,105.87,1,-1,-1,-1
93,506,1399.93,518.61,37.65,112.08,1,-1,-1,-1
94,505,1434.14,481.52,33.63,106.21,1,-1,-1,-1
94,506,1401.72,512.65,37.41,112.77,1,-1,-1,-1
95,505,1433.48,479.55,33.87,106.95,1,-1,-1,-1
95,506,1410.71,517.74,31.28,93.91,1,-1,-1,-1
95,521,1472.00,492.00,27.00,92.00,1,-1,-1,-1
95,522,1396.00,572.00,55.00,145.00,1,-1,-1,-1
96,506,1414.31,520.13,28.85,86.33,1,-1,-1,-1
96,521,1472.00,492.00,27.00,92.00,1,-1,-1,-1
96,522,1396.00,572.00,55.00,145.00,1,-1,-1,-1
97,504,382.73,548.14,54.14,134.41,1,-1,-1,-1
97,505,1454.85,486.79,32.64,105.57,1,-1,-1,-1
97,506,1407.56,518.15,31.89,95.91,1,-1,-1,-1
97,522,1386.69,564.98,52.58,138.76,1,-1,-1,-1
98,504,383.90,548.33,53.93,134.28,1,-1,-1,-1
98,505,1458.58,488.00,32.01,105.33,1,-1,-1,-1
98,506,1405.44,517.47,32.76,98.97,1,-1,-1,-1
98,522,1383.81,562.80,51.77,136.82,1,-1,-1,-1
99,504,366.81,547.74,60.93,148.81,1,-1,-1,-1
99,505,1460.14,487.25,32.13,105.74,1,-1,-1,-1
99,506,1405.15,515.92,32.67,98.69,1,-1,-1,-1
99,522,1380.29,560.15,50.88,134.47,1,-1,-1,-1
99,523,47.00,525.00,65.00,203.00,1,-1,-1,-1
100,504,360.32,547.53,64.03,154.07,1,-1,-1,-1
100,523,47.00,525.00,65.00,203.00,1,-1,-1,-1
101,504,357.28,553.82,64.02,150.35,1,-1,-1,-1
102,504,356.06,556.29,64.60,148.74,1,-1,-1,-1
103,504,352.83,559.16,64.79,146.75,1,-1,-1,-1
104,504,351.55,560.20,65.33,145.95,1,-1,-1,-1
105,504,339.48,559.88,67.28,148.91,1,-1,-1,-1
105,524,38.00,554.00,62.00,174.00,1,-1,-1,-1
105,525,1382.00,487.00,39.00,124.00,1,-1,-1,-1
106,504,334.91,559.72,68.32,149.99,1,-1,-1,-1
106,524,38.00,554.00,62.00,174.00,1,-1,-1,-1
106,525,1382.00,487.00,39.00,124.00,1,-1,-1,-1
107,504,326.87,553.06,73.81,160.85,1,-1,-1,-1
107,505,1399.78,492.53,36.40,118.60,1,-1,-1,-1
107,514,147.54,556.90,63.27,167.77,1,-1,-1,-1
107,522,1360.72,523.18,62.15,168.39,1,-1,-1,-1
107,524,52.08,548.54,64.24,179.46,1,-1,-1,-1
107,526,1430.00,470.00,41.00,126.00,1,-1,-1,-1
108,504,323.78,550.56,76.16,164.90,1,-1,-1,-1
108,505,1396.36,492.87,36.86,119.24,1,-1,-1,-1
108,514,142.00,557.37,65.71,168.48,1,-1,-1,-1
108,522,1360.39,521.48,61.30,169.78,1,-1,-1,-1
108,524,56.37,546.82,65.24,181.18,1,-1,-1,-1
108,526,1430.00,470.00,41.00,126.00,1,-1,-1,-1
109,504,318.91,545.68,77.05,168.36,1,-1,-1,-1
109,505,1392.62,492.98,37.19,120.31,1,-1,-1,-1
109,514,143.31,554.93,64.45,167.41,1,-1,-1,-1
109,522,1357.77,517.54,62.21,172.29,1,-1,-1,-1
109,524,51.79,541.28,65.86,182.34,1,-1,-1,-1
110,504,317.38,543.78,77.00,169.63,1,-1,-1,-1
110,514,144.36,553.93,63.65,166.92,1,-1,-1,-1
110,524,49.88,539.50,66.19,182.63,1,-1,-1,-1
111,504,309.24,554.73,72.28,159.00,1,-1,-1,-1
111,514,154.92,557.44,61.92,162.77,1,-1,-1,-1
111,524,44.64,540.40,66.79,182.64,1,-1,-1,-1
112,504,306.32,559.08,70.40,154.67,1,-1,-1,-1
112,514,159.35,558.77,61.18,161.13,1,-1,-1,-1
112,524,42.48,540.86,67.37,182.58,1,-1,-1,-1
113,504,286.75,555.99,72.34,159.73,1,-1,-1,-1
113,514,170.53,556.58,62.07,164.47,1,-1,-1,-1
113,524,37.60,545.86,67.56,180.47,1,-1,-1,-1
114,504,279.80,554.84,72.85,161.56,1,-1,-1,-1
114,514,174.92,555.75,62.22,165.70,1,-1,-1,-1
114,524,35.50,547.79,68.21,179.64,1,-1,-1,-1
115,504,273.22,555.11,73.34,162.66,1,-1,-1,-1
115,514,172.52,556.18,62.49,166.43,1,-1,-1,-1
115,524,34.73,547.54,68.33,179.97,1,-1,-1,-1
117,514,167.44,572.96,58.15,152.03,1,-1,-1,-1
117,524,45.70,573.56,59.88,154.40,1,-1,-1,-1
118,514,166.36,575.69,58.10,149.65,1,-1,-1,-1
118,524,46.97,577.57,59.46,150.45,1,-1,-1,-1
119,514,162.43,580.61,57.79,146.20,1,-1,-1,-1
119,524,50.07,578.79,59.43,149.25,1,-1,-1,-1
120,514,160.85,582.33,58.17,144.97,1,-1,-1,-1
120,524,51.00,579.12,59.70,148.92,1,-1,-1,-1
121,514,157.61,580.18,60.45,149.95,1,-1,-1,-1
121,524,55.22,568.97,64.84,162.46,1,-1,-1,-1
121,527,1769.00,641.00,95.00,247.00,1,-1,-1,-1
122,514,156.41,579.34,61.44,151.79,1,-1,-1,-1
122,524,56.81,565.32,66.52,167.32,1,-1,-1,-1
122,527,1769.00,641.00,95.00,247.00,1,-1,-1,-1
123,514,154.27,580.79,61.35,151.58,1,-1,-1,-1
123,524,62.60,578.88,59.96,150.94,1,-1,-1,-1
123,527,1773.91,636.32,99.99,258.69,1,-1,-1,-1
124,524,64.78,584.28,57.31,144.36,1,-1,-1,-1
124,527,1775.23,634.84,102.04,262.39,1,-1,-1,-1
125,524,65.01,590.21,55.27,138.01,1,-1,-1,-1
125,527,1785.36,633.74,104.73,266.96,1,-1,-1,-1
126,524,64.88,592.25,54.82,135.82,1,-1,-1,-1
126,527,1788.41,633.45,106.27,268.32,1,-1,-1,-1
127,524,62.39,593.56,54.70,135.82,1,-1,-1,-1
127,527,1787.43,637.57,107.70,269.27,1,-1,-1,-1
128,524,61.47,593.95,54.62,135.90,1,-1,-1,-1
128,527,1786.54,639.13,108.86,269.45,1,-1,-1,-1
129,524,59.73,592.65,54.66,137.36,1,-1,-1,-1
129,527,1782.65,638.36,112.67,276.80,1,-1,-1,-1
130,524,59.21,592.11,54.40,137.97,1,-1,-1,-1
130,527,1780.86,638.08,114.58,279.42,1,-1,-1,-1
131,524,48.69,583.18,58.29,148.23,1,-1,-1,-1
131,527,1784.71,644.61,112.66,274.30,1,-1,-1,-1
132,524,44.89,579.90,59.63,152.01,1,-1,-1,-1
132,527,1786.07,647.11,111.95,272.18,1,-1,-1,-1
133,524,43.60,579.70,59.83,152.54,1,-1,-1,-1
133,527,1786.89,647.35,122.23,301.29,1,-1,-1,-1
134,527,1787.74,647.43,124.86,311.87,1,-1,-1,-1
135,524,21.58,576.54,74.62,194.10,1,-1,-1,-1
135,527,1791.13,650.00,126.66,323.63,1,-1,-1,-1
136,524,18.64,576.03,75.77,200.64,1,-1,-1,-1
136,527,1793.24,650.98,125.66,328.04,1,-1,-1,-1
137,524,10.84,568.27,77.62,210.72,1,-1,-1,-1
137,527,1796.60,653.91,124.50,332.76,1,-1,-1,-1
138,524,8.34,565.22,77.30,214.60,1,-1,-1,-1
138,527,1798.67,655.02,122.35,334.38,1,-1,-1,-1
139,524,4.81,564.07,79.04,219.42,1,-1,-1,-1
139,527,1802.85,656.05,119.12,334.14,1,-1,-1,-1
140,527,1805.24,656.41,116.14,333.83,1,-1,-1,-1
141,527,1806.72,657.46,117.70,338.30,1,-1,-1,-1
151,528,391.00,491.00,53.00,123.00,1,-1,-1,-1
152,528,391.00,491.00,53.00,123.00,1,-1,-1,-1
153,528,385.01,491.00,53.29,123.78,1,-1,-1,-1
154,528,383.14,491.00,53.35,124.02,1,-1,-1,-1
155,528,380.86,491.00,53.48,124.32,1,-1,-1,-1
159,528,355.04,501.50,50.65,116.43,1,-1,-1,-1
160,528,352.98,502.26,50.95,115.86,1,-1,-1,-1
161,528,340.61,499.77,51.11,114.99,1,-1,-1,-1
162,528,336.17,498.82,51.49,114.71,1,-1,-1,-1
163,528,312.61,506.54,50.10,111.27,1,-1,-1,-1
164,528,304.08,509.38,49.67,110.04,1,-1,-1,-1
165,528,304.28,510.35,49.62,108.96,1,-1,-1,-1
166,528,304.54,510.63,49.86,108.61,1,-1,-1,-1
167,528,298.81,512.06,49.37,107.55,1,-1,-1,-1
169,528,285.34,501.26,54.05,118.79,1,-1,-1,-1
170,528,283.28,499.74,54.35,120.39,1,-1,-1,-1
171,528,277.68,499.51,54.60,120.94,1,-1,-1,-1
177,528,286.72,487.68,55.09,124.01,1,-1,-1,-1
178,528,288.24,486.88,54.46,124.17,1,-1,-1,-1
179,528,286.27,485.86,54.68,124.66,1,-1,-1,-1
199,528,165.48,511.59,62.44,145.90,1,-1,-1,-1
200,528,163.52,512.26,61.66,146.31,1,-1,-1,-1
201,528,157.91,513.41,62.08,147.30,1,-1,-1,-1
201,529,1598.00,527.00,65.00,143.00,1,-1,-1,-1
202,529,1598.00,527.00,65.00,143.00,1,-1,-1,-1
203,528,150.70,503.37,63.87,155.75,1,-1,-1,-1
204,528,149.97,501.77,63.18,157.12,1,-1,-1,-1
205,528,149.52,514.28,58.22,143.86,1,-1,-1,-1
206,528,149.62,519.18,56.35,138.56,1,-1,-1,-1
207,528,145.72,520.69,56.15,138.05,1,-1,-1,-1
213,528,73.57,521.43,58.72,146.41,1,-1,-1,-1
214,528,69.51,521.40,58.33,146.96,1,-1,-1,-1
215,528,64.00,517.44,59.93,151.75,1,-1,-1,-1
216,528,62.18,515.94,60.40,153.53,1,-1,-1,-1
217,528,67.39,524.48,57.80,147.02,1,-1,-1,-1
218,528,69.82,527.80,56.75,144.42,1,-1,-1,-1
219,528,67.67,517.68,59.52,152.77,1,-1,-1,-1
220,528,67.08,513.97,60.25,155.82,1,-1,-1,-1
221,528,62.05,515.78,60.09,155.67,1,-1,-1,-1
222,528,60.31,516.50,59.96,155.57,1,-1,-1,-1
223,528,57.09,516.78,60.08,156.81,1,-1,-1,-1
224,528,56.10,516.89,59.92,157.25,1,-1,-1,-1
225,528,57.31,520.22,58.95,155.41,1,-1,-1,-1
225,530,1743.00,551.00,57.00,128.00,1,-1,-1,-1
226,528,57.99,521.49,58.43,154.67,1,-1,-1,-1
226,530,1743.00,551.00,57.00,128.00,1,-1,-1,-1
227,528,55.21,521.89,58.59,155.11,1,-1,-1,-1
227,531,1369.00,506.00,55.00,159.00,1,-1,-1,-1
228,531,1369.00,506.00,55.00,159.00,1,-1,-1,-1
229,531,1377.99,489.63,58.84,170.69,1,-1,-1,-1
230,531,1380.95,484.43,59.86,174.41,1,-1,-1,-1
231,531,1384.01,501.78,55.54,162.43,1,-1,-1,-1
231,532,1772.00,546.00,53.00,130.00,1,-1,-1,-1
232,531,1384.88,508.48,53.72,157.78,1,-1,-1,-1
232,532,1772.00,546.00,53.00,130.00,1,-1,-1,-1
233,531,1383.30,509.26,53.73,159.10,1,-1,-1,-1
233,532,1785.07,549.90,53.36,130.78,1,-1,-1,-1
234,531,1382.82,509.48,53.44,159.58,1,-1,-1,-1
234,532,1789.15,551.12,53.52,131.02,1,-1,-1,-1
235,531,1387.21,495.14,58.42,175.50,1,-1,-1,-1
235,532,1811.01,553.63,52.34,127.40,1,-1,-1,-1
236,531,1388.89,490.01,59.96,181.19,1,-1,-1,-1
236,532,1817.94,554.38,52.16,126.17,1,-1,-1,-1
237,531,1409.66,483.47,61.97,187.91,1,-1,-1,-1
237,532,1830.24,540.42,58.90,143.47,1,-1,-1,-1
238,531,1417.69,481.01,62.58,190.41,1,-1,-1,-1
238,532,1834.65,535.67,60.87,149.35,1,-1,-1,-1
239,528,58.30,511.33,62.79,164.90,1,-1,-1,-1
239,531,1423.20,499.04,56.38,171.70,1,-1,-1,-1
239,532,1847.39,532.55,60.18,148.27,1,-1,-1,-1
240,528,58.51,510.92,63.26,165.20,1,-1,-1,-1
240,531,1425.04,506.44,53.80,163.98,1,-1,-1,-1
240,532,1851.97,531.43,59.70,147.67,1,-1,-1,-1
241,528,55.57,508.81,64.15,167.28,1,-1,-1,-1
241,531,1428.64,509.06,51.44,157.83,1,-1,-1,-1
241,532,1860.70,529.35,60.61,149.93,1,-1,-1,-1
242,528,54.46,508.03,64.52,168.04,1,-1,-1,-1
242,531,1429.86,509.98,50.41,155.61,1,-1,-1,-1
243,528,49.18,500.53,67.84,176.84,1,-1,-1,-1
243,531,1434.49,514.33,50.14,154.85,1,-1,-1,-1
244,528,47.23,497.74,69.05,180.12,1,-1,-1,-1
244,531,1436.04,515.89,50.04,154.61,1,-1,-1,-1
245,528,45.32,497.35,69.29,180.04,1,-1,-1,-1
245,531,1432.81,517.09,49.29,155.23,1,-1,-1,-1
246,528,44.57,497.26,69.49,179.93,1,-1,-1,-1
246,531,1431.75,517.48,48.50,155.49,1,-1,-1,-1
247,528,43.61,497.94,69.66,179.18,1,-1,-1,-1
247,531,1435.18,514.24,51.00,162.94,1,-1,-1,-1
248,528,43.18,498.25,69.93,178.83,1,-1,-1,-1
248,531,1436.35,513.02,52.02,165.71,1,-1,-1,-1
249,528,42.08,497.28,70.36,179.91,1,-1,-1,-1
249,531,1438.53,513.51,52.22,166.32,1,-1,-1,-1
251,528,53.52,512.69,64.93,165.22,1,-1,-1,-1
251,531,1435.81,519.96,50.48,162.05,1,-1,-1,-1
252,528,55.32,515.23,64.25,162.78,1,-1,-1,-1
252,531,1435.48,520.99,49.93,161.35,1,-1,-1,-1
253,528,55.75,516.14,63.95,162.02,1,-1,-1,-1
253,531,1446.17,525.99,48.10,157.12,1,-1,-1,-1
254,531,1450.24,527.82,47.15,155.55,1,-1,-1,-1
255,531,1452.69,529.32,46.97,154.95,1,-1,-1,-1
273,528,28.24,528.04,70.86,187.76,1,-1,-1,-1
274,528,28.63,528.23,69.05,188.35,1,-1,-1,-1
275,528,35.47,526.34,69.30,190.47,1,-1,-1,-1
276,528,38.25,525.59,69.19,191.25,1,-1,-1,-1
277,528,37.98,525.84,69.62,192.44,1,-1,-1,-1
279,528,46.88,522.71,71.34,197.48,1,-1,-1,-1
279,533,149.00,520.00,71.00,202.00,1,-1,-1,-1
280,528,48.36,522.20,71.56,198.30,1,-1,-1,-1
280,533,149.00,520.00,71.00,202.00,1,-1,-1,-1
281,528,52.60,537.12,68.14,185.45,1,-1,-1,-1
281,533,158.57,533.25,67.45,191.87,1,-1,-1,-1
282,528,53.95,542.88,67.25,180.42,1,-1,-1,-1
282,533,161.54,537.37,66.37,188.71,1,-1,-1,-1
283,528,55.13,544.74,67.03,179.82,1,-1,-1,-1
283,533,165.14,542.37,65.02,184.90,1,-1,-1,-1
283,534,1769.00,564.00,126.00,292.00,1,-1,-1,-1
284,534,1769.00,564.00,126.00,292.00,1,-1,-1,-1
285,534,1794.74,583.49,115.05,267.05,1,-1,-1,-1
286,534,1802.78,589.51,111.51,259.34,1,-1,-1,-1
287,528,59.34,550.18,68.22,177.95,1,-1,-1,-1
287,533,154.04,534.00,70.34,198.96,1,-1,-1,-1
287,534,1812.40,596.82,107.48,249.98,1,-1,-1,-1
288,528,59.01,550.57,69.64,177.82,1,-1,-1,-1
288,533,153.25,533.63,70.99,199.79,1,-1,-1,-1
289,528,57.94,537.38,74.71,192.43,1,-1,-1,-1
289,533,153.15,534.39,71.15,200.24,1,-1,-1,-1
290,528,57.71,532.60,76.20,197.72,1,-1,-1,-1
291,528,58.97,557.25,67.54,172.57,1,-1,-1,-1
292,528,59.23,567.34,64.30,162.18,1,-1,-1,-1
293,528,56.84,550.16,72.24,181.98,1,-1,-1,-1
293,533,145.43,526.97,73.34,206.58,1,-1,-1,-1
294,528,56.02,544.39,74.97,188.65,1,-1,-1,-1
294,533,144.75,526.23,73.48,207.14,1,-1,-1,-1
295,528,58.76,556.32,71.16,176.39,1,-1,-1,-1
295,533,146.93,541.18,69.35,192.80,1,-1,-1,-1
296,528,59.60,561.12,70.06,171.38,1,-1,-1,-1
296,533,147.61,546.91,68.16,187.26,1,-1,-1,-1
297,528,62.99,568.87,68.18,164.20,1,-1,-1,-1
297,533,147.37,548.76,67.68,185.94,1,-1,-1,-1
298,528,63.94,571.67,68.01,161.58,1,-1,-1,-1
299,528,60.45,562.50,72.89,171.46,1,-1,-1,-1
299,533,142.49,543.49,69.96,191.62,1,-1,-1,-1
300,528,58.97,559.18,75.06,175.03,1,-1,-1,-1
300,533,141.68,542.76,70.43,192.42,1,-1,-1,-1
301,528,56.58,553.27,78.17,181.67,1,-1,-1,-1
301,533,142.43,539.17,72.52,198.02,1,-1,-1,-1
301,535,1406.00,519.00,39.00,98.00,1,-1,-1,-1
302,528,55.60,551.01,79.48,184.18,1,-1,-1,-1
302,533,142.72,537.82,73.33,200.10,1,-1,-1,-1
302,535,1406.00,519.00,39.00,98.00,1,-1,-1,-1
303,528,58.57,551.45,79.13,183.81,1,-1,-1,-1
303,533,143.38,533.36,74.55,204.82,1,-1,-1,-1
303,536,1384.00,536.00,36.00,83.00,1,-1,-1,-1
304,528,59.76,551.65,78.88,183.62,1,-1,-1,-1
304,533,143.77,531.67,74.74,206.59,1,-1,-1,-1
304,536,1384.00,536.00,36.00,83.00,1,-1,-1,-1
305,528,60.13,551.24,79.26,184.50,1,-1,-1,-1
305,533,143.46,531.11,75.14,207.67,1,-1,-1,-1
307,533,137.96,504.87,84.33,236.78,1,-1,-1,-1
308,533,137.57,500.68,84.84,241.44,1,-1,-1,-1
309,533,136.74,497.64,86.14,245.15,1,-1,-1,-1
311,528,64.26,616.68,68.08,158.96,1,-1,-1,-1
312,528,64.57,621.17,67.12,157.10,1,-1,-1,-1
313,528,64.87,623.99,67.10,157.20,1,-1,-1,-1
313,537,1408.00,554.00,40.00,84.00,1,-1,-1,-1
313,538,1438.00,546.00,38.00,74.00,1,-1,-1,-1
314,528,64.98,624.85,67.08,157.29,1,-1,-1,-1
314,537,1408.00,554.00,40.00,84.00,1,-1,-1,-1
314,538,1438.00,546.00,38.00,74.00,1,-1,-1,-1
315,528,63.35,616.92,70.42,166.77,1,-1,-1,-1
316,528,62.93,613.95,71.28,170.26,1,-1,-1,-1
317,528,63.03,629.07,65.83,156.52,1,-1,-1,-1
317,539,1432.00,578.00,58.00,132.00,1,-1,-1,-1
318,528,63.01,634.88,63.78,151.07,1,-1,-1,-1
318,539,1432.00,578.00,58.00,132.00,1,-1,-1,-1
319,528,59.60,625.97,67.84,160.70,1,-1,-1,-1
319,539,1448.64,573.32,62.92,143.69,1,-1,-1,-1
320,528,58.39,622.80,69.27,164.11,1,-1,-1,-1
320,539,1454.04,571.83,64.28,147.41,1,-1,-1,-1
321,528,56.93,625.41,68.59,162.82,1,-1,-1,-1
321,539,1464.55,571.44,64.32,147.67,1,-1,-1,-1
322,528,56.42,626.35,68.25,162.31,1,-1,-1,-1
322,539,1467.95,571.41,64.16,147.51,1,-1,-1,-1
323,528,53.11,622.67,69.78,166.09,1,-1,-1,-1
323,539,1471.88,573.54,63.42,145.90,1,-1,-1,-1
324,528,51.91,621.25,70.31,167.49,1,-1,-1,-1
324,539,1473.00,574.37,63.07,145.18,1,-1,-1,-1
325,528,46.69,604.27,77.48,186.39,1,-1,-1,-1
325,539,1466.62,569.95,64.41,148.91,1,-1,-1,-1
326,528,44.99,597.99,79.66,193.38,1,-1,-1,-1
326,539,1464.21,568.34,64.69,150.23,1,-1,-1,-1
327,528,44.84,607.62,74.44,182.69,1,-1,-1,-1
327,539,1447.65,565.11,66.53,155.31,1,-1,-1,-1
328,528,45.06,611.63,71.88,178.17,1,-1,-1,-1
328,539,1441.45,563.93,66.98,157.16,1,-1,-1,-1
329,528,43.79,611.44,72.33,179.27,1,-1,-1,-1
329,539,1440.42,563.53,67.66,159.10,1,-1,-1,-1
330,539,1440.09,563.42,67.80,159.76,1,-1,-1,-1
331,528,28.61,617.73,66.78,169.30,1,-1,-1,-1
331,539,1415.84,559.50,68.89,162.55,1,-1,-1,-1
332,528,26.71,618.75,64.84,167.67,1,-1,-1,-1
332,539,1406.68,558.04,69.22,163.55,1,-1,-1,-1
333,528,24.15,619.27,64.74,167.43,1,-1,-1,-1
333,539,1405.00,552.95,67.17,158.62,1,-1,-1,-1
334,539,1404.54,551.06,66.35,156.62,1,-1,-1,-1
335,539,1412.09,553.07,66.77,157.82,1,-1,-1,-1
336,539,1415.03,553.87,66.87,158.24,1,-1,-1,-1
337,539,1421.11,544.34,76.25,182.76,1,-1,-1,-1
338,539,1423.62,540.86,79.03,191.69,1,-1,-1,-1
339,539,1420.81,550.28,78.40,192.08,1,-1,-1,-1
340,539,1419.90,554.19,77.67,192.05,1,-1,-1,-1
341,539,1407.39,563.53,75.78,187.36,1,-1,-1,-1
341,540,1554.00,556.00,84.00,220.00,1,-1,-1,-1
341,541,1368.00,526.00,82.00,214.00,1,-1,-1,-1
342,539,1402.57,567.19,74.98,185.40,1,-1,-1,-1
342,540,1554.00,556.00,84.00,220.00,1,-1,-1,-1
342,541,1368.00,526.00,82.00,214.00,1,-1,-1,-1
343,539,1403.58,561.34,80.27,198.35,1,-1,-1,-1
343,540,1549.86,546.65,89.16,234.03,1,-1,-1,-1
344,539,1403.96,559.17,82.25,203.14,1,-1,-1,-1
344,540,1548.64,543.68,90.61,238.48,1,-1,-1,-1
345,539,1416.00,579.55,80.61,196.54,1,-1,-1,-1
345,540,1565.87,576.10,81.16,212.21,1,-1,-1,-1
346,539,1420.61,587.65,80.39,193.73,1,-1,-1,-1
346,540,1571.97,587.97,77.94,202.34,1,-1,-1,-1
347,528,145.47,641.79,77.48,199.51,1,-1,-1,-1
347,539,1407.49,580.10,82.99,201.81,1,-1,-1,-1
347,540,1572.91,576.91,83.73,216.82,1,-1,-1,-1
347,542,1431.00,559.00,59.00,136.00,1,-1,-1,-1
347,543,1374.00,537.00,86.00,236.00,1,-1,-1,-1
348,528,149.15,642.43,78.10,200.48,1,-1,-1,-1
348,539,1402.81,577.25,83.52,204.78,1,-1,-1,-1
348,540,1573.11,573.27,85.78,221.56,1,-1,-1,-1
348,542,1431.00,559.00,59.00,136.00,1,-1,-1,-1
348,543,1374.00,537.00,86.00,236.00,1,-1,-1,-1
349,528,155.63,643.78,78.79,202.26,1,-1,-1,-1
349,539,1410.28,576.74,81.42,196.75,1,-1,-1,-1
349,540,1575.77,556.86,92.52,240.26,1,-1,-1,-1
350,539,1413.01,576.49,81.11,193.45,1,-1,-1,-1
350,540,1576.86,550.80,94.66,247.11,1,-1,-1,-1
351,539,1404.01,588.97,80.48,189.52,1,-1,-1,-1
351,540,1588.85,577.87,92.32,239.20,1,-1,-1,-1
352,539,1400.38,593.63,80.76,188.00,1,-1,-1,-1
352,540,1593.22,588.59,91.69,235.86,1,-1,-1,-1
353,539,1402.61,608.58,89.71,206.69,1,-1,-1,-1
353,540,1593.48,593.84,93.86,239.19,1,-1,-1,-1
353,544,1410.00,579.00,77.00,156.00,1,-1,-1,-1
354,539,1403.15,614.02,93.53,213.49,1,-1,-1,-1
354,540,1593.21,595.70,95.16,240.38,1,-1,-1,-1
354,544,1410.00,579.00,77.00,156.00,1,-1,-1,-1
355,539,1403.72,610.88,102.76,230.93,1,-1,-1,-1
355,540,1588.39,594.96,98.18,245.37,1,-1,-1,-1
355,545,1357.00,589.00,108.00,250.00,1,-1,-1,-1
356,539,1403.50,609.60,107.21,237.61,1,-1,-1,-1
356,540,1586.18,594.58,99.90,247.19,1,-1,-1,-1
356,545,1357.00,589.00,108.00,250.00,1,-1,-1,-1
357,539,1407.63,616.61,105.62,232.45,1,-1,-1,-1
357,540,1581.30,591.05,102.49,253.71,1,-1,-1,-1
358,539,1409.13,619.27,105.25,230.17,1,-1,-1,-1
358,540,1579.41,589.65,103.43,256.12,1,-1,-1,-1
359,539,1420.32,628.67,98.84,213.49,1,-1,-1,-1
359,540,1579.75,597.52,102.82,254.33,1,-1,-1,-1
360,539,1424.37,632.13,96.82,206.82,1,-1,-1,-1
360,540,1579.82,600.50,102.60,253.53,1,-1,-1,-1
361,528,62.07,678.50,68.57,170.43,1,-1,-1,-1
361,539,1422.60,641.97,97.10,208.39,1,-1,-1,-1
361,540,1584.38,598.26,99.29,250.52,1,-1,-1,-1
362,528,56.97,679.48,69.37,168.99,1,-1,-1,-1
362,539,1422.04,645.47,96.94,208.96,1,-1,-1,-1
362,540,1586.63,597.33,96.91,249.30,1,-1,-1,-1
363,528,43.14,684.68,74.91,189.13,1,-1,-1,-1
363,539,1417.69,663.16,95.79,206.50,1,-1,-1,-1
363,540,1588.30,592.95,96.93,253.42,1,-1,-1,-1
364,528,38.95,686.50,75.58,196.10,1,-1,-1,-1
364,539,1416.00,669.67,95.34,205.55,1,-1,-1,-1
364,540,1589.33,591.27,96.05,254.93,1,-1,-1,-1
365,528,35.37,701.45,71.74,183.79,1,-1,-1,-1
365,539,1410.96,690.48,91.33,197.22,1,-1,-1,-1
365,540,1580.96,622.78,94.09,250.86,1,-1,-1,-1
366,528,34.20,707.21,70.46,178.69,1,-1,-1,-1
366,539,1409.09,698.04,89.74,194.07,1,-1,-1,-1
366,540,1577.82,634.82,93.10,249.24,1,-1,-1,-1
367,528,21.58,701.72,74.50,187.63,1,-1,-1,-1
367,539,1424.67,714.62,81.53,177.51,1,-1,-1,-1
367,540,1581.33,632.56,96.61,261.84,1,-1,-1,-1
367,546,1620.00,593.00,71.00,235.00,1,-1,-1,-1
368,528,16.99,699.69,76.22,190.84,1,-1,-1,-1
368,539,1430.70,720.34,78.22,171.36,1,-1,-1,-1
368,540,1582.98,631.64,97.21,266.49,1,-1,-1,-1
368,546,1620.00,593.00,71.00,235.00,1,-1,-1,-1
369,528,7.71,697.46,77.92,196.64,1,-1,-1,-1
369,539,1432.58,728.67,76.63,167.88,1,-1,-1,-1
369,540,1581.37,634.38,95.43,265.63,1,-1,-1,-1
370,528,4.51,696.53,78.24,198.80,1,-1,-1,-1
370,540,1581.11,635.28,93.96,265.20,1,-1,-1,-1
371,528,-1.19,698.15,78.96,200.64,1,-1,-1,-1
371,540,1583.28,636.16,92.16,261.03,1,-1,-1,-1
372,540,1584.20,636.37,91.28,259.37,1,-1,-1,-1
373,540,1588.20,650.22,86.92,248.13,1,-1,-1,-1
374,540,1589.82,655.36,85.05,243.82,1,-1,-1,-1
375,540,1590.41,659.33,84.69,242.81,1,-1,-1,-1
375,547,1451.00,549.00,50.00,96.00,1,-1,-1,-1
376,547,1451.00,549.00,50.00,96.00,1,-1,-1,-1
383,539,1442.88,680.11,127.96,298.79,1,-1,-1,-1
383,548,1256.00,588.00,84.00,259.00,1,-1,-1,-1
384,539,1446.16,678.74,123.73,302.87,1,-1,-1,-1
384,548,1256.00,588.00,84.00,259.00,1,-1,-1,-1
385,539,1446.97,677.09,126.70,310.13,1,-1,-1,-1
385,548,1258.94,606.71,77.34,237.95,1,-1,-1,-1
385,549,1460.00,541.00,46.00,95.00,1,-1,-1,-1
386,548,1259.77,612.50,75.44,231.44,1,-1,-1,-1
386,549,1460.00,541.00,46.00,95.00,1,-1,-1,-1
387,548,1252.67,610.00,77.42,236.06,1,-1,-1,-1
387,550,1753.00,594.00,44.00,138.00,1,-1,-1,-1
388,548,1250.23,608.99,78.51,237.75,1,-1,-1,-1
388,550,1753.00,594.00,44.00,138.00,1,-1,-1,-1
389,539,1443.76,733.09,115.22,271.68,1,-1,-1,-1
389,548,1248.74,611.88,77.61,235.05,1,-1,-1,-1
390,539,1441.99,740.70,115.38,265.02,1,-1,-1,-1
391,539,1428.99,740.95,123.16,279.30,1,-1,-1,-1
392,539,1423.96,741.04,126.66,284.41,1,-1,-1,-1
393,539,1422.70,742.81,128.51,288.54,1,-1,-1,-1
397,548,1156.20,618.34,94.37,283.58,1,-1,-1,-1
397,551,1453.00,547.00,51.00,102.00,1,-1,-1,-1
398,548,1151.75,618.66,95.70,285.73,1,-1,-1,-1
398,551,1453.00,547.00,51.00,102.00,1,-1,-1,-1
399,548,1136.33,616.78,98.50,292.23,1,-1,-1,-1
400,548,1130.45,616.02,99.86,294.64,1,-1,-1,-1
401,539,1313.11,737.93,135.84,305.77,1,-1,-1,-1
401,548,1122.01,616.93,101.03,298.10,1,-1,-1,-1
402,539,1307.30,737.40,135.76,306.14,1,-1,-1,-1
403,539,1293.89,766.32,134.73,301.04,1,-1,-1,-1
403,552,1045.00,603.00,114.00,338.00,1,-1,-1,-1
404,539,1288.92,777.17,134.79,299.01,1,-1,-1,-1
404,548,1051.58,605.19,113.17,334.12,1,-1,-1,-1
405,539,1280.72,781.33,135.47,300.50,1,-1,-1,-1
405,548,1039.42,604.91,115.06,339.70,1,-1,-1,-1
407,539,1212.75,780.66,139.07,302.23,1,-1,-1,-1
407,548,1012.81,624.70,110.16,322.90,1,-1,-1,-1
407,553,1406.00,534.00,55.00,128.00,1,-1,-1,-1
408,539,1201.08,780.55,141.45,302.50,1,-1,-1,-1
408,548,1008.40,628.09,109.76,319.87,1,-1,-1,-1
408,553,1406.00,534.00,55.00,128.00,1,-1,-1,-1
409,539,1193.51,784.47,136.32,291.99,1,-1,-1,-1
409,548,996.85,629.63,110.70,322.61,1,-1,-1,-1
410,539,1191.31,785.81,134.26,287.97,1,-1,-1,-1
411,539,1141.60,774.19,144.05,305.85,1,-1,-1,-1
411,548,932.97,631.28,121.90,360.74,1,-1,-1,-1
412,539,1123.26,769.92,148.39,312.36,1,-1,-1,-1
412,548,923.13,631.58,122.43,366.87,1,-1,-1,-1
413,539,1097.86,766.90,150.70,316.80,1,-1,-1,-1
413,548,903.48,642.01,120.29,356.76,1,-1,-1,-1
414,539,1088.63,765.71,151.66,318.43,1,-1,-1,-1
414,548,896.26,646.02,119.88,352.53,1,-1,-1,-1
415,539,1073.22,779.65,141.68,296.05,1,-1,-1,-1
415,548,861.62,650.09,113.58,339.61,1,-1,-1,-1
416,539,1068.12,785.08,138.00,287.17,1,-1,-1,-1
416,548,849.53,651.53,110.26,334.52,1,-1,-1,-1
417,539,1017.02,778.92,142.74,298.78,1,-1,-1,-1
417,548,816.12,657.96,111.56,331.90,1,-1,-1,-1
418,539,999.10,776.67,143.98,302.97,1,-1,-1,-1
418,548,803.72,660.27,113.11,330.88,1,-1,-1,-1
419,539,976.49,788.26,138.72,292.09,1,-1,-1,-1
419,548,761.10,661.03,108.77,316.55,1,-1,-1,-1
419,554,933.00,781.00,117.00,291.00,1,-1,-1,-1
419,555,1578.00,589.00,84.00,194.00,1,-1,-1,-1
420,539,968.84,792.70,136.62,287.84,1,-1,-1,-1
420,548,745.71,661.17,107.38,311.07,1,-1,-1,-1
420,554,933.00,781.00,117.00,291.00,1,-1,-1,-1
420,555,1578.00,589.00,84.00,194.00,1,-1,-1,-1
421,539,911.27,782.24,141.89,300.99,1,-1,-1,-1
421,548,705.21,661.80,114.33,326.58,1,-1,-1,-1
422,539,890.85,778.39,143.27,305.81,1,-1,-1,-1
422,548,690.41,661.99,117.75,332.23,1,-1,-1,-1
423,539,865.16,783.42,140.03,301.09,1,-1,-1,-1
423,548,635.95,670.50,112.83,316.68,1,-1,-1,-1
423,556,820.00,781.00,122.00,299.00,1,-1,-1,-1
424,539,822.69,782.04,137.82,299.88,1,-1,-1,-1
424,548,615.92,673.70,111.18,310.58,1,-1,-1,-1
424,556,864.79,785.34,121.79,298.13,1,-1,-1,-1
425,539,790.28,795.39,130.66,283.54,1,-1,-1,-1
425,548,556.98,678.80,107.05,302.35,1,-1,-1,-1
426,539,779.26,800.46,128.10,277.29,1,-1,-1,-1
426,548,536.52,680.57,104.94,299.37,1,-1,-1,-1
427,539,709.48,794.83,132.06,280.46,1,-1,-1,-1
427,548,484.65,691.83,117.92,330.53,1,-1,-1,-1
427,557,1434.00,585.00,103.00,233.00,1,-1,-1,-1
427,558,1628.00,584.00,102.00,200.00,1,-1,-1,-1
428,539,684.10,792.72,134.90,281.67,1,-1,-1,-1
428,548,465.40,695.88,123.82,341.71,1,-1,-1,-1
428,557,1434.00,585.00,103.00,233.00,1,-1,-1,-1
428,558,1628.00,584.00,102.00,200.00,1,-1,-1,-1
429,539,621.88,808.46,129.50,265.59,1,-1,-1,-1
429,548,436.37,699.73,124.82,344.47,1,-1,-1,-1
429,557,1406.67,595.91,96.85,218.97,1,-1,-1,-1
429,559,1575.00,585.00,97.00,206.00,1,-1,-1,-1
430,539,599.36,814.43,128.58,259.52,1,-1,-1,-1
430,557,1398.16,599.30,95.00,214.61,1,-1,-1,-1
430,559,1575.00,585.00,97.00,206.00,1,-1,-1,-1
431,539,568.12,817.45,126.98,256.27,1,-1,-1,-1
431,548,313.06,716.23,122.86,338.34,1,-1,-1,-1
431,557,1385.02,612.15,88.26,200.03,1,-1,-1,-1
431,560,1346.00,603.00,97.00,228.00,1,-1,-1,-1
432,548,292.96,718.91,122.69,337.27,1,-1,-1,-1
432,557,1351.67,606.94,96.47,219.04,1,-1,-1,-1
432,560,1380.39,613.41,85.50,201.10,1,-1,-1,-1
433,548,259.45,723.37,123.20,338.69,1,-1,-1,-1
433,557,1327.76,613.61,98.01,222.09,1,-1,-1,-1
433,561,1455.00,618.00,76.00,197.00,1,-1,-1,-1
434,557,1319.72,615.91,98.75,223.31,1,-1,-1,-1
434,561,1455.00,618.00,76.00,197.00,1,-1,-1,-1
435,548,134.53,738.78,111.15,308.25,1,-1,-1,-1
435,557,1302.25,619.27,95.13,216.98,1,-1,-1,-1
435,561,1460.25,610.98,81.09,209.47,1,-1,-1,-1
436,548,115.74,741.13,108.56,303.29,1,-1,-1,-1
436,557,1296.90,620.30,93.31,214.63,1,-1,-1,-1
436,561,1461.78,608.76,82.98,213.43,1,-1,-1,-1
437,548,39.25,731.78,111.61,314.56,1,-1,-1,-1
437,557,1258.14,626.62,93.06,214.50,1,-1,-1,-1
437,561,1429.08,603.86,86.16,220.21,1,-1,-1,-1
438,548,12.75,728.36,112.20,318.62,1,-1,-1,-1
438,557,1244.61,628.80,92.88,214.50,1,-1,-1,-1
438,561,1417.38,602.27,87.61,222.37,1,-1,-1,-1
439,548,-27.30,730.65,112.20,318.64,1,-1,-1,-1
439,557,1226.83,632.42,92.49,213.60,1,-1,-1,-1
439,561,1409.44,599.36,89.43,227.00,1,-1,-1,-1
439,562,1348.00,601.00,87.00,224.00,1,-1,-1,-1
440,561,1358.11,600.10,88.76,225.51,1,-1,-1,-1
441,561,1343.47,597.76,90.21,229.19,1,-1,-1,-1
445,557,1034.56,647.34,105.82,247.02,1,-1,-1,-1
446,557,1023.36,648.18,105.79,249.17,1,-1,-1,-1
447,557,999.32,651.01,106.83,251.60,1,-1,-1,-1
447,563,558.00,560.00,50.00,137.00,1,-1,-1,-1
448,563,558.00,560.00,50.00,137.00,1,-1,-1,-1
449,561,1095.61,594.39,101.24,256.10,1,-1,-1,-1
449,564,1052.00,629.00,81.00,213.00,1,-1,-1,-1
450,561,1084.15,594.45,102.00,257.12,1,-1,-1,-1
450,564,1052.00,629.00,81.00,213.00,1,-1,-1,-1
451,561,1037.72,608.91,96.90,243.70,1,-1,-1,-1
452,561,1021.12,614.50,94.97,238.39,1,-1,-1,-1
453,561,957.71,622.54,91.12,228.38,1,-1,-1,-1
453,565,1741.00,790.00,162.00,288.00,1,-1,-1,-1
454,561,935.20,625.49,89.72,224.59,1,-1,-1,-1
454,565,1741.00,790.00,162.00,288.00,1,-1,-1,-1
455,561,906.78,627.53,89.37,223.72,1,-1,-1,-1
455,565,1701.75,789.22,163.33,289.56,1,-1,-1,-1
455,566,704.00,663.00,123.00,328.00,1,-1,-1,-1
456,565,1689.20,788.98,164.18,290.05,1,-1,-1,-1
456,566,704.00,663.00,123.00,328.00,1,-1,-1,-1
457,561,828.82,644.77,90.23,222.85,1,-1,-1,-1
457,565,1624.14,748.42,190.45,339.50,1,-1,-1,-1
457,567,350.00,569.00,63.00,143.00,1,-1,-1,-1
457,568,621.00,658.00,135.00,352.00,1,-1,-1,-1
458,561,816.37,647.39,91.18,222.71,1,-1,-1,-1
458,565,1603.25,735.01,197.63,355.85,1,-1,-1,-1
458,567,350.00,569.00,63.00,143.00,1,-1,-1,-1
458,568,621.00,658.00,135.00,352.00,1,-1,-1,-1
459,561,787.84,650.78,90.90,222.01,1,-1,-1,-1
459,565,1550.92,749.53,185.76,336.39,1,-1,-1,-1
459,569,317.00,576.00,61.00,148.00,1,-1,-1,-1
459,570,546.00,676.00,116.00,316.00,1,-1,-1,-1
460,565,1532.58,756.31,179.74,327.41,1,-1,-1,-1
460,569,317.00,576.00,61.00,148.00,1,-1,-1,-1
460,570,546.00,676.00,116.00,316.00,1,-1,-1,-1
461,565,1478.67,742.81,189.67,346.83,1,-1,-1,-1
461,571,173.00,571.00,56.00,149.00,1,-1,-1,-1
461,572,454.00,716.00,137.00,332.00,1,-1,-1,-1
462,565,1459.90,738.02,192.71,353.74,1,-1,-1,-1
462,571,173.00,571.00,56.00,149.00,1,-1,-1,-1
462,572,454.00,716.00,137.00,332.00,1,-1,-1,-1
463,561,628.07,678.70,91.00,219.02,1,-1,-1,-1
463,565,1421.63,763.31,178.08,327.24,1,-1,-1,-1
463,573,585.00,692.00,81.00,208.00,1,-1,-1,-1
464,557,621.82,680.29,94.86,220.11,1,-1,-1,-1
464,561,586.66,689.37,87.01,211.16,1,-1,-1,-1
464,565,1408.88,773.83,171.84,316.10,1,-1,-1,-1
465,557,594.93,680.51,97.07,225.81,1,-1,-1,-1
465,561,527.44,680.04,94.66,227.47,1,-1,-1,-1
465,565,1379.14,772.94,172.94,318.12,1,-1,-1,-1
465,574,274.00,761.00,151.00,315.00,1,-1,-1,-1
466,557,586.69,680.70,97.46,227.10,1,-1,-1,-1
466,561,506.33,676.78,97.84,233.19,1,-1,-1,-1
466,574,274.00,761.00,151.00,315.00,1,-1,-1,-1
467,557,565.95,682.15,97.31,226.77,1,-1,-1,-1
467,561,486.21,679.89,97.98,233.47,1,-1,-1,-1
467,575,425.00,670.00,103.00,244.00,1,-1,-1,-1
468,557,503.72,680.73,99.10,231.67,1,-1,-1,-1
468,561,434.76,674.41,101.10,240.74,1,-1,-1,-1
469,557,477.26,681.79,99.27,232.06,1,-1,-1,-1
469,561,392.05,675.51,111.69,264.23,1,-1,-1,-1
469,576,1204.00,866.00,159.00,209.00,1,-1,-1,-1
469,577,33.00,749.00,197.00,332.00,1,-1,-1,-1
470,561,376.03,675.91,116.10,273.10,1,-1,-1,-1
470,565,1224.04,859.64,123.63,216.78,1,-1,-1,-1
470,577,33.00,749.00,197.00,332.00,1,-1,-1,-1
471,561,306.29,672.79,119.09,282.92,1,-1,-1,-1
471,565,1194.09,867.11,118.94,208.57,1,-1,-1,-1
472,561,280.27,671.50,119.60,286.64,1,-1,-1,-1
473,561,254.04,683.17,116.53,278.92,1,-1,-1,-1
473,565,1095.11,863.58,125.15,210.43,1,-1,-1,-1
473,578,192.00,662.00,116.00,300.00,1,-1,-1,-1
474,557,263.85,688.88,115.10,269.63,1,-1,-1,-1
474,561,198.58,670.02,121.92,293.98,1,-1,-1,-1
474,565,1080.37,863.97,128.97,209.81,1,-1,-1,-1
475,557,229.94,690.10,116.66,273.28,1,-1,-1,-1
475,561,128.91,685.59,115.39,278.43,1,-1,-1,-1
475,565,1016.68,862.58,137.08,212.50,1,-1,-1,-1
476,561,103.25,691.85,112.59,271.81,1,-1,-1,-1
476,565,993.36,861.94,143.31,213.65,1,-1,-1,-1
477,561,38.22,701.39,105.93,258.66,1,-1,-1,-1
477,565,923.52,868.29,141.12,204.79,1,-1,-1,-1
478,561,15.92,704.87,102.81,253.61,1,-1,-1,-1
478,565,898.52,870.51,142.16,201.66,1,-1,-1,-1
479,561,-23.65,708.10,102.68,253.29,1,-1,-1,-1
479,565,862.39,873.66,139.50,197.90,1,-1,-1,-1
483,579,1700.00,633.00,179.00,292.00,1,-1,-1,-1
484,579,1700.00,633.00,179.00,292.00,1,-1,-1,-1
485,579,1631.72,629.10,183.03,299.80,1,-1,-1,-1
486,579,1610.57,627.87,183.58,302.25,1,-1,-1,-1
487,579,1553.61,631.95,180.39,297.75,1,-1,-1,-1
488,579,1535.88,633.43,178.84,296.04,1,-1,-1,-1
489,579,1505.11,633.79,179.04,296.38,1,-1,-1,-1
491,579,1388.82,655.21,180.07,303.17,1,-1,-1,-1
492,579,1373.08,658.19,177.66,304.13,1,-1,-1,-1
493,579,1337.06,661.53,178.36,305.32,1,-1,-1,-1
497,579,1115.00,680.50,169.08,293.49,1,-1,-1,-1
498,579,1098.11,682.00,166.38,292.32,1,-1,-1,-1
499,579,1057.24,685.62,166.09,291.81,1,-1,-1,-1
501,579,973.34,676.79,167.68,298.64,1,-1,-1,-1
502,579,960.72,675.51,166.33,299.67,1,-1,-1,-1
503,579,896.08,682.98,160.08,288.10,1,-1,-1,-1
504,579,873.49,685.74,157.78,283.70,1,-1,-1,-1
505,579,801.43,679.97,175.66,316.26,1,-1,-1,-1
505,580,1814.00,627.00,88.00,208.00,1,-1,-1,-1
506,579,775.51,677.92,181.92,327.89,1,-1,-1,-1
506,580,1814.00,627.00,88.00,208.00,1,-1,-1,-1
507,579,734.39,678.90,183.93,331.51,1,-1,-1,-1
507,580,1794.18,639.47,81.65,193.19,1,-1,-1,-1
507,581,642.00,692.00,95.00,290.00,1,-1,-1,-1
508,580,1788.08,643.34,79.60,188.60,1,-1,-1,-1
508,581,642.00,692.00,95.00,290.00,1,-1,-1,-1
509,580,1780.61,648.03,77.25,183.03,1,-1,-1,-1
509,582,528.00,728.00,115.00,304.00,1,-1,-1,-1
509,583,1678.00,648.00,88.00,193.00,1,-1,-1,-1
510,582,528.00,728.00,115.00,304.00,1,-1,-1,-1
510,583,1678.00,648.00,88.00,193.00,1,-1,-1,-1
511,579,443.47,711.74,181.68,337.01,1,-1,-1,-1
511,583,1653.14,665.93,82.38,180.53,1,-1,-1,-1
512,579,419.46,715.03,177.48,337.22,1,-1,-1,-1
512,583,1645.39,671.49,80.70,176.66,1,-1,-1,-1
513,579,370.16,718.38,178.86,339.84,1,-1,-1,-1
513,583,1636.06,678.24,78.55,171.97,1,-1,-1,-1
513,584,1563.00,637.00,87.00,212.00,1,-1,-1,-1
513,585,317.00,712.00,123.00,346.00,1,-1,-1,-1
514,579,298.76,714.20,174.18,345.20,1,-1,-1,-1
514,584,1563.00,637.00,87.00,212.00,1,-1,-1,-1
515,579,214.04,733.63,168.94,332.00,1,-1,-1,-1
515,586,1470.00,673.00,83.00,178.00,1,-1,-1,-1
516,579,184.49,740.65,167.62,327.08,1,-1,-1,-1
516,586,1470.00,673.00,83.00,178.00,1,-1,-1,-1
517,579,106.91,762.38,165.76,323.90,1,-1,-1,-1
517,586,1442.17,673.00,92.66,199.05,1,-1,-1,-1
518,579,80.01,770.30,164.95,322.69,1,-1,-1,-1
518,586,1433.36,673.00,95.59,205.77,1,-1,-1,-1
519,579,15.03,780.32,156.48,310.95,1,-1,-1,-1
519,586,1422.68,673.00,99.33,213.84,1,-1,-1,-1
519,587,1789.00,738.00,100.00,273.00,1,-1,-1,-1
519,588,1370.00,694.00,78.00,183.00,1,-1,-1,-1
520,579,-6.31,783.76,152.10,306.51,1,-1,-1,-1
520,586,1374.70,690.31,87.79,189.84,1,-1,-1,-1
520,587,1789.00,738.00,100.00,273.00,1,-1,-1,-1
521,579,-56.18,790.41,151.25,304.80,1,-1,-1,-1
521,586,1356.52,693.76,88.56,191.50,1,-1,-1,-1
523,589,1618.00,737.00,126.00,276.00,1,-1,-1,-1
524,589,1618.00,737.00,126.00,276.00,1,-1,-1,-1
525,590,1144.00,678.00,93.00,213.00,1,-1,-1,-1
526,586,1147.38,679.55,97.65,212.38,1,-1,-1,-1
527,586,1124.41,679.90,97.51,215.12,1,-1,-1,-1
528,586,1116.94,680.01,96.68,216.06,1,-1,-1,-1
529,586,1057.15,687.26,95.73,216.97,1,-1,-1,-1
529,591,1436.00,738.00,114.00,262.00,1,-1,-1,-1
530,586,1035.69,690.02,94.62,217.21,1,-1,-1,-1
530,591,1436.00,738.00,114.00,262.00,1,-1,-1,-1
531,586,1005.54,691.12,95.63,219.52,1,-1,-1,-1
531,591,1396.84,739.56,115.92,265.90,1,-1,-1,-1
531,592,946.00,694.00,91.00,220.00,1,-1,-1,-1
532,586,951.07,693.59,95.50,220.42,1,-1,-1,-1
532,591,1384.42,740.05,116.74,267.12,1,-1,-1,-1
533,586,918.42,694.83,96.44,222.58,1,-1,-1,-1
533,591,1338.68,743.84,117.17,268.89,1,-1,-1,-1
534,591,1324.10,745.09,117.02,269.42,1,-1,-1,-1
535,586,832.63,708.83,99.28,231.19,1,-1,-1,-1
535,591,1282.70,745.46,122.04,280.68,1,-1,-1,-1
536,586,818.99,711.05,99.11,232.58,1,-1,-1,-1
536,591,1268.57,745.55,123.90,284.65,1,-1,-1,-1
537,586,793.02,709.85,101.99,240.25,1,-1,-1,-1
537,591,1227.63,744.85,123.75,284.65,1,-1,-1,-1
537,593,738.00,711.00,98.00,238.00,1,-1,-1,-1
538,586,784.10,709.35,102.85,243.08,1,-1,-1,-1
538,591,1213.33,744.54,123.53,284.49,1,-1,-1,-1
538,593,738.00,711.00,98.00,238.00,1,-1,-1,-1
539,586,725.54,711.68,106.01,250.56,1,-1,-1,-1
539,591,1161.35,743.06,124.08,286.32,1,-1,-1,-1
540,586,703.96,712.52,107.18,253.35,1,-1,-1,-1
540,591,1142.88,742.48,124.10,286.91,1,-1,-1,-1
541,586,628.79,710.18,111.26,264.03,1,-1,-1,-1
541,591,1112.78,750.86,118.91,275.77,1,-1,-1,-1
542,586,600.94,709.25,112.55,268.03,1,-1,-1,-1
542,591,1102.85,754.04,116.68,271.40,1,-1,-1,-1
543,586,582.88,729.50,111.93,268.16,1,-1,-1,-1
543,591,1077.72,755.50,116.67,271.36,1,-1,-1,-1
543,594,526.00,738.00,113.00,265.00,1,-1,-1,-1
544,586,534.85,736.04,111.85,267.39,1,-1,-1,-1
544,595,595.00,740.00,105.00,266.00,1,-1,-1,-1
545,586,507.97,745.63,110.20,265.00,1,-1,-1,-1
546,586,499.21,749.18,109.18,263.96,1,-1,-1,-1
547,586,427.44,757.61,108.84,263.47,1,-1,-1,-1
547,596,352.00,749.00,104.00,270.00,1,-1,-1,-1
548,586,401.41,760.66,108.61,263.19,1,-1,-1,-1
548,596,352.00,749.00,104.00,270.00,1,-1,-1,-1
549,586,323.70,761.66,115.23,280.12,1,-1,-1,-1
549,591,890.56,760.22,125.35,279.54,1,-1,-1,-1
550,586,295.37,761.97,117.48,286.40,1,-1,-1,-1
550,591,878.36,760.42,129.80,280.07,1,-1,-1,-1
551,586,262.63,767.10,122.70,300.38,1,-1,-1,-1
551,591,852.10,761.45,130.11,280.73,1,-1,-1,-1
551,597,194.00,753.00,150.00,322.00,1,-1,-1,-1
552,586,251.13,768.99,124.38,305.67,1,-1,-1,-1
552,597,194.00,753.00,150.00,322.00,1,-1,-1,-1
553,586,188.60,776.68,126.00,303.71,1,-1,-1,-1
553,598,95.00,773.00,159.00,302.00,1,-1,-1,-1
554,586,165.03,779.54,127.77,302.73,1,-1,-1,-1
554,598,95.00,773.00,159.00,302.00,1,-1,-1,-1
555,586,104.79,795.52,121.18,282.62,1,-1,-1,-1
555,599,26.00,796.00,117.00,278.00,1,-1,-1,-1
556,586,38.56,797.48,119.82,279.94,1,-1,-1,-1
556,599,84.54,801.21,114.46,271.06,1,-1,-1,-1
557,586,8.72,814.01,112.57,261.00,1,-1,-1,-1
557,591,698.36,786.83,112.03,247.28,1,-1,-1,-1
558,586,-0.27,820.00,110.18,253.75,1,-1,-1,-1
558,591,692.36,788.38,109.06,244.98,1,-1,-1,-1
559,586,-36.60,826.00,109.27,251.65,1,-1,-1,-1
559,591,637.47,792.99,112.30,261.20,1,-1,-1,-1
560,591,619.23,794.60,111.48,266.95,1,-1,-1,-1
561,591,586.56,787.87,115.63,276.42,1,-1,-1,-1
562,591,574.95,785.23,117.29,280.00,1,-1,-1,-1
563,591,527.20,782.18,119.73,289.81,1,-1,-1,-1
564,591,510.20,780.99,119.79,293.49,1,-1,-1,-1
565,591,479.53,790.27,115.49,284.40,1,-1,-1,-1
566,591,469.14,793.85,113.48,280.72,1,-1,-1,-1
567,591,427.87,793.82,115.93,288.55,1,-1,-1,-1
568,591,413.37,793.77,116.45,291.43,1,-1,-1,-1
569,591,379.74,803.51,112.05,278.07,1,-1,-1,-1
570,591,367.98,807.22,110.74,272.77,1,-1,-1,-1
571,591,324.06,809.18,112.54,272.82,1,-1,-1,-1
572,591,308.20,809.82,114.16,272.85,1,-1,-1,-1
573,591,271.98,817.94,109.77,256.30,1,-1,-1,-1
574,591,259.14,820.91,109.29,249.98,1,-1,-1,-1
575,591,223.55,826.61,109.40,243.74,1,-1,-1,-1
576,591,210.88,828.57,110.96,241.57,1,-1,-1,-1
577,591,186.61,831.58,109.61,238.62,1,-1,-1,-1
579,591,112.21,821.60,121.60,255.33,1,-1,-1,-1
580,591,98.82,820.27,126.45,257.64,1,-1,-1,-1
581,591,73.56,821.21,126.39,257.52,1,-1,-1,-1
583,591,11.55,828.08,124.50,252.82,1,-1,-1,-1
584,591,1.70,829.16,124.47,252.08,1,-1,-1,-1
585,591,-22.91,830.55,124.19,251.51,1,-1,-1,-1
719,600,1362.00,507.00,39.00,105.00,1,-1,-1,-1
720,600,1362.00,507.00,39.00,105.00,1,-1,-1,-1
721,601,1387.00,523.00,40.00,89.00,1,-1,-1,-1
722,601,1387.00,523.00,40.00,89.00,1,-1,-1,-1
723,601,1380.44,512.09,46.11,103.03,1,-1,-1,-1
724,601,1378.43,508.58,47.87,107.54,1,-1,-1,-1
725,601,1391.76,509.71,47.87,108.08,1,-1,-1,-1
726,601,1396.96,510.40,47.55,107.94,1,-1,-1,-1
727,601,1405.04,506.01,49.91,114.51,1,-1,-1,-1
728,601,1408.11,504.47,50.37,116.83,1,-1,-1,-1
729,601,1420.66,507.94,49.86,116.88,1,-1,-1,-1
730,601,1425.54,509.40,49.27,116.73,1,-1,-1,-1
731,601,1433.52,512.67,48.27,115.87,1,-1,-1,-1
732,601,1436.57,513.97,47.48,115.43,1,-1,-1,-1
733,601,1448.18,511.85,46.33,113.18,1,-1,-1,-1
733,602,1468.00,515.00,48.00,110.00,1,-1,-1,-1
734,601,1452.46,511.06,45.74,112.24,1,-1,-1,-1
734,602,1468.00,515.00,48.00,110.00,1,-1,-1,-1
735,601,1458.13,505.49,48.89,119.79,1,-1,-1,-1
735,602,1478.13,513.44,51.12,117.02,1,-1,-1,-1
736,601,1460.13,503.44,50.09,122.56,1,-1,-1,-1
736,602,1481.32,512.95,52.17,119.24,1,-1,-1,-1
737,601,1471.35,494.90,51.91,128.10,1,-1,-1,-1
737,602,1485.19,512.35,53.34,121.91,1,-1,-1,-1
738,601,1475.67,491.65,52.33,130.19,1,-1,-1,-1
739,601,1481.06,489.43,53.29,132.57,1,-1,-1,-1
739,602,1476.66,525.32,43.94,100.21,1,-1,-1,-1
740,602,1475.35,527.04,42.75,97.26,1,-1,-1,-1
741,602,1487.31,524.69,42.84,97.87,1,-1,-1,-1
741,603,1462.00,514.00,41.00,102.00,1,-1,-1,-1
742,601,1466.67,509.86,43.01,107.00,1,-1,-1,-1
742,602,1491.36,523.85,42.78,98.13,1,-1,-1,-1
743,601,1455.13,517.46,40.28,98.68,1,-1,-1,-1
743,602,1494.29,524.59,42.19,96.78,1,-1,-1,-1
744,601,1451.91,519.53,39.88,96.41,1,-1,-1,-1
745,601,1452.53,520.63,39.28,94.97,1,-1,-1,-1
749,601,1486.61,524.07,44.88,108.66,1,-1,-1,-1
749,602,1449.79,512.64,45.02,104.39,1,-1,-1,-1
750,601,1489.47,524.37,45.28,109.77,1,-1,-1,-1
750,602,1447.38,511.94,44.82,104.84,1,-1,-1,-1
