1,170,16.00,69.00,303.00,938.00,1,-1,-1,-1
2,170,16.00,69.00,303.00,938.00,1,-1,-1,-1
3,170,5.93,73.68,304.42,944.24,1,-1,-1,-1
4,170,3.05,75.15,304.31,946.20,1,-1,-1,-1
5,170,-0.87,76.92,305.07,948.56,1,-1,-1,-1
23,171,914.00,203.00,201.00,520.00,1,-1,-1,-1
24,171,914.00,203.00,201.00,520.00,1,-1,-1,-1
47,172,294.00,415.00,175.00,469.00,1,-1,-1,-1
48,172,294.00,415.00,175.00,469.00,1,-1,-1,-1
55,173,1079.00,441.00,162.00,414.00,1,-1,-1,-1
56,173,1079.00,441.00,162.00,414.00,1,-1,-1,-1
57,173,1076.21,444.12,157.45,401.53,1,-1,-1,-1
58,173,1075.19,445.09,156.33,397.63,1,-1,-1,-1
59,173,1074.93,448.31,162.80,412.37,1,-1,-1,-1
59,174,150.00,459.00,189.00,452.00,1,-1,-1,-1
60,173,1074.61,449.31,165.51,417.31,1,-1,-1,-1
60,174,150.00,459.00,189.00,452.00,1,-1,-1,-1
61,173,1076.75,453.05,162.01,406.54,1,-1,-1,-1
61,174,126.75,447.31,199.65,477.73,1,-1,-1,-1
61,175,829.00,362.00,181.00,453.00,1,-1,-1,-1
62,173,1077.32,454.32,161.19,402.50,1,-1,-1,-1
62,174,119.44,443.60,202.92,485.87,1,-1,-1,-1
62,175,829.00,362.00,181.00,453.00,1,-1,-1,-1
63,173,1079.22,437.53,164.35,410.02,1,-1,-1,-1
63,174,113.62,451.33,202.24,482.89,1,-1,-1,-1
64,173,1079.86,431.43,165.60,412.76,1,-1,-1,-1
64,174,111.90,454.29,202.18,481.28,1,-1,-1,-1
65,173,1081.55,441.93,170.47,423.15,1,-1,-1,-1
65,174,105.34,453.97,204.15,485.95,1,-1,-1,-1
66,173,1081.94,445.90,172.70,427.00,1,-1,-1,-1
67,173,1087.86,446.09,169.20,417.14,1,-1,-1,-1
67,174,88.25,444.30,213.82,509.90,1,-1,-1,-1
68,173,1089.96,446.14,168.08,413.26,1,-1,-1,-1
68,174,85.77,442.90,214.94,513.46,1,-1,-1,-1
69,173,1094.22,430.81,169.90,416.47,1,-1,-1,-1
69,174,79.22,441.32,217.59,519.80,1,-1,-1,-1
70,173,1095.61,425.12,170.87,417.66,1,-1,-1,-1
71,173,1097.44,423.08,171.11,418.25,1,-1,-1,-1
77,173,1095.55,381.70,181.85,444.67,1,-1,-1,-1
77,176,936.00,327.00,146.00,461.00,1,-1,-1,-1
78,173,1095.32,379.11,182.50,446.37,1,-1,-1,-1
78,176,936.00,327.00,146.00,461.00,1,-1,-1,-1
79,173,1092.38,385.46,178.57,431.18,1,-1,-1,-1
79,177,835.00,316.00,180.00,421.00,1,-1,-1,-1
80,173,1090.73,388.08,178.03,425.28,1,-1,-1,-1
80,177,835.00,316.00,180.00,421.00,1,-1,-1,-1
81,173,1091.03,385.50,178.00,425.22,1,-1,-1,-1
81,177,831.73,309.76,186.54,436.59,1,-1,-1,-1
81,178,340.00,285.00,241.00,479.00,1,-1,-1,-1
82,177,830.76,307.80,188.47,441.51,1,-1,-1,-1
82,178,340.00,285.00,241.00,479.00,1,-1,-1,-1
83,177,822.50,298.56,199.18,467.50,1,-1,-1,-1
84,177,819.88,295.49,202.44,476.18,1,-1,-1,-1
85,173,1070.74,382.32,172.12,412.21,1,-1,-1,-1
85,174,239.45,183.51,337.94,786.51,1,-1,-1,-1
85,177,815.23,300.03,195.39,460.38,1,-1,-1,-1
86,173,1068.98,382.22,171.27,410.99,1,-1,-1,-1
86,174,241.90,176.04,347.14,793.74,1,-1,-1,-1
86,177,813.78,301.99,192.24,453.75,1,-1,-1,-1
87,173,1063.53,376.82,174.03,418.60,1,-1,-1,-1
87,174,203.10,151.91,357.50,817.74,1,-1,-1,-1
87,177,787.60,296.67,196.96,467.46,1,-1,-1,-1
88,173,1061.67,374.89,174.87,421.42,1,-1,-1,-1
88,174,187.82,142.87,361.30,826.71,1,-1,-1,-1
88,177,778.56,294.79,197.91,472.31,1,-1,-1,-1
89,173,1059.53,372.76,174.92,421.54,1,-1,-1,-1
89,174,190.45,128.78,367.83,841.65,1,-1,-1,-1
89,177,764.20,286.21,207.33,497.82,1,-1,-1,-1
90,177,759.39,283.05,210.01,507.24,1,-1,-1,-1
91,174,68.86,148.53,369.29,836.63,1,-1,-1,-1
91,177,751.61,279.99,213.39,515.40,1,-1,-1,-1
92,174,46.50,152.32,371.61,835.38,1,-1,-1,-1
93,174,37.21,149.68,370.36,815.95,1,-1,-1,-1
94,174,32.43,149.04,372.88,808.13,1,-1,-1,-1
95,173,964.66,339.22,183.78,450.35,1,-1,-1,-1
95,174,5.78,122.70,391.69,857.69,1,-1,-1,-1
96,173,959.63,337.15,182.18,452.25,1,-1,-1,-1
96,174,-2.93,113.05,396.50,875.96,1,-1,-1,-1
97,173,960.27,332.51,182.82,456.18,1,-1,-1,-1
97,174,-22.96,81.81,409.56,927.38,1,-1,-1,-1
98,173,960.99,330.87,182.61,457.59,1,-1,-1,-1
98,174,-27.73,70.03,409.07,946.85,1,-1,-1,-1
99,173,963.62,341.53,177.05,441.65,1,-1,-1,-1
99,174,-43.09,52.96,396.58,948.81,1,-1,-1,-1
100,173,964.81,345.81,175.22,435.40,1,-1,-1,-1
100,174,-45.39,46.74,384.85,948.92,1,-1,-1,-1
101,173,959.65,344.42,175.13,435.18,1,-1,-1,-1
101,174,-45.47,58.46,373.53,949.07,1,-1,-1,-1
102,174,-42.21,63.38,363.24,948.65,1,-1,-1,-1
103,174,-52.23,55.41,367.38,959.48,1,-1,-1,-1
105,173,1052.26,351.78,165.08,400.21,1,-1,-1,-1
106,173,1059.96,352.59,166.93,396.96,1,-1,-1,-1
107,173,1070.00,362.28,167.18,393.21,1,-1,-1,-1
107,177,788.89,234.93,184.95,439.66,1,-1,-1,-1
108,173,1073.01,365.81,168.17,391.96,1,-1,-1,-1
108,177,790.39,234.38,185.49,436.15,1,-1,-1,-1
109,173,1080.57,360.37,171.95,393.63,1,-1,-1,-1
109,177,787.30,234.71,191.13,440.68,1,-1,-1,-1
110,173,1082.39,358.31,174.90,394.37,1,-1,-1,-1
110,177,785.37,234.92,194.75,442.37,1,-1,-1,-1
111,173,1088.50,358.54,173.95,392.24,1,-1,-1,-1
111,177,785.98,233.18,194.22,441.15,1,-1,-1,-1
113,177,775.48,249.88,217.84,501.33,1,-1,-1,-1
114,177,774.95,252.22,219.31,510.01,1,-1,-1,-1
115,173,1087.54,321.39,192.46,434.48,1,-1,-1,-1
115,177,764.38,253.08,234.72,556.81,1,-1,-1,-1
116,173,1087.40,318.02,193.99,438.36,1,-1,-1,-1
116,177,761.62,253.39,238.08,574.33,1,-1,-1,-1
117,173,1090.74,314.67,195.21,441.11,1,-1,-1,-1
117,177,759.11,254.32,242.98,586.15,1,-1,-1,-1
127,173,1051.38,301.33,201.27,460.28,1,-1,-1,-1
128,173,1050.07,301.18,199.77,460.76,1,-1,-1,-1
129,173,1048.47,299.33,200.65,462.80,1,-1,-1,-1
131,173,1051.24,297.63,203.16,488.04,1,-1,-1,-1
132,173,1054.22,297.33,198.43,492.06,1,-1,-1,-1
133,173,1059.31,297.25,191.98,486.89,1,-1,-1,-1
134,173,1062.21,297.28,187.64,484.76,1,-1,-1,-1
135,173,1066.37,298.66,179.22,468.68,1,-1,-1,-1
136,173,1068.47,299.24,175.00,462.43,1,-1,-1,-1
137,173,1071.52,293.49,178.88,475.42,1,-1,-1,-1
138,173,1072.92,291.40,179.77,480.20,1,-1,-1,-1
139,173,1072.85,305.76,178.65,475.41,1,-1,-1,-1
140,173,1072.64,311.31,178.52,473.50,1,-1,-1,-1
141,173,1085.00,320.67,182.01,482.01,1,-1,-1,-1
142,173,1089.54,324.13,183.45,485.17,1,-1,-1,-1
143,173,1100.82,336.56,176.58,465.94,1,-1,-1,-1
144,173,1104.95,341.23,174.10,458.45,1,-1,-1,-1
145,173,1108.10,344.52,173.61,457.15,1,-1,-1,-1
151,179,251.00,387.00,162.00,498.00,1,-1,-1,-1
152,179,251.00,387.00,162.00,498.00,1,-1,-1,-1
153,179,226.16,340.23,181.28,557.25,1,-1,-1,-1
154,179,218.21,325.28,187.45,576.18,1,-1,-1,-1
155,179,208.70,307.36,194.84,598.88,1,-1,-1,-1
157,173,1104.00,351.59,184.22,476.37,1,-1,-1,-1
158,173,1102.50,351.59,186.89,477.09,1,-1,-1,-1
159,173,1103.00,352.70,187.24,478.00,1,-1,-1,-1
161,173,1109.61,362.56,175.93,442.10,1,-1,-1,-1
161,179,129.48,351.90,199.93,615.58,1,-1,-1,-1
162,173,1109.88,364.12,175.67,436.28,1,-1,-1,-1
162,179,125.72,356.43,199.22,614.33,1,-1,-1,-1
163,173,1102.45,352.50,181.85,450.58,1,-1,-1,-1
163,179,114.85,354.73,202.21,623.56,1,-1,-1,-1
164,173,1099.66,348.29,184.30,455.79,1,-1,-1,-1
165,173,1094.54,346.01,179.47,444.61,1,-1,-1,-1
165,180,789.00,288.00,177.00,434.00,1,-1,-1,-1
166,173,1092.66,345.16,177.50,440.36,1,-1,-1,-1
166,180,789.00,288.00,177.00,434.00,1,-1,-1,-1
167,173,1091.79,344.59,176.76,438.52,1,-1,-1,-1
169,173,1088.42,332.85,183.33,450.30,1,-1,-1,-1
169,181,799.00,282.00,170.00,474.00,1,-1,-1,-1
170,173,1087.27,331.06,185.56,452.06,1,-1,-1,-1
170,181,799.00,282.00,170.00,474.00,1,-1,-1,-1
171,173,1082.98,328.46,190.83,457.97,1,-1,-1,-1
171,181,796.25,276.54,166.93,466.20,1,-1,-1,-1
172,173,1080.71,327.54,194.19,460.18,1,-1,-1,-1
172,181,795.51,274.84,165.72,463.77,1,-1,-1,-1
173,173,1078.41,326.61,197.75,466.91,1,-1,-1,-1
173,181,798.60,270.72,164.84,463.18,1,-1,-1,-1
174,173,1077.40,326.31,199.45,469.43,1,-1,-1,-1
174,181,799.92,269.46,164.09,463.13,1,-1,-1,-1
175,173,1079.81,324.29,199.16,468.37,1,-1,-1,-1
175,181,796.84,276.17,166.02,470.94,1,-1,-1,-1
176,173,1080.73,323.57,199.11,467.90,1,-1,-1,-1
176,181,796.03,278.63,166.16,473.77,1,-1,-1,-1
177,173,1083.83,331.27,196.91,465.70,1,-1,-1,-1
177,181,796.13,288.38,170.23,489.06,1,-1,-1,-1
178,173,1085.35,334.23,195.42,464.83,1,-1,-1,-1
178,181,796.60,291.95,170.88,494.64,1,-1,-1,-1
179,173,1088.31,334.71,194.70,463.15,1,-1,-1,-1
179,181,800.35,291.25,165.98,480.68,1,-1,-1,-1
180,173,1089.44,334.89,194.40,462.50,1,-1,-1,-1
180,181,801.84,290.89,164.00,475.18,1,-1,-1,-1
181,173,1095.12,342.89,189.04,447.04,1,-1,-1,-1
181,181,804.57,296.73,157.55,454.36,1,-1,-1,-1
182,173,1096.99,345.93,187.57,441.15,1,-1,-1,-1
182,181,805.39,298.85,155.53,446.55,1,-1,-1,-1
183,173,1098.12,347.05,186.71,439.13,1,-1,-1,-1
183,181,806.01,300.70,154.45,443.44,1,-1,-1,-1
185,181,814.09,300.62,155.11,434.46,1,-1,-1,-1
186,181,813.91,300.62,157.97,433.09,1,-1,-1,-1
187,181,808.00,289.21,163.24,446.08,1,-1,-1,-1
188,181,805.66,285.03,165.48,450.88,1,-1,-1,-1
189,181,813.01,280.80,164.32,444.18,1,-1,-1,-1
190,181,815.46,279.23,164.55,441.65,1,-1,-1,-1
191,181,815.85,290.65,162.94,441.42,1,-1,-1,-1
192,181,816.35,294.95,161.56,441.39,1,-1,-1,-1
193,181,817.44,295.66,161.15,440.28,1,-1,-1,-1
197,173,1099.44,347.20,196.22,462.34,1,-1,-1,-1
197,181,819.83,299.87,154.20,407.63,1,-1,-1,-1
198,173,1099.53,347.13,196.29,463.12,1,-1,-1,-1
198,181,818.17,300.21,157.19,404.69,1,-1,-1,-1
199,173,1099.77,347.31,196.72,464.12,1,-1,-1,-1
199,181,816.44,296.96,159.89,404.40,1,-1,-1,-1
200,181,815.08,295.75,162.28,404.40,1,-1,-1,-1
201,181,815.11,293.29,158.76,390.52,1,-1,-1,-1
202,181,814.60,292.36,158.44,385.44,1,-1,-1,-1
203,181,815.41,292.07,156.69,381.18,1,-1,-1,-1
205,173,1085.80,332.96,214.37,525.56,1,-1,-1,-1
206,173,1087.55,331.97,210.11,529.68,1,-1,-1,-1
207,173,1086.55,336.17,209.89,530.45,1,-1,-1,-1
208,173,1086.31,337.82,209.52,530.57,1,-1,-1,-1
209,173,1093.20,345.65,205.24,519.33,1,-1,-1,-1
210,173,1095.86,348.67,203.59,514.82,1,-1,-1,-1
211,173,1101.01,354.41,202.59,518.31,1,-1,-1,-1
212,173,1103.51,356.54,201.05,519.55,1,-1,-1,-1
213,173,1100.36,353.36,198.72,516.64,1,-1,-1,-1
214,173,1099.44,352.09,197.22,515.45,1,-1,-1,-1
215,173,1096.72,361.49,190.80,498.43,1,-1,-1,-1
216,173,1095.67,365.03,188.38,491.89,1,-1,-1,-1
217,173,1102.21,363.61,190.36,502.19,1,-1,-1,-1
218,173,1105.15,363.04,190.05,506.02,1,-1,-1,-1
219,173,1105.59,364.25,190.21,506.45,1,-1,-1,-1
221,181,820.58,310.86,165.71,399.45,1,-1,-1,-1
222,181,820.20,311.29,166.92,400.02,1,-1,-1,-1
223,181,820.54,312.19,167.17,400.61,1,-1,-1,-1
225,173,1173.95,369.14,187.54,497.67,1,-1,-1,-1
226,173,1178.19,369.35,187.80,497.05,1,-1,-1,-1
227,173,1183.90,370.28,187.61,496.54,1,-1,-1,-1
233,173,1179.34,379.78,191.44,504.38,1,-1,-1,-1
234,173,1178.30,380.32,192.31,504.93,1,-1,-1,-1
235,173,1180.51,381.51,192.46,505.34,1,-1,-1,-1
241,182,277.00,245.00,311.00,700.00,1,-1,-1,-1
242,182,277.00,245.00,311.00,700.00,1,-1,-1,-1
243,182,267.72,237.98,313.19,705.46,1,-1,-1,-1
244,182,264.91,235.78,313.66,707.17,1,-1,-1,-1
245,182,261.35,233.12,314.58,709.24,1,-1,-1,-1
247,181,800.78,345.93,184.70,449.80,1,-1,-1,-1
247,182,201.21,200.75,339.05,769.32,1,-1,-1,-1
248,181,801.18,346.44,183.40,450.62,1,-1,-1,-1
248,182,194.34,196.48,340.24,777.08,1,-1,-1,-1
249,181,800.23,349.24,185.80,454.84,1,-1,-1,-1
249,182,181.74,189.38,345.33,788.70,1,-1,-1,-1
250,181,799.79,350.26,186.90,456.37,1,-1,-1,-1
251,181,795.60,351.90,188.81,466.09,1,-1,-1,-1
252,181,794.46,352.47,188.65,469.69,1,-1,-1,-1
253,181,795.75,352.63,188.49,465.04,1,-1,-1,-1
254,181,795.93,352.63,189.11,463.13,1,-1,-1,-1
255,181,804.17,359.20,187.58,461.66,1,-1,-1,-1
255,182,44.27,147.93,381.51,866.52,1,-1,-1,-1
256,181,807.52,361.63,186.54,461.05,1,-1,-1,-1
256,182,35.25,145.76,385.16,870.75,1,-1,-1,-1
257,181,802.62,374.38,187.20,464.72,1,-1,-1,-1
257,182,32.88,150.23,389.44,869.63,1,-1,-1,-1
258,181,800.97,379.11,187.02,466.07,1,-1,-1,-1
258,182,31.40,152.14,393.18,868.82,1,-1,-1,-1
259,181,810.75,375.51,180.62,452.02,1,-1,-1,-1
259,182,14.06,143.23,399.59,881.26,1,-1,-1,-1
260,181,814.69,373.98,177.78,446.58,1,-1,-1,-1
260,182,7.73,140.00,402.29,885.68,1,-1,-1,-1
261,181,823.23,369.33,175.17,441.25,1,-1,-1,-1
261,182,1.07,122.59,409.42,902.72,1,-1,-1,-1
262,181,826.49,367.52,173.97,439.30,1,-1,-1,-1
262,182,-0.89,116.12,411.69,908.92,1,-1,-1,-1
263,181,820.11,370.80,179.27,457.93,1,-1,-1,-1
263,182,-4.12,104.07,407.85,912.89,1,-1,-1,-1
264,181,818.29,371.99,180.08,464.82,1,-1,-1,-1
264,182,-3.49,99.69,403.35,914.06,1,-1,-1,-1
265,181,816.84,364.54,174.59,455.00,1,-1,-1,-1
265,182,-13.36,93.09,406.90,922.11,1,-1,-1,-1
266,181,816.67,361.61,171.61,451.14,1,-1,-1,-1
267,181,821.22,360.50,169.23,452.34,1,-1,-1,-1
267,183,543.00,388.00,140.00,423.00,1,-1,-1,-1
268,181,823.66,360.10,166.83,452.79,1,-1,-1,-1
268,183,543.00,388.00,140.00,423.00,1,-1,-1,-1
269,181,823.54,365.24,164.03,453.62,1,-1,-1,-1
269,183,540.66,382.54,143.12,433.13,1,-1,-1,-1
270,181,824.29,367.18,161.33,453.93,1,-1,-1,-1
270,183,540.04,380.82,143.87,436.33,1,-1,-1,-1
271,181,824.46,367.72,161.39,454.11,1,-1,-1,-1
271,183,539.11,378.75,145.14,440.17,1,-1,-1,-1
273,181,815.16,344.47,173.09,494.62,1,-1,-1,-1
273,183,533.73,373.15,145.51,445.28,1,-1,-1,-1
273,184,399.00,324.00,167.00,515.00,1,-1,-1,-1
274,181,814.71,340.87,172.94,500.92,1,-1,-1,-1
274,183,533.59,372.37,144.44,446.06,1,-1,-1,-1
274,184,399.00,324.00,167.00,515.00,1,-1,-1,-1
275,181,811.10,336.98,166.10,483.61,1,-1,-1,-1
275,183,531.06,366.69,143.65,448.32,1,-1,-1,-1
276,181,809.95,335.58,162.97,476.69,1,-1,-1,-1
276,183,530.66,364.69,142.39,449.04,1,-1,-1,-1
277,181,805.34,313.29,166.92,490.59,1,-1,-1,-1
277,183,451.95,356.70,149.28,475.28,1,-1,-1,-1
278,181,803.88,305.08,167.94,495.71,1,-1,-1,-1
278,183,423.43,353.81,150.92,484.90,1,-1,-1,-1
279,181,797.53,277.24,177.38,532.24,1,-1,-1,-1
279,183,409.39,350.59,152.83,491.06,1,-1,-1,-1
280,181,796.01,266.85,179.25,545.91,1,-1,-1,-1
281,181,795.22,268.81,177.23,544.01,1,-1,-1,-1
282,181,795.37,269.90,175.64,542.94,1,-1,-1,-1
283,181,793.27,260.11,176.15,543.61,1,-1,-1,-1
284,181,792.48,256.58,176.42,543.67,1,-1,-1,-1
285,181,794.42,245.63,167.55,516.00,1,-1,-1,-1
285,185,1104.00,114.00,374.00,762.00,1,-1,-1,-1
286,181,795.25,241.74,164.08,505.04,1,-1,-1,-1
286,185,1104.00,114.00,374.00,762.00,1,-1,-1,-1
287,181,793.98,235.56,164.06,504.98,1,-1,-1,-1
287,185,1090.84,119.46,373.04,759.66,1,-1,-1,-1
288,185,1086.62,121.17,372.91,758.93,1,-1,-1,-1
289,181,804.61,212.84,160.70,493.09,1,-1,-1,-1
289,185,1117.72,175.49,315.29,652.41,1,-1,-1,-1
290,181,806.08,209.33,160.53,491.25,1,-1,-1,-1
290,185,1130.45,193.58,292.47,616.61,1,-1,-1,-1
291,181,813.84,206.17,162.64,497.32,1,-1,-1,-1
291,185,1112.03,138.85,328.04,691.91,1,-1,-1,-1
292,181,816.65,205.21,163.50,499.59,1,-1,-1,-1
292,185,1106.46,122.13,338.72,714.79,1,-1,-1,-1
293,181,817.95,201.79,159.96,486.58,1,-1,-1,-1
293,185,1132.36,131.84,326.69,684.26,1,-1,-1,-1
294,181,818.20,200.77,158.97,481.64,1,-1,-1,-1
294,185,1141.64,135.77,323.52,672.67,1,-1,-1,-1
295,181,826.89,207.93,151.32,455.86,1,-1,-1,-1
295,185,1167.50,179.49,288.04,606.69,1,-1,-1,-1
295,186,155.00,39.00,373.00,812.00,1,-1,-1,-1
296,181,829.89,210.91,148.90,446.27,1,-1,-1,-1
296,185,1177.71,195.73,273.21,582.72,1,-1,-1,-1
296,186,155.00,39.00,373.00,812.00,1,-1,-1,-1
297,181,832.25,208.13,147.10,440.91,1,-1,-1,-1
297,185,1185.00,203.25,265.53,566.35,1,-1,-1,-1
297,186,147.75,51.47,385.94,841.62,1,-1,-1,-1
298,186,145.79,55.41,389.38,850.97,1,-1,-1,-1
299,185,1182.89,195.10,273.55,610.71,1,-1,-1,-1
299,186,133.56,61.50,395.50,866.43,1,-1,-1,-1
300,185,1188.04,194.49,264.20,615.54,1,-1,-1,-1
300,186,129.88,63.36,396.61,871.20,1,-1,-1,-1
301,185,1185.84,194.14,254.13,615.51,1,-1,-1,-1
301,186,157.94,65.85,393.19,867.45,1,-1,-1,-1
302,185,1187.52,193.85,245.18,615.69,1,-1,-1,-1
302,186,168.96,66.54,390.58,865.56,1,-1,-1,-1
303,185,1185.79,198.93,237.15,615.92,1,-1,-1,-1
303,186,180.12,41.51,396.16,890.98,1,-1,-1,-1
304,185,1187.22,200.72,229.93,616.15,1,-1,-1,-1
304,186,186.02,32.24,394.33,900.09,1,-1,-1,-1
305,185,1185.43,185.36,237.82,657.46,1,-1,-1,-1
305,186,199.33,26.10,396.92,913.76,1,-1,-1,-1
306,185,1186.94,179.67,236.40,672.70,1,-1,-1,-1
306,186,205.24,23.85,395.73,918.58,1,-1,-1,-1
307,185,1180.02,144.26,250.86,739.67,1,-1,-1,-1
307,186,202.28,59.39,393.95,932.55,1,-1,-1,-1
308,185,1180.09,130.89,250.95,764.92,1,-1,-1,-1
308,186,203.25,72.93,388.66,937.52,1,-1,-1,-1
309,185,1173.01,126.89,257.51,767.71,1,-1,-1,-1
309,186,175.70,41.24,403.95,998.17,1,-1,-1,-1
310,185,1168.84,125.48,262.83,768.34,1,-1,-1,-1
310,186,168.28,29.31,403.73,1020.74,1,-1,-1,-1
311,185,1166.95,121.55,266.08,777.86,1,-1,-1,-1
311,186,165.22,16.20,402.44,1040.04,1,-1,-1,-1
312,186,166.54,11.16,396.85,1046.98,1,-1,-1,-1
313,185,1150.12,113.95,270.57,776.26,1,-1,-1,-1
313,186,175.27,34.66,375.62,1002.91,1,-1,-1,-1
314,185,1145.57,112.73,274.78,775.85,1,-1,-1,-1
314,186,179.94,44.01,364.79,984.87,1,-1,-1,-1
315,181,816.63,194.80,163.11,497.18,1,-1,-1,-1
315,185,1145.40,95.21,283.29,800.03,1,-1,-1,-1
315,186,163.23,32.91,366.53,995.10,1,-1,-1,-1
316,181,817.07,194.58,161.80,498.62,1,-1,-1,-1
316,185,1145.42,88.76,286.38,808.90,1,-1,-1,-1
316,186,157.61,28.77,365.97,998.71,1,-1,-1,-1
317,181,818.12,184.26,156.34,475.93,1,-1,-1,-1
317,185,1133.20,79.30,297.13,838.69,1,-1,-1,-1
317,186,154.11,27.66,368.37,1005.25,1,-1,-1,-1
318,181,818.26,180.22,154.74,466.81,1,-1,-1,-1
318,185,1128.54,75.82,301.26,849.83,1,-1,-1,-1
319,181,814.45,170.18,161.26,489.89,1,-1,-1,-1
319,185,1120.63,76.63,309.35,875.80,1,-1,-1,-1
319,186,56.61,30.95,375.64,1009.64,1,-1,-1,-1
320,181,813.32,166.52,163.11,498.36,1,-1,-1,-1
320,185,1117.98,77.10,311.74,885.47,1,-1,-1,-1
320,186,38.94,31.49,380.81,1010.33,1,-1,-1,-1
321,181,812.31,172.36,151.36,457.36,1,-1,-1,-1
321,185,1113.26,78.11,320.18,903.02,1,-1,-1,-1
321,186,26.92,20.43,388.64,1027.73,1,-1,-1,-1
322,181,811.65,174.88,147.27,440.94,1,-1,-1,-1
322,185,1110.98,78.64,324.48,909.40,1,-1,-1,-1
322,186,22.45,16.33,392.17,1034.07,1,-1,-1,-1
323,181,810.45,147.50,153.88,448.64,1,-1,-1,-1
323,185,1116.12,88.09,323.30,909.45,1,-1,-1,-1
323,186,28.33,35.15,385.10,1007.39,1,-1,-1,-1
324,181,809.00,137.70,158.36,451.47,1,-1,-1,-1
324,185,1118.55,91.86,322.07,909.01,1,-1,-1,-1
324,186,30.42,42.47,383.73,996.82,1,-1,-1,-1
325,181,808.62,132.58,157.82,449.93,1,-1,-1,-1
325,185,1134.10,78.99,336.22,937.87,1,-1,-1,-1
325,186,22.34,43.58,384.29,998.27,1,-1,-1,-1
326,185,1138.97,74.17,343.62,948.54,1,-1,-1,-1
327,185,1139.32,71.26,347.81,960.10,1,-1,-1,-1
329,181,802.12,166.96,163.00,465.04,1,-1,-1,-1
330,181,801.58,170.37,163.43,466.51,1,-1,-1,-1
331,181,803.55,176.83,163.89,467.01,1,-1,-1,-1
332,181,804.24,179.24,164.20,467.18,1,-1,-1,-1
333,181,805.75,184.07,167.80,473.82,1,-1,-1,-1
334,181,806.01,185.85,169.77,476.30,1,-1,-1,-1
335,181,808.51,189.76,174.91,493.63,1,-1,-1,-1
335,185,1311.09,86.13,322.16,879.48,1,-1,-1,-1
336,181,809.73,191.19,176.28,500.11,1,-1,-1,-1
336,185,1319.20,87.45,322.53,873.07,1,-1,-1,-1
337,181,809.16,203.41,169.07,486.21,1,-1,-1,-1
337,185,1317.28,54.02,345.63,912.47,1,-1,-1,-1
338,181,809.47,208.06,165.11,480.65,1,-1,-1,-1
338,185,1314.33,42.06,358.06,926.59,1,-1,-1,-1
339,181,813.38,203.07,156.68,457.99,1,-1,-1,-1
339,185,1318.88,12.58,381.41,977.34,1,-1,-1,-1
340,181,815.02,201.03,153.17,449.36,1,-1,-1,-1
340,185,1319.42,1.60,392.05,996.35,1,-1,-1,-1
341,181,815.07,208.26,150.95,442.26,1,-1,-1,-1
341,185,1319.61,4.15,369.26,907.68,1,-1,-1,-1
342,181,815.02,210.86,150.27,439.75,1,-1,-1,-1
342,185,1316.65,5.82,364.57,871.44,1,-1,-1,-1
343,181,810.59,193.68,158.19,454.97,1,-1,-1,-1
343,185,1297.88,4.62,361.24,832.14,1,-1,-1,-1
344,181,808.20,187.32,162.63,460.64,1,-1,-1,-1
344,185,1287.54,4.46,366.41,817.98,1,-1,-1,-1
345,181,808.05,186.59,162.61,460.59,1,-1,-1,-1
345,185,1273.19,-0.14,400.81,895.05,1,-1,-1,-1
346,185,1268.13,-1.76,412.96,922.44,1,-1,-1,-1
347,185,1268.90,-6.23,415.41,927.90,1,-1,-1,-1
351,181,803.43,201.84,170.13,485.52,1,-1,-1,-1
351,185,1144.82,111.93,351.31,796.82,1,-1,-1,-1
351,187,682.00,232.00,127.00,411.00,1,-1,-1,-1
352,181,803.61,202.91,169.69,487.17,1,-1,-1,-1
352,185,1134.29,124.23,340.89,783.11,1,-1,-1,-1
352,187,682.00,232.00,127.00,411.00,1,-1,-1,-1
353,181,803.73,198.01,172.04,493.00,1,-1,-1,-1
353,185,1122.95,125.92,336.73,778.95,1,-1,-1,-1
354,181,803.72,196.15,173.05,495.13,1,-1,-1,-1
354,185,1119.82,126.28,334.22,777.73,1,-1,-1,-1
355,181,800.77,206.57,174.74,500.44,1,-1,-1,-1
355,185,1111.25,125.46,333.71,778.95,1,-1,-1,-1
356,181,799.70,210.52,175.27,502.38,1,-1,-1,-1
356,185,1108.73,124.91,333.12,779.67,1,-1,-1,-1
357,181,799.30,204.78,172.18,493.18,1,-1,-1,-1
357,185,1101.40,111.80,347.27,818.25,1,-1,-1,-1
357,188,558.00,225.00,129.00,397.00,1,-1,-1,-1
357,189,674.00,196.00,152.00,448.00,1,-1,-1,-1
358,181,799.16,202.51,171.01,489.54,1,-1,-1,-1
358,185,1099.53,106.89,351.24,832.53,1,-1,-1,-1
358,188,558.00,225.00,129.00,397.00,1,-1,-1,-1
358,189,674.00,196.00,152.00,448.00,1,-1,-1,-1
359,181,798.82,199.66,167.86,485.49,1,-1,-1,-1
359,185,1089.90,106.20,347.75,827.56,1,-1,-1,-1
359,188,564.12,233.58,126.89,389.98,1,-1,-1,-1
359,189,671.20,196.78,156.05,461.25,1,-1,-1,-1
360,181,799.16,198.57,165.79,483.94,1,-1,-1,-1
360,185,1086.92,105.86,345.68,825.57,1,-1,-1,-1
360,188,565.96,236.26,126.39,387.79,1,-1,-1,-1
360,189,670.53,197.03,156.89,465.43,1,-1,-1,-1
361,181,798.57,199.48,165.16,489.96,1,-1,-1,-1
361,185,1092.17,102.38,344.68,821.48,1,-1,-1,-1
361,188,552.71,231.70,132.11,405.82,1,-1,-1,-1
361,189,669.67,200.74,157.03,467.94,1,-1,-1,-1
362,181,799.07,199.83,163.51,492.22,1,-1,-1,-1
362,185,1094.27,101.03,344.65,819.91,1,-1,-1,-1
362,188,548.36,230.11,133.88,411.82,1,-1,-1,-1
362,189,669.70,201.99,156.46,468.53,1,-1,-1,-1
363,181,802.81,216.43,151.24,458.12,1,-1,-1,-1
363,185,1083.52,96.53,350.35,825.92,1,-1,-1,-1
363,188,537.45,235.01,135.40,413.82,1,-1,-1,-1
363,189,675.25,203.07,156.35,468.54,1,-1,-1,-1
364,181,804.52,222.85,146.04,444.88,1,-1,-1,-1
364,185,1078.84,94.83,354.17,828.18,1,-1,-1,-1
364,188,533.31,236.77,136.47,414.37,1,-1,-1,-1
364,189,677.33,203.40,156.18,468.38,1,-1,-1,-1
365,181,806.02,221.03,144.48,439.57,1,-1,-1,-1
365,185,1075.36,99.46,350.23,819.78,1,-1,-1,-1
365,188,528.96,219.09,143.50,439.45,1,-1,-1,-1
365,189,680.90,206.86,153.15,458.68,1,-1,-1,-1
365,190,428.00,207.00,152.00,439.00,1,-1,-1,-1
366,181,806.52,220.28,144.06,437.79,1,-1,-1,-1
366,185,1074.37,101.23,348.55,816.56,1,-1,-1,-1
366,188,527.86,212.62,145.23,448.54,1,-1,-1,-1
366,189,682.13,208.09,152.12,454.97,1,-1,-1,-1
366,190,428.00,207.00,152.00,439.00,1,-1,-1,-1
367,181,806.18,220.61,142.99,435.28,1,-1,-1,-1
367,185,1076.99,96.58,346.31,811.38,1,-1,-1,-1
367,188,524.69,217.39,144.46,450.48,1,-1,-1,-1
367,189,684.33,207.81,153.55,460.36,1,-1,-1,-1
367,190,427.35,221.03,151.74,438.22,1,-1,-1,-1
368,181,806.11,220.66,142.52,434.51,1,-1,-1,-1
368,185,1078.17,94.82,345.46,809.46,1,-1,-1,-1
368,188,524.04,219.32,143.27,450.93,1,-1,-1,-1
368,189,685.21,207.65,153.86,462.34,1,-1,-1,-1
368,190,427.14,225.43,151.67,437.98,1,-1,-1,-1
369,181,806.15,221.90,141.40,431.09,1,-1,-1,-1
369,185,1074.65,84.23,348.76,814.74,1,-1,-1,-1
369,188,523.79,214.84,147.64,467.33,1,-1,-1,-1
369,189,686.35,208.64,154.13,463.16,1,-1,-1,-1
369,190,418.54,211.74,164.32,474.09,1,-1,-1,-1
370,185,1073.18,80.28,350.56,816.76,1,-1,-1,-1
370,188,524.04,213.18,148.75,473.36,1,-1,-1,-1
370,190,415.64,207.11,168.63,486.05,1,-1,-1,-1
371,185,1075.88,90.07,343.68,802.34,1,-1,-1,-1
371,188,527.11,208.67,145.36,463.69,1,-1,-1,-1
371,190,404.40,199.91,169.55,489.31,1,-1,-1,-1
372,185,1077.22,93.86,340.72,796.88,1,-1,-1,-1
372,188,528.54,206.99,143.76,459.62,1,-1,-1,-1
372,190,400.39,197.27,169.57,490.01,1,-1,-1,-1
373,185,1072.60,93.29,345.43,803.56,1,-1,-1,-1
373,188,529.03,211.70,145.34,460.54,1,-1,-1,-1
373,190,407.20,213.83,166.62,477.10,1,-1,-1,-1
374,185,1070.45,93.08,348.21,806.11,1,-1,-1,-1
374,188,528.92,213.53,146.60,460.76,1,-1,-1,-1
374,190,409.55,220.19,166.25,471.83,1,-1,-1,-1
375,185,1073.07,87.71,355.14,820.33,1,-1,-1,-1
375,188,531.70,216.90,146.12,460.70,1,-1,-1,-1
375,189,682.54,227.29,148.51,449.06,1,-1,-1,-1
375,190,411.91,221.84,165.94,469.03,1,-1,-1,-1
376,185,1073.92,85.70,358.18,825.69,1,-1,-1,-1
376,188,532.93,218.20,145.65,460.56,1,-1,-1,-1
376,189,682.54,228.40,147.43,448.08,1,-1,-1,-1
376,190,412.65,222.40,166.18,467.85,1,-1,-1,-1
377,181,806.84,225.22,144.87,440.78,1,-1,-1,-1
377,185,1078.97,92.20,351.96,815.86,1,-1,-1,-1
377,188,534.15,216.73,151.25,479.52,1,-1,-1,-1
377,189,682.67,230.37,147.16,447.27,1,-1,-1,-1
377,190,396.44,210.54,182.61,512.69,1,-1,-1,-1
378,181,806.76,225.31,145.33,441.42,1,-1,-1,-1
378,185,1081.46,94.71,348.56,812.05,1,-1,-1,-1
378,188,534.73,216.18,153.11,486.55,1,-1,-1,-1
378,190,390.37,206.20,188.92,529.04,1,-1,-1,-1
379,181,806.84,225.98,145.18,440.97,1,-1,-1,-1
379,185,1093.39,91.68,355.78,828.49,1,-1,-1,-1
379,188,529.00,206.85,163.12,528.21,1,-1,-1,-1
379,190,388.92,205.13,191.56,544.29,1,-1,-1,-1
380,185,1097.81,90.54,358.56,834.62,1,-1,-1,-1
380,188,527.76,203.34,165.05,543.86,1,-1,-1,-1
380,190,389.25,204.74,190.91,549.94,1,-1,-1,-1
381,185,1084.13,78.28,368.59,857.27,1,-1,-1,-1
381,188,526.55,201.92,167.82,553.00,1,-1,-1,-1
381,190,391.81,206.57,189.80,551.13,1,-1,-1,-1
382,185,1078.85,73.66,372.50,865.76,1,-1,-1,-1
382,190,393.32,207.31,188.44,551.25,1,-1,-1,-1
383,185,1080.86,100.05,365.21,845.98,1,-1,-1,-1
383,190,379.41,182.79,199.99,592.15,1,-1,-1,-1
384,185,1081.37,110.32,362.91,838.13,1,-1,-1,-1
384,190,374.94,173.61,202.85,607.40,1,-1,-1,-1
385,185,1079.99,112.12,366.52,845.71,1,-1,-1,-1
385,190,367.99,178.39,199.66,593.79,1,-1,-1,-1
386,185,1079.40,112.73,368.02,848.50,1,-1,-1,-1
386,190,365.08,180.47,198.87,587.81,1,-1,-1,-1
387,185,1074.73,100.37,366.29,844.23,1,-1,-1,-1
387,190,361.42,178.23,201.37,595.20,1,-1,-1,-1
388,185,1072.95,95.61,365.66,842.52,1,-1,-1,-1
389,185,1071.23,107.02,357.64,824.66,1,-1,-1,-1
390,185,1070.69,111.36,354.46,817.85,1,-1,-1,-1
391,185,1057.83,118.24,355.42,822.68,1,-1,-1,-1
392,185,1053.38,120.76,355.19,824.53,1,-1,-1,-1
393,185,1064.88,119.64,352.77,814.69,1,-1,-1,-1
394,185,1068.87,119.13,352.82,811.00,1,-1,-1,-1
395,185,1058.36,102.28,362.31,825.62,1,-1,-1,-1
395,188,301.29,71.72,244.74,723.94,1,-1,-1,-1
395,190,263.28,265.91,187.70,540.48,1,-1,-1,-1
396,185,1053.62,95.97,367.57,831.11,1,-1,-1,-1
396,188,285.07,67.35,263.94,728.49,1,-1,-1,-1
396,190,256.87,271.06,189.94,536.25,1,-1,-1,-1
397,185,1047.45,109.40,366.54,829.25,1,-1,-1,-1
397,188,251.72,92.46,268.85,737.23,1,-1,-1,-1
397,190,248.87,276.34,189.55,535.14,1,-1,-1,-1
398,185,1045.23,114.55,366.03,828.52,1,-1,-1,-1
398,188,239.00,102.27,271.30,740.24,1,-1,-1,-1
399,185,1039.30,115.15,364.29,826.92,1,-1,-1,-1
399,188,242.92,104.93,270.45,738.39,1,-1,-1,-1
400,185,1037.42,115.34,363.08,826.31,1,-1,-1,-1
400,188,245.01,106.08,269.91,737.28,1,-1,-1,-1
401,185,1036.05,104.81,369.43,843.92,1,-1,-1,-1
401,188,229.39,83.67,277.11,755.53,1,-1,-1,-1
402,185,1035.99,100.84,371.04,850.52,1,-1,-1,-1
402,188,223.66,75.26,280.00,762.22,1,-1,-1,-1
403,185,1047.67,98.03,370.74,850.34,1,-1,-1,-1
403,188,204.55,64.34,298.70,806.83,1,-1,-1,-1
403,190,65.39,89.03,287.81,796.50,1,-1,-1,-1
404,185,1052.27,96.99,370.46,850.18,1,-1,-1,-1
404,188,196.90,60.30,306.94,823.56,1,-1,-1,-1
404,190,51.23,76.76,298.29,813.68,1,-1,-1,-1
405,185,1055.94,94.66,371.13,850.70,1,-1,-1,-1
405,188,201.57,66.65,313.63,838.71,1,-1,-1,-1
405,190,42.36,80.43,302.24,819.71,1,-1,-1,-1
406,185,1057.22,93.82,371.59,850.82,1,-1,-1,-1
406,188,203.51,69.31,316.59,844.16,1,-1,-1,-1
406,190,39.17,82.44,304.21,821.31,1,-1,-1,-1
407,185,1059.57,106.08,364.03,829.05,1,-1,-1,-1
407,188,195.22,65.87,321.20,856.46,1,-1,-1,-1
407,190,32.71,102.18,298.48,811.02,1,-1,-1,-1
408,185,1059.95,110.79,362.11,820.69,1,-1,-1,-1
408,190,31.25,110.37,295.13,806.23,1,-1,-1,-1
409,185,1053.45,108.54,365.34,829.61,1,-1,-1,-1
409,190,33.80,99.58,302.76,830.37,1,-1,-1,-1
410,185,1051.21,107.67,366.19,832.97,1,-1,-1,-1
410,190,35.42,95.65,304.94,839.21,1,-1,-1,-1
411,185,1065.26,117.24,359.83,821.72,1,-1,-1,-1
411,190,26.40,86.68,308.52,860.13,1,-1,-1,-1
412,185,1070.98,120.85,356.70,817.46,1,-1,-1,-1
412,190,24.31,83.44,307.71,867.74,1,-1,-1,-1
413,185,1076.98,113.52,368.97,850.44,1,-1,-1,-1
413,188,233.71,47.81,346.76,932.82,1,-1,-1,-1
413,190,19.70,64.36,314.39,897.92,1,-1,-1,-1
414,185,1079.76,110.77,372.32,862.66,1,-1,-1,-1
414,188,238.72,46.90,345.86,936.93,1,-1,-1,-1
414,190,19.28,57.22,314.72,909.12,1,-1,-1,-1
415,185,1085.00,97.26,369.66,867.95,1,-1,-1,-1
415,188,248.45,26.94,352.39,970.49,1,-1,-1,-1
415,190,4.88,40.54,319.41,939.99,1,-1,-1,-1
416,185,1088.24,92.07,365.97,869.85,1,-1,-1,-1
416,188,253.51,19.51,351.97,982.84,1,-1,-1,-1
416,190,1.19,34.33,317.90,951.45,1,-1,-1,-1
417,185,1103.99,97.37,364.89,867.15,1,-1,-1,-1
417,188,239.69,5.12,364.43,1014.35,1,-1,-1,-1
417,190,-1.13,31.61,320.93,970.76,1,-1,-1,-1
417,191,804.00,225.00,158.00,463.00,1,-1,-1,-1
418,185,1109.89,99.45,364.45,866.00,1,-1,-1,-1
418,188,234.09,-0.27,369.66,1026.07,1,-1,-1,-1
418,190,-0.80,30.84,320.13,977.70,1,-1,-1,-1
418,191,804.00,225.00,158.00,463.00,1,-1,-1,-1
419,185,1113.54,93.68,376.96,899.08,1,-1,-1,-1
419,188,233.76,-2.15,368.52,1009.96,1,-1,-1,-1
419,190,-9.67,23.22,325.46,993.99,1,-1,-1,-1
420,185,1115.21,91.54,380.82,911.38,1,-1,-1,-1
420,188,232.62,-2.61,370.02,1003.00,1,-1,-1,-1
421,185,1103.36,99.88,370.43,891.80,1,-1,-1,-1
421,188,212.77,-2.60,366.69,995.99,1,-1,-1,-1
422,185,1099.16,103.17,365.17,883.91,1,-1,-1,-1
422,188,205.47,-2.40,364.91,992.95,1,-1,-1,-1
423,185,1091.76,111.02,355.50,862.98,1,-1,-1,-1
423,188,189.18,-2.17,378.90,1014.53,1,-1,-1,-1
424,185,1089.19,113.98,351.29,854.98,1,-1,-1,-1
424,188,181.56,-1.97,387.28,1022.44,1,-1,-1,-1
425,185,1088.80,110.39,345.28,839.38,1,-1,-1,-1
425,188,169.81,-1.75,382.19,996.35,1,-1,-1,-1
426,185,1088.57,109.00,343.25,833.58,1,-1,-1,-1
426,188,164.34,-1.52,382.42,985.86,1,-1,-1,-1
427,185,1079.03,115.79,344.14,835.53,1,-1,-1,-1
427,188,154.40,-1.33,381.38,957.91,1,-1,-1,-1
428,185,1075.47,118.30,344.56,836.36,1,-1,-1,-1
428,188,148.43,-1.15,385.82,947.22,1,-1,-1,-1
429,185,1072.65,124.51,344.53,834.11,1,-1,-1,-1
429,188,111.70,-1.01,410.88,986.62,1,-1,-1,-1
430,185,1071.41,126.79,345.02,833.34,1,-1,-1,-1
430,188,95.79,-0.92,425.14,1001.11,1,-1,-1,-1
431,185,1062.69,124.92,348.63,840.43,1,-1,-1,-1
431,188,72.47,18.84,456.42,1058.98,1,-1,-1,-1
432,185,1059.29,124.15,350.37,843.14,1,-1,-1,-1
432,188,61.95,26.33,471.96,1080.72,1,-1,-1,-1
433,185,1057.79,142.30,345.74,829.67,1,-1,-1,-1
433,188,42.45,24.06,484.15,1105.05,1,-1,-1,-1
434,185,1057.08,149.12,344.48,824.59,1,-1,-1,-1
434,188,34.82,23.13,489.52,1114.07,1,-1,-1,-1
435,185,1060.44,150.89,345.59,828.75,1,-1,-1,-1
435,188,33.60,16.88,505.61,1139.83,1,-1,-1,-1
436,185,1061.93,151.42,345.71,830.37,1,-1,-1,-1
436,188,32.15,14.46,514.15,1149.32,1,-1,-1,-1
437,185,1061.21,130.34,356.39,856.84,1,-1,-1,-1
437,188,24.09,14.45,520.12,1162.64,1,-1,-1,-1
438,185,1061.06,122.39,360.20,866.74,1,-1,-1,-1
439,185,1062.15,114.08,365.33,881.62,1,-1,-1,-1
440,185,1062.88,110.93,366.69,887.18,1,-1,-1,-1
441,185,1076.04,103.88,363.72,881.96,1,-1,-1,-1
442,185,1081.31,101.26,362.09,879.79,1,-1,-1,-1
443,185,1092.03,110.88,349.86,854.48,1,-1,-1,-1
444,185,1096.51,114.65,344.24,844.72,1,-1,-1,-1
445,185,1105.44,92.13,349.44,862.41,1,-1,-1,-1
446,185,1109.24,83.81,350.27,868.99,1,-1,-1,-1
447,185,1125.80,84.05,349.74,868.83,1,-1,-1,-1
448,185,1132.10,84.28,349.27,868.71,1,-1,-1,-1
449,185,1137.94,94.39,343.13,862.02,1,-1,-1,-1
450,185,1140.87,98.31,339.00,859.45,1,-1,-1,-1
451,185,1149.09,107.78,332.13,849.87,1,-1,-1,-1
452,185,1152.83,111.37,327.93,846.26,1,-1,-1,-1
453,185,1167.55,114.03,330.59,858.89,1,-1,-1,-1
454,185,1173.51,114.99,330.39,863.64,1,-1,-1,-1
455,185,1179.25,105.44,328.86,858.18,1,-1,-1,-1
456,185,1181.07,101.77,328.57,856.08,1,-1,-1,-1
457,185,1186.02,101.19,328.48,855.87,1,-1,-1,-1
467,185,1178.98,91.12,322.26,840.37,1,-1,-1,-1
468,185,1178.32,90.77,321.86,839.77,1,-1,-1,-1
469,185,1161.10,83.99,331.79,867.51,1,-1,-1,-1
470,185,1154.92,81.52,335.13,877.73,1,-1,-1,-1
471,185,1162.32,89.83,332.01,863.85,1,-1,-1,-1
472,185,1164.77,93.09,331.72,858.37,1,-1,-1,-1
473,185,1171.81,85.71,331.32,856.28,1,-1,-1,-1
474,185,1174.36,82.95,331.36,855.48,1,-1,-1,-1
475,185,1181.15,89.89,326.92,841.28,1,-1,-1,-1
475,192,817.00,193.00,153.00,428.00,1,-1,-1,-1
476,185,1183.42,92.56,325.77,835.91,1,-1,-1,-1
476,192,817.00,193.00,153.00,428.00,1,-1,-1,-1
477,185,1185.16,92.68,324.99,833.92,1,-1,-1,-1
477,192,806.09,184.42,160.79,450.61,1,-1,-1,-1
478,192,802.78,181.71,162.96,457.76,1,-1,-1,-1
479,185,1183.98,79.40,327.91,834.24,1,-1,-1,-1
479,192,808.46,191.16,154.81,434.24,1,-1,-1,-1
480,185,1182.84,77.35,330.29,834.27,1,-1,-1,-1
480,192,810.69,194.70,151.89,425.37,1,-1,-1,-1
481,185,1188.31,78.66,333.31,842.27,1,-1,-1,-1
481,192,810.02,195.59,151.20,423.43,1,-1,-1,-1
481,193,564.00,189.00,137.00,406.00,1,-1,-1,-1
482,185,1190.34,79.18,334.37,845.27,1,-1,-1,-1
482,193,564.00,189.00,137.00,406.00,1,-1,-1,-1
483,185,1190.86,75.46,341.09,870.84,1,-1,-1,-1
483,192,806.43,167.76,152.38,425.27,1,-1,-1,-1
483,193,554.28,182.76,143.96,427.05,1,-1,-1,-1
484,185,1191.89,74.09,341.83,880.42,1,-1,-1,-1
484,192,805.72,164.05,152.95,425.46,1,-1,-1,-1
484,193,551.28,180.79,146.02,433.71,1,-1,-1,-1
485,185,1195.26,82.78,328.16,853.22,1,-1,-1,-1
485,192,810.39,179.76,152.80,425.54,1,-1,-1,-1
485,193,553.86,173.04,147.10,438.30,1,-1,-1,-1
485,194,959.00,201.00,138.00,445.00,1,-1,-1,-1
486,185,1197.25,86.19,321.32,842.54,1,-1,-1,-1
486,192,812.19,185.65,152.66,425.60,1,-1,-1,-1
486,193,555.12,170.48,146.99,439.48,1,-1,-1,-1
486,194,959.00,201.00,138.00,445.00,1,-1,-1,-1
487,185,1198.47,86.40,320.99,841.68,1,-1,-1,-1
487,192,816.47,208.60,149.40,422.31,1,-1,-1,-1
487,193,562.04,187.75,143.79,431.94,1,-1,-1,-1
488,192,818.64,217.17,147.05,421.11,1,-1,-1,-1
488,193,564.86,194.23,142.07,428.89,1,-1,-1,-1
489,185,1258.17,98.83,332.77,864.57,1,-1,-1,-1
489,192,819.22,220.74,146.70,420.09,1,-1,-1,-1
489,193,571.70,219.73,133.16,403.10,1,-1,-1,-1
490,185,1266.35,100.76,336.74,868.09,1,-1,-1,-1
490,193,574.31,229.11,129.59,393.38,1,-1,-1,-1
491,185,1273.76,102.24,337.45,869.93,1,-1,-1,-1
491,193,566.30,210.93,136.52,417.50,1,-1,-1,-1
492,193,563.78,204.46,138.31,426.04,1,-1,-1,-1
493,193,568.90,230.93,130.12,402.20,1,-1,-1,-1
494,193,571.02,241.15,126.67,392.81,1,-1,-1,-1
495,193,570.27,226.43,133.18,413.81,1,-1,-1,-1
496,193,570.07,221.09,135.37,421.36,1,-1,-1,-1
497,193,572.43,243.22,132.61,409.81,1,-1,-1,-1
498,193,573.09,251.69,132.01,405.26,1,-1,-1,-1
499,193,566.05,230.04,142.98,437.55,1,-1,-1,-1
500,193,563.35,222.14,147.24,449.30,1,-1,-1,-1
501,193,547.84,248.75,140.87,425.95,1,-1,-1,-1
501,195,945.00,230.00,151.00,452.00,1,-1,-1,-1
502,193,541.41,259.28,138.85,416.42,1,-1,-1,-1
502,195,945.00,230.00,151.00,452.00,1,-1,-1,-1
503,193,542.04,259.70,138.92,418.21,1,-1,-1,-1
503,195,938.51,219.87,158.52,476.17,1,-1,-1,-1
504,193,542.49,259.75,138.65,418.87,1,-1,-1,-1
504,195,936.72,216.66,160.37,483.81,1,-1,-1,-1
505,193,541.02,229.89,153.89,466.03,1,-1,-1,-1
505,195,934.83,217.29,162.99,493.73,1,-1,-1,-1
506,193,540.59,218.96,159.23,483.29,1,-1,-1,-1
506,195,934.55,217.69,163.24,496.73,1,-1,-1,-1
507,185,1188.84,89.47,330.76,840.75,1,-1,-1,-1
507,193,542.86,217.11,160.45,484.91,1,-1,-1,-1
507,195,932.48,215.68,165.87,504.74,1,-1,-1,-1
507,196,392.00,200.00,168.00,458.00,1,-1,-1,-1
508,185,1184.44,88.99,333.49,839.83,1,-1,-1,-1
508,193,543.66,216.45,161.18,485.25,1,-1,-1,-1
508,196,392.00,200.00,168.00,458.00,1,-1,-1,-1
509,185,1175.46,88.83,340.71,858.27,1,-1,-1,-1
509,193,535.68,199.98,168.94,515.10,1,-1,-1,-1
509,195,931.54,237.99,152.74,468.90,1,-1,-1,-1
509,196,389.04,196.88,177.82,487.62,1,-1,-1,-1
510,185,1172.29,88.79,343.32,865.08,1,-1,-1,-1
510,193,533.31,193.80,170.60,526.26,1,-1,-1,-1
510,195,931.97,241.34,149.68,463.44,1,-1,-1,-1
510,196,388.61,195.89,179.90,497.01,1,-1,-1,-1
511,185,1173.31,97.41,344.18,862.98,1,-1,-1,-1
511,192,829.94,221.41,164.01,482.55,1,-1,-1,-1
511,193,534.95,207.54,164.19,514.29,1,-1,-1,-1
511,195,930.47,243.21,149.66,463.38,1,-1,-1,-1
511,196,388.59,203.57,179.56,498.71,1,-1,-1,-1
512,185,1173.51,100.69,345.19,862.11,1,-1,-1,-1
512,192,831.49,221.17,161.60,483.83,1,-1,-1,-1
512,193,536.32,213.13,160.29,509.14,1,-1,-1,-1
512,196,389.01,206.32,178.48,498.68,1,-1,-1,-1
513,185,1170.85,91.27,345.96,867.04,1,-1,-1,-1
513,192,831.87,221.21,162.49,486.50,1,-1,-1,-1
513,193,527.01,200.88,162.11,523.36,1,-1,-1,-1
513,195,942.89,209.92,153.64,476.83,1,-1,-1,-1
513,196,383.98,195.47,184.27,517.64,1,-1,-1,-1
514,185,1170.24,87.71,345.66,868.85,1,-1,-1,-1
514,193,524.28,196.31,161.30,528.58,1,-1,-1,-1
514,195,944.83,205.06,153.95,478.81,1,-1,-1,-1
514,196,382.54,191.53,185.57,524.23,1,-1,-1,-1
515,185,1175.60,77.78,343.18,864.85,1,-1,-1,-1
515,192,837.99,202.67,154.78,461.89,1,-1,-1,-1
515,193,521.85,205.68,156.66,518.64,1,-1,-1,-1
515,195,942.05,202.73,150.31,471.50,1,-1,-1,-1
515,196,380.83,184.72,189.09,539.00,1,-1,-1,-1
516,185,1177.95,74.05,341.78,863.27,1,-1,-1,-1
516,192,838.85,199.60,153.76,457.76,1,-1,-1,-1
516,193,521.44,209.43,153.96,514.50,1,-1,-1,-1
516,195,941.32,201.98,148.25,468.69,1,-1,-1,-1
516,196,380.78,182.21,189.23,544.24,1,-1,-1,-1
517,185,1184.56,57.48,349.77,880.53,1,-1,-1,-1
517,192,839.78,197.76,153.58,457.21,1,-1,-1,-1
517,193,518.99,208.72,155.06,518.15,1,-1,-1,-1
517,195,952.56,199.81,145.76,465.63,1,-1,-1,-1
517,196,380.79,206.41,182.66,530.66,1,-1,-1,-1
518,185,1186.78,51.35,353.35,886.95,1,-1,-1,-1
518,195,957.16,199.10,144.02,464.48,1,-1,-1,-1
518,196,381.39,215.84,178.95,524.96,1,-1,-1,-1
519,185,1188.04,48.49,363.72,899.83,1,-1,-1,-1
519,195,954.53,190.95,144.69,463.39,1,-1,-1,-1
519,196,373.39,168.04,197.37,587.84,1,-1,-1,-1
520,185,1187.17,47.54,370.33,904.60,1,-1,-1,-1
520,195,953.22,187.99,145.47,463.00,1,-1,-1,-1
520,196,371.48,150.74,202.08,610.64,1,-1,-1,-1
521,185,1177.88,54.54,368.36,891.17,1,-1,-1,-1
521,195,951.84,196.28,144.15,457.56,1,-1,-1,-1
521,196,301.47,185.49,184.93,566.22,1,-1,-1,-1
522,185,1173.42,57.37,369.30,885.86,1,-1,-1,-1
522,195,951.19,199.52,143.86,455.53,1,-1,-1,-1
522,196,273.65,200.08,176.48,547.10,1,-1,-1,-1
523,185,1164.76,51.23,373.05,898.34,1,-1,-1,-1
523,195,951.66,198.41,143.51,454.43,1,-1,-1,-1
523,196,259.33,204.79,172.87,541.20,1,-1,-1,-1
524,185,1161.93,48.99,373.66,902.97,1,-1,-1,-1
524,196,254.89,206.52,170.57,538.87,1,-1,-1,-1
525,185,1163.08,56.78,375.44,908.57,1,-1,-1,-1
525,196,248.10,174.64,182.13,582.31,1,-1,-1,-1
526,185,1163.72,59.81,375.79,910.59,1,-1,-1,-1
526,196,246.36,162.91,185.06,598.26,1,-1,-1,-1
527,185,1162.40,59.09,377.04,913.62,1,-1,-1,-1
527,195,969.00,194.91,143.98,454.58,1,-1,-1,-1
527,196,236.15,170.01,184.78,602.34,1,-1,-1,-1
528,195,970.42,194.65,144.35,454.66,1,-1,-1,-1
528,196,232.97,172.95,183.75,603.58,1,-1,-1,-1
529,195,972.31,193.70,144.16,454.06,1,-1,-1,-1
529,196,232.80,181.37,183.21,599.19,1,-1,-1,-1
530,196,232.90,184.68,183.33,597.21,1,-1,-1,-1
531,185,1270.34,101.47,352.61,867.80,1,-1,-1,-1
531,193,311.29,124.36,233.61,757.56,1,-1,-1,-1
531,196,225.51,184.03,184.94,602.46,1,-1,-1,-1
532,185,1282.88,105.63,346.16,863.09,1,-1,-1,-1
532,193,302.21,121.61,240.85,765.22,1,-1,-1,-1
533,185,1285.73,100.97,348.57,881.66,1,-1,-1,-1
533,193,299.54,125.80,247.76,766.42,1,-1,-1,-1
534,185,1287.84,99.19,346.94,888.48,1,-1,-1,-1
534,193,297.67,127.62,252.81,766.38,1,-1,-1,-1
535,185,1291.89,83.25,349.10,906.25,1,-1,-1,-1
535,193,288.46,113.64,262.69,792.37,1,-1,-1,-1
536,185,1294.41,77.17,347.48,912.92,1,-1,-1,-1
536,193,284.86,108.37,266.99,802.05,1,-1,-1,-1
537,185,1309.89,73.53,337.66,903.54,1,-1,-1,-1
537,193,277.41,94.23,272.97,816.94,1,-1,-1,-1
538,185,1317.09,72.17,330.79,899.82,1,-1,-1,-1
538,193,274.58,88.90,275.64,822.31,1,-1,-1,-1
539,185,1324.10,70.38,325.06,893.07,1,-1,-1,-1
539,193,266.91,101.92,279.97,818.08,1,-1,-1,-1
540,185,1327.32,69.74,321.24,890.48,1,-1,-1,-1
540,193,262.92,107.18,284.22,815.96,1,-1,-1,-1
541,185,1334.63,87.42,307.16,861.03,1,-1,-1,-1
541,193,251.08,116.51,286.03,821.94,1,-1,-1,-1
542,185,1337.98,94.18,300.12,849.87,1,-1,-1,-1
542,193,246.89,120.16,286.47,823.90,1,-1,-1,-1
543,185,1351.21,92.61,298.58,850.57,1,-1,-1,-1
543,193,228.05,76.50,304.60,877.93,1,-1,-1,-1
544,185,1356.39,91.97,297.11,850.97,1,-1,-1,-1
544,193,221.27,60.13,311.00,898.08,1,-1,-1,-1
545,185,1361.80,89.69,296.53,861.23,1,-1,-1,-1
545,193,214.25,45.47,312.45,905.54,1,-1,-1,-1
545,195,965.50,226.46,138.87,439.06,1,-1,-1,-1
546,185,1364.73,88.81,294.12,865.16,1,-1,-1,-1
546,193,212.13,39.99,312.26,907.91,1,-1,-1,-1
546,195,965.34,227.34,138.41,438.75,1,-1,-1,-1
547,185,1360.75,99.01,292.41,865.38,1,-1,-1,-1
547,193,183.40,11.47,327.49,946.73,1,-1,-1,-1
547,195,965.39,236.32,138.72,433.30,1,-1,-1,-1
548,185,1359.53,102.85,290.84,865.51,1,-1,-1,-1
548,193,172.16,0.80,334.21,961.20,1,-1,-1,-1
548,195,965.04,239.59,139.59,431.30,1,-1,-1,-1
549,185,1362.64,89.02,292.08,878.15,1,-1,-1,-1
549,193,151.20,10.54,336.25,968.89,1,-1,-1,-1
549,195,970.10,236.04,134.24,408.56,1,-1,-1,-1
550,185,1364.51,83.79,290.94,882.91,1,-1,-1,-1
550,193,143.60,14.67,336.52,971.32,1,-1,-1,-1
550,195,971.61,234.54,133.03,400.06,1,-1,-1,-1
551,185,1344.79,66.65,299.54,911.67,1,-1,-1,-1
551,193,72.34,3.53,350.86,1012.76,1,-1,-1,-1
551,195,958.91,210.90,145.54,443.24,1,-1,-1,-1
552,185,1337.54,60.23,302.28,922.45,1,-1,-1,-1
552,193,45.55,-0.56,356.19,1028.19,1,-1,-1,-1
552,195,954.94,202.57,148.92,458.45,1,-1,-1,-1
553,185,1329.24,59.79,304.46,928.41,1,-1,-1,-1
553,193,40.46,-2.54,364.66,1048.50,1,-1,-1,-1
553,195,955.19,205.18,150.56,465.10,1,-1,-1,-1
554,185,1326.02,59.73,305.36,930.51,1,-1,-1,-1
554,193,38.70,-3.09,368.51,1055.84,1,-1,-1,-1
554,195,955.47,206.30,150.90,467.56,1,-1,-1,-1
555,185,1322.02,50.61,309.97,946.87,1,-1,-1,-1
555,193,33.19,-3.06,366.42,1054.19,1,-1,-1,-1
555,195,950.84,210.08,143.55,441.55,1,-1,-1,-1
556,185,1320.75,47.24,311.27,952.91,1,-1,-1,-1
556,193,32.03,-2.84,364.62,1052.96,1,-1,-1,-1
556,195,948.87,211.66,141.10,431.24,1,-1,-1,-1
557,185,1318.07,55.86,309.04,947.81,1,-1,-1,-1
557,193,10.92,-2.56,359.71,1057.87,1,-1,-1,-1
557,195,940.81,216.95,142.95,440.19,1,-1,-1,-1
558,185,1317.25,59.29,307.81,945.62,1,-1,-1,-1
558,193,5.06,-2.30,354.21,1059.32,1,-1,-1,-1
558,195,938.18,218.90,143.06,443.47,1,-1,-1,-1
559,185,1327.00,65.91,302.46,934.08,1,-1,-1,-1
559,193,-8.41,-5.94,357.71,1069.77,1,-1,-1,-1
559,195,942.68,223.61,137.55,426.25,1,-1,-1,-1
560,185,1331.19,68.48,299.55,929.54,1,-1,-1,-1
560,195,944.52,225.41,135.45,419.61,1,-1,-1,-1
561,185,1334.78,82.02,294.43,913.21,1,-1,-1,-1
561,195,943.36,226.14,134.83,417.67,1,-1,-1,-1
562,185,1336.11,87.13,292.55,906.97,1,-1,-1,-1
563,185,1351.25,109.58,283.13,879.42,1,-1,-1,-1
563,195,951.86,210.89,136.95,430.17,1,-1,-1,-1
564,185,1357.07,117.94,279.33,869.09,1,-1,-1,-1
564,195,953.80,208.60,135.90,432.02,1,-1,-1,-1
565,185,1365.01,106.15,277.62,867.46,1,-1,-1,-1
565,195,955.42,230.30,133.00,426.72,1,-1,-1,-1
565,197,846.00,260.00,132.00,393.00,1,-1,-1,-1
565,198,1084.00,258.00,143.00,391.00,1,-1,-1,-1
566,185,1368.17,101.62,276.40,867.02,1,-1,-1,-1
566,195,956.33,238.51,131.31,424.73,1,-1,-1,-1
566,197,846.00,260.00,132.00,393.00,1,-1,-1,-1
566,198,1084.00,258.00,143.00,391.00,1,-1,-1,-1
567,185,1380.60,97.84,283.87,891.64,1,-1,-1,-1
567,195,947.50,229.59,131.12,427.32,1,-1,-1,-1
568,185,1385.23,96.38,286.47,900.87,1,-1,-1,-1
568,195,944.45,226.18,130.55,428.31,1,-1,-1,-1
569,185,1390.50,92.49,290.01,918.24,1,-1,-1,-1
569,195,951.03,231.47,130.80,430.68,1,-1,-1,-1
569,199,1102.00,252.00,141.00,406.00,1,-1,-1,-1
570,185,1392.89,90.99,290.28,924.79,1,-1,-1,-1
570,195,953.67,233.45,130.65,431.58,1,-1,-1,-1
570,199,1102.00,252.00,141.00,406.00,1,-1,-1,-1
571,185,1401.55,98.93,288.32,919.99,1,-1,-1,-1
571,195,955.78,266.49,124.43,405.52,1,-1,-1,-1
571,199,1098.01,255.90,141.18,407.56,1,-1,-1,-1
572,185,1404.82,101.95,287.30,918.04,1,-1,-1,-1
572,195,956.21,279.13,122.81,395.50,1,-1,-1,-1
572,199,1096.94,257.12,140.89,408.05,1,-1,-1,-1
573,185,1398.73,95.80,291.98,927.79,1,-1,-1,-1
573,195,961.06,256.57,126.99,409.51,1,-1,-1,-1
573,199,1095.36,258.60,141.09,408.64,1,-1,-1,-1
574,185,1395.87,93.45,294.59,931.40,1,-1,-1,-1
574,195,962.85,248.34,128.42,414.61,1,-1,-1,-1
575,185,1412.13,99.11,292.86,920.84,1,-1,-1,-1
575,195,963.02,242.48,129.27,420.58,1,-1,-1,-1
575,199,1099.37,248.33,141.79,411.80,1,-1,-1,-1
576,185,1417.79,101.26,292.99,916.71,1,-1,-1,-1
576,195,963.31,240.23,129.08,422.86,1,-1,-1,-1
576,199,1099.98,247.11,141.53,412.22,1,-1,-1,-1
577,185,1409.30,107.34,292.77,897.93,1,-1,-1,-1
577,195,964.15,237.40,130.12,428.33,1,-1,-1,-1
577,199,1091.80,242.62,142.53,415.08,1,-1,-1,-1
578,185,1404.43,109.59,295.65,890.80,1,-1,-1,-1
578,195,964.61,236.33,130.18,430.39,1,-1,-1,-1
578,199,1088.83,241.03,142.88,416.08,1,-1,-1,-1
579,185,1407.30,111.71,298.43,887.55,1,-1,-1,-1
579,195,959.35,232.66,135.73,452.17,1,-1,-1,-1
579,199,1087.21,239.48,143.28,417.23,1,-1,-1,-1
580,185,1407.25,112.44,301.54,886.42,1,-1,-1,-1
580,195,957.66,231.29,137.22,460.30,1,-1,-1,-1
581,185,1413.76,105.35,308.04,896.70,1,-1,-1,-1
581,195,961.54,254.82,129.34,430.89,1,-1,-1,-1
582,185,1415.29,102.66,312.11,900.61,1,-1,-1,-1
582,195,962.89,264.17,126.55,419.02,1,-1,-1,-1
583,185,1404.79,112.18,311.79,890.23,1,-1,-1,-1
583,195,963.72,228.70,133.54,441.47,1,-1,-1,-1
583,199,1075.28,226.60,151.79,445.87,1,-1,-1,-1
584,185,1399.81,115.78,313.37,886.31,1,-1,-1,-1
584,195,963.96,215.87,136.18,449.58,1,-1,-1,-1
584,199,1074.77,225.48,151.52,448.45,1,-1,-1,-1
585,185,1394.40,116.42,319.62,890.86,1,-1,-1,-1
585,195,953.35,218.80,141.57,467.03,1,-1,-1,-1
585,199,1081.60,231.68,147.97,440.78,1,-1,-1,-1
586,185,1391.09,116.61,324.46,892.62,1,-1,-1,-1
586,195,949.27,220.00,143.66,473.61,1,-1,-1,-1
586,199,1084.51,234.12,146.10,437.72,1,-1,-1,-1
587,185,1376.35,114.64,328.11,892.00,1,-1,-1,-1
587,195,948.20,217.90,144.96,477.90,1,-1,-1,-1
587,199,1080.91,231.77,148.22,444.43,1,-1,-1,-1
588,185,1369.74,113.86,331.55,891.79,1,-1,-1,-1
588,199,1079.63,230.92,148.93,446.89,1,-1,-1,-1
589,185,1370.26,118.82,334.84,889.75,1,-1,-1,-1
589,199,1078.47,229.93,149.69,449.16,1,-1,-1,-1
590,185,1369.43,120.66,338.22,889.00,1,-1,-1,-1
591,185,1357.26,115.35,341.46,886.76,1,-1,-1,-1
592,185,1351.63,113.31,344.85,885.95,1,-1,-1,-1
593,185,1354.77,117.15,350.97,896.93,1,-1,-1,-1
593,199,1079.58,246.88,147.23,444.40,1,-1,-1,-1
594,185,1355.51,118.59,354.27,901.07,1,-1,-1,-1
594,199,1080.10,248.61,146.30,443.75,1,-1,-1,-1
595,185,1371.43,115.15,348.06,882.86,1,-1,-1,-1
595,199,1079.98,257.16,143.91,441.55,1,-1,-1,-1
595,200,818.00,245.00,145.00,409.00,1,-1,-1,-1
596,185,1377.30,113.81,346.15,875.88,1,-1,-1,-1
596,199,1080.35,260.30,142.22,440.71,1,-1,-1,-1
596,200,818.00,245.00,145.00,409.00,1,-1,-1,-1
597,185,1381.88,102.67,349.22,883.97,1,-1,-1,-1
597,199,1079.58,262.74,141.45,440.37,1,-1,-1,-1
597,200,816.34,242.66,151.43,428.49,1,-1,-1,-1
598,185,1383.57,98.53,350.32,887.03,1,-1,-1,-1
598,199,1079.48,263.58,140.84,440.23,1,-1,-1,-1
598,200,816.05,241.92,153.00,434.65,1,-1,-1,-1
599,185,1383.64,105.59,341.85,861.15,1,-1,-1,-1
599,199,1087.73,265.15,138.64,431.56,1,-1,-1,-1
599,200,820.21,253.34,155.08,442.74,1,-1,-1,-1
600,185,1383.13,108.36,339.51,851.31,1,-1,-1,-1
600,199,1090.74,265.66,138.08,428.27,1,-1,-1,-1
600,200,821.98,257.32,155.09,445.18,1,-1,-1,-1
601,185,1384.51,107.39,342.77,856.47,1,-1,-1,-1
601,199,1095.17,267.11,140.53,434.40,1,-1,-1,-1
601,200,822.66,260.06,157.34,451.66,1,-1,-1,-1
602,185,1384.65,107.04,344.67,858.51,1,-1,-1,-1
602,199,1096.66,267.60,141.71,436.70,1,-1,-1,-1
603,185,1391.55,118.84,340.87,849.44,1,-1,-1,-1
603,199,1095.63,288.18,134.70,407.22,1,-1,-1,-1
604,185,1394.13,123.31,339.40,846.12,1,-1,-1,-1
604,199,1094.57,296.02,133.16,395.84,1,-1,-1,-1
605,185,1414.93,118.28,335.60,840.35,1,-1,-1,-1
605,199,1095.59,300.16,131.75,391.65,1,-1,-1,-1
606,185,1423.02,116.35,333.45,838.31,1,-1,-1,-1
607,185,1427.58,116.78,332.16,835.06,1,-1,-1,-1
607,201,1213.00,315.00,139.00,389.00,1,-1,-1,-1
608,201,1213.00,315.00,139.00,389.00,1,-1,-1,-1
609,199,1092.22,288.31,137.82,407.36,1,-1,-1,-1
609,201,1222.42,302.53,142.77,400.69,1,-1,-1,-1
610,199,1091.62,287.19,138.96,408.82,1,-1,-1,-1
610,201,1225.59,298.59,143.56,404.38,1,-1,-1,-1
611,195,959.70,274.18,130.38,439.08,1,-1,-1,-1
611,199,1091.88,288.29,138.70,408.06,1,-1,-1,-1
611,201,1233.83,301.26,141.26,398.00,1,-1,-1,-1
612,195,960.87,275.41,128.30,437.82,1,-1,-1,-1
612,201,1236.46,302.45,140.35,395.56,1,-1,-1,-1
613,195,960.30,290.33,122.65,418.79,1,-1,-1,-1
613,199,1099.97,307.82,128.14,384.12,1,-1,-1,-1
613,201,1240.96,310.70,135.90,384.83,1,-1,-1,-1
614,195,960.08,295.61,120.59,411.99,1,-1,-1,-1
614,199,1102.02,310.88,124.91,380.35,1,-1,-1,-1
614,201,1242.54,313.74,133.88,380.98,1,-1,-1,-1
615,195,968.36,279.99,127.38,438.82,1,-1,-1,-1
615,199,1102.91,313.71,123.92,377.31,1,-1,-1,-1
615,201,1253.68,322.38,130.94,373.49,1,-1,-1,-1
616,195,971.53,274.42,129.28,448.36,1,-1,-1,-1
616,201,1257.62,325.47,129.73,370.87,1,-1,-1,-1
617,195,970.94,281.52,130.84,459.31,1,-1,-1,-1
617,201,1251.11,329.23,133.25,379.57,1,-1,-1,-1
618,195,971.03,284.19,130.66,463.40,1,-1,-1,-1
618,201,1248.45,330.53,134.85,382.81,1,-1,-1,-1
619,195,963.70,285.17,129.32,456.25,1,-1,-1,-1
619,199,1097.41,321.32,129.88,392.64,1,-1,-1,-1
619,201,1248.54,341.58,131.04,367.41,1,-1,-1,-1
620,195,960.70,285.48,129.09,453.38,1,-1,-1,-1
620,199,1096.57,321.90,131.09,394.10,1,-1,-1,-1
620,201,1248.00,345.65,130.47,361.60,1,-1,-1,-1
621,195,969.19,289.54,125.03,437.63,1,-1,-1,-1
621,199,1096.59,324.19,131.01,393.87,1,-1,-1,-1
621,201,1249.18,343.63,133.45,371.04,1,-1,-1,-1
622,195,972.31,291.01,123.67,431.61,1,-1,-1,-1
622,201,1249.69,342.81,134.31,374.54,1,-1,-1,-1
623,195,968.37,283.46,126.61,442.82,1,-1,-1,-1
623,201,1245.47,344.38,136.69,383.21,1,-1,-1,-1
624,195,966.96,280.66,127.55,446.97,1,-1,-1,-1
624,201,1244.03,344.89,137.20,386.48,1,-1,-1,-1
625,195,964.55,283.53,129.65,459.09,1,-1,-1,-1
625,201,1247.99,339.73,138.16,392.32,1,-1,-1,-1
626,195,964.00,284.61,129.70,463.63,1,-1,-1,-1
626,201,1249.78,337.71,137.92,394.51,1,-1,-1,-1
627,195,960.81,295.50,127.80,457.44,1,-1,-1,-1
627,201,1249.12,347.40,136.47,392.67,1,-1,-1,-1
628,195,959.65,299.66,126.95,454.96,1,-1,-1,-1
628,201,1249.04,351.06,135.47,391.91,1,-1,-1,-1
629,195,966.13,303.81,123.40,440.76,1,-1,-1,-1
629,201,1245.62,336.53,139.16,404.13,1,-1,-1,-1
630,195,968.51,305.30,122.25,435.33,1,-1,-1,-1
630,201,1244.48,331.06,140.24,408.67,1,-1,-1,-1
631,195,964.47,287.76,128.99,460.70,1,-1,-1,-1
631,201,1238.46,320.43,145.90,429.95,1,-1,-1,-1
632,195,963.10,281.34,131.23,469.98,1,-1,-1,-1
632,201,1236.65,316.43,147.08,437.94,1,-1,-1,-1
633,195,963.70,289.93,128.51,465.04,1,-1,-1,-1
633,199,1092.02,315.73,144.85,446.86,1,-1,-1,-1
633,201,1237.94,317.50,147.43,442.86,1,-1,-1,-1
634,195,964.29,293.30,126.75,463.00,1,-1,-1,-1
634,199,1093.09,315.26,142.88,448.73,1,-1,-1,-1
634,201,1238.81,317.98,146.82,444.59,1,-1,-1,-1
635,195,964.07,293.72,127.14,464.44,1,-1,-1,-1
635,199,1090.16,305.31,142.94,457.17,1,-1,-1,-1
635,201,1239.49,313.00,147.86,450.95,1,-1,-1,-1
636,199,1089.57,301.53,141.90,460.29,1,-1,-1,-1
636,201,1240.05,311.14,147.64,453.23,1,-1,-1,-1
637,195,963.38,320.20,124.91,456.94,1,-1,-1,-1
637,199,1092.15,316.40,136.55,446.37,1,-1,-1,-1
637,201,1245.44,319.62,144.37,443.51,1,-1,-1,-1
638,195,963.33,324.41,124.43,455.74,1,-1,-1,-1
638,199,1093.40,322.22,133.99,440.79,1,-1,-1,-1
638,201,1247.56,322.96,143.00,439.55,1,-1,-1,-1
639,195,963.09,327.48,124.50,455.99,1,-1,-1,-1
639,199,1099.05,337.62,128.65,422.10,1,-1,-1,-1
639,201,1243.82,320.94,147.56,456.45,1,-1,-1,-1
639,202,822.00,327.00,167.00,404.00,1,-1,-1,-1
640,199,1101.13,343.40,126.76,414.97,1,-1,-1,-1
640,201,1242.68,320.19,148.73,462.68,1,-1,-1,-1
640,202,822.00,327.00,167.00,404.00,1,-1,-1,-1
641,195,957.74,315.33,127.74,462.84,1,-1,-1,-1
641,199,1098.93,340.73,129.98,422.45,1,-1,-1,-1
641,201,1238.62,319.26,147.26,459.09,1,-1,-1,-1
641,203,1354.00,335.00,138.00,451.00,1,-1,-1,-1
642,195,956.43,313.46,129.19,463.91,1,-1,-1,-1
642,199,1097.86,339.68,131.66,425.24,1,-1,-1,-1
642,201,1237.14,318.92,146.47,457.52,1,-1,-1,-1
642,203,1354.00,335.00,138.00,451.00,1,-1,-1,-1
643,195,953.92,329.33,125.88,449.07,1,-1,-1,-1
643,199,1104.35,346.46,127.75,413.76,1,-1,-1,-1
643,201,1237.13,318.81,144.43,452.86,1,-1,-1,-1
643,203,1350.78,324.09,142.88,466.59,1,-1,-1,-1
644,195,952.81,335.29,124.99,443.41,1,-1,-1,-1
644,199,1106.90,348.96,126.09,409.40,1,-1,-1,-1
644,201,1237.30,318.79,143.34,450.98,1,-1,-1,-1
644,203,1349.71,320.64,144.53,471.51,1,-1,-1,-1
645,195,960.91,353.40,119.73,420.69,1,-1,-1,-1
645,199,1104.81,353.79,128.16,420.53,1,-1,-1,-1
645,201,1230.82,314.83,146.80,464.07,1,-1,-1,-1
645,203,1357.90,319.78,144.05,469.83,1,-1,-1,-1
646,195,963.73,360.05,118.29,412.22,1,-1,-1,-1
646,199,1104.38,355.51,128.21,424.67,1,-1,-1,-1
646,201,1228.61,313.37,147.70,468.92,1,-1,-1,-1
646,203,1360.76,319.71,143.82,468.93,1,-1,-1,-1
647,195,954.31,354.18,121.13,420.10,1,-1,-1,-1
647,199,1112.03,348.81,132.98,441.41,1,-1,-1,-1
647,201,1220.37,320.03,146.53,466.75,1,-1,-1,-1
647,203,1368.98,316.35,147.96,479.60,1,-1,-1,-1
648,195,950.72,351.93,122.51,423.07,1,-1,-1,-1
648,199,1114.97,346.23,134.62,447.69,1,-1,-1,-1
648,201,1217.40,322.62,145.78,465.79,1,-1,-1,-1
648,203,1371.54,315.25,150.00,483.29,1,-1,-1,-1
649,195,950.13,348.95,124.24,429.61,1,-1,-1,-1
649,199,1114.91,339.29,138.18,462.45,1,-1,-1,-1
649,201,1216.72,322.95,146.07,471.27,1,-1,-1,-1
649,203,1368.93,308.21,153.50,495.94,1,-1,-1,-1
650,195,949.99,347.74,124.81,432.13,1,-1,-1,-1
650,199,1115.08,336.62,139.05,468.00,1,-1,-1,-1
650,201,1216.92,323.06,145.39,473.26,1,-1,-1,-1
650,203,1367.99,305.69,154.48,500.47,1,-1,-1,-1
651,195,947.05,355.12,122.95,426.52,1,-1,-1,-1
651,199,1114.00,328.41,140.90,475.87,1,-1,-1,-1
651,201,1214.99,316.53,146.66,483.12,1,-1,-1,-1
651,203,1371.43,307.52,152.98,499.97,1,-1,-1,-1
652,195,946.04,357.84,122.13,424.43,1,-1,-1,-1
652,199,1113.68,325.26,141.31,478.76,1,-1,-1,-1
652,201,1214.79,314.05,146.17,486.77,1,-1,-1,-1
652,203,1373.05,308.35,151.56,499.55,1,-1,-1,-1
653,195,947.48,350.14,124.24,434.31,1,-1,-1,-1
653,199,1115.89,337.77,139.95,471.23,1,-1,-1,-1
653,201,1215.04,322.28,142.84,476.27,1,-1,-1,-1
653,203,1373.34,318.70,148.14,487.27,1,-1,-1,-1
654,195,948.25,347.21,124.64,438.02,1,-1,-1,-1
654,199,1116.50,342.63,139.80,468.15,1,-1,-1,-1
654,201,1215.28,325.48,141.42,472.08,1,-1,-1,-1
654,203,1373.28,322.73,146.95,482.42,1,-1,-1,-1
655,195,943.00,348.02,124.09,438.78,1,-1,-1,-1
655,199,1116.30,343.14,143.15,478.08,1,-1,-1,-1
655,201,1211.18,320.05,146.06,487.65,1,-1,-1,-1
655,203,1373.53,314.24,152.51,503.89,1,-1,-1,-1
656,195,941.24,348.29,123.47,439.06,1,-1,-1,-1
656,199,1116.09,343.31,144.60,481.74,1,-1,-1,-1
656,201,1209.70,318.02,147.76,493.40,1,-1,-1,-1
656,203,1373.88,311.12,153.97,511.76,1,-1,-1,-1
657,195,941.31,337.15,130.42,466.84,1,-1,-1,-1
657,199,1107.15,334.18,147.08,492.18,1,-1,-1,-1
657,201,1216.16,313.98,150.81,504.67,1,-1,-1,-1
657,203,1368.04,311.26,156.52,517.93,1,-1,-1,-1
658,195,941.60,333.01,132.50,477.14,1,-1,-1,-1
658,199,1103.90,330.69,147.64,496.05,1,-1,-1,-1
658,201,1218.77,312.44,151.76,508.86,1,-1,-1,-1
658,203,1365.57,311.36,157.84,520.13,1,-1,-1,-1
659,195,946.13,335.93,133.63,481.06,1,-1,-1,-1
659,199,1096.48,326.74,151.68,510.46,1,-1,-1,-1
659,201,1219.31,307.96,155.71,527.31,1,-1,-1,-1
659,203,1360.60,293.73,165.00,543.77,1,-1,-1,-1
660,195,947.92,337.10,134.04,482.42,1,-1,-1,-1
660,199,1093.75,325.26,153.05,515.82,1,-1,-1,-1
660,201,1219.96,306.28,156.32,534.21,1,-1,-1,-1
660,203,1358.73,287.12,167.66,552.57,1,-1,-1,-1
661,195,950.44,336.92,132.50,476.92,1,-1,-1,-1
661,199,1092.57,318.22,154.52,516.40,1,-1,-1,-1
661,201,1217.74,297.23,160.19,553.57,1,-1,-1,-1
661,203,1357.25,277.50,170.16,560.96,1,-1,-1,-1
661,204,846.00,365.00,154.00,415.00,1,-1,-1,-1
662,195,951.42,336.86,131.85,474.65,1,-1,-1,-1
662,199,1091.84,315.54,155.69,516.43,1,-1,-1,-1
662,201,1217.39,293.79,160.64,560.83,1,-1,-1,-1
662,203,1356.71,273.90,171.03,563.97,1,-1,-1,-1
662,204,846.00,365.00,154.00,415.00,1,-1,-1,-1
663,195,954.98,319.73,135.09,492.79,1,-1,-1,-1
663,199,1090.67,306.72,159.29,530.03,1,-1,-1,-1
663,201,1220.66,306.14,154.63,543.96,1,-1,-1,-1
663,203,1357.87,285.04,169.26,553.14,1,-1,-1,-1
663,204,828.41,347.07,163.45,442.28,1,-1,-1,-1
664,195,956.81,313.35,135.28,499.51,1,-1,-1,-1
664,199,1090.40,303.44,160.35,535.05,1,-1,-1,-1
664,201,1222.27,311.07,151.60,537.00,1,-1,-1,-1
664,203,1357.96,289.51,169.27,548.68,1,-1,-1,-1
664,204,823.17,341.39,165.77,450.93,1,-1,-1,-1
665,195,959.40,314.85,134.77,501.31,1,-1,-1,-1
665,199,1088.39,294.44,168.50,561.57,1,-1,-1,-1
665,201,1217.87,308.99,159.80,568.55,1,-1,-1,-1
665,203,1359.93,301.82,166.69,540.25,1,-1,-1,-1
665,204,814.03,350.01,165.37,452.44,1,-1,-1,-1
666,195,960.64,315.53,134.01,501.84,1,-1,-1,-1
666,199,1087.60,291.08,171.68,571.51,1,-1,-1,-1
666,201,1216.45,308.22,162.41,580.15,1,-1,-1,-1
666,203,1360.68,306.54,165.69,536.91,1,-1,-1,-1
666,204,811.57,353.41,164.29,452.39,1,-1,-1,-1
667,195,956.28,316.52,132.82,496.00,1,-1,-1,-1
667,199,1089.65,274.37,175.99,580.31,1,-1,-1,-1
667,201,1215.61,307.81,164.36,587.13,1,-1,-1,-1
667,203,1361.24,305.00,171.36,552.12,1,-1,-1,-1
667,204,814.43,351.99,161.19,445.06,1,-1,-1,-1
668,195,954.50,316.97,132.51,493.61,1,-1,-1,-1
668,199,1090.05,268.01,178.45,583.45,1,-1,-1,-1
668,203,1361.17,304.42,174.00,557.74,1,-1,-1,-1
668,204,815.95,351.54,159.65,442.07,1,-1,-1,-1
669,195,948.11,309.95,135.88,503.83,1,-1,-1,-1
669,199,1089.38,263.32,180.66,590.68,1,-1,-1,-1
669,203,1361.33,304.54,175.09,561.24,1,-1,-1,-1
669,204,818.89,339.18,165.59,460.58,1,-1,-1,-1
670,195,945.55,307.35,137.47,507.60,1,-1,-1,-1
670,204,820.29,334.74,167.22,467.22,1,-1,-1,-1
671,195,948.96,285.46,145.03,537.76,1,-1,-1,-1
671,204,818.00,331.54,169.13,472.54,1,-1,-1,-1
672,195,950.43,277.28,147.51,549.03,1,-1,-1,-1
673,195,950.15,272.77,149.25,555.51,1,-1,-1,-1
675,195,952.43,276.41,137.16,512.47,1,-1,-1,-1
675,199,1074.91,255.54,197.43,650.80,1,-1,-1,-1
676,195,953.01,277.21,134.67,504.87,1,-1,-1,-1
676,199,1074.52,255.51,197.21,654.37,1,-1,-1,-1
677,195,953.00,274.27,134.81,505.40,1,-1,-1,-1
677,199,1105.70,208.46,229.89,739.89,1,-1,-1,-1
678,199,1115.24,191.17,245.66,771.33,1,-1,-1,-1
679,195,946.47,251.93,142.13,545.12,1,-1,-1,-1
679,199,1126.92,184.34,253.43,784.27,1,-1,-1,-1
680,195,946.63,248.42,140.94,551.21,1,-1,-1,-1
680,199,1130.64,181.92,258.03,788.77,1,-1,-1,-1
681,195,945.76,243.89,142.13,555.91,1,-1,-1,-1
681,199,1119.77,188.99,267.29,801.52,1,-1,-1,-1
681,203,1369.19,188.75,236.22,746.63,1,-1,-1,-1
682,199,1114.19,191.96,273.24,805.98,1,-1,-1,-1
682,203,1368.32,184.39,240.72,753.29,1,-1,-1,-1
683,199,1123.01,175.88,286.82,830.44,1,-1,-1,-1
683,203,1348.19,169.46,258.82,796.50,1,-1,-1,-1
684,199,1124.96,169.84,294.66,839.46,1,-1,-1,-1
684,203,1339.51,163.84,267.60,812.90,1,-1,-1,-1
685,199,1122.23,169.66,302.37,857.27,1,-1,-1,-1
685,203,1339.26,167.64,268.39,818.26,1,-1,-1,-1
686,199,1120.71,169.78,305.94,863.70,1,-1,-1,-1
686,203,1339.43,169.41,268.09,819.82,1,-1,-1,-1
687,199,1130.11,191.43,301.21,844.90,1,-1,-1,-1
687,203,1340.33,169.68,270.76,820.58,1,-1,-1,-1
687,205,408.00,366.00,139.00,431.00,1,-1,-1,-1
688,199,1133.20,200.11,300.07,836.92,1,-1,-1,-1
688,203,1340.16,169.99,272.78,820.42,1,-1,-1,-1
688,205,408.00,366.00,139.00,431.00,1,-1,-1,-1
689,199,1155.31,156.15,320.51,876.24,1,-1,-1,-1
689,203,1339.32,165.26,276.31,831.05,1,-1,-1,-1
690,199,1161.74,139.78,331.62,890.75,1,-1,-1,-1
691,199,1154.61,136.83,334.57,892.70,1,-1,-1,-1
691,203,1325.13,126.87,292.05,876.98,1,-1,-1,-1
691,206,410.00,311.00,148.00,445.00,1,-1,-1,-1
692,199,1151.05,135.96,336.67,892.96,1,-1,-1,-1
692,203,1322.63,120.51,294.98,884.62,1,-1,-1,-1
692,206,410.00,311.00,148.00,445.00,1,-1,-1,-1
693,199,1154.81,129.98,340.56,903.26,1,-1,-1,-1
693,203,1304.12,110.48,303.89,893.74,1,-1,-1,-1
694,203,1295.71,106.88,310.00,896.84,1,-1,-1,-1
695,199,1150.70,114.67,349.08,913.13,1,-1,-1,-1
695,203,1300.34,102.52,314.28,903.45,1,-1,-1,-1
696,199,1148.32,112.19,353.81,914.68,1,-1,-1,-1
696,203,1301.75,101.09,316.78,905.59,1,-1,-1,-1
697,199,1139.73,101.49,362.38,934.26,1,-1,-1,-1
697,203,1308.60,92.96,319.55,912.55,1,-1,-1,-1
697,207,414.00,314.00,139.00,443.00,1,-1,-1,-1
698,199,1136.19,97.63,366.02,941.37,1,-1,-1,-1
698,203,1311.20,90.08,320.67,914.86,1,-1,-1,-1
698,207,414.00,314.00,139.00,443.00,1,-1,-1,-1
699,199,1137.16,91.48,369.68,950.77,1,-1,-1,-1
699,203,1301.12,79.40,328.82,927.82,1,-1,-1,-1
700,203,1296.38,75.54,333.70,932.46,1,-1,-1,-1
701,203,1290.43,54.03,347.75,958.09,1,-1,-1,-1
702,203,1286.91,46.05,355.61,967.57,1,-1,-1,-1
703,199,1112.55,40.80,395.79,998.87,1,-1,-1,-1
703,203,1287.84,50.43,358.00,966.92,1,-1,-1,-1
703,208,407.00,283.00,147.00,466.00,1,-1,-1,-1
704,199,1107.34,36.21,403.43,1002.94,1,-1,-1,-1
704,203,1287.60,52.43,360.12,966.26,1,-1,-1,-1
704,208,407.00,283.00,147.00,466.00,1,-1,-1,-1
705,199,1086.34,32.00,413.64,1011.57,1,-1,-1,-1
705,203,1302.76,36.39,365.14,980.09,1,-1,-1,-1
705,208,402.06,295.47,137.39,434.82,1,-1,-1,-1
706,199,1076.87,30.66,420.57,1014.53,1,-1,-1,-1
706,203,1308.58,30.50,366.88,985.07,1,-1,-1,-1
706,208,400.43,299.34,134.61,425.15,1,-1,-1,-1
707,199,1069.54,28.46,421.55,1013.34,1,-1,-1,-1
707,203,1305.42,22.61,371.65,997.11,1,-1,-1,-1
707,208,396.70,261.66,139.18,439.57,1,-1,-1,-1
708,199,1066.51,27.89,422.50,1012.54,1,-1,-1,-1
708,203,1304.11,19.83,373.51,1001.41,1,-1,-1,-1
708,208,395.57,249.64,140.74,444.46,1,-1,-1,-1
709,199,1072.50,35.80,417.92,998.80,1,-1,-1,-1
709,203,1274.59,4.63,392.16,1036.10,1,-1,-1,-1
709,208,393.49,240.75,140.15,442.62,1,-1,-1,-1
710,199,1074.66,39.07,416.62,993.28,1,-1,-1,-1
710,203,1261.84,-0.96,402.27,1049.01,1,-1,-1,-1
711,199,1065.35,61.60,396.81,942.11,1,-1,-1,-1
711,203,1271.05,-2.84,407.82,1039.94,1,-1,-1,-1
711,208,384.91,271.56,136.65,429.28,1,-1,-1,-1
712,199,1061.52,70.41,389.93,922.38,1,-1,-1,-1
712,203,1272.45,-3.26,414.38,1035.94,1,-1,-1,-1
712,208,383.41,275.64,136.75,427.42,1,-1,-1,-1
713,199,1058.80,70.81,388.08,917.98,1,-1,-1,-1
713,203,1260.35,-3.18,427.68,1050.51,1,-1,-1,-1
713,208,379.44,240.89,148.54,464.96,1,-1,-1,-1
714,203,1253.81,-2.96,436.60,1055.77,1,-1,-1,-1
714,208,378.12,228.60,152.57,478.26,1,-1,-1,-1
715,203,1275.09,-2.68,438.28,1044.36,1,-1,-1,-1
715,208,375.60,222.16,153.83,482.21,1,-1,-1,-1
715,209,859.00,120.00,343.00,844.00,1,-1,-1,-1
716,203,1281.69,-2.36,442.06,1039.63,1,-1,-1,-1
716,209,859.00,120.00,343.00,844.00,1,-1,-1,-1
717,203,1286.34,-2.09,439.00,1033.01,1,-1,-1,-1
717,209,837.22,68.55,364.73,904.81,1,-1,-1,-1
718,203,1288.10,-1.84,437.62,1030.32,1,-1,-1,-1
718,209,831.79,52.22,368.67,924.10,1,-1,-1,-1
719,203,1302.02,-1.62,438.78,1039.73,1,-1,-1,-1
719,209,810.77,21.38,385.90,980.17,1,-1,-1,-1
720,203,1307.95,-1.44,437.65,1043.17,1,-1,-1,-1
720,209,805.77,11.28,387.51,998.95,1,-1,-1,-1
721,203,1314.27,-1.27,432.06,1033.14,1,-1,-1,-1
721,209,760.22,-2.81,392.74,1025.98,1,-1,-1,-1
722,203,1316.89,-1.11,429.15,1029.16,1,-1,-1,-1
722,209,745.44,-7.26,390.68,1034.90,1,-1,-1,-1
723,203,1299.52,-0.98,428.74,1041.49,1,-1,-1,-1
723,209,723.29,13.19,381.50,1017.70,1,-1,-1,-1
724,203,1294.40,-0.87,425.58,1046.05,1,-1,-1,-1
724,209,716.51,21.88,375.91,1009.79,1,-1,-1,-1
725,203,1275.44,-0.77,417.50,1021.34,1,-1,-1,-1
725,209,691.41,22.94,384.15,1020.02,1,-1,-1,-1
726,203,1267.71,-0.67,415.34,1011.77,1,-1,-1,-1
726,209,681.31,23.65,389.64,1023.28,1,-1,-1,-1
727,203,1265.11,-1.74,414.89,1010.64,1,-1,-1,-1
727,208,280.51,209.46,168.10,520.22,1,-1,-1,-1
727,209,664.66,16.94,394.96,1037.26,1,-1,-1,-1
728,208,276.67,209.79,169.95,521.10,1,-1,-1,-1
729,199,1096.87,28.46,364.65,786.58,1,-1,-1,-1
729,208,270.47,207.62,170.97,524.24,1,-1,-1,-1
729,209,547.06,1.40,418.35,1060.83,1,-1,-1,-1
730,199,1087.61,27.49,384.89,783.97,1,-1,-1,-1
730,209,522.75,-1.10,432.78,1064.62,1,-1,-1,-1
731,199,1077.18,39.99,402.26,785.04,1,-1,-1,-1
731,209,467.27,-2.58,444.53,1069.13,1,-1,-1,-1
732,199,1069.93,44.63,415.42,785.70,1,-1,-1,-1
732,209,444.56,-2.93,453.98,1070.42,1,-1,-1,-1
733,199,1053.12,64.49,412.22,762.04,1,-1,-1,-1
733,209,418.48,-8.25,458.45,1080.95,1,-1,-1,-1
734,199,1044.79,71.91,415.05,753.45,1,-1,-1,-1
735,199,1026.48,68.41,410.35,771.55,1,-1,-1,-1
736,199,1023.48,67.04,401.49,778.34,1,-1,-1,-1
737,199,1018.94,69.21,399.95,775.31,1,-1,-1,-1
747,199,722.79,85.14,400.35,818.21,1,-1,-1,-1
748,199,718.93,85.63,385.46,820.09,1,-1,-1,-1
749,199,708.81,88.41,369.90,804.31,1,-1,-1,-1
750,199,707.49,89.40,360.75,798.23,1,-1,-1,-1
751,199,688.29,91.08,360.58,797.82,1,-1,-1,-1
755,199,557.95,34.99,342.02,788.71,1,-1,-1,-1
756,199,551.89,29.61,330.54,787.88,1,-1,-1,-1
757,199,525.14,27.15,335.43,816.21,1,-1,-1,-1
758,199,517.44,26.33,333.93,826.61,1,-1,-1,-1
759,199,484.83,30.76,345.43,866.56,1,-1,-1,-1
760,199,474.20,32.51,347.42,881.58,1,-1,-1,-1
761,199,452.75,30.07,353.47,907.96,1,-1,-1,-1
761,210,960.00,246.00,127.00,364.00,1,-1,-1,-1
762,199,446.29,29.20,353.51,917.85,1,-1,-1,-1
762,210,960.00,246.00,127.00,364.00,1,-1,-1,-1
763,199,435.07,40.64,349.20,922.63,1,-1,-1,-1
763,210,969.78,249.12,126.16,361.66,1,-1,-1,-1
764,199,433.06,45.13,344.34,924.11,1,-1,-1,-1
764,210,972.85,250.10,125.87,360.93,1,-1,-1,-1
765,199,421.59,56.69,338.49,911.93,1,-1,-1,-1
765,210,966.26,245.90,129.39,373.32,1,-1,-1,-1
766,199,418.31,61.13,335.47,906.91,1,-1,-1,-1
766,210,964.25,244.46,129.94,377.46,1,-1,-1,-1
767,199,375.90,73.31,329.67,875.82,1,-1,-1,-1
767,210,976.56,252.27,126.11,366.33,1,-1,-1,-1
767,211,692.00,198.00,156.00,463.00,1,-1,-1,-1
768,199,359.16,77.90,330.13,863.71,1,-1,-1,-1
768,210,981.07,255.17,124.65,362.07,1,-1,-1,-1
768,211,692.00,198.00,156.00,463.00,1,-1,-1,-1
769,199,336.75,58.87,339.48,891.16,1,-1,-1,-1
769,210,976.45,239.01,134.32,391.40,1,-1,-1,-1
769,211,687.18,187.09,154.74,459.10,1,-1,-1,-1
770,199,329.24,51.80,342.28,901.26,1,-1,-1,-1
770,210,974.93,233.27,137.45,401.80,1,-1,-1,-1
770,211,685.64,183.67,154.38,457.88,1,-1,-1,-1
771,199,308.29,37.93,352.14,939.14,1,-1,-1,-1
771,210,971.74,224.51,142.33,418.81,1,-1,-1,-1
771,211,683.83,179.54,153.89,456.41,1,-1,-1,-1
771,212,820.00,176.00,127.00,459.00,1,-1,-1,-1
772,199,302.08,32.70,353.34,953.35,1,-1,-1,-1
772,210,970.77,221.23,143.57,425.15,1,-1,-1,-1
772,212,820.00,176.00,127.00,459.00,1,-1,-1,-1
773,199,258.39,34.66,346.59,943.61,1,-1,-1,-1
773,210,972.07,222.68,143.83,426.69,1,-1,-1,-1
773,211,682.09,187.44,145.20,429.33,1,-1,-1,-1
774,199,243.05,35.52,342.25,939.48,1,-1,-1,-1
774,210,972.63,223.36,143.69,427.02,1,-1,-1,-1
774,211,681.64,188.29,144.54,426.03,1,-1,-1,-1
775,199,215.21,18.81,338.69,938.34,1,-1,-1,-1
775,210,973.29,217.81,146.58,434.78,1,-1,-1,-1
775,211,680.43,187.51,142.67,420.54,1,-1,-1,-1
776,199,206.23,12.56,335.63,937.72,1,-1,-1,-1
776,210,973.44,215.77,147.79,437.55,1,-1,-1,-1
777,199,180.86,26.77,343.68,945.88,1,-1,-1,-1
777,210,973.23,209.20,150.64,443.63,1,-1,-1,-1
778,199,170.59,32.26,349.40,948.82,1,-1,-1,-1
778,210,972.92,206.77,152.12,445.77,1,-1,-1,-1
779,199,151.78,31.36,351.00,953.15,1,-1,-1,-1
779,210,970.72,207.25,151.51,443.77,1,-1,-1,-1
779,211,683.03,172.77,150.92,445.89,1,-1,-1,-1
780,210,969.84,207.55,151.25,442.79,1,-1,-1,-1
780,211,683.38,171.57,151.31,447.93,1,-1,-1,-1
781,199,26.69,4.71,359.75,983.83,1,-1,-1,-1
781,210,959.73,207.76,156.17,460.01,1,-1,-1,-1
781,211,682.00,172.51,151.82,451.97,1,-1,-1,-1
781,213,208.00,20.00,308.00,950.00,1,-1,-1,-1
781,214,830.00,201.00,120.00,446.00,1,-1,-1,-1
782,199,7.50,0.45,359.35,988.75,1,-1,-1,-1
782,210,956.21,207.88,157.45,466.38,1,-1,-1,-1
782,211,681.72,172.92,151.58,453.49,1,-1,-1,-1
782,213,208.00,20.00,308.00,950.00,1,-1,-1,-1
782,214,830.00,201.00,120.00,446.00,1,-1,-1,-1
783,199,-4.45,-1.01,354.31,997.66,1,-1,-1,-1
783,210,955.12,203.46,156.76,470.61,1,-1,-1,-1
783,211,683.89,181.05,149.59,448.77,1,-1,-1,-1
783,213,216.42,7.53,310.65,961.69,1,-1,-1,-1
783,214,826.86,198.66,125.51,466.27,1,-1,-1,-1
784,199,-6.02,-1.46,348.16,1000.81,1,-1,-1,-1
784,210,955.31,201.81,155.30,472.03,1,-1,-1,-1
784,211,684.84,184.20,148.62,446.95,1,-1,-1,-1
784,213,219.61,3.61,310.39,965.37,1,-1,-1,-1
784,214,825.83,197.92,127.31,472.67,1,-1,-1,-1
785,199,-29.50,-4.39,350.32,1007.04,1,-1,-1,-1
785,210,955.37,205.18,151.56,461.93,1,-1,-1,-1
785,211,683.84,182.74,148.32,442.29,1,-1,-1,-1
785,213,211.92,-0.30,318.47,993.45,1,-1,-1,-1
785,214,829.53,207.17,120.57,443.81,1,-1,-1,-1
786,210,955.56,206.57,149.83,457.82,1,-1,-1,-1
786,211,683.15,182.19,148.86,440.55,1,-1,-1,-1
786,213,209.59,-1.42,320.38,1002.71,1,-1,-1,-1
786,214,830.55,210.46,118.79,433.16,1,-1,-1,-1
787,210,955.51,211.76,152.77,466.73,1,-1,-1,-1
787,211,679.38,182.66,151.46,449.21,1,-1,-1,-1
787,213,213.60,-1.60,318.11,998.56,1,-1,-1,-1
787,214,826.72,210.75,123.70,449.70,1,-1,-1,-1
788,210,955.53,213.73,153.85,469.98,1,-1,-1,-1
788,211,678.07,182.84,152.26,452.46,1,-1,-1,-1
788,213,215.41,-1.47,316.50,996.52,1,-1,-1,-1
788,214,825.26,210.80,125.66,455.43,1,-1,-1,-1
789,210,957.17,209.91,155.61,475.04,1,-1,-1,-1
789,211,680.88,178.30,151.91,455.00,1,-1,-1,-1
789,213,183.01,-1.29,322.17,1011.73,1,-1,-1,-1
789,214,824.80,212.27,125.97,456.58,1,-1,-1,-1
790,210,957.80,208.47,156.31,476.85,1,-1,-1,-1
790,211,682.28,176.59,151.14,455.94,1,-1,-1,-1
790,213,170.84,-1.13,324.72,1017.08,1,-1,-1,-1
791,210,967.08,205.97,156.86,470.85,1,-1,-1,-1
791,211,690.46,188.48,148.10,450.99,1,-1,-1,-1
791,213,169.98,-0.98,321.89,1001.43,1,-1,-1,-1
792,210,970.01,205.04,158.31,468.42,1,-1,-1,-1
792,211,693.93,193.02,146.21,449.08,1,-1,-1,-1
792,213,169.30,-0.84,321.95,995.17,1,-1,-1,-1
793,210,970.57,207.36,165.80,483.94,1,-1,-1,-1
793,211,688.98,175.50,152.66,470.86,1,-1,-1,-1
793,213,172.28,-0.72,331.20,1004.71,1,-1,-1,-1
794,210,970.13,208.25,169.83,489.68,1,-1,-1,-1
794,211,687.32,169.00,154.67,478.93,1,-1,-1,-1
794,213,171.75,-0.64,338.15,1008.15,1,-1,-1,-1
795,210,1026.84,211.88,173.81,500.26,1,-1,-1,-1
795,211,687.27,167.44,155.64,481.91,1,-1,-1,-1
795,213,175.08,-0.56,349.15,1017.91,1,-1,-1,-1
796,210,1048.37,213.28,175.44,504.19,1,-1,-1,-1
796,213,174.25,-0.49,357.57,1021.45,1,-1,-1,-1
797,210,1053.74,206.63,185.92,532.96,1,-1,-1,-1
797,213,176.39,-0.43,355.23,996.22,1,-1,-1,-1
798,210,1055.48,204.12,190.11,543.74,1,-1,-1,-1
798,213,175.55,-0.37,357.64,986.39,1,-1,-1,-1
799,210,1065.71,209.61,195.17,558.70,1,-1,-1,-1
799,213,163.58,9.00,363.21,983.38,1,-1,-1,-1
800,210,1069.48,211.75,196.96,564.27,1,-1,-1,-1
800,213,157.31,12.51,368.89,982.27,1,-1,-1,-1
801,210,1074.83,207.41,208.63,597.89,1,-1,-1,-1
801,211,797.73,211.48,154.42,481.22,1,-1,-1,-1
801,213,135.93,4.51,387.27,1007.75,1,-1,-1,-1
802,210,1076.76,205.76,213.00,610.55,1,-1,-1,-1
802,211,805.79,214.73,153.49,480.83,1,-1,-1,-1
802,213,125.54,1.51,399.04,1017.26,1,-1,-1,-1
803,210,1088.88,159.51,251.67,700.61,1,-1,-1,-1
803,211,808.78,231.74,152.00,478.08,1,-1,-1,-1
803,213,91.25,8.91,434.15,1091.77,1,-1,-1,-1
804,210,1091.25,142.04,270.80,734.69,1,-1,-1,-1
804,211,809.75,237.98,151.14,477.01,1,-1,-1,-1
804,213,76.77,11.68,450.68,1119.55,1,-1,-1,-1
805,210,1099.41,131.14,283.58,765.76,1,-1,-1,-1
805,211,816.77,224.93,155.43,492.46,1,-1,-1,-1
805,213,60.88,21.80,455.29,1113.33,1,-1,-1,-1
806,210,1102.11,126.94,289.20,777.65,1,-1,-1,-1
806,211,819.36,219.96,156.71,498.20,1,-1,-1,-1
806,213,53.15,25.74,460.50,1110.33,1,-1,-1,-1
807,210,1094.64,122.29,295.03,792.49,1,-1,-1,-1
807,211,825.89,221.62,157.57,500.92,1,-1,-1,-1
807,213,45.88,27.54,464.41,1119.77,1,-1,-1,-1
808,210,1091.40,120.65,297.26,797.74,1,-1,-1,-1
809,210,1114.47,113.79,296.27,797.84,1,-1,-1,-1
809,211,824.16,196.46,156.80,501.86,1,-1,-1,-1
810,210,1123.56,111.31,295.12,797.23,1,-1,-1,-1
810,211,824.22,192.39,155.96,502.00,1,-1,-1,-1
811,210,1122.39,100.82,307.90,834.68,1,-1,-1,-1
811,211,824.23,210.16,149.03,474.28,1,-1,-1,-1
812,210,1122.11,96.93,312.06,848.64,1,-1,-1,-1
812,211,823.62,217.00,147.09,463.62,1,-1,-1,-1
813,210,1125.88,93.69,312.30,855.42,1,-1,-1,-1
813,211,821.20,197.30,163.29,506.12,1,-1,-1,-1
813,215,534.00,261.00,163.00,462.00,1,-1,-1,-1
814,210,1127.73,92.64,310.99,857.45,1,-1,-1,-1
814,211,819.55,190.26,170.63,521.30,1,-1,-1,-1
814,215,534.00,261.00,163.00,462.00,1,-1,-1,-1
815,210,1138.74,98.92,312.04,871.94,1,-1,-1,-1
815,211,820.49,197.88,164.21,501.29,1,-1,-1,-1
815,215,538.51,285.17,152.41,430.82,1,-1,-1,-1
815,216,676.00,257.00,139.00,437.00,1,-1,-1,-1
816,210,1143.94,101.49,310.03,877.06,1,-1,-1,-1
816,211,820.66,201.00,161.65,493.10,1,-1,-1,-1
816,215,539.73,292.66,149.50,421.15,1,-1,-1,-1
816,216,676.00,257.00,139.00,437.00,1,-1,-1,-1
817,210,1152.48,91.58,315.11,900.59,1,-1,-1,-1
817,211,816.00,194.22,161.33,494.65,1,-1,-1,-1
817,215,534.76,280.76,157.81,444.66,1,-1,-1,-1
817,216,679.99,232.83,145.83,458.83,1,-1,-1,-1
817,217,236.00,7.00,272.00,866.00,1,-1,-1,-1
818,210,1156.48,87.88,315.17,909.21,1,-1,-1,-1
818,211,814.41,191.72,160.76,495.20,1,-1,-1,-1
818,215,533.18,276.82,160.48,452.31,1,-1,-1,-1
818,216,681.31,225.19,147.88,465.73,1,-1,-1,-1
818,217,236.00,7.00,272.00,866.00,1,-1,-1,-1
819,210,1147.40,93.73,319.00,917.20,1,-1,-1,-1
819,211,813.54,200.06,159.66,491.41,1,-1,-1,-1
819,215,531.13,290.52,155.42,436.39,1,-1,-1,-1
819,216,688.53,260.21,137.52,429.07,1,-1,-1,-1
819,217,207.18,1.54,291.45,930.70,1,-1,-1,-1
820,210,1143.43,96.13,320.87,919.79,1,-1,-1,-1
820,211,813.13,203.26,159.29,489.94,1,-1,-1,-1
820,215,530.23,295.45,153.91,430.50,1,-1,-1,-1
820,216,690.49,273.26,134.55,415.53,1,-1,-1,-1
820,217,198.46,-0.19,296.75,951.25,1,-1,-1,-1
821,210,1139.43,103.03,330.64,929.41,1,-1,-1,-1
821,211,812.75,202.49,158.88,491.36,1,-1,-1,-1
821,215,526.10,291.52,160.43,450.59,1,-1,-1,-1
821,216,687.94,245.78,144.76,447.91,1,-1,-1,-1
821,217,204.27,29.55,282.71,909.14,1,-1,-1,-1
822,210,1136.11,105.75,337.62,932.68,1,-1,-1,-1
822,211,812.81,202.19,158.27,491.89,1,-1,-1,-1
822,215,524.87,290.05,162.32,457.77,1,-1,-1,-1
822,216,687.18,236.59,147.97,458.75,1,-1,-1,-1
822,217,207.49,40.25,276.51,892.34,1,-1,-1,-1
823,210,1132.64,88.57,348.90,952.42,1,-1,-1,-1
823,211,817.93,202.73,157.70,493.39,1,-1,-1,-1
823,215,526.85,276.06,169.57,481.76,1,-1,-1,-1
823,216,687.86,231.83,146.34,455.40,1,-1,-1,-1
823,217,198.22,51.36,283.63,918.07,1,-1,-1,-1
823,218,1302.00,47.00,297.00,942.00,1,-1,-1,-1
824,210,1130.14,82.06,355.29,959.60,1,-1,-1,-1
824,211,820.13,202.94,156.92,493.95,1,-1,-1,-1
824,215,528.02,270.78,171.47,490.68,1,-1,-1,-1
824,216,688.21,230.19,145.34,453.94,1,-1,-1,-1
824,217,195.44,55.01,285.50,926.95,1,-1,-1,-1
824,218,1302.00,47.00,297.00,942.00,1,-1,-1,-1
825,210,1137.49,77.04,362.98,970.39,1,-1,-1,-1
825,211,816.34,205.65,155.22,490.84,1,-1,-1,-1
825,215,527.20,270.10,173.25,495.77,1,-1,-1,-1
825,216,688.56,231.06,147.06,458.65,1,-1,-1,-1
825,217,101.89,30.99,301.36,980.62,1,-1,-1,-1
825,218,1300.24,43.88,299.75,950.58,1,-1,-1,-1
826,210,1139.28,75.22,367.74,974.12,1,-1,-1,-1
826,211,815.05,206.68,154.21,489.65,1,-1,-1,-1
826,216,688.59,231.49,147.80,460.33,1,-1,-1,-1
826,217,67.87,21.99,306.69,1000.17,1,-1,-1,-1
826,218,1299.66,42.90,300.65,953.27,1,-1,-1,-1
827,210,1137.53,39.37,393.05,1025.42,1,-1,-1,-1
827,211,815.27,207.13,154.19,489.58,1,-1,-1,-1
827,215,520.19,263.09,183.41,533.64,1,-1,-1,-1
827,216,689.09,223.13,151.65,474.14,1,-1,-1,-1
827,217,47.02,22.92,311.24,1015.02,1,-1,-1,-1
827,218,1299.00,41.72,301.68,956.52,1,-1,-1,-1
828,210,1135.15,25.90,405.87,1044.58,1,-1,-1,-1
828,215,520.21,261.95,182.75,539.83,1,-1,-1,-1
828,216,689.41,220.07,152.73,479.24,1,-1,-1,-1
829,210,1232.27,29.90,392.74,1014.70,1,-1,-1,-1
829,215,518.76,260.72,185.35,547.50,1,-1,-1,-1
829,216,688.45,213.76,156.52,488.93,1,-1,-1,-1
829,217,56.73,53.53,294.85,954.21,1,-1,-1,-1
830,210,1270.76,31.84,386.51,1002.14,1,-1,-1,-1
830,216,687.86,211.46,158.32,492.49,1,-1,-1,-1
830,217,58.16,58.55,293.65,943.73,1,-1,-1,-1
831,210,1286.43,46.62,385.46,984.53,1,-1,-1,-1
831,216,684.06,213.32,159.51,497.61,1,-1,-1,-1
831,217,59.33,50.79,303.05,963.20,1,-1,-1,-1
832,210,1290.33,52.42,387.88,977.52,1,-1,-1,-1
832,216,682.72,214.15,159.67,499.40,1,-1,-1,-1
832,217,59.13,47.88,308.32,970.21,1,-1,-1,-1
833,210,1283.81,54.05,403.63,995.20,1,-1,-1,-1
833,216,682.56,211.84,161.00,503.58,1,-1,-1,-1
833,217,51.13,16.97,322.41,1006.30,1,-1,-1,-1
834,210,1278.60,54.72,414.22,1001.68,1,-1,-1,-1
834,217,47.67,5.30,329.13,1019.72,1,-1,-1,-1
835,210,1270.95,18.26,438.42,1057.78,1,-1,-1,-1
835,211,934.63,192.70,143.07,450.49,1,-1,-1,-1
835,216,678.42,226.30,158.62,489.38,1,-1,-1,-1
835,217,45.97,2.80,334.40,1024.55,1,-1,-1,-1
836,210,1267.60,4.62,448.02,1078.72,1,-1,-1,-1
836,211,940.02,191.94,143.38,448.58,1,-1,-1,-1
836,216,676.99,228.70,159.73,486.99,1,-1,-1,-1
836,217,44.70,1.95,338.25,1026.02,1,-1,-1,-1
837,210,1281.60,-0.54,442.29,1066.39,1,-1,-1,-1
837,211,951.13,217.25,137.07,426.41,1,-1,-1,-1
837,216,670.73,215.55,171.66,532.05,1,-1,-1,-1
837,217,38.98,-0.23,344.75,1043.96,1,-1,-1,-1
838,210,1286.89,-2.27,439.51,1061.01,1,-1,-1,-1
838,211,954.62,226.67,135.10,418.35,1,-1,-1,-1
838,216,669.29,210.79,174.33,548.35,1,-1,-1,-1
838,217,36.88,-0.98,347.44,1050.49,1,-1,-1,-1
839,210,1291.98,-2.70,434.87,1039.56,1,-1,-1,-1
839,211,963.01,229.86,133.31,412.81,1,-1,-1,-1
839,216,667.94,208.86,176.67,555.70,1,-1,-1,-1
839,217,33.95,-1.16,346.57,1048.06,1,-1,-1,-1
840,210,1292.51,-2.63,435.10,1031.03,1,-1,-1,-1
840,217,33.10,-1.14,346.09,1046.77,1,-1,-1,-1
841,210,1340.98,-2.42,439.93,1062.06,1,-1,-1,-1
841,216,549.47,195.89,229.18,703.40,1,-1,-1,-1
841,217,31.22,-1.05,351.32,1056.51,1,-1,-1,-1
842,210,1361.13,-2.23,437.10,1073.51,1,-1,-1,-1
842,216,528.05,193.68,242.03,727.81,1,-1,-1,-1
842,217,30.16,-0.95,354.30,1059.96,1,-1,-1,-1
843,210,1372.81,-5.78,440.07,1080.79,1,-1,-1,-1
843,211,962.81,208.62,146.97,462.48,1,-1,-1,-1
843,216,514.78,183.45,253.10,751.55,1,-1,-1,-1
843,217,19.46,-0.85,350.71,1053.78,1,-1,-1,-1
844,211,963.66,206.81,146.44,466.70,1,-1,-1,-1
844,216,509.07,179.44,258.89,760.44,1,-1,-1,-1
844,217,15.96,-0.75,348.45,1051.16,1,-1,-1,-1
845,211,968.03,206.40,147.06,468.70,1,-1,-1,-1
845,215,275.45,105.46,288.96,857.60,1,-1,-1,-1
845,216,513.91,177.96,270.50,790.01,1,-1,-1,-1
845,217,10.89,-1.94,349.96,1055.70,1,-1,-1,-1
846,215,268.44,100.74,290.98,866.36,1,-1,-1,-1
846,216,515.65,177.46,275.69,801.11,1,-1,-1,-1
847,211,966.94,206.77,145.51,453.72,1,-1,-1,-1
847,215,255.52,92.47,296.74,883.51,1,-1,-1,-1
847,216,496.01,165.88,286.40,812.45,1,-1,-1,-1
848,211,965.72,206.83,147.21,451.24,1,-1,-1,-1
848,216,486.89,161.44,293.82,816.27,1,-1,-1,-1
849,211,967.38,201.54,147.63,455.73,1,-1,-1,-1
849,215,292.58,78.43,304.93,910.64,1,-1,-1,-1
849,216,464.89,139.85,308.29,858.33,1,-1,-1,-1
849,219,646.00,177.00,190.00,508.00,1,-1,-1,-1
850,211,968.15,199.59,147.29,457.39,1,-1,-1,-1
850,215,299.62,76.10,305.74,915.11,1,-1,-1,-1
850,216,456.82,131.65,313.35,874.12,1,-1,-1,-1
850,219,646.00,177.00,190.00,508.00,1,-1,-1,-1
851,211,968.32,194.27,147.18,452.73,1,-1,-1,-1
851,215,313.75,85.68,300.32,899.78,1,-1,-1,-1
851,216,462.44,123.46,311.72,880.93,1,-1,-1,-1
852,211,967.94,192.29,147.78,450.93,1,-1,-1,-1
852,215,319.52,89.66,297.92,893.28,1,-1,-1,-1
852,216,466.09,120.46,308.75,882.88,1,-1,-1,-1
853,211,964.72,186.97,150.00,456.22,1,-1,-1,-1
853,215,273.93,80.91,307.71,924.40,1,-1,-1,-1
853,216,489.99,116.26,304.53,877.80,1,-1,-1,-1
854,211,963.32,185.02,151.08,458.20,1,-1,-1,-1
854,215,257.01,77.73,311.02,935.86,1,-1,-1,-1
854,216,500.18,114.85,301.44,875.19,1,-1,-1,-1
855,211,959.05,173.16,152.90,462.89,1,-1,-1,-1
855,215,232.29,71.52,310.06,931.39,1,-1,-1,-1
855,216,521.77,87.08,308.18,897.82,1,-1,-1,-1
856,211,957.32,168.74,153.73,464.64,1,-1,-1,-1
856,215,222.97,69.32,309.76,929.11,1,-1,-1,-1
856,216,530.35,76.68,310.05,906.07,1,-1,-1,-1
857,211,957.84,165.60,154.10,465.76,1,-1,-1,-1
857,215,195.45,68.03,318.89,950.77,1,-1,-1,-1
857,216,533.85,69.67,307.77,911.33,1,-1,-1,-1
858,215,184.86,67.68,323.23,958.68,1,-1,-1,-1
858,216,536.28,67.25,304.59,912.86,1,-1,-1,-1
859,211,949.29,142.21,152.47,460.42,1,-1,-1,-1
859,215,205.95,82.72,326.18,936.53,1,-1,-1,-1
859,216,507.88,47.00,320.74,960.03,1,-1,-1,-1
860,211,947.88,138.50,152.30,459.57,1,-1,-1,-1
860,215,212.20,88.75,332.14,927.44,1,-1,-1,-1
860,216,497.05,39.50,326.98,977.60,1,-1,-1,-1
861,211,945.01,119.99,158.35,477.20,1,-1,-1,-1
861,215,220.16,81.18,343.44,938.97,1,-1,-1,-1
861,216,481.08,38.17,330.90,989.73,1,-1,-1,-1
861,217,45.10,75.70,334.24,957.30,1,-1,-1,-1
862,211,943.91,113.28,160.68,483.68,1,-1,-1,-1
862,215,221.44,78.39,351.38,943.11,1,-1,-1,-1
862,216,475.04,37.97,332.16,993.89,1,-1,-1,-1
862,217,41.07,77.74,344.65,954.34,1,-1,-1,-1
863,211,943.13,107.02,161.55,486.28,1,-1,-1,-1
863,215,218.13,76.26,353.63,949.15,1,-1,-1,-1
863,216,446.63,46.63,338.15,983.22,1,-1,-1,-1
863,217,42.79,81.59,343.00,949.77,1,-1,-1,-1
864,216,433.44,50.26,345.14,978.52,1,-1,-1,-1
865,211,954.57,113.35,157.88,475.16,1,-1,-1,-1
865,216,417.30,48.55,353.32,985.51,1,-1,-1,-1
865,217,4.22,16.61,363.23,1019.41,1,-1,-1,-1
866,211,956.43,114.47,157.28,473.32,1,-1,-1,-1
866,216,409.92,48.06,359.34,987.83,1,-1,-1,-1
866,217,0.10,7.19,363.15,1029.50,1,-1,-1,-1
867,211,956.54,123.48,157.46,476.01,1,-1,-1,-1
867,216,316.67,15.24,385.59,1044.09,1,-1,-1,-1
867,217,-3.81,1.70,365.12,1035.08,1,-1,-1,-1
868,211,956.74,126.93,157.16,476.99,1,-1,-1,-1
868,216,280.18,2.99,398.66,1065.04,1,-1,-1,-1
869,211,959.05,128.33,158.46,478.64,1,-1,-1,-1
869,216,259.26,-1.56,412.81,1066.91,1,-1,-1,-1
870,211,959.72,128.93,159.32,479.23,1,-1,-1,-1
870,216,248.39,-3.02,425.02,1067.04,1,-1,-1,-1
871,211,959.91,131.85,157.06,467.54,1,-1,-1,-1
871,216,222.57,-3.32,434.28,1053.53,1,-1,-1,-1
872,211,959.55,133.02,156.99,463.05,1,-1,-1,-1
872,216,209.61,-3.17,445.11,1047.86,1,-1,-1,-1
873,211,953.33,140.80,159.77,472.04,1,-1,-1,-1
873,216,182.71,-2.89,459.41,1063.80,1,-1,-1,-1
873,220,804.00,174.00,163.00,436.00,1,-1,-1,-1
874,211,951.08,143.69,160.66,475.40,1,-1,-1,-1
874,216,171.04,-2.63,468.75,1069.57,1,-1,-1,-1
874,220,804.00,174.00,163.00,436.00,1,-1,-1,-1
875,211,952.85,153.34,159.71,474.69,1,-1,-1,-1
875,216,119.17,-2.35,502.71,1125.17,1,-1,-1,-1
876,211,953.71,156.98,158.98,474.39,1,-1,-1,-1
876,216,97.27,-2.16,520.83,1145.93,1,-1,-1,-1
877,211,957.82,172.16,149.17,445.86,1,-1,-1,-1
877,216,75.81,8.44,526.46,1143.18,1,-1,-1,-1
877,221,671.00,153.00,153.00,472.00,1,-1,-1,-1
878,211,959.45,177.87,145.29,434.89,1,-1,-1,-1
878,216,66.51,12.70,531.90,1141.51,1,-1,-1,-1
878,221,671.00,153.00,153.00,472.00,1,-1,-1,-1
879,211,956.24,198.68,141.40,424.98,1,-1,-1,-1
879,216,45.43,3.93,542.05,1147.62,1,-1,-1,-1
880,211,955.19,206.14,139.72,421.51,1,-1,-1,-1
880,216,36.10,0.64,549.58,1149.56,1,-1,-1,-1
881,211,952.96,175.75,148.23,445.25,1,-1,-1,-1
881,216,19.56,-1.57,554.21,1159.23,1,-1,-1,-1
881,222,547.00,131.00,172.00,501.00,1,-1,-1,-1
882,211,951.97,164.64,151.71,453.93,1,-1,-1,-1
882,222,547.00,131.00,172.00,501.00,1,-1,-1,-1
883,211,946.76,170.12,151.60,451.43,1,-1,-1,-1
883,217,533.01,150.81,186.65,527.06,1,-1,-1,-1
884,211,944.59,172.22,151.94,450.45,1,-1,-1,-1
884,217,543.33,154.50,183.45,516.75,1,-1,-1,-1
885,211,942.88,169.68,151.94,446.13,1,-1,-1,-1
885,217,543.64,155.88,178.94,501.73,1,-1,-1,-1
885,223,811.00,141.00,175.00,452.00,1,-1,-1,-1
886,211,941.89,168.70,152.71,444.50,1,-1,-1,-1
886,217,541.92,155.89,178.37,498.44,1,-1,-1,-1
886,223,811.00,141.00,175.00,452.00,1,-1,-1,-1
887,211,940.97,168.93,152.45,443.76,1,-1,-1,-1
887,217,523.30,152.72,185.95,521.63,1,-1,-1,-1
887,223,808.86,169.84,168.37,435.63,1,-1,-1,-1
888,217,516.82,151.54,188.33,529.93,1,-1,-1,-1
888,223,808.32,178.84,166.04,430.53,1,-1,-1,-1
889,217,511.50,154.42,183.65,515.54,1,-1,-1,-1
889,223,807.45,189.72,163.66,424.35,1,-1,-1,-1
890,217,509.23,155.39,182.20,510.49,1,-1,-1,-1
891,217,510.74,157.08,180.06,504.49,1,-1,-1,-1
891,223,804.64,181.63,166.27,434.06,1,-1,-1,-1
891,224,679.00,185.00,156.00,413.00,1,-1,-1,-1
892,211,701.99,184.00,144.43,414.83,1,-1,-1,-1
892,223,804.77,181.29,165.42,434.86,1,-1,-1,-1
893,211,680.67,197.88,144.43,406.30,1,-1,-1,-1
893,217,401.67,164.40,199.99,558.93,1,-1,-1,-1
893,223,807.81,187.22,163.99,433.80,1,-1,-1,-1
894,211,673.01,202.23,145.92,403.61,1,-1,-1,-1
894,217,386.09,165.53,203.05,566.33,1,-1,-1,-1
894,223,809.26,189.20,162.88,433.47,1,-1,-1,-1
895,211,663.67,196.35,152.89,419.50,1,-1,-1,-1
895,217,365.56,160.64,210.04,589.38,1,-1,-1,-1
895,223,808.08,195.13,159.90,430.05,1,-1,-1,-1
896,211,660.38,194.13,156.10,425.38,1,-1,-1,-1
896,217,358.45,158.75,212.01,597.99,1,-1,-1,-1
896,223,808.14,197.15,157.85,428.83,1,-1,-1,-1
897,211,644.23,195.52,156.02,425.15,1,-1,-1,-1
897,217,345.55,159.74,213.89,603.30,1,-1,-1,-1
897,223,807.58,201.23,157.29,427.31,1,-1,-1,-1
